%!PS-Adobe-3.0 EPSF-3.0
%%Creator: MATLAB, The MathWorks, Inc. Version 8.0.0.783 (R2012b). Operating System: Darwin 12.5.0 Darwin Kernel Version 12.5.0: Sun Sep 29 13:33:47 PDT 2013; root:xnu-2050.48.12~1/RELEASE_X86_64 x86_64.
%%Title: figs/estimated_speed_from_accel_integration.eps
%%CreationDate: 12/12/2013  22:06:09
%%DocumentNeededFonts: Helvetica
%%DocumentProcessColors: Cyan Magenta Yellow Black
%%LanguageLevel: 2
%%Pages: 1
%%BoundingBox:   -45   232   663   552
%%EndComments

%%BeginProlog
% MathWorks dictionary
/MathWorks 160 dict begin
% definition operators
/bdef {bind def} bind def
/ldef {load def} bind def
/xdef {exch def} bdef
/xstore {exch store} bdef
% operator abbreviations
/c  /clip ldef
/cc /concat ldef
/cp /closepath ldef
/gr /grestore ldef
/gs /gsave ldef
/mt /moveto ldef
/np /newpath ldef
/cm /currentmatrix ldef
/sm /setmatrix ldef
/rm /rmoveto ldef
/rl /rlineto ldef
/s {show newpath} bdef
/sc {setcmykcolor} bdef
/sr /setrgbcolor ldef
/sg /setgray ldef
/w /setlinewidth ldef
/j /setlinejoin ldef
/cap /setlinecap ldef
/rc {rectclip} bdef
/rf {rectfill} bdef
% page state control
/pgsv () def
/bpage {/pgsv save def} bdef
/epage {pgsv restore} bdef
/bplot /gsave ldef
/eplot {stroke grestore} bdef
% orientation switch
/portraitMode 0 def /landscapeMode 1 def /rotateMode 2 def
% coordinate system mappings
/dpi2point 0 def
% font control
/FontSize 0 def
/FMS {/FontSize xstore findfont [FontSize 0 0 FontSize neg 0 0]
  makefont setfont} bdef
/reencode {exch dup where {pop load} {pop StandardEncoding} ifelse
  exch dup 3 1 roll findfont dup length dict begin
  { 1 index /FID ne {def}{pop pop} ifelse } forall
  /Encoding exch def currentdict end definefont pop} bdef
/isroman {findfont /CharStrings get /Agrave known} bdef
/FMSR {3 1 roll 1 index dup isroman {reencode} {pop pop} ifelse
  exch FMS} bdef
/csm {1 dpi2point div -1 dpi2point div scale neg translate
 dup landscapeMode eq {pop -90 rotate}
  {rotateMode eq {90 rotate} if} ifelse} bdef
% line types: solid, dotted, dashed, dotdash
/SO { [] 0 setdash } bdef
/DO { [.5 dpi2point mul 4 dpi2point mul] 0 setdash } bdef
/DA { [6 dpi2point mul] 0 setdash } bdef
/DD { [.5 dpi2point mul 4 dpi2point mul 6 dpi2point mul 4
  dpi2point mul] 0 setdash } bdef
% macros for lines and objects
/L {lineto stroke} bdef
/MP {3 1 roll moveto 1 sub {rlineto} repeat} bdef
/AP {{rlineto} repeat} bdef
/PDlw -1 def
/W {/PDlw currentlinewidth def setlinewidth} def
/PP {closepath eofill} bdef
/DP {closepath stroke} bdef
/MR {4 -2 roll moveto dup  0 exch rlineto exch 0 rlineto
  neg 0 exch rlineto closepath} bdef
/FR {MR stroke} bdef
/PR {MR fill} bdef
/L1i {{currentfile picstr readhexstring pop} image} bdef
/tMatrix matrix def
/MakeOval {newpath tMatrix currentmatrix pop translate scale
0 0 1 0 360 arc tMatrix setmatrix} bdef
/FO {MakeOval stroke} bdef
/PO {MakeOval fill} bdef
/PD {currentlinewidth 2 div 0 360 arc fill
   PDlw -1 eq not {PDlw w /PDlw -1 def} if} def
/FA {newpath tMatrix currentmatrix pop translate scale
  0 0 1 5 -2 roll arc tMatrix setmatrix stroke} bdef
/PA {newpath tMatrix currentmatrix pop	translate 0 0 moveto scale
  0 0 1 5 -2 roll arc closepath tMatrix setmatrix fill} bdef
/FAn {newpath tMatrix currentmatrix pop translate scale
  0 0 1 5 -2 roll arcn tMatrix setmatrix stroke} bdef
/PAn {newpath tMatrix currentmatrix pop translate 0 0 moveto scale
  0 0 1 5 -2 roll arcn closepath tMatrix setmatrix fill} bdef
/vradius 0 def /hradius 0 def /lry 0 def
/lrx 0 def /uly 0 def /ulx 0 def /rad 0 def
/MRR {/vradius xdef /hradius xdef /lry xdef /lrx xdef /uly xdef
  /ulx xdef newpath tMatrix currentmatrix pop ulx hradius add uly
  vradius add translate hradius vradius scale 0 0 1 180 270 arc 
  tMatrix setmatrix lrx hradius sub uly vradius add translate
  hradius vradius scale 0 0 1 270 360 arc tMatrix setmatrix
  lrx hradius sub lry vradius sub translate hradius vradius scale
  0 0 1 0 90 arc tMatrix setmatrix ulx hradius add lry vradius sub
  translate hradius vradius scale 0 0 1 90 180 arc tMatrix setmatrix
  closepath} bdef
/FRR {MRR stroke } bdef
/PRR {MRR fill } bdef
/MlrRR {/lry xdef /lrx xdef /uly xdef /ulx xdef /rad lry uly sub 2 div def
  newpath tMatrix currentmatrix pop ulx rad add uly rad add translate
  rad rad scale 0 0 1 90 270 arc tMatrix setmatrix lrx rad sub lry rad
  sub translate rad rad scale 0 0 1 270 90 arc tMatrix setmatrix
  closepath} bdef
/FlrRR {MlrRR stroke } bdef
/PlrRR {MlrRR fill } bdef
/MtbRR {/lry xdef /lrx xdef /uly xdef /ulx xdef /rad lrx ulx sub 2 div def
  newpath tMatrix currentmatrix pop ulx rad add uly rad add translate
  rad rad scale 0 0 1 180 360 arc tMatrix setmatrix lrx rad sub lry rad
  sub translate rad rad scale 0 0 1 0 180 arc tMatrix setmatrix
  closepath} bdef
/FtbRR {MtbRR stroke } bdef
/PtbRR {MtbRR fill } bdef
/stri 6 array def /dtri 6 array def
/smat 6 array def /dmat 6 array def
/tmat1 6 array def /tmat2 6 array def /dif 3 array def
/asub {/ind2 exch def /ind1 exch def dup dup
  ind1 get exch ind2 get sub exch } bdef
/tri_to_matrix {
  2 0 asub 3 1 asub 4 0 asub 5 1 asub
  dup 0 get exch 1 get 7 -1 roll astore } bdef
/compute_transform {
  dmat dtri tri_to_matrix tmat1 invertmatrix 
  smat stri tri_to_matrix tmat2 concatmatrix } bdef
/ds {stri astore pop} bdef
/dt {dtri astore pop} bdef
/db {2 copy /cols xdef /rows xdef mul dup 3 mul string
  currentfile 
  3 index 0 eq {/ASCIIHexDecode filter}
  {/ASCII85Decode filter 3 index 2 eq {/RunLengthDecode filter} if }
  ifelse exch readstring pop
  dup 0 3 index getinterval /rbmap xdef
  dup 2 index dup getinterval /gbmap xdef
  1 index dup 2 mul exch getinterval /bbmap xdef pop pop}bdef
/it {gs np dtri aload pop moveto lineto lineto cp c
  cols rows 8 compute_transform 
  rbmap gbmap bbmap true 3 colorimage gr}bdef
/il {newpath moveto lineto stroke}bdef
currentdict end def
%%EndProlog

%%BeginSetup
MathWorks begin

0 cap

end
%%EndSetup

%%Page: 1 1
%%BeginPageSetup
%%PageBoundingBox:   -45   232   663   552
MathWorks begin
bpage
%%EndPageSetup

%%BeginObject: obj1
bplot

/dpi2point 1.01389 def
portraitMode -0121 0573 csm

   76    14   718   324 rc
85 dict begin %Colortable dictionary
/c0 { 0.000000 0.000000 0.000000 sr} bdef
/c1 { 1.000000 1.000000 1.000000 sr} bdef
/c2 { 0.900000 0.000000 0.000000 sr} bdef
/c3 { 0.000000 0.820000 0.000000 sr} bdef
/c4 { 0.000000 0.000000 0.800000 sr} bdef
/c5 { 0.910000 0.820000 0.320000 sr} bdef
/c6 { 1.000000 0.260000 0.820000 sr} bdef
/c7 { 0.000000 0.820000 0.820000 sr} bdef
c0
1 j
1 sg
   0    0  864  347 rf
0.506944 w
0 282 669 0 0 -282 112 308 4 MP
PP
-669 0 0 282 669 0 0 -282 112 308 5 MP stroke
0.337963 w
DO
0 sg
 112  308 mt  112   26 L
 112   26 mt  112   26 L
 207  308 mt  207   26 L
 207   26 mt  207   26 L
 303  308 mt  303   26 L
 303   26 mt  303   26 L
 398  308 mt  398   26 L
 398   26 mt  398   26 L
 494  308 mt  494   26 L
 494   26 mt  494   26 L
 589  308 mt  589   26 L
 589   26 mt  589   26 L
 685  308 mt  685   26 L
 685   26 mt  685   26 L
 781  308 mt  781   26 L
 781   26 mt  781   26 L
 112  308 mt  781  308 L
 781  308 mt  781  308 L
 112  251 mt  781  251 L
 781  251 mt  781  251 L
 112  195 mt  781  195 L
 781  195 mt  781  195 L
 112  138 mt  781  138 L
 781  138 mt  781  138 L
 112   82 mt  781   82 L
 781   82 mt  781   82 L
 112   26 mt  781   26 L
 781   26 mt  781   26 L
SO
0.506944 w
 112  308 mt  781  308 L
 112   26 mt  781   26 L
 112  308 mt  112   26 L
 781  308 mt  781   26 L
 112  308 mt  781  308 L
 112  308 mt  112   26 L
 112  308 mt  112  301 L
 112   26 mt  112   32 L
%%IncludeResource: font Helvetica
/Helvetica /ISOLatin1Encoding 10.1389 FMSR

 110  319 mt 
(0) s
 207  308 mt  207  301 L
 207   26 mt  207   32 L
 199  319 mt 
(100) s
 303  308 mt  303  301 L
 303   26 mt  303   32 L
 295  319 mt 
(200) s
 398  308 mt  398  301 L
 398   26 mt  398   32 L
 390  319 mt 
(300) s
 494  308 mt  494  301 L
 494   26 mt  494   32 L
 486  319 mt 
(400) s
 589  308 mt  589  301 L
 589   26 mt  589   32 L
 581  319 mt 
(500) s
 685  308 mt  685  301 L
 685   26 mt  685   32 L
 677  319 mt 
(600) s
 781  308 mt  781  301 L
 781   26 mt  781   32 L
 773  319 mt 
(700) s
 112  308 mt  118  308 L
 781  308 mt  774  308 L
 104  311 mt 
(0) s
 112  251 mt  118  251 L
 781  251 mt  774  251 L
 104  254 mt 
(5) s
 112  195 mt  118  195 L
 781  195 mt  774  195 L
  98  198 mt 
(10) s
 112  138 mt  118  138 L
 781  138 mt  774  138 L
  98  141 mt 
(15) s
 112   82 mt  118   82 L
 781   82 mt  774   82 L
  98   85 mt 
(20) s
 112   26 mt  118   26 L
 781   26 mt  774   26 L
  98   29 mt 
(25) s
 112  308 mt  781  308 L
 112   26 mt  781   26 L
 112  308 mt  112   26 L
 781  308 mt  781   26 L
gs 112 26 670 283 rc
2.02778 w
/c8 { 1.000000 0.000000 0.000000 sr} bdef
c8
1 1 1 12 1 22 1 5 1 3 1 7 1 8 1 -17 
1 -18 1 1 1 -13 1 -30 1 -29 1 1 1 8 1 -1 
0 15 1 28 1 27 1 11 1 -1 1 -7 1 -13 1 -14 
1 -17 1 -19 1 9 1 -12 1 -3 1 30 1 35 1 13 
1 -1 1 -4 1 5 1 0 1 -9 1 -5 0 3 1 0 
1 -15 1 -9 1 -18 1 -15 1 -2 1 20 1 25 1 11 
1 -13 1 -19 1 -8 1 -13 1 -21 1 3 1 22 1 33 
1 16 1 6 1 -1 1 0 1 1 0 5 1 13 1 14 
1 9 1 -19 1 -36 1 -28 1 -64 1 -31 1 -16 1 0 
1 2 1 25 1 29 1 23 1 4 1 8 1 -1 1 -7 
1 -12 1 -26 1 -19 0 11 1 16 1 0 1 -8 1 -16 
1 -29 1 0 1 0 1 17 1 53 1 23 1 5 1 12 
1 19 1 4 1 1 1 2 1 -4 1 -17 1 -22 1 -42 
1 -38 1 -13 1 0 1 0 1 0 1 0 1 0 1 0 
1 0 1 0 1 0 1 0 1 0 1 0 1 0 1 0 
1 0 1 0 1 0 1 0 1 0 1 0 1 0 1 0 
1 0 1 0 1 0 1 0 1 0 1 2 1 0 1 1 
1 3 1 3 1 2 1 5 1 8 1 7 1 -12 1 -19 
1 0 1 0 1 2 1 -2 1 0 1 0 1 10 1 3 
1 16 1 40 1 32 1 7 1 2 1 -4 1 -7 1 -22 
1 -32 1 -34 1 0 1 -3 1 -8 1 0 1 0 1 0 
1 0 1 0 1 0 1 0 1 0 1 0 1 0 1 0 
1 0 1 0 1 0 1 0 1 1 1 0 1 2 1 -1 
1 1 1 3 1 9 1 3 1 9 1 -14 1 -2 1 -11 
1 0 1 59 1 13 1 17 1 14 1 13 1 2 1 10 
1 21 1 19 1 20 1 7 1 8 1 2 1 2 1 -5 
1 -19 1 -37 1 -56 1 -28 1 -29 1 -12 0 -18 1 -3 
1 0 1 0 1 0 1 0 1 0 1 0 1 1 1 7 
1 29 1 33 1 6 1 0 1 -2 1 -5 1 -13 1 -15 
1 -20 1 -3 1 -18 1 0 1 0 1 26 1 0 1 -19 
1 -6 1 -1 1 0 1 0 1 0 1 0 1 0 1 0 
1 0 1 0 1 0 1 0 1 0 1 0 1 0 1 0 
1 0 1 0 1 0 1 0 1 0 1 0 1 0 1 0 
1 0 1 0 1 0 1 0 1 0 1 0 1 0 1 0 
1 0 1 1 1 -1 1 2 1 -1 1 2 1 0 1 1 
1 1 1 9 1 -1 1 -2 1 -9 1 9 1 35 1 3 
1 -6 1 16 1 24 1 17 1 0 1 5 1 7 1 9 
1 14 1 -12 1 -14 417 199 300 MP stroke
1 -4 1 13 0 14 1 4 1 7 1 9 1 -3 1 -5 
1 -5 1 -3 1 -5 1 -6 1 0 1 2 1 -1 1 -34 
1 -19 1 -13 1 -32 1 -19 1 -9 1 0 1 0 1 0 
1 0 1 21 1 17 1 -7 1 -4 1 21 1 51 1 25 
1 -23 1 -5 1 -30 1 -40 1 -21 1 -3 1 1 1 1 
1 3 1 -7 1 2 1 3 1 -1 1 -1 0 9 1 -12 
1 1 1 18 1 -10 1 -7 1 -2 1 0 1 0 1 16 
1 30 1 28 1 4 1 -25 1 -28 1 -12 1 -12 1 -1 
1 0 1 0 1 0 1 0 1 0 1 0 1 2 1 1 
1 2 1 2 1 4 1 2 1 8 1 -7 1 -13 1 5 
1 7 1 -13 1 0 1 0 1 0 1 16 1 -3 1 -1 
1 1 1 -9 1 -4 0 9 1 22 1 21 1 21 1 14 
1 21 1 21 1 13 1 1 1 -4 1 -3 1 -9 1 -30 
1 -54 1 -34 1 -9 1 0 1 0 1 0 1 0 1 0 
1 0 1 0 1 0 1 0 1 0 1 0 1 0 1 1 
1 0 1 1 1 1 1 2 1 1 1 17 1 5 1 -15 
1 1 1 2 1 -16 1 0 1 0 1 0 1 35 0 26 
1 14 1 -9 1 7 1 -4 1 12 1 22 1 -3 1 -13 
1 7 1 11 1 1 1 2 1 -14 1 -42 1 -37 1 -15 
1 0 1 0 1 0 1 0 1 0 1 0 1 0 1 0 
1 0 1 0 1 0 1 0 1 0 1 0 1 0 1 0 
1 0 1 0 1 1 1 0 1 2 1 2 1 4 1 13 
1 6 1 -11 1 -5 0 -12 1 0 1 0 1 0 1 0 
1 1 1 11 1 7 1 11 1 5 1 10 1 -7 1 -4 
1 -3 1 1 1 -1 1 8 1 11 1 3 1 -11 1 -1 
1 11 0 12 1 18 1 24 1 11 1 2 1 3 1 -2 
1 2 1 2 1 -13 1 -33 1 -48 1 -29 1 -1 1 0 
1 0 1 0 1 0 1 0 1 0 1 0 1 0 1 0 
1 2 1 2 1 2 1 0 1 11 1 3 1 -4 1 -8 
1 -8 1 0 1 0 1 0 1 0 1 10 1 41 1 35 
1 33 1 12 1 6 1 -5 1 -6 1 -18 0 -45 1 -45 
1 -18 1 0 1 0 1 0 1 0 1 0 1 0 1 1 
1 -1 1 3 1 -1 1 3 1 3 1 3 1 3 1 10 
1 12 1 13 1 -20 1 -29 1 12 1 39 1 32 1 15 
1 13 1 6 1 16 1 12 1 -10 1 -4 1 20 1 26 
1 29 1 -6 1 -17 1 -7 1 -5 1 4 1 7 1 10 
1 13 1 20 0 -2 1 -22 1 -18 1 -38 1 -23 1 -30 
1 -33 1 -23 1 -36 126 308 300 MP stroke
1 0 1 0 1 0 1 0 1 9 1 13 1 4 1 -15 
1 -5 1 -5 1 -1 1 0 1 0 1 0 112 308 15 MP stroke
0 sg
1 65 1 -6 1 3 1 14 1 5 1 -4 0 -4 1 6 
1 -7 1 -14 1 5 1 -7 1 12 1 -6 1 2 1 13 
1 5 1 16 1 21 1 3 1 28 1 -30 1 -4 1 -5 
1 -21 1 -2 1 -41 1 19 0 -14 1 -9 1 10 1 50 
1 25 1 -3 1 -9 1 20 1 4 1 5 1 -3 1 13 
1 -8 1 -5 1 -12 1 -5 1 7 1 -2 1 4 1 4 
1 10 1 -4 1 -9 0 -6 1 -5 1 -2 1 -10 1 6 
1 9 1 9 1 -10 1 -9 1 -21 1 5 1 3 1 -28 
1 -21 1 -9 1 3 1 0 1 -30 1 -15 1 3 1 1 
1 23 1 17 0 49 1 14 1 6 1 18 1 1 1 18 
1 -14 1 -1 1 -1 1 -19 1 -7 1 18 1 7 1 3 
1 -2 1 -22 1 16 1 -9 1 17 1 -23 1 24 1 1 
0 4 1 -13 1 -3 1 -11 1 -17 1 -11 1 -16 1 -16 
1 -22 1 -23 1 -13 1 -1 1 -1 1 1 1 0 1 0 
1 0 1 0 1 0 1 0 1 0 1 0 1 0 1 0 
1 0 1 0 1 0 1 0 1 0 1 0 1 0 1 0 
1 -1 1 0 1 1 1 0 1 0 1 1 1 0 1 3 
1 0 1 0 1 -1 1 0 -1 0 2 0 1 -3 1 -1 
1 6 1 -6 1 10 1 27 1 11 1 4 1 15 1 17 
1 7 1 6 1 -1 1 0 1 23 1 -2 1 -6 1 -16 
1 4 1 -30 1 -1 0 -28 1 -9 1 -17 1 -11 1 -3 
1 1 1 0 1 0 1 -1 1 1 1 0 1 0 1 0 
1 0 1 0 1 -1 1 1 1 0 1 0 1 0 1 1 
1 0 -1 0 2 1 1 1 1 -2 1 1 1 0 1 -1 
1 -1 1 2 1 -3 1 9 1 23 1 21 1 13 1 17 
1 8 1 21 1 5 1 13 1 1 1 1 1 8 1 -4 
0 -7 1 -6 1 -7 1 22 1 -63 1 -14 1 5 1 -25 
1 -20 1 -13 1 -1 1 11 1 8 1 15 1 3 1 25 
1 20 1 11 1 -7 1 11 1 3 1 4 1 5 0 18 
1 -22 1 -39 1 -25 1 -10 1 -16 1 -5 1 -2 1 -2 
1 -1 1 -1 1 3 1 11 1 -3 1 -19 1 -3 1 1 
1 0 1 0 1 0 1 0 1 0 1 0 1 0 1 0 
1 0 1 -1 1 1 1 0 1 0 1 0 1 0 1 -1 
1 1 1 0 1 0 1 0 1 0 1 0 1 0 1 0 
1 0 1 0 1 0 1 0 1 0 1 0 1 0 1 0 
1 0 1 0 1 1 1 -2 1 3 1 -1 1 -1 1 0 
1 1 1 -2 1 9 1 3 1 17 1 3 1 18 1 -3 
0 31 1 15 1 -2 424 217 300 MP stroke
1 2 1 12 1 1 1 7 1 1 1 -12 1 -5 1 6 
1 4 1 -5 1 -4 1 1 1 -11 1 -6 1 34 1 -63 
1 -4 1 1 1 -30 1 12 0 13 1 -22 1 -12 1 -10 
1 0 1 1 1 -2 1 20 1 42 1 -4 1 17 1 9 
1 11 1 -1 1 -1 1 -7 1 -6 1 3 1 34 1 -40 
1 -21 1 -38 1 -11 0 -7 1 2 1 0 1 1 1 -1 
1 0 1 -1 1 0 1 2 1 -1 1 2 1 3 1 5 
1 -8 1 0 1 4 1 3 1 22 1 6 1 6 1 2 
1 1 1 -14 1 -8 1 -15 1 -8 1 -2 1 0 1 -1 
1 1 1 0 1 0 1 1 1 0 1 -1 1 -1 1 2 
1 0 1 0 1 0 1 2 1 0 1 -2 1 0 0 16 
1 9 1 8 1 14 1 15 1 6 1 11 1 3 1 5 
1 5 1 8 1 0 1 0 1 8 1 16 1 1 1 -4 
1 -8 1 11 1 -14 1 -18 1 -18 0 -13 1 -13 1 -23 
1 -23 1 -4 1 1 1 0 1 0 1 0 1 -1 1 1 
1 0 1 0 1 0 1 0 1 2 1 0 1 0 1 2 
1 2 1 -4 1 -1 1 1 0 -2 1 5 1 -4 1 11 
1 -4 1 6 1 6 1 18 1 -2 1 52 1 -5 1 29 
1 4 1 -1 1 -3 1 -5 1 -8 1 5 1 -2 1 -21 
1 -6 1 1 0 -2 1 -13 1 2 1 -39 1 -16 1 -7 
1 -2 1 0 1 1 1 0 1 0 1 0 1 0 1 -1 
1 1 1 0 1 0 1 0 1 0 1 -1 1 1 1 0 
1 1 1 0 1 -2 1 3 1 0 1 1 1 -3 1 1 
1 -2 1 3 1 1 1 5 1 11 1 24 1 10 1 21 
1 13 1 8 1 23 1 5 1 10 1 12 1 1 0 -6 
1 6 1 1 1 12 1 -1 1 12 1 -13 1 7 1 -1 
1 3 1 -13 1 -2 1 -23 1 -9 1 3 1 33 1 114 
1 -163 1 -25 1 -53 1 1 1 -10 0 -16 1 -3 1 0 
1 0 1 0 1 0 1 0 1 0 1 0 1 0 1 1 
1 0 1 5 1 -4 1 0 1 3 1 1 1 6 1 12 
1 -1 1 -23 1 28 1 13 0 4 1 21 1 20 1 5 
1 7 1 12 1 -5 1 -12 1 -6 1 -13 1 -26 1 -10 
1 -25 1 -12 1 -2 1 1 1 0 1 0 1 0 1 1 
1 1 1 3 0 1 1 -1 1 0 1 1 1 1 1 -1 
1 -1 1 -2 1 3 1 -5 1 4 1 1 1 33 1 33 
1 14 1 9 1 11 1 -5 1 8 1 -13 1 22 1 -32 
1 -24 0 9 1 113 1 -97 1 -29 1 -2 1 -3 1 5 
1 0 1 0 1 0 136 249 300 MP stroke
1 -12 1 -10 1 4 1 -12 1 -9 1 -9 1 4 1 20 
1 9 1 -19 1 27 1 -4 1 -22 1 140 0 -64 1 162 
1 -240 1 30 1 14 1 -66 1 70 1 29 1 -78 1 -23 
1 0 112 308 26 MP stroke
gr

2.02778 w
%%IncludeResource: font Helvetica
/Helvetica /ISOLatin1Encoding 12.1667 FMSR

 416  333 mt 
(Time \(sec\)) s
  90  203 mt  -90 rotate
(Speed \(mps\)) s
90 rotate
%%IncludeResource: font Helvetica
/Helvetica /ISOLatin1Encoding 10.1389 FMSR

 111  313 mt 
( ) s
 781   30 mt 
( ) s
0.506944 w
1 sg
0 30 122 0 0 -30 655 62 4 MP
PP
-122 0 0 30 122 0 0 -30 655 62 5 MP stroke
0.337963 w
DO
SO
0.506944 w
0 sg
 655   62 mt  777   62 L
 655   32 mt  777   32 L
 655   62 mt  655   32 L
 777   62 mt  777   32 L
 655   62 mt  777   62 L
 655   62 mt  655   32 L
 655   62 mt  777   62 L
 655   32 mt  777   32 L
 655   62 mt  655   32 L
 777   62 mt  777   32 L
 693   45 mt 
(Estimated Speed) s
gs 655 32 123 31 rc
2.02778 w
c8
30 0 660 40 2 MP stroke
gr

2.02778 w
c8
0 sg
 693   58 mt 
(True Speed) s
gs 655 32 123 31 rc
30 0 660 53 2 MP stroke
0.506944 w
gr

0.506944 w

end %%Color Dict

eplot
%%EndObject

epage
end

showpage

%%Trailer
%%EOF
