%!PS-Adobe-3.0 EPSF-3.0
%%Creator: MATLAB, The MathWorks, Inc. Version 8.0.0.783 (R2012b). Operating System: Darwin 12.5.0 Darwin Kernel Version 12.5.0: Sun Sep 29 13:33:47 PDT 2013; root:xnu-2050.48.12~1/RELEASE_X86_64 x86_64.
%%Title: figs/example_accel.eps
%%CreationDate: 11/26/2013  04:30:00
%%DocumentNeededFonts: Helvetica
%%DocumentProcessColors: Cyan Magenta Yellow Black
%%LanguageLevel: 2
%%Pages: 1
%%BoundingBox:     2   295   580   509
%%EndComments

%%BeginProlog
% MathWorks dictionary
/MathWorks 160 dict begin
% definition operators
/bdef {bind def} bind def
/ldef {load def} bind def
/xdef {exch def} bdef
/xstore {exch store} bdef
% operator abbreviations
/c  /clip ldef
/cc /concat ldef
/cp /closepath ldef
/gr /grestore ldef
/gs /gsave ldef
/mt /moveto ldef
/np /newpath ldef
/cm /currentmatrix ldef
/sm /setmatrix ldef
/rm /rmoveto ldef
/rl /rlineto ldef
/s {show newpath} bdef
/sc {setcmykcolor} bdef
/sr /setrgbcolor ldef
/sg /setgray ldef
/w /setlinewidth ldef
/j /setlinejoin ldef
/cap /setlinecap ldef
/rc {rectclip} bdef
/rf {rectfill} bdef
% page state control
/pgsv () def
/bpage {/pgsv save def} bdef
/epage {pgsv restore} bdef
/bplot /gsave ldef
/eplot {stroke grestore} bdef
% orientation switch
/portraitMode 0 def /landscapeMode 1 def /rotateMode 2 def
% coordinate system mappings
/dpi2point 0 def
% font control
/FontSize 0 def
/FMS {/FontSize xstore findfont [FontSize 0 0 FontSize neg 0 0]
  makefont setfont} bdef
/reencode {exch dup where {pop load} {pop StandardEncoding} ifelse
  exch dup 3 1 roll findfont dup length dict begin
  { 1 index /FID ne {def}{pop pop} ifelse } forall
  /Encoding exch def currentdict end definefont pop} bdef
/isroman {findfont /CharStrings get /Agrave known} bdef
/FMSR {3 1 roll 1 index dup isroman {reencode} {pop pop} ifelse
  exch FMS} bdef
/csm {1 dpi2point div -1 dpi2point div scale neg translate
 dup landscapeMode eq {pop -90 rotate}
  {rotateMode eq {90 rotate} if} ifelse} bdef
% line types: solid, dotted, dashed, dotdash
/SO { [] 0 setdash } bdef
/DO { [.5 dpi2point mul 4 dpi2point mul] 0 setdash } bdef
/DA { [6 dpi2point mul] 0 setdash } bdef
/DD { [.5 dpi2point mul 4 dpi2point mul 6 dpi2point mul 4
  dpi2point mul] 0 setdash } bdef
% macros for lines and objects
/L {lineto stroke} bdef
/MP {3 1 roll moveto 1 sub {rlineto} repeat} bdef
/AP {{rlineto} repeat} bdef
/PDlw -1 def
/W {/PDlw currentlinewidth def setlinewidth} def
/PP {closepath eofill} bdef
/DP {closepath stroke} bdef
/MR {4 -2 roll moveto dup  0 exch rlineto exch 0 rlineto
  neg 0 exch rlineto closepath} bdef
/FR {MR stroke} bdef
/PR {MR fill} bdef
/L1i {{currentfile picstr readhexstring pop} image} bdef
/tMatrix matrix def
/MakeOval {newpath tMatrix currentmatrix pop translate scale
0 0 1 0 360 arc tMatrix setmatrix} bdef
/FO {MakeOval stroke} bdef
/PO {MakeOval fill} bdef
/PD {currentlinewidth 2 div 0 360 arc fill
   PDlw -1 eq not {PDlw w /PDlw -1 def} if} def
/FA {newpath tMatrix currentmatrix pop translate scale
  0 0 1 5 -2 roll arc tMatrix setmatrix stroke} bdef
/PA {newpath tMatrix currentmatrix pop	translate 0 0 moveto scale
  0 0 1 5 -2 roll arc closepath tMatrix setmatrix fill} bdef
/FAn {newpath tMatrix currentmatrix pop translate scale
  0 0 1 5 -2 roll arcn tMatrix setmatrix stroke} bdef
/PAn {newpath tMatrix currentmatrix pop translate 0 0 moveto scale
  0 0 1 5 -2 roll arcn closepath tMatrix setmatrix fill} bdef
/vradius 0 def /hradius 0 def /lry 0 def
/lrx 0 def /uly 0 def /ulx 0 def /rad 0 def
/MRR {/vradius xdef /hradius xdef /lry xdef /lrx xdef /uly xdef
  /ulx xdef newpath tMatrix currentmatrix pop ulx hradius add uly
  vradius add translate hradius vradius scale 0 0 1 180 270 arc 
  tMatrix setmatrix lrx hradius sub uly vradius add translate
  hradius vradius scale 0 0 1 270 360 arc tMatrix setmatrix
  lrx hradius sub lry vradius sub translate hradius vradius scale
  0 0 1 0 90 arc tMatrix setmatrix ulx hradius add lry vradius sub
  translate hradius vradius scale 0 0 1 90 180 arc tMatrix setmatrix
  closepath} bdef
/FRR {MRR stroke } bdef
/PRR {MRR fill } bdef
/MlrRR {/lry xdef /lrx xdef /uly xdef /ulx xdef /rad lry uly sub 2 div def
  newpath tMatrix currentmatrix pop ulx rad add uly rad add translate
  rad rad scale 0 0 1 90 270 arc tMatrix setmatrix lrx rad sub lry rad
  sub translate rad rad scale 0 0 1 270 90 arc tMatrix setmatrix
  closepath} bdef
/FlrRR {MlrRR stroke } bdef
/PlrRR {MlrRR fill } bdef
/MtbRR {/lry xdef /lrx xdef /uly xdef /ulx xdef /rad lrx ulx sub 2 div def
  newpath tMatrix currentmatrix pop ulx rad add uly rad add translate
  rad rad scale 0 0 1 180 360 arc tMatrix setmatrix lrx rad sub lry rad
  sub translate rad rad scale 0 0 1 0 180 arc tMatrix setmatrix
  closepath} bdef
/FtbRR {MtbRR stroke } bdef
/PtbRR {MtbRR fill } bdef
/stri 6 array def /dtri 6 array def
/smat 6 array def /dmat 6 array def
/tmat1 6 array def /tmat2 6 array def /dif 3 array def
/asub {/ind2 exch def /ind1 exch def dup dup
  ind1 get exch ind2 get sub exch } bdef
/tri_to_matrix {
  2 0 asub 3 1 asub 4 0 asub 5 1 asub
  dup 0 get exch 1 get 7 -1 roll astore } bdef
/compute_transform {
  dmat dtri tri_to_matrix tmat1 invertmatrix 
  smat stri tri_to_matrix tmat2 concatmatrix } bdef
/ds {stri astore pop} bdef
/dt {dtri astore pop} bdef
/db {2 copy /cols xdef /rows xdef mul dup 3 mul string
  currentfile 
  3 index 0 eq {/ASCIIHexDecode filter}
  {/ASCII85Decode filter 3 index 2 eq {/RunLengthDecode filter} if }
  ifelse exch readstring pop
  dup 0 3 index getinterval /rbmap xdef
  dup 2 index dup getinterval /gbmap xdef
  1 index dup 2 mul exch getinterval /bbmap xdef pop pop}bdef
/it {gs np dtri aload pop moveto lineto lineto cp c
  cols rows 8 compute_transform 
  rbmap gbmap bbmap true 3 colorimage gr}bdef
/il {newpath moveto lineto stroke}bdef
currentdict end def
%%EndProlog

%%BeginSetup
MathWorks begin

0 cap

end
%%EndSetup

%%Page: 1 1
%%BeginPageSetup
%%PageBoundingBox:     2   295   580   509
MathWorks begin
bpage
%%EndPageSetup

%%BeginObject: obj1
bplot

/dpi2point 1.01389 def
portraitMode -0106 0553 csm

  109    37   586   217 rc
85 dict begin %Colortable dictionary
/c0 { 0.000000 0.000000 0.000000 sr} bdef
/c1 { 1.000000 1.000000 1.000000 sr} bdef
/c2 { 0.900000 0.000000 0.000000 sr} bdef
/c3 { 0.000000 0.820000 0.000000 sr} bdef
/c4 { 0.000000 0.000000 0.800000 sr} bdef
/c5 { 0.910000 0.820000 0.320000 sr} bdef
/c6 { 1.000000 0.260000 0.820000 sr} bdef
/c7 { 0.000000 0.820000 0.820000 sr} bdef
c0
1 j
1 sg
   0    0  836  305 rf
0.506944 w
gs 109 23 648 249 rc
/c8 { 0.000000 0.000000 1.000000 sr} bdef
c8
0 -8 0 7 1 5 0 1 0 -34 1 2 0 7 0 -35 
0 9 1 -8 0 8 0 -29 0 3 1 3 0 -11 0 28 
1 -21 0 39 0 -53 0 53 1 1 0 29 0 -43 0 29 
1 3 0 11 0 -20 0 20 1 -10 0 -3 0 33 1 -6 
0 -38 0 4 1 2 0 5 0 -36 0 5 1 -1 0 17 
0 -23 0 11 1 9 0 6 0 -25 0 0 1 18 0 -25 
0 31 1 -10 0 13 0 -24 0 19 1 1 0 8 0 -20 
0 13 1 -5 0 17 0 -25 0 11 1 16 0 53 0 -112 
0 55 1 4 0 25 0 -45 0 41 1 -14 0 23 0 -23 
0 16 1 3 0 9 0 -15 0 4 1 -7 0 8 0 -23 
0 3 1 -3 0 1 0 -10 0 3 1 1 0 2 0 -6 
0 4 1 0 0 2 0 -6 0 4 1 -1 0 3 0 -7 
0 4 1 2 0 -6 0 5 1 -2 0 4 0 -6 0 2 
1 -1 0 7 0 -7 0 4 1 2 0 3 0 -5 0 3 
1 -2 0 4 0 -5 0 5 1 -2 0 19 0 -17 1 -5 
0 9 0 -4 1 2 0 3 0 -13 0 1 1 4 0 1 
0 -24 0 4 1 1 0 10 0 -21 0 13 1 1 0 33 
0 -38 0 22 1 2 0 4 0 -21 0 10 1 -1 0 8 
0 -30 1 12 0 7 0 -33 0 10 1 5 0 20 0 -29 
0 20 1 16 0 16 0 -39 0 28 1 -11 0 17 0 -24 
0 13 1 1 0 5 0 -22 0 11 1 -1 0 7 0 -33 
0 14 1 -8 0 29 0 -44 0 28 1 2 0 20 0 -43 
0 23 1 -6 0 26 0 -51 0 38 1 -3 0 25 0 -51 
0 18 1 11 0 6 0 -30 0 12 1 -6 0 22 0 -33 
0 6 1 5 0 20 0 -32 0 11 1 8 0 7 0 -27 
0 5 1 11 0 19 0 -28 0 16 1 -1 0 30 0 -41 
0 27 1 -5 0 22 0 -40 0 25 1 -2 0 3 0 -23 
0 20 1 -9 0 4 0 -39 0 33 1 -6 0 19 0 -40 
0 12 1 7 0 17 0 -22 0 19 1 -6 0 14 0 -43 
0 36 1 -4 0 -16 0 24 1 -27 0 46 0 -51 0 30 
1 -2 0 27 0 -54 0 14 1 4 0 14 0 -34 0 11 
1 6 0 14 0 -34 0 4 1 31 0 70 0 -170 0 123 
1 -34 0 28 0 -33 0 11 1 6 0 12 0 -21 0 7 
1 2 0 67 0 -120 0 54 1 44 0 51 0 -212 0 104 
1 7 0 -24 0 22 1 10 0 20 0 -29 0 25 1 -5 
0 9 0 -18 0 5 1 -1 0 9 0 -30 0 6 1 -5 
0 6 0 -8 0 2 1 3 0 3 0 -8 0 5 1 -4 
0 8 0 -9 0 1 613 149 300 MP stroke
1 3 0 4 0 -7 0 0 1 1 0 7 0 -9 0 2 
1 1 0 5 0 -8 0 2 1 0 0 6 0 -8 0 3 
1 -1 0 6 0 -7 0 2 1 -2 0 7 0 -7 0 1 
1 1 0 6 0 -8 0 4 1 -4 0 7 0 -7 0 1 
1 2 0 4 0 -8 0 2 1 4 0 -5 0 7 1 -6 
0 6 0 -8 0 3 1 4 0 0 0 -7 0 5 1 -2 
0 5 0 -7 0 0 1 1 0 6 0 -8 0 3 1 -2 
0 7 0 -7 1 4 0 3 0 -8 0 1 1 1 0 -1 
0 7 1 -5 0 4 0 -7 0 4 1 2 0 2 0 -7 
0 4 1 -2 0 4 0 -6 0 0 1 1 0 6 0 -7 
0 1 1 2 0 4 0 -7 0 1 1 6 0 -7 0 3 
1 -2 0 6 0 -7 1 1 0 5 0 -7 0 5 1 -1 
0 4 0 -7 0 6 1 -6 0 7 0 -8 0 2 1 1 
0 4 0 -6 0 3 1 -2 0 6 0 -6 0 2 1 -1 
0 5 0 -6 0 2 1 -1 0 5 0 -6 0 0 1 1 
0 5 0 -5 0 3 1 1 0 5 0 -3 1 3 0 4 
0 -17 0 4 1 -2 0 2 0 -6 0 2 1 -3 0 -2 
0 19 1 1 0 6 0 -9 0 6 1 5 0 -17 0 1 
1 5 0 3 0 -29 0 4 1 2 0 11 0 -19 0 5 
1 3 0 4 0 -13 0 7 1 0 0 8 0 -18 0 14 
1 -4 0 10 0 -19 0 17 1 -10 0 21 0 -27 0 4 
1 11 0 3 0 -26 0 10 1 11 0 14 0 -31 0 18 
1 -11 0 36 0 -42 0 21 1 8 0 11 0 -37 0 11 
1 7 0 8 0 -31 0 21 1 6 0 9 0 -25 0 9 
1 -4 0 16 0 -28 0 4 1 -1 0 22 0 -31 0 8 
1 14 0 24 0 -35 0 19 1 11 0 4 0 -23 0 6 
1 5 0 18 0 -32 0 14 1 -10 0 23 0 -13 1 4 
0 11 0 -29 0 16 1 -5 0 31 0 -43 0 29 1 14 
0 16 0 -41 0 33 1 6 0 9 0 -49 0 8 1 -6 
0 7 0 -47 0 18 1 -3 0 -19 0 30 1 -23 0 -20 
0 77 1 -57 0 101 0 -32 1 6 0 1 0 -18 0 10 
1 5 0 -62 0 5 1 -4 0 -3 0 19 1 -18 0 22 
0 -38 0 22 1 0 0 10 0 -20 0 16 1 3 0 11 
0 -27 0 9 1 9 0 -14 0 22 1 -22 0 22 0 -16 
1 0 0 13 0 -19 0 2 1 5 0 6 0 -17 0 2 
1 11 0 6 0 -32 0 20 1 3 0 14 0 -28 0 23 
1 -14 0 29 0 -18 1 5 0 25 0 -30 0 15 1 10 
0 10 0 -26 0 1 534 141 300 MP stroke
1 13 0 25 0 -56 0 47 1 -20 0 15 0 -24 0 3 
1 10 0 14 0 -44 0 6 1 4 0 2 0 -54 0 14 
1 -19 0 49 0 -54 0 49 1 3 0 15 0 -25 0 22 
1 -1 0 35 0 -76 0 41 1 -3 0 19 0 -33 1 7 
0 23 0 -45 0 17 1 11 0 110 0 -141 0 37 1 -1 
0 3 0 -12 0 6 1 6 0 11 0 -22 0 7 1 2 
0 11 0 -20 0 13 1 2 0 11 0 -20 0 12 1 5 
0 10 0 -40 0 17 1 1 0 25 0 -43 0 12 1 1 
0 33 0 -51 0 30 1 3 0 9 0 -34 0 16 1 7 
0 -26 0 12 1 -7 0 9 0 -18 0 12 1 6 0 -24 
0 9 1 -15 0 29 0 -31 0 8 1 11 0 55 0 -94 
0 24 1 40 0 20 0 -79 0 62 1 2 0 9 0 -18 
0 4 1 -7 0 25 0 -3 1 4 0 -33 0 2 1 3 
0 -30 0 3 1 5 0 4 0 -25 0 13 1 6 0 7 
0 -32 0 10 1 11 0 29 0 -40 0 26 1 4 0 36 
0 -53 0 29 1 -4 0 14 0 -30 0 10 1 7 0 13 
0 -40 0 9 1 -4 0 33 0 -51 0 6 1 17 0 14 
0 -33 0 24 1 -6 0 33 0 -46 0 27 1 6 0 22 
0 -45 0 20 1 7 0 21 0 -31 0 10 1 9 0 14 
0 -36 1 17 0 5 0 -30 0 15 1 -4 0 6 0 -28 
0 3 1 3 0 15 0 -39 0 38 1 -17 0 28 0 -30 
0 4 1 9 0 -33 0 63 1 -41 0 36 0 -55 0 22 
1 6 0 32 0 -34 0 25 1 -1 0 22 0 -25 0 22 
1 3 0 0 0 -15 0 2 1 2 0 9 0 -15 0 3 
1 1 0 6 0 -19 1 1 0 7 0 -20 1 9 0 3 
0 -12 0 11 1 -2 0 4 0 -16 0 4 1 1 0 9 
0 -16 0 13 1 2 0 3 0 -36 1 10 0 13 0 -23 
0 5 1 -2 0 30 0 -35 0 7 1 8 0 19 0 -33 
0 12 1 13 0 5 0 -31 0 20 1 -1 0 19 0 -38 
0 14 1 5 0 3 0 -24 0 7 1 0 0 20 0 -22 
0 17 1 -4 0 18 0 -20 0 20 1 -12 0 26 0 -37 
0 25 1 2 0 7 0 -38 0 25 1 11 0 36 0 -67 
0 19 1 11 0 19 0 -47 0 16 1 2 0 16 0 -31 
0 8 1 2 0 15 0 -33 0 5 1 20 0 10 0 -32 
0 18 1 5 0 19 0 -35 0 33 1 -16 0 19 0 -20 
0 17 1 -5 0 22 0 -30 0 17 1 8 0 15 0 -29 
0 24 1 -3 0 14 0 -40 0 11 1 -2 0 -48 1 -2 
0 26 0 -48 0 43 456 152 300 MP stroke
1 14 0 -95 0 63 1 -17 0 26 0 -43 0 17 1 12 
0 36 0 -67 0 39 1 -1 0 33 0 -67 0 52 1 4 
0 32 0 -72 0 46 1 -7 0 31 0 -69 0 30 1 5 
0 38 0 -68 0 62 1 27 0 -110 0 60 1 9 0 17 
0 -55 0 9 1 -3 0 41 1 -34 0 28 0 -8 1 -2 
0 35 0 -77 0 55 1 -11 0 23 0 -57 0 33 1 15 
0 7 0 -45 0 17 1 5 0 50 0 -109 0 19 1 45 
0 35 0 -74 0 31 1 11 0 12 0 -78 0 28 1 38 
0 51 0 -125 1 82 0 32 0 -97 0 45 1 20 0 5 
0 -65 0 15 1 16 0 42 0 -89 0 28 1 37 0 16 
0 -65 0 41 1 -12 0 26 0 -50 0 44 1 -24 0 -18 
0 53 1 -32 0 28 0 -59 0 31 1 -14 0 49 0 -84 
0 43 1 20 0 20 0 -71 0 56 1 -27 0 54 0 -80 
0 34 1 18 0 49 0 -93 0 38 1 -11 0 79 0 -120 
0 77 1 -7 0 19 0 -90 0 52 1 -9 0 42 0 -66 
0 15 1 4 0 52 0 -96 0 44 1 7 0 42 0 -69 
0 24 1 -6 0 46 0 -59 0 34 1 -27 0 69 0 -109 
0 25 1 39 0 13 0 -39 0 37 1 -11 0 25 0 -58 
0 28 1 4 0 27 0 -85 0 61 1 3 0 35 0 -72 
0 17 1 17 0 26 0 -73 0 43 1 -21 0 44 0 -73 
0 38 1 13 0 27 0 -76 0 35 1 7 0 37 0 -67 
0 57 1 -21 0 37 0 -84 0 75 1 -91 0 96 0 -42 
1 14 0 33 0 -78 0 13 1 3 0 50 0 -56 0 45 
1 -17 0 34 0 -78 0 61 1 -8 0 -50 0 65 1 -40 
0 64 0 -80 0 19 1 4 0 29 0 -51 0 8 1 -8 
0 70 0 -75 0 25 1 25 0 49 0 -122 0 35 1 38 
0 25 0 -52 0 34 1 12 0 13 0 -69 0 28 1 11 
0 6 0 -43 0 23 1 -18 0 21 0 -24 0 12 1 0 
0 7 0 -22 0 4 1 -2 0 17 0 -19 0 11 1 -2 
0 17 0 -19 0 8 1 -3 0 15 0 -18 0 12 1 4 
0 5 0 -12 0 2 1 -5 0 15 0 -7 1 0 0 4 
0 -9 0 4 1 0 0 4 0 -9 0 7 1 -2 0 3 
0 -8 0 3 1 2 0 2 0 -7 0 5 1 1 0 1 
0 -5 0 4 1 -1 0 3 0 -6 0 4 1 -1 0 2 
0 -6 0 1 1 5 0 1 0 -7 0 3 1 1 0 2 
0 -6 0 2 1 4 0 0 0 -6 0 5 1 -3 0 4 
0 -6 0 2 1 0 0 4 0 -6 0 1 1 3 0 2 
0 -6 1 4 0 2 378 144 300 MP stroke
0 -5 1 4 0 -5 0 4 1 -2 0 5 0 -2 1 -1 
0 1 0 -4 0 3 1 -1 0 3 0 -6 0 2 1 3 
0 2 0 -7 0 1 1 5 0 3 0 -8 0 6 1 -3 
0 4 0 -9 0 8 1 -4 0 7 0 -13 0 8 1 -1 
0 5 0 -12 0 3 1 0 0 10 0 -14 0 6 1 4 
0 6 0 -22 0 13 1 4 0 7 0 -22 0 11 1 -2 
0 18 0 -31 0 11 1 4 0 14 0 -23 0 6 1 -3 
0 37 0 -58 0 24 1 -5 0 35 0 -47 0 34 1 -11 
0 -18 0 31 1 -17 0 14 0 -34 0 20 1 -10 0 35 
0 -46 1 29 0 17 0 -41 0 18 1 9 0 5 0 -33 
0 3 1 25 0 2 0 -27 0 16 1 15 0 4 0 -40 
0 22 1 2 0 35 0 -74 0 20 1 -18 0 63 0 -20 
1 10 0 5 0 -42 0 5 1 28 0 3 0 -41 0 26 
1 8 0 8 0 -40 0 19 1 8 0 23 0 -44 0 18 
1 -15 0 53 0 -69 0 29 1 -4 0 25 0 -35 0 19 
1 -12 0 22 0 -35 0 10 1 0 0 19 0 -25 0 4 
1 17 0 22 0 -54 0 21 1 17 0 -45 0 17 1 20 
0 33 0 -86 0 36 1 9 0 26 0 -47 0 16 1 12 
0 20 0 -42 0 8 1 15 0 8 0 -29 0 17 1 -2 
0 13 0 -23 0 10 1 -6 0 19 0 -23 0 3 1 9 
0 19 0 -32 0 21 1 -9 0 15 0 -27 0 7 1 -2 
0 -8 0 28 1 -15 0 18 0 -36 0 19 1 -2 0 22 
0 -42 0 15 1 -8 0 30 0 -16 1 2 0 15 0 -31 
0 23 1 -4 0 35 0 -66 0 25 1 -15 0 53 0 -61 
0 21 1 10 0 11 0 -34 0 13 1 4 0 28 0 -34 
0 4 1 15 0 33 0 -59 0 40 1 2 0 22 0 -38 
0 16 1 1 0 12 0 -45 0 9 1 -2 0 12 0 -55 
0 11 1 -9 0 34 0 -61 0 22 1 0 0 16 0 -18 
0 9 1 -3 0 -5 0 37 1 -4 0 14 0 -21 0 18 
1 0 0 11 0 -15 0 4 1 4 0 2 0 -9 0 5 
1 1 0 2 0 -7 0 2 1 2 0 2 0 -7 0 1 
1 4 0 2 0 -9 0 7 1 -3 0 4 0 -6 0 5 
1 -2 0 3 0 -5 0 4 1 -2 0 4 0 -6 0 4 
1 -3 0 5 0 -6 0 3 1 4 0 1 0 -7 0 3 
1 1 0 1 0 -10 1 6 0 7 0 -14 0 4 1 -1 
0 14 0 -22 0 15 1 2 0 8 0 -28 0 22 1 -14 
0 -7 0 34 1 -23 0 20 0 -40 0 17 1 8 0 13 
0 -41 1 27 0 4 300 142 300 MP stroke
0 -24 0 15 1 9 0 16 0 -40 0 10 1 6 0 25 
0 -38 0 7 1 23 0 15 0 -61 0 33 1 0 0 17 
0 -37 1 -3 0 35 0 -21 1 -1 0 21 0 -10 1 -5 
0 16 0 -22 0 2 1 2 0 26 0 -29 0 9 1 -6 
0 15 0 -8 1 0 0 10 0 -17 0 4 1 1 0 5 
0 -7 0 6 1 -1 0 1 0 -7 0 4 1 -3 0 6 
0 -8 0 4 1 -2 0 6 0 -7 0 5 1 -6 0 7 
0 0 1 -5 0 5 0 -6 0 5 1 -2 0 3 0 -6 
0 5 1 -1 0 3 0 -7 0 3 1 1 0 2 0 -7 
0 2 1 3 0 2 0 -6 0 0 1 5 0 1 0 -6 
0 2 1 3 0 2 0 -7 0 6 1 -4 0 5 0 -8 
0 5 1 -3 0 6 0 -8 0 4 1 -3 0 7 0 -8 
0 6 1 1 0 0 0 -7 0 2 1 5 0 1 0 -7 
0 0 1 3 0 4 0 -8 0 5 1 1 0 2 0 -8 
0 6 1 -5 0 7 0 -8 0 5 1 2 0 1 0 -8 
0 7 1 -4 0 5 0 -8 0 5 1 1 0 2 0 -7 
0 7 1 -5 0 4 0 -7 0 4 1 3 0 1 0 -7 
0 3 1 2 0 1 0 -7 0 6 1 -4 0 5 0 -6 
0 1 1 5 0 0 0 -6 0 1 1 5 0 -6 0 3 
1 3 0 0 0 -7 0 4 1 2 0 1 0 -6 0 5 
1 -1 0 3 0 -8 0 5 1 -1 0 3 0 -7 0 4 
1 -2 0 5 0 -7 0 2 1 3 0 1 0 -6 0 3 
1 3 0 2 0 -9 0 7 1 -1 0 2 0 -7 0 6 
1 -5 0 6 0 -6 0 4 1 -4 0 6 0 -6 0 0 
1 4 0 2 0 -6 0 5 1 -4 0 6 0 -3 1 2 
0 1 0 -8 0 5 1 -3 0 6 0 -8 0 7 1 -2 
0 2 0 -7 0 1 1 4 0 3 0 -8 0 4 1 2 
0 1 0 -8 0 5 1 4 0 0 0 -7 0 6 1 -3 
0 3 0 -7 0 5 1 -4 0 6 0 -7 0 1 1 0 
0 6 0 -3 1 3 0 1 0 -6 0 3 1 -3 0 5 
0 -7 0 5 1 1 0 2 0 -7 0 5 1 -4 0 6 
0 -6 0 5 1 -1 0 2 0 -7 0 1 1 3 0 3 
0 -7 0 1 1 5 0 0 0 -5 0 1 1 4 0 1 
0 -6 0 5 1 -3 0 4 0 -6 0 4 1 -4 0 8 
0 -8 0 4 1 -1 0 4 0 -7 0 5 1 -3 0 6 
0 -9 0 4 1 2 0 2 0 -8 0 7 1 -1 0 9 
0 -11 0 9 1 -4 0 12 0 -12 1 4 0 13 0 -19 
0 2 1 4 0 21 223 116 300 MP stroke
0 -22 0 14 1 -5 0 13 0 -26 0 17 1 -9 0 15 
0 -28 0 10 1 1 0 18 0 -40 0 24 1 -2 0 15 
0 -36 0 8 1 16 0 10 0 -43 0 12 1 22 0 10 
0 -46 0 27 1 -21 0 33 0 -19 1 -6 0 23 0 -36 
0 0 1 12 0 16 0 -31 0 8 1 16 0 4 0 -34 
0 10 1 3 0 23 0 -49 0 5 1 -1 0 -5 0 36 
1 -12 0 22 0 -40 0 39 1 -9 0 23 0 -36 0 22 
1 -8 0 33 0 -36 0 14 1 -7 0 20 0 -42 0 28 
1 1 0 9 0 -36 0 18 1 0 0 28 0 -52 0 31 
1 -9 0 25 0 -38 0 14 1 2 0 37 0 -56 0 17 
1 7 0 19 0 -33 0 1 1 19 0 14 0 -34 0 13 
1 9 0 18 0 -39 0 25 1 -6 0 29 0 -51 0 36 
1 -7 0 15 0 -40 0 29 1 -24 0 34 0 -13 1 -7 
0 27 0 -30 0 20 1 -22 0 35 0 -36 0 7 1 23 
0 -49 0 24 1 -8 0 11 0 -35 0 16 1 -4 0 20 
0 -29 0 17 1 -10 0 23 0 -34 0 3 1 1 0 23 
0 -37 0 20 1 -6 0 32 0 -62 0 12 1 30 0 25 
0 -60 0 40 1 -21 0 20 0 -38 0 21 1 11 0 25 
0 -54 0 45 1 -24 0 32 0 -40 1 14 0 31 0 -55 
0 6 1 3 0 23 0 -55 0 22 1 -11 0 30 0 -33 
0 10 1 1 0 29 0 -36 0 12 1 17 0 37 0 -48 
0 36 1 -9 0 22 0 -34 0 21 1 3 0 15 0 -36 
0 30 1 -7 0 17 0 -52 0 35 1 9 0 8 0 -41 
0 22 1 15 0 4 0 -36 0 21 1 -18 0 32 0 -46 
0 38 1 7 0 20 0 -60 0 21 1 27 0 14 0 -46 
0 29 1 17 0 -37 0 27 1 -4 0 19 0 -32 0 9 
1 -9 0 23 0 -50 0 14 1 12 0 31 0 -95 0 55 
1 32 0 5 0 -65 0 18 1 -4 0 16 0 -60 0 31 
1 -22 0 45 0 -49 0 27 1 11 0 6 0 -41 0 29 
1 2 0 29 0 -55 0 45 1 -16 0 27 0 -52 0 34 
1 8 0 4 0 -44 0 23 1 13 0 10 0 -46 0 14 
1 12 0 15 0 -40 0 19 1 7 0 31 0 -38 0 14 
1 25 0 22 0 -40 0 31 1 -9 0 26 0 -42 0 31 
1 -8 0 22 0 -38 0 13 1 11 0 4 0 -34 0 16 
1 -7 0 9 0 -47 1 5 0 13 0 -39 0 14 1 1 
0 -41 0 6 1 18 0 7 0 -43 0 26 1 4 0 45 
0 -58 0 58 1 -6 0 16 0 -38 0 18 1 -9 0 62 
0 -76 0 44 1 -7 146 136 300 MP stroke
0 4 0 -41 0 33 1 -1 0 7 0 -51 0 29 1 -28 
0 46 0 -61 0 16 1 13 0 23 0 -40 0 24 1 8 
0 21 0 -34 0 23 1 1 0 53 0 -93 0 27 1 8 
0 32 0 -68 0 18 1 21 0 -25 0 33 1 -17 0 20 
0 -25 0 11 1 -4 0 18 0 -28 0 24 1 2 0 -21 
0 13 1 1 0 7 0 -24 0 21 1 -13 0 15 0 -17 
0 9 1 -1 0 4 0 -7 0 1 1 4 0 2 0 -9 
0 6 1 1 0 1 0 -8 0 4 1 1 0 4 0 -6 
0 2 1 3 0 1 0 -8 0 2 1 3 0 1 0 -5 
0 3 1 3 0 1 0 -6 0 2 1 2 0 2 0 -6 
0 3 1 1 0 1 0 -8 0 2 1 4 0 4 0 -9 
0 8 1 -7 0 7 0 -8 0 5 1 3 0 1 0 -8 
0 1 1 3 0 5 0 -9 0 1 1 1 0 11 0 -18 
0 8 1 1 0 12 0 -27 0 22 1 6 0 5 0 -48 
0 46 1 -15 0 11 0 -26 0 10 1 1 0 25 0 -44 
0 25 1 3 0 13 0 -39 0 22 1 1 0 17 0 -42 
0 22 1 -3 0 31 0 -53 0 26 1 8 0 14 0 -43 
0 27 1 -16 0 36 0 -43 0 14 1 -4 0 15 0 -27 
0 18 1 1 0 11 0 -23 0 10 109 147 150 MP stroke
gr

c8

end %%Color Dict

eplot
%%EndObject

epage
end

showpage

%%Trailer
%%EOF
