%!PS-Adobe-3.0 EPSF-3.0
%%Creator: MATLAB, The MathWorks, Inc. Version 8.0.0.783 (R2012b). Operating System: Darwin 12.5.0 Darwin Kernel Version 12.5.0: Sun Sep 29 13:33:47 PDT 2013; root:xnu-2050.48.12~1/RELEASE_X86_64 x86_64.
%%Title: figs/example_gyro.eps
%%CreationDate: 11/26/2013  04:31:51
%%DocumentNeededFonts: Helvetica
%%DocumentProcessColors: Cyan Magenta Yellow Black
%%LanguageLevel: 2
%%Pages: 1
%%BoundingBox:    14   321   568   518
%%EndComments

%%BeginProlog
% MathWorks dictionary
/MathWorks 160 dict begin
% definition operators
/bdef {bind def} bind def
/ldef {load def} bind def
/xdef {exch def} bdef
/xstore {exch store} bdef
% operator abbreviations
/c  /clip ldef
/cc /concat ldef
/cp /closepath ldef
/gr /grestore ldef
/gs /gsave ldef
/mt /moveto ldef
/np /newpath ldef
/cm /currentmatrix ldef
/sm /setmatrix ldef
/rm /rmoveto ldef
/rl /rlineto ldef
/s {show newpath} bdef
/sc {setcmykcolor} bdef
/sr /setrgbcolor ldef
/sg /setgray ldef
/w /setlinewidth ldef
/j /setlinejoin ldef
/cap /setlinecap ldef
/rc {rectclip} bdef
/rf {rectfill} bdef
% page state control
/pgsv () def
/bpage {/pgsv save def} bdef
/epage {pgsv restore} bdef
/bplot /gsave ldef
/eplot {stroke grestore} bdef
% orientation switch
/portraitMode 0 def /landscapeMode 1 def /rotateMode 2 def
% coordinate system mappings
/dpi2point 0 def
% font control
/FontSize 0 def
/FMS {/FontSize xstore findfont [FontSize 0 0 FontSize neg 0 0]
  makefont setfont} bdef
/reencode {exch dup where {pop load} {pop StandardEncoding} ifelse
  exch dup 3 1 roll findfont dup length dict begin
  { 1 index /FID ne {def}{pop pop} ifelse } forall
  /Encoding exch def currentdict end definefont pop} bdef
/isroman {findfont /CharStrings get /Agrave known} bdef
/FMSR {3 1 roll 1 index dup isroman {reencode} {pop pop} ifelse
  exch FMS} bdef
/csm {1 dpi2point div -1 dpi2point div scale neg translate
 dup landscapeMode eq {pop -90 rotate}
  {rotateMode eq {90 rotate} if} ifelse} bdef
% line types: solid, dotted, dashed, dotdash
/SO { [] 0 setdash } bdef
/DO { [.5 dpi2point mul 4 dpi2point mul] 0 setdash } bdef
/DA { [6 dpi2point mul] 0 setdash } bdef
/DD { [.5 dpi2point mul 4 dpi2point mul 6 dpi2point mul 4
  dpi2point mul] 0 setdash } bdef
% macros for lines and objects
/L {lineto stroke} bdef
/MP {3 1 roll moveto 1 sub {rlineto} repeat} bdef
/AP {{rlineto} repeat} bdef
/PDlw -1 def
/W {/PDlw currentlinewidth def setlinewidth} def
/PP {closepath eofill} bdef
/DP {closepath stroke} bdef
/MR {4 -2 roll moveto dup  0 exch rlineto exch 0 rlineto
  neg 0 exch rlineto closepath} bdef
/FR {MR stroke} bdef
/PR {MR fill} bdef
/L1i {{currentfile picstr readhexstring pop} image} bdef
/tMatrix matrix def
/MakeOval {newpath tMatrix currentmatrix pop translate scale
0 0 1 0 360 arc tMatrix setmatrix} bdef
/FO {MakeOval stroke} bdef
/PO {MakeOval fill} bdef
/PD {currentlinewidth 2 div 0 360 arc fill
   PDlw -1 eq not {PDlw w /PDlw -1 def} if} def
/FA {newpath tMatrix currentmatrix pop translate scale
  0 0 1 5 -2 roll arc tMatrix setmatrix stroke} bdef
/PA {newpath tMatrix currentmatrix pop	translate 0 0 moveto scale
  0 0 1 5 -2 roll arc closepath tMatrix setmatrix fill} bdef
/FAn {newpath tMatrix currentmatrix pop translate scale
  0 0 1 5 -2 roll arcn tMatrix setmatrix stroke} bdef
/PAn {newpath tMatrix currentmatrix pop translate 0 0 moveto scale
  0 0 1 5 -2 roll arcn closepath tMatrix setmatrix fill} bdef
/vradius 0 def /hradius 0 def /lry 0 def
/lrx 0 def /uly 0 def /ulx 0 def /rad 0 def
/MRR {/vradius xdef /hradius xdef /lry xdef /lrx xdef /uly xdef
  /ulx xdef newpath tMatrix currentmatrix pop ulx hradius add uly
  vradius add translate hradius vradius scale 0 0 1 180 270 arc 
  tMatrix setmatrix lrx hradius sub uly vradius add translate
  hradius vradius scale 0 0 1 270 360 arc tMatrix setmatrix
  lrx hradius sub lry vradius sub translate hradius vradius scale
  0 0 1 0 90 arc tMatrix setmatrix ulx hradius add lry vradius sub
  translate hradius vradius scale 0 0 1 90 180 arc tMatrix setmatrix
  closepath} bdef
/FRR {MRR stroke } bdef
/PRR {MRR fill } bdef
/MlrRR {/lry xdef /lrx xdef /uly xdef /ulx xdef /rad lry uly sub 2 div def
  newpath tMatrix currentmatrix pop ulx rad add uly rad add translate
  rad rad scale 0 0 1 90 270 arc tMatrix setmatrix lrx rad sub lry rad
  sub translate rad rad scale 0 0 1 270 90 arc tMatrix setmatrix
  closepath} bdef
/FlrRR {MlrRR stroke } bdef
/PlrRR {MlrRR fill } bdef
/MtbRR {/lry xdef /lrx xdef /uly xdef /ulx xdef /rad lrx ulx sub 2 div def
  newpath tMatrix currentmatrix pop ulx rad add uly rad add translate
  rad rad scale 0 0 1 180 360 arc tMatrix setmatrix lrx rad sub lry rad
  sub translate rad rad scale 0 0 1 0 180 arc tMatrix setmatrix
  closepath} bdef
/FtbRR {MtbRR stroke } bdef
/PtbRR {MtbRR fill } bdef
/stri 6 array def /dtri 6 array def
/smat 6 array def /dmat 6 array def
/tmat1 6 array def /tmat2 6 array def /dif 3 array def
/asub {/ind2 exch def /ind1 exch def dup dup
  ind1 get exch ind2 get sub exch } bdef
/tri_to_matrix {
  2 0 asub 3 1 asub 4 0 asub 5 1 asub
  dup 0 get exch 1 get 7 -1 roll astore } bdef
/compute_transform {
  dmat dtri tri_to_matrix tmat1 invertmatrix 
  smat stri tri_to_matrix tmat2 concatmatrix } bdef
/ds {stri astore pop} bdef
/dt {dtri astore pop} bdef
/db {2 copy /cols xdef /rows xdef mul dup 3 mul string
  currentfile 
  3 index 0 eq {/ASCIIHexDecode filter}
  {/ASCII85Decode filter 3 index 2 eq {/RunLengthDecode filter} if }
  ifelse exch readstring pop
  dup 0 3 index getinterval /rbmap xdef
  dup 2 index dup getinterval /gbmap xdef
  1 index dup 2 mul exch getinterval /bbmap xdef pop pop}bdef
/it {gs np dtri aload pop moveto lineto lineto cp c
  cols rows 8 compute_transform 
  rbmap gbmap bbmap true 3 colorimage gr}bdef
/il {newpath moveto lineto stroke}bdef
currentdict end def
%%EndProlog

%%BeginSetup
MathWorks begin

0 cap

end
%%EndSetup

%%Page: 1 1
%%BeginPageSetup
%%PageBoundingBox:    14   321   568   518
MathWorks begin
bpage
%%EndPageSetup

%%BeginObject: obj1
bplot

/dpi2point 1.01389 def
portraitMode -0089 0546 csm

  104    21   562   200 rc
85 dict begin %Colortable dictionary
/c0 { 0.000000 0.000000 0.000000 sr} bdef
/c1 { 1.000000 1.000000 1.000000 sr} bdef
/c2 { 0.900000 0.000000 0.000000 sr} bdef
/c3 { 0.000000 0.820000 0.000000 sr} bdef
/c4 { 0.000000 0.000000 0.800000 sr} bdef
/c5 { 0.910000 0.820000 0.320000 sr} bdef
/c6 { 1.000000 0.260000 0.820000 sr} bdef
/c7 { 0.000000 0.820000 0.820000 sr} bdef
c0
1 j
1 sg
   0    0  802  290 rf
0.506944 w
gs 104 22 622 236 rc
/c8 { 1.000000 0.000000 0.000000 sr} bdef
c8
0 -2 0 1 1 1 0 0 0 -1 0 0 1 1 0 1 
0 -2 0 0 1 1 0 1 0 -2 0 1 1 1 0 2 
0 -4 1 -1 0 -29 1 -1 0 -24 1 1 0 -3 0 11 
1 1 0 21 1 1 0 26 1 -1 0 -1 0 3 1 -1 
0 -3 0 2 1 1 0 0 0 -3 1 1 0 1 0 -3 
0 2 1 1 0 1 0 -2 0 1 1 -1 0 2 0 -4 
0 1 1 1 0 1 0 -2 0 0 1 1 0 0 0 -1 
0 0 1 1 0 0 0 -1 0 0 1 1 0 0 0 -1 
0 0 1 1 0 0 0 -1 0 1 1 -1 0 1 0 -1 
1 1 0 0 0 -1 1 1 0 0 0 -1 0 0 1 1 
0 0 0 -1 0 1 1 -1 0 1 0 -1 0 0 1 1 
0 -1 0 0 1 1 0 -1 0 1 1 -1 0 1 0 -1 
0 1 1 -1 0 1 0 -1 0 1 1 -1 0 1 0 -1 
0 0 1 1 0 0 0 -1 1 1 0 0 0 -1 0 0 
1 1 0 0 0 -1 0 0 1 1 0 0 0 -2 1 1 
0 0 0 -1 0 0 1 1 0 1 0 -2 0 1 1 -1 
0 3 0 -3 0 1 1 1 0 0 0 -1 0 0 1 1 
0 1 0 -3 0 1 1 1 0 1 0 -1 0 0 1 1 
0 0 0 -2 0 1 1 1 0 -2 0 2 1 -1 0 1 
0 -1 1 1 0 1 0 -2 0 1 1 1 0 1 0 -5 
0 1 1 -1 0 1 0 -2 0 1 1 1 0 0 0 -1 
0 0 1 1 0 1 0 -1 0 1 1 -1 0 1 0 -2 
0 2 1 -1 0 0 0 -1 0 0 1 1 0 0 0 -1 
0 0 1 1 0 1 0 -2 0 1 1 1 0 1 0 -2 
0 1 1 -1 0 1 0 -2 0 1 1 -1 0 2 0 -3 
0 1 1 -1 0 0 0 -4 0 1 1 -1 0 2 0 -5 
0 4 1 -1 0 2 0 -3 0 2 1 -2 0 5 0 -7 
0 2 1 0 0 -2 0 1 1 2 0 1 0 -3 0 2 
1 1 0 12 0 -12 0 2 1 7 0 6 0 -20 0 10 
1 -1 0 2 0 -2 0 1 1 1 0 1 0 -4 1 1 
0 6 0 -41 0 30 1 -2 0 5 0 -9 0 1 1 -1 
0 -5 0 6 1 -1 0 10 1 -1 0 8 0 -5 1 1 
0 0 0 -1 0 0 1 1 0 0 0 -1 0 1 1 -1 
0 0 0 1 1 -1 0 1 0 -1 1 1 0 0 0 -1 
0 0 1 1 0 0 0 -1 0 1 1 -1 0 1 0 -1 
0 1 1 -1 0 1 0 -1 0 1 1 -1 0 1 0 -1 
0 1 1 -1 0 1 0 0 1 -1 0 1 0 -1 0 1 
1 -1 0 1 0 -1 579 163 300 MP stroke
0 1 1 -1 0 1 0 -1 0 1 1 -1 0 1 0 -1 
0 0 1 1 0 0 0 -1 0 1 1 -1 0 1 0 -1 
0 1 1 -1 0 1 0 -1 0 0 1 1 0 -1 0 1 
1 -1 0 1 0 -1 1 1 0 0 0 -1 0 1 1 -1 
0 1 0 -1 0 0 1 1 0 -1 0 1 1 -1 0 1 
0 -1 0 1 1 -1 0 1 0 -1 0 0 1 1 0 0 
0 -1 0 0 1 1 0 0 0 -1 0 1 1 -1 0 1 
0 -1 0 1 1 -1 0 1 0 -1 1 1 0 0 0 -1 
0 0 1 1 0 0 0 -1 0 1 1 -1 0 1 0 -1 
0 0 1 1 0 0 0 -1 0 1 1 -1 0 1 0 -1 
0 1 1 -1 0 0 0 1 1 -1 0 1 0 -1 0 0 
1 1 0 0 0 -1 0 1 1 -1 0 -1 0 1 1 -1 
1 0 0 1 0 -1 1 -1 0 -2 0 0 1 1 0 -3 
0 1 1 -1 0 -1 0 2 1 1 0 1 0 -3 0 2 
1 -1 0 3 0 -4 0 3 1 -1 0 4 0 -2 1 1 
0 3 0 -4 0 1 1 3 0 2 0 -5 0 0 1 1 
0 3 0 -5 0 3 1 -2 0 4 0 -6 0 2 1 1 
0 1 0 -3 0 3 1 -1 0 1 0 -2 0 2 1 -1 
0 1 0 -1 0 1 1 -1 0 1 0 -1 0 0 1 1 
0 -2 0 2 1 -1 0 2 0 -3 0 2 1 1 0 -2 
0 1 1 -1 0 -5 0 1 1 1 0 3 1 1 0 1 
0 -4 0 3 1 -1 0 1 0 -20 0 8 1 6 0 6 
0 -2 1 1 0 2 0 -4 0 2 1 1 0 3 0 -7 
0 1 1 1 0 5 0 -14 0 8 1 -3 0 24 0 -17 
1 -1 0 2 0 -3 0 1 1 -1 0 2 0 -2 0 1 
1 -1 0 1 0 -3 0 1 1 -1 0 3 0 -1 1 -1 
0 3 0 -4 0 1 1 2 0 2 0 -3 0 2 1 -1 
0 3 0 -4 0 3 1 -1 0 1 0 -2 0 1 1 -1 
0 1 0 -3 0 1 1 -1 0 1 0 -2 1 -1 0 0 
0 1 1 1 0 -1 0 2 1 -1 0 4 0 -5 0 2 
1 1 0 -2 0 2 1 1 0 10 1 1 0 2 0 -2 
0 0 1 1 0 1 0 -16 0 1 1 -1 0 -2 0 1 
1 1 0 -1 0 6 1 1 0 8 0 -9 0 7 1 -5 
0 4 0 -7 1 1 0 1 0 -2 0 2 1 -1 0 3 
0 -4 0 2 1 -1 0 53 0 -55 0 25 1 -5 0 1 
0 -16 0 1 1 1 0 7 0 -11 0 5 1 -6 0 4 
0 -7 0 2 1 -1 0 5 0 -6 0 4 1 1 0 3 
0 -7 1 -1 0 3 496 159 300 MP stroke
0 -5 0 2 1 -1 0 3 0 -4 0 0 1 1 0 2 
0 -3 0 3 1 -1 0 1 0 -3 0 1 1 -1 0 2 
0 -3 0 1 1 1 0 1 0 -6 0 1 1 1 0 4 
0 -7 0 5 1 -1 0 5 0 -6 0 5 1 -1 0 1 
0 -2 0 1 1 -1 1 1 0 -2 0 1 1 -1 0 1 
0 -3 0 1 1 -1 0 1 0 -6 1 1 0 1 0 -5 
1 -1 0 2 0 -5 1 2 0 -3 0 5 1 1 0 6 
1 -1 0 5 0 -5 0 4 1 -1 0 3 0 -4 0 2 
1 -1 0 0 0 2 1 -1 0 3 0 -4 0 1 1 1 
0 1 0 -2 0 0 1 1 0 1 0 -2 0 1 1 1 
0 0 0 8 1 1 0 4 0 -5 0 3 1 -1 0 2 
0 -4 0 3 1 -2 0 -2 1 1 0 -1 0 5 1 1 
0 13 0 -2 1 -1 0 -15 1 -1 0 -6 0 1 1 -1 
0 2 0 -5 0 1 1 -1 0 1 0 -3 0 1 1 -1 
0 3 1 -1 0 2 0 -2 0 1 1 1 0 -1 1 1 
0 5 1 1 0 8 0 -1 1 1 0 1 0 -2 0 1 
1 -1 0 7 0 -2 1 -1 0 0 0 -3 1 -1 0 1 
0 -4 0 1 1 -1 0 -6 1 1 0 -6 0 1 1 -1 
0 -2 0 1 1 -1 0 1 0 -3 0 1 1 -1 0 7 
0 -10 0 9 1 -8 0 7 0 -8 0 0 1 2 0 15 
0 -18 0 10 1 5 0 0 0 -14 0 3 1 -2 0 9 
0 -5 1 -1 0 3 0 -4 0 3 1 1 0 0 0 -1 
0 0 1 1 0 2 0 -4 0 2 1 -1 0 2 0 -5 
1 1 0 1 0 -2 0 1 1 -1 0 -5 1 -1 0 14 
0 -16 0 11 1 1 0 44 1 2 0 92 0 -94 0 43 
1 17 0 1 0 -61 0 1 1 -2 0 13 0 -30 0 1 
1 2 0 9 0 -28 0 1 1 -2 0 0 0 -9 0 1 
1 -2 0 4 0 -1 1 -1 0 3 0 -6 1 2 0 2 
0 -5 0 3 1 0 0 1 0 -2 0 1 1 1 0 1 
0 -3 0 2 1 -1 0 -1 0 3 1 -1 0 1 0 -5 
0 1 1 1 0 4 0 -7 0 5 1 -1 0 2 0 -5 
0 4 1 -1 0 -1 0 4 1 -4 0 8 0 -3 1 1 
0 3 0 -4 0 1 1 1 0 -8 0 11 1 -2 0 5 
0 -17 0 9 1 1 0 2 0 -5 1 3 0 -4 0 9 
1 -7 0 6 0 -6 0 2 1 1 0 2 0 -4 0 1 
1 -1 0 3 0 -4 0 1 1 1 0 4 0 -6 0 4 
1 1 0 1 0 -6 0 0 1 0 0 3 0 -5 0 2 
1 1 0 -8 0 3 410 164 300 MP stroke
1 2 0 4 0 -9 0 7 1 -4 0 9 0 -15 0 6 
1 5 0 3 0 -12 0 5 1 1 0 2 0 -8 0 6 
1 0 0 1 0 -4 0 3 1 -1 0 2 0 -2 0 1 
1 -1 0 3 0 -4 0 3 1 -2 0 3 0 -5 0 3 
1 -1 0 2 0 -4 0 3 1 -2 0 4 0 -6 0 5 
1 -1 0 1 0 -5 0 2 1 1 0 3 0 -6 0 5 
1 -3 0 4 0 -4 0 1 1 -1 0 4 0 -4 0 3 
1 -1 0 2 0 -6 0 5 1 -3 0 5 0 -6 0 3 
1 -1 0 2 0 -4 0 2 1 -2 0 5 0 -6 0 4 
1 -1 0 2 0 -4 0 1 1 2 0 1 0 -4 0 1 
1 1 0 1 0 -3 0 2 1 -2 0 4 0 -5 0 3 
1 1 0 1 0 -3 0 1 1 1 0 11 0 -22 1 3 
0 12 0 -7 1 1 0 -6 0 4 1 -2 0 7 0 -8 
0 7 1 -1 0 7 0 -1 1 1 0 5 1 1 0 3 
0 -1 1 -1 0 0 0 -7 1 -1 0 -14 1 -1 0 -3 
0 4 1 1 0 0 0 -3 0 2 1 -1 0 6 1 1 
0 2 0 -1 1 1 0 1 0 -1 1 1 0 0 0 -1 
0 0 1 1 0 0 0 -1 0 0 1 1 0 0 0 -1 
0 1 1 -1 0 0 0 1 1 -1 0 1 0 -1 1 1 
0 0 0 -1 0 0 1 1 0 0 0 -1 0 0 1 1 
0 0 0 -1 1 1 0 -1 0 1 1 -1 0 1 1 -1 
0 1 0 -1 1 1 0 0 0 -1 1 1 0 0 0 -1 
0 1 1 -1 0 1 0 -1 0 1 1 -1 0 1 0 -1 
1 1 0 -1 0 1 1 -1 0 1 1 -1 0 1 0 -1 
1 1 0 -1 1 1 0 -1 0 1 1 -1 0 1 0 -1 
1 1 0 0 0 -2 0 1 1 1 0 1 0 -2 0 1 
1 -1 0 1 0 -1 0 0 1 1 0 1 0 -4 0 1 
1 1 0 2 0 -3 0 1 1 1 0 1 0 -3 0 1 
1 1 0 1 0 -3 0 2 1 -1 0 1 0 -2 0 1 
1 1 0 1 0 -2 0 0 1 1 0 1 0 -2 0 0 
1 1 0 0 0 -1 0 0 1 -1 0 3 1 -1 0 2 
0 -5 0 3 1 1 0 0 0 -3 0 2 1 -1 0 2 
0 -2 0 0 1 1 0 0 0 -2 0 1 1 1 0 0 
0 -2 0 2 1 -1 0 1 0 -1 1 1 0 2 0 -7 
0 3 1 1 0 3 0 -5 1 3 0 -1 0 0 1 1 
0 0 0 -2 0 2 1 -1 0 2 0 -2 0 2 1 -1 
0 4 0 -17 0 13 1 -2 0 3 0 -3 0 2 1 -1 
0 1 0 -2 0 2 326 162 300 MP stroke
1 -1 0 1 0 -2 0 1 1 1 0 0 0 -1 0 0 
1 1 0 0 0 -2 1 1 0 0 0 -1 0 0 1 1 
0 1 0 -2 0 1 1 1 0 0 0 -2 1 1 0 1 
0 -2 0 0 1 1 0 1 0 -2 0 2 1 -1 0 1 
0 -2 1 1 0 1 0 -1 1 1 0 1 0 -4 0 3 
1 1 0 -4 0 3 1 -1 0 1 0 -3 0 1 1 -1 
0 2 0 -5 0 0 1 1 0 1 0 -8 0 1 1 -1 
0 -1 0 3 1 1 0 25 1 1 0 16 1 -1 0 4 
0 -5 1 1 0 -11 1 -1 0 -16 1 -1 0 -3 1 -1 
1 0 0 1 1 -1 0 1 0 -1 0 0 1 1 0 0 
0 -1 0 1 1 -1 0 1 0 -1 0 1 1 -1 0 1 
0 0 1 -1 0 1 0 -1 1 1 0 -1 0 1 1 -1 
0 1 0 -1 0 0 1 1 0 -1 0 1 1 -1 0 1 
0 -1 1 -1 0 2 0 -2 0 0 1 1 0 -1 0 0 
1 1 0 0 0 -2 0 1 1 1 0 -1 0 4 1 -2 
0 3 1 -2 0 1 0 -2 0 1 1 -1 0 1 0 -2 
0 1 1 -1 0 4 0 -6 0 2 1 0 0 1 0 -2 
0 2 1 -1 0 2 0 -2 0 1 1 1 0 -2 0 0 
1 1 0 -1 0 1 1 -1 0 1 0 -2 0 0 1 1 
0 1 0 -2 0 1 2 0 0 1 0 -1 0 1 1 -1 
0 1 0 -1 0 0 1 1 0 0 0 -1 1 1 0 -1 
0 0 1 1 0 0 0 -1 0 1 1 -1 0 1 0 -1 
0 1 1 -1 0 1 1 -1 0 1 0 -1 0 1 1 -1 
0 1 0 -1 0 1 1 -1 0 0 0 1 1 -1 0 1 
0 0 1 -1 0 1 0 -1 1 1 0 0 0 -1 1 1 
0 0 0 -1 0 0 1 1 0 0 0 -1 0 1 1 -1 
0 1 0 -1 1 1 0 0 0 -1 0 1 1 -1 0 1 
0 -1 0 0 1 1 0 0 0 -1 0 0 1 1 0 -1 
0 0 1 1 0 -1 0 1 1 -1 0 1 0 -1 1 1 
0 0 0 -1 0 1 1 -1 0 1 0 -1 0 1 1 -1 
0 1 0 -1 1 1 0 0 0 -1 0 1 1 -1 0 1 
0 -1 0 1 1 -1 0 1 0 -1 0 1 1 -1 0 1 
0 -1 1 1 0 -1 0 1 1 -1 0 1 0 0 1 -1 
0 1 0 -1 0 0 1 1 0 -1 0 0 1 1 0 -1 
0 1 1 -1 0 1 0 0 1 -1 0 1 0 -1 0 0 
1 1 0 0 0 -1 0 0 1 1 0 -1 0 1 1 -1 
0 1 0 -1 0 0 1 1 0 0 0 -1 1 1 0 0 
0 -1 1 1 0 0 236 162 300 MP stroke
0 -1 0 1 1 -1 0 1 0 -1 0 1 1 -1 0 1 
0 -1 0 1 1 -1 0 1 0 -1 0 1 1 -1 0 1 
0 -1 0 0 1 1 0 0 0 -1 0 1 1 -1 0 1 
0 -1 1 1 0 -1 0 0 1 1 0 0 0 -1 0 1 
1 -1 0 1 0 -1 1 1 0 -1 0 1 1 -1 0 1 
0 0 1 -1 0 1 0 -1 0 0 1 1 0 0 0 -1 
0 1 1 -1 0 1 0 -1 0 0 1 1 0 0 0 -1 
0 0 1 1 0 0 0 -1 1 1 0 0 0 -1 0 0 
1 1 0 -1 0 0 1 1 0 0 0 -1 0 0 1 1 
0 0 0 -1 0 1 1 -1 0 1 0 -1 0 0 1 1 
0 1 0 -2 0 1 1 1 0 2 0 -3 0 2 1 1 
0 4 0 -1 1 1 0 -1 0 3 1 -1 0 3 0 -4 
0 2 1 -1 0 3 0 -1 1 1 0 1 0 -2 0 1 
1 1 0 1 0 -3 1 1 0 -1 0 2 1 1 0 1 
0 -3 0 2 1 -1 0 0 0 2 1 -1 0 1 0 -1 
1 1 0 -6 0 1 1 -1 0 -7 1 1 0 -4 1 1 
0 1 0 -3 0 2 1 1 0 1 0 -2 0 2 1 -1 
0 1 0 -2 0 2 1 -1 0 1 0 -2 1 -1 0 3 
0 -4 0 4 1 -2 0 2 0 -4 0 3 1 -1 0 2 
0 -2 0 1 1 -1 0 -1 0 2 1 -1 0 0 0 1 
1 -1 0 2 0 -3 0 1 1 1 0 1 0 -2 0 1 
1 1 0 -3 1 1 0 3 0 -3 0 2 1 -1 0 5 
0 -1 1 1 0 3 0 -4 0 4 1 -1 0 1 0 -2 
0 0 1 1 0 1 0 -2 0 0 1 1 0 2 0 -4 
0 4 1 -1 0 -8 0 9 1 -1 0 0 0 -4 0 2 
1 1 0 -3 0 0 1 1 0 0 0 -5 0 0 1 1 
0 1 0 -3 1 1 0 -1 0 2 1 -1 0 3 0 -1 
1 1 0 1 0 -5 0 2 1 -1 0 1 0 -7 0 1 
1 -1 0 0 0 -6 0 1 1 -1 0 1 0 -2 0 1 
1 1 0 -3 0 0 1 1 0 1 0 -4 0 2 1 1 
0 2 0 -3 0 1 1 2 0 1 0 -3 0 1 1 -1 
0 2 0 0 1 -1 0 1 0 -4 0 1 1 -1 0 4 
0 -1 1 1 0 1 0 -3 0 1 1 1 0 8 0 -9 
0 8 1 1 0 2 0 -4 0 4 1 -1 0 -3 0 7 
1 -1 0 4 0 -4 0 3 1 1 0 2 0 -3 0 0 
1 2 0 -3 1 1 0 -4 0 0 1 1 0 0 0 -2 
0 1 1 -1 0 2 0 -3 0 1 1 1 0 1 0 -2 
0 0 1 1 0 -4 152 166 300 MP stroke
0 2 1 0 0 -6 1 -1 0 1 0 -6 0 3 1 -1 
0 1 0 -2 0 1 1 1 0 -1 0 6 1 1 0 -1 
0 9 1 1 0 19 1 -1 0 16 0 -16 0 15 1 1 
0 4 0 -6 0 1 1 -1 0 1 0 -17 1 1 0 -20 
0 1 1 1 0 1 0 -4 0 2 1 1 0 -1 0 3 
1 -1 0 7 1 1 0 5 1 -1 0 2 0 -10 0 1 
1 -1 0 1 0 -8 1 1 0 2 0 -7 0 7 1 -3 
0 3 0 -7 0 5 1 1 0 3 0 -4 0 1 1 -1 
0 1 0 -2 0 1 1 1 0 -5 0 2 1 1 0 1 
0 -3 0 1 1 1 0 -2 0 1 1 -1 0 1 0 -1 
0 1 1 -1 0 0 0 1 1 -1 0 1 0 -1 0 1 
1 -1 0 1 0 -1 0 0 1 1 0 0 0 -1 0 1 
1 -1 0 1 0 -1 0 0 1 1 0 -1 0 1 1 -1 
0 1 0 0 1 -1 0 0 0 1 1 -1 0 1 0 -1 
0 1 1 -1 0 1 1 -1 0 1 0 -1 0 1 1 -1 
0 1 0 -1 1 1 0 1 0 -2 0 1 1 -1 0 2 
0 -2 0 1 1 1 0 1 0 -4 0 0 1 1 0 2 
0 -2 0 0 1 1 0 2 0 -4 0 3 1 -2 0 2 
0 -2 0 1 1 1 0 2 0 -3 0 3 1 -1 0 1 
0 -2 0 1 1 -1 0 0 0 -3 1 1 0 1 0 -2 
0 1 1 1 0 2 0 -3 0 1 1 -1 0 2 0 -2 
104 163 169 MP stroke
gr

c8

end %%Color Dict

eplot
%%EndObject

epage
end

showpage

%%Trailer
%%EOF
