%!PS-Adobe-3.0 EPSF-3.0
%%Creator: MATLAB, The MathWorks, Inc. Version 8.0.0.783 (R2012b). Operating System: Darwin 12.5.0 Darwin Kernel Version 12.5.0: Sun Sep 29 13:33:47 PDT 2013; root:xnu-2050.48.12~1/RELEASE_X86_64 x86_64.
%%Title: figs/multiple_regression_models.eps
%%CreationDate: 12/12/2013  12:22:54
%%DocumentNeededFonts: Helvetica
%%DocumentProcessColors: Cyan Magenta Yellow Black
%%LanguageLevel: 2
%%Pages: 1
%%BoundingBox:    60   282   548   504
%%EndComments

%%BeginProlog
% MathWorks dictionary
/MathWorks 160 dict begin
% definition operators
/bdef {bind def} bind def
/ldef {load def} bind def
/xdef {exch def} bdef
/xstore {exch store} bdef
% operator abbreviations
/c  /clip ldef
/cc /concat ldef
/cp /closepath ldef
/gr /grestore ldef
/gs /gsave ldef
/mt /moveto ldef
/np /newpath ldef
/cm /currentmatrix ldef
/sm /setmatrix ldef
/rm /rmoveto ldef
/rl /rlineto ldef
/s {show newpath} bdef
/sc {setcmykcolor} bdef
/sr /setrgbcolor ldef
/sg /setgray ldef
/w /setlinewidth ldef
/j /setlinejoin ldef
/cap /setlinecap ldef
/rc {rectclip} bdef
/rf {rectfill} bdef
% page state control
/pgsv () def
/bpage {/pgsv save def} bdef
/epage {pgsv restore} bdef
/bplot /gsave ldef
/eplot {stroke grestore} bdef
% orientation switch
/portraitMode 0 def /landscapeMode 1 def /rotateMode 2 def
% coordinate system mappings
/dpi2point 0 def
% font control
/FontSize 0 def
/FMS {/FontSize xstore findfont [FontSize 0 0 FontSize neg 0 0]
  makefont setfont} bdef
/reencode {exch dup where {pop load} {pop StandardEncoding} ifelse
  exch dup 3 1 roll findfont dup length dict begin
  { 1 index /FID ne {def}{pop pop} ifelse } forall
  /Encoding exch def currentdict end definefont pop} bdef
/isroman {findfont /CharStrings get /Agrave known} bdef
/FMSR {3 1 roll 1 index dup isroman {reencode} {pop pop} ifelse
  exch FMS} bdef
/csm {1 dpi2point div -1 dpi2point div scale neg translate
 dup landscapeMode eq {pop -90 rotate}
  {rotateMode eq {90 rotate} if} ifelse} bdef
% line types: solid, dotted, dashed, dotdash
/SO { [] 0 setdash } bdef
/DO { [.5 dpi2point mul 4 dpi2point mul] 0 setdash } bdef
/DA { [6 dpi2point mul] 0 setdash } bdef
/DD { [.5 dpi2point mul 4 dpi2point mul 6 dpi2point mul 4
  dpi2point mul] 0 setdash } bdef
% macros for lines and objects
/L {lineto stroke} bdef
/MP {3 1 roll moveto 1 sub {rlineto} repeat} bdef
/AP {{rlineto} repeat} bdef
/PDlw -1 def
/W {/PDlw currentlinewidth def setlinewidth} def
/PP {closepath eofill} bdef
/DP {closepath stroke} bdef
/MR {4 -2 roll moveto dup  0 exch rlineto exch 0 rlineto
  neg 0 exch rlineto closepath} bdef
/FR {MR stroke} bdef
/PR {MR fill} bdef
/L1i {{currentfile picstr readhexstring pop} image} bdef
/tMatrix matrix def
/MakeOval {newpath tMatrix currentmatrix pop translate scale
0 0 1 0 360 arc tMatrix setmatrix} bdef
/FO {MakeOval stroke} bdef
/PO {MakeOval fill} bdef
/PD {currentlinewidth 2 div 0 360 arc fill
   PDlw -1 eq not {PDlw w /PDlw -1 def} if} def
/FA {newpath tMatrix currentmatrix pop translate scale
  0 0 1 5 -2 roll arc tMatrix setmatrix stroke} bdef
/PA {newpath tMatrix currentmatrix pop	translate 0 0 moveto scale
  0 0 1 5 -2 roll arc closepath tMatrix setmatrix fill} bdef
/FAn {newpath tMatrix currentmatrix pop translate scale
  0 0 1 5 -2 roll arcn tMatrix setmatrix stroke} bdef
/PAn {newpath tMatrix currentmatrix pop translate 0 0 moveto scale
  0 0 1 5 -2 roll arcn closepath tMatrix setmatrix fill} bdef
/vradius 0 def /hradius 0 def /lry 0 def
/lrx 0 def /uly 0 def /ulx 0 def /rad 0 def
/MRR {/vradius xdef /hradius xdef /lry xdef /lrx xdef /uly xdef
  /ulx xdef newpath tMatrix currentmatrix pop ulx hradius add uly
  vradius add translate hradius vradius scale 0 0 1 180 270 arc 
  tMatrix setmatrix lrx hradius sub uly vradius add translate
  hradius vradius scale 0 0 1 270 360 arc tMatrix setmatrix
  lrx hradius sub lry vradius sub translate hradius vradius scale
  0 0 1 0 90 arc tMatrix setmatrix ulx hradius add lry vradius sub
  translate hradius vradius scale 0 0 1 90 180 arc tMatrix setmatrix
  closepath} bdef
/FRR {MRR stroke } bdef
/PRR {MRR fill } bdef
/MlrRR {/lry xdef /lrx xdef /uly xdef /ulx xdef /rad lry uly sub 2 div def
  newpath tMatrix currentmatrix pop ulx rad add uly rad add translate
  rad rad scale 0 0 1 90 270 arc tMatrix setmatrix lrx rad sub lry rad
  sub translate rad rad scale 0 0 1 270 90 arc tMatrix setmatrix
  closepath} bdef
/FlrRR {MlrRR stroke } bdef
/PlrRR {MlrRR fill } bdef
/MtbRR {/lry xdef /lrx xdef /uly xdef /ulx xdef /rad lrx ulx sub 2 div def
  newpath tMatrix currentmatrix pop ulx rad add uly rad add translate
  rad rad scale 0 0 1 180 360 arc tMatrix setmatrix lrx rad sub lry rad
  sub translate rad rad scale 0 0 1 0 180 arc tMatrix setmatrix
  closepath} bdef
/FtbRR {MtbRR stroke } bdef
/PtbRR {MtbRR fill } bdef
/stri 6 array def /dtri 6 array def
/smat 6 array def /dmat 6 array def
/tmat1 6 array def /tmat2 6 array def /dif 3 array def
/asub {/ind2 exch def /ind1 exch def dup dup
  ind1 get exch ind2 get sub exch } bdef
/tri_to_matrix {
  2 0 asub 3 1 asub 4 0 asub 5 1 asub
  dup 0 get exch 1 get 7 -1 roll astore } bdef
/compute_transform {
  dmat dtri tri_to_matrix tmat1 invertmatrix 
  smat stri tri_to_matrix tmat2 concatmatrix } bdef
/ds {stri astore pop} bdef
/dt {dtri astore pop} bdef
/db {2 copy /cols xdef /rows xdef mul dup 3 mul string
  currentfile 
  3 index 0 eq {/ASCIIHexDecode filter}
  {/ASCII85Decode filter 3 index 2 eq {/RunLengthDecode filter} if }
  ifelse exch readstring pop
  dup 0 3 index getinterval /rbmap xdef
  dup 2 index dup getinterval /gbmap xdef
  1 index dup 2 mul exch getinterval /bbmap xdef pop pop}bdef
/it {gs np dtri aload pop moveto lineto lineto cp c
  cols rows 8 compute_transform 
  rbmap gbmap bbmap true 3 colorimage gr}bdef
/il {newpath moveto lineto stroke}bdef
currentdict end def
%%EndProlog

%%BeginSetup
MathWorks begin

0 cap

end
%%EndSetup

%%Page: 1 1
%%BeginPageSetup
%%PageBoundingBox:    60   282   548   504
MathWorks begin
bpage
%%EndPageSetup

%%BeginObject: obj1
bplot

/dpi2point 1.01389 def
portraitMode 0022 0516 csm

   39     5   495   225 rc
86 dict begin %Colortable dictionary
/c0 { 0.000000 0.000000 0.000000 sr} bdef
/c1 { 1.000000 1.000000 1.000000 sr} bdef
/c2 { 0.900000 0.000000 0.000000 sr} bdef
/c3 { 0.000000 0.820000 0.000000 sr} bdef
/c4 { 0.000000 0.000000 0.800000 sr} bdef
/c5 { 0.910000 0.820000 0.320000 sr} bdef
/c6 { 1.000000 0.260000 0.820000 sr} bdef
/c7 { 0.000000 0.820000 0.820000 sr} bdef
c0
1 j
1 sg
   0    0  577  231 rf
0.506944 w
0 180 446 0 0 -180 75 197 4 MP
PP
-446 0 0 180 446 0 0 -180 75 197 5 MP stroke
0.337963 w
DO
0 sg
  75  197 mt   75   17 L
  75   17 mt   75   17 L
 119  197 mt  119   17 L
 119   17 mt  119   17 L
 164  197 mt  164   17 L
 164   17 mt  164   17 L
 208  197 mt  208   17 L
 208   17 mt  208   17 L
 253  197 mt  253   17 L
 253   17 mt  253   17 L
 298  197 mt  298   17 L
 298   17 mt  298   17 L
 342  197 mt  342   17 L
 342   17 mt  342   17 L
 387  197 mt  387   17 L
 387   17 mt  387   17 L
 431  197 mt  431   17 L
 431   17 mt  431   17 L
 476  197 mt  476   17 L
 476   17 mt  476   17 L
 521  197 mt  521   17 L
 521   17 mt  521   17 L
  75  197 mt  521  197 L
 521  197 mt  521  197 L
  75  152 mt  521  152 L
 521  152 mt  521  152 L
  75  107 mt  521  107 L
 521  107 mt  521  107 L
  75   62 mt  521   62 L
 521   62 mt  521   62 L
  75   17 mt  521   17 L
 521   17 mt  521   17 L
SO
0.506944 w
  75  197 mt  521  197 L
  75   17 mt  521   17 L
  75  197 mt   75   17 L
 521  197 mt  521   17 L
  75  197 mt  521  197 L
  75  197 mt   75   17 L
  75  197 mt   75  192 L
  75   17 mt   75   21 L
%%IncludeResource: font Helvetica
/Helvetica /ISOLatin1Encoding 10.1389 FMSR

  73  208 mt 
(0) s
 119  197 mt  119  192 L
 119   17 mt  119   21 L
 114  208 mt 
(10) s
 164  197 mt  164  192 L
 164   17 mt  164   21 L
 159  208 mt 
(20) s
 208  197 mt  208  192 L
 208   17 mt  208   21 L
 203  208 mt 
(30) s
 253  197 mt  253  192 L
 253   17 mt  253   21 L
 248  208 mt 
(40) s
 298  197 mt  298  192 L
 298   17 mt  298   21 L
 293  208 mt 
(50) s
 342  197 mt  342  192 L
 342   17 mt  342   21 L
 337  208 mt 
(60) s
 387  197 mt  387  192 L
 387   17 mt  387   21 L
 382  208 mt 
(70) s
 431  197 mt  431  192 L
 431   17 mt  431   21 L
 426  208 mt 
(80) s
 476  197 mt  476  192 L
 476   17 mt  476   21 L
 471  208 mt 
(90) s
 521  197 mt  521  192 L
 521   17 mt  521   21 L
 513  208 mt 
(100) s
  75  197 mt   79  197 L
 521  197 mt  516  197 L
  67  200 mt 
(0) s
  75  152 mt   79  152 L
 521  152 mt  516  152 L
  67  155 mt 
(5) s
  75  107 mt   79  107 L
 521  107 mt  516  107 L
  61  110 mt 
(10) s
  75   62 mt   79   62 L
 521   62 mt  516   62 L
  61   65 mt 
(15) s
  75   17 mt   79   17 L
 521   17 mt  516   17 L
  61   20 mt 
(20) s
  75  197 mt  521  197 L
  75   17 mt  521   17 L
  75  197 mt   75   17 L
 521  197 mt  521   17 L
gs 75 17 447 181 rc
2.02778 w
/c8 { 0.000000 0.000000 1.000000 sr} bdef
c8
9 0 9 -1 9 -1 9 0 9 -1 8 -1 9 0 9 -1 
9 -1 9 -1 9 0 9 -1 9 -1 9 -1 9 -1 9 -1 
9 -1 9 -1 8 -1 9 -1 9 -1 9 -1 9 -1 9 -1 
9 -2 9 -1 9 -1 9 -2 9 -1 9 -2 8 -1 9 -2 
9 -2 9 -2 9 -2 9 -2 9 -3 9 -2 9 -3 9 -3 
9 -4 9 -3 9 -5 8 -5 9 -6 9 -8 9 -11 9 -16 
9 -34 79 169 50 MP stroke
gr

2.02778 w
c8
gs 69 16 458 164 rc
   3    3   79  169 FO
   3    3   88  135 FO
   3    3   97  119 FO
   3    3  106  108 FO
   3    3  115  100 FO
   3    3  124   94 FO
   3    3  132   89 FO
   3    3  141   84 FO
   3    3  150   81 FO
   3    3  159   77 FO
   3    3  168   74 FO
   3    3  177   71 FO
   3    3  186   69 FO
   3    3  195   66 FO
   3    3  204   64 FO
   3    3  213   62 FO
   3    3  222   60 FO
   3    3  231   58 FO
   3    3  240   56 FO
   3    3  248   55 FO
   3    3  257   53 FO
   3    3  266   52 FO
   3    3  275   50 FO
   3    3  284   49 FO
   3    3  293   48 FO
   3    3  302   46 FO
   3    3  311   45 FO
   3    3  320   44 FO
   3    3  329   43 FO
   3    3  338   42 FO
   3    3  347   41 FO
   3    3  355   40 FO
   3    3  364   39 FO
   3    3  373   38 FO
   3    3  382   37 FO
   3    3  391   36 FO
   3    3  400   35 FO
   3    3  409   34 FO
   3    3  418   33 FO
   3    3  427   33 FO
   3    3  436   32 FO
   3    3  445   31 FO
   3    3  454   30 FO
   3    3  463   30 FO
   3    3  471   29 FO
   3    3  480   28 FO
   3    3  489   28 FO
   3    3  498   27 FO
   3    3  507   26 FO
   3    3  516   26 FO
gr

gs 75 17 447 181 rc
/c9 { 1.000000 0.000000 0.000000 sr} bdef
c9
9 0 9 -1 9 0 9 -1 9 0 8 -1 9 0 9 -1 
9 -1 9 0 9 -1 9 0 9 -1 9 -1 9 0 9 -1 
9 -1 9 0 8 -1 9 -1 9 -1 9 0 9 -1 9 -1 
9 -1 9 -1 9 -1 9 -1 9 -1 9 -1 8 -1 9 -2 
9 -1 9 -1 9 -2 9 -2 9 -1 9 -2 9 -2 9 -3 
9 -2 9 -3 9 -3 8 -4 9 -5 9 -5 9 -8 9 -12 
9 -24 79 179 50 MP stroke
gr

c9
gs 69 65 458 126 rc
0 j
0 -6 -6 0 0 6 6 0 76 176 5 MP
DP
0 -6 -6 0 0 6 6 0 85 152 5 MP
DP
0 -6 -6 0 0 6 6 0 94 140 5 MP
DP
0 -6 -6 0 0 6 6 0 103 132 5 MP
DP
0 -6 -6 0 0 6 6 0 112 127 5 MP
DP
0 -6 -6 0 0 6 6 0 121 122 5 MP
DP
0 -6 -6 0 0 6 6 0 129 118 5 MP
DP
0 -6 -6 0 0 6 6 0 138 115 5 MP
DP
0 -6 -6 0 0 6 6 0 147 112 5 MP
DP
0 -6 -6 0 0 6 6 0 156 110 5 MP
DP
0 -6 -6 0 0 6 6 0 165 107 5 MP
DP
0 -6 -6 0 0 6 6 0 174 105 5 MP
DP
0 -6 -6 0 0 6 6 0 183 103 5 MP
DP
0 -6 -6 0 0 6 6 0 192 102 5 MP
DP
0 -6 -6 0 0 6 6 0 201 100 5 MP
DP
0 -6 -6 0 0 6 6 0 210 98 5 MP
DP
0 -6 -6 0 0 6 6 0 219 97 5 MP
DP
0 -6 -6 0 0 6 6 0 228 96 5 MP
DP
0 -6 -6 0 0 6 6 0 237 94 5 MP
DP
0 -6 -6 0 0 6 6 0 245 93 5 MP
DP
0 -6 -6 0 0 6 6 0 254 92 5 MP
DP
0 -6 -6 0 0 6 6 0 263 91 5 MP
DP
0 -6 -6 0 0 6 6 0 272 90 5 MP
DP
0 -6 -6 0 0 6 6 0 281 89 5 MP
DP
0 -6 -6 0 0 6 6 0 290 88 5 MP
DP
0 -6 -6 0 0 6 6 0 299 87 5 MP
DP
0 -6 -6 0 0 6 6 0 308 86 5 MP
DP
0 -6 -6 0 0 6 6 0 317 85 5 MP
DP
0 -6 -6 0 0 6 6 0 326 85 5 MP
DP
0 -6 -6 0 0 6 6 0 335 84 5 MP
DP
0 -6 -6 0 0 6 6 0 344 83 5 MP
DP
0 -6 -6 0 0 6 6 0 352 82 5 MP
DP
0 -6 -6 0 0 6 6 0 361 82 5 MP
DP
0 -6 -6 0 0 6 6 0 370 81 5 MP
DP
0 -6 -6 0 0 6 6 0 379 80 5 MP
DP
0 -6 -6 0 0 6 6 0 388 80 5 MP
DP
0 -6 -6 0 0 6 6 0 397 79 5 MP
DP
0 -6 -6 0 0 6 6 0 406 78 5 MP
DP
0 -6 -6 0 0 6 6 0 415 78 5 MP
DP
0 -6 -6 0 0 6 6 0 424 77 5 MP
DP
0 -6 -6 0 0 6 6 0 433 77 5 MP
DP
0 -6 -6 0 0 6 6 0 442 76 5 MP
DP
0 -6 -6 0 0 6 6 0 451 75 5 MP
DP
0 -6 -6 0 0 6 6 0 460 75 5 MP
DP
0 -6 -6 0 0 6 6 0 468 74 5 MP
DP
0 -6 -6 0 0 6 6 0 477 74 5 MP
DP
0 -6 -6 0 0 6 6 0 486 73 5 MP
DP
0 -6 -6 0 0 6 6 0 495 73 5 MP
DP
0 -6 -6 0 0 6 6 0 504 72 5 MP
DP
0 -6 -6 0 0 6 6 0 513 72 5 MP
DP
gr

gs 75 17 447 181 rc
/c10 { 1.000000 0.000000 1.000000 sr} bdef
c10
9 -1 9 0 9 -1 9 -1 9 0 8 -1 9 -1 9 0 
9 -1 9 -1 9 -1 9 -1 9 0 9 -1 9 -1 9 -1 
9 -1 9 -1 8 -1 9 -1 9 -1 9 -1 9 -1 9 -1 
9 -2 9 -1 9 -1 9 -2 9 -1 9 -2 8 -1 9 -2 
9 -2 9 -2 9 -2 9 -2 9 -2 9 -3 9 -3 9 -3 
9 -3 9 -4 9 -4 8 -6 9 -6 9 -7 9 -11 9 -15 
9 -34 79 178 50 MP stroke
gr

c10
gs 69 27 458 162 rc
0 j
-3 5 -3 -5 6 0 76 180 4 MP
DP
-3 5 -3 -5 6 0 85 146 4 MP
DP
-3 5 -3 -5 6 0 94 131 4 MP
DP
-3 5 -3 -5 6 0 103 120 4 MP
DP
-3 5 -3 -5 6 0 112 113 4 MP
DP
-3 5 -3 -5 6 0 121 107 4 MP
DP
-3 5 -3 -5 6 0 129 101 4 MP
DP
-3 5 -3 -5 6 0 138 97 4 MP
DP
-3 5 -3 -5 6 0 147 93 4 MP
DP
-3 5 -3 -5 6 0 156 90 4 MP
DP
-3 5 -3 -5 6 0 165 87 4 MP
DP
-3 5 -3 -5 6 0 174 84 4 MP
DP
-3 5 -3 -5 6 0 183 81 4 MP
DP
-3 5 -3 -5 6 0 192 79 4 MP
DP
-3 5 -3 -5 6 0 201 77 4 MP
DP
-3 5 -3 -5 6 0 210 75 4 MP
DP
-3 5 -3 -5 6 0 219 73 4 MP
DP
-3 5 -3 -5 6 0 228 71 4 MP
DP
-3 5 -3 -5 6 0 237 69 4 MP
DP
-3 5 -3 -5 6 0 245 68 4 MP
DP
-3 5 -3 -5 6 0 254 66 4 MP
DP
-3 5 -3 -5 6 0 263 65 4 MP
DP
-3 5 -3 -5 6 0 272 63 4 MP
DP
-3 5 -3 -5 6 0 281 62 4 MP
DP
-3 5 -3 -5 6 0 290 61 4 MP
DP
-3 5 -3 -5 6 0 299 59 4 MP
DP
-3 5 -3 -5 6 0 308 58 4 MP
DP
-3 5 -3 -5 6 0 317 57 4 MP
DP
-3 5 -3 -5 6 0 326 56 4 MP
DP
-3 5 -3 -5 6 0 335 55 4 MP
DP
-3 5 -3 -5 6 0 344 54 4 MP
DP
-3 5 -3 -5 6 0 352 53 4 MP
DP
-3 5 -3 -5 6 0 361 52 4 MP
DP
-3 5 -3 -5 6 0 370 51 4 MP
DP
-3 5 -3 -5 6 0 379 50 4 MP
DP
-3 5 -3 -5 6 0 388 49 4 MP
DP
-3 5 -3 -5 6 0 397 48 4 MP
DP
-3 5 -3 -5 6 0 406 48 4 MP
DP
-3 5 -3 -5 6 0 415 47 4 MP
DP
-3 5 -3 -5 6 0 424 46 4 MP
DP
-3 5 -3 -5 6 0 433 45 4 MP
DP
-3 5 -3 -5 6 0 442 44 4 MP
DP
-3 5 -3 -5 6 0 451 44 4 MP
DP
-3 5 -3 -5 6 0 460 43 4 MP
DP
-3 5 -3 -5 6 0 468 42 4 MP
DP
-3 5 -3 -5 6 0 477 42 4 MP
DP
-3 5 -3 -5 6 0 486 41 4 MP
DP
-3 5 -3 -5 6 0 495 40 4 MP
DP
-3 5 -3 -5 6 0 504 40 4 MP
DP
-3 5 -3 -5 6 0 513 39 4 MP
DP
gr

gs 75 17 447 181 rc
0 sg
9 0 9 -1 9 0 9 0 9 -1 8 0 9 -1 9 0 
9 0 9 -1 9 0 9 -1 9 0 9 -1 9 0 9 -1 
9 0 9 -1 8 0 9 -1 9 0 9 -1 9 0 9 -1 
9 -1 9 0 9 -1 9 -1 9 -1 9 -1 8 0 9 -1 
9 -1 9 -1 9 -1 9 -2 9 -1 9 -1 9 -2 9 -2 
9 -1 9 -2 9 -3 8 -3 9 -3 9 -4 9 -6 9 -8 
9 -19 79 155 50 MP stroke
gr

0 sg
gs 69 68 458 98 rc
  77  153 mt   81  157 L
  81  153 mt   77  157 L
  86  134 mt   90  138 L
  90  134 mt   86  138 L
  95  126 mt   99  130 L
  99  126 mt   95  130 L
 104  120 mt  108  124 L
 108  120 mt  104  124 L
 113  116 mt  117  120 L
 117  116 mt  113  120 L
 122  113 mt  126  117 L
 126  113 mt  122  117 L
 130  110 mt  134  114 L
 134  110 mt  130  114 L
 139  107 mt  143  111 L
 143  107 mt  139  111 L
 148  105 mt  152  109 L
 152  105 mt  148  109 L
 157  104 mt  161  108 L
 161  104 mt  157  108 L
 166  102 mt  170  106 L
 170  102 mt  166  106 L
 175  100 mt  179  104 L
 179  100 mt  175  104 L
 184   99 mt  188  103 L
 188   99 mt  184  103 L
 193   98 mt  197  102 L
 197   98 mt  193  102 L
 202   96 mt  206  100 L
 206   96 mt  202  100 L
 211   95 mt  215   99 L
 215   95 mt  211   99 L
 220   94 mt  224   98 L
 224   94 mt  220   98 L
 229   93 mt  233   97 L
 233   93 mt  229   97 L
 238   92 mt  242   96 L
 242   92 mt  238   96 L
 246   92 mt  250   96 L
 250   92 mt  246   96 L
 255   91 mt  259   95 L
 259   91 mt  255   95 L
 264   90 mt  268   94 L
 268   90 mt  264   94 L
 273   89 mt  277   93 L
 277   89 mt  273   93 L
 282   88 mt  286   92 L
 286   88 mt  282   92 L
 291   88 mt  295   92 L
 295   88 mt  291   92 L
 300   87 mt  304   91 L
 304   87 mt  300   91 L
 309   86 mt  313   90 L
 313   86 mt  309   90 L
 318   86 mt  322   90 L
 322   86 mt  318   90 L
 327   85 mt  331   89 L
 331   85 mt  327   89 L
 336   85 mt  340   89 L
 340   85 mt  336   89 L
 345   84 mt  349   88 L
 349   84 mt  345   88 L
 353   84 mt  357   88 L
 357   84 mt  353   88 L
 362   83 mt  366   87 L
 366   83 mt  362   87 L
 371   83 mt  375   87 L
 375   83 mt  371   87 L
 380   82 mt  384   86 L
 384   82 mt  380   86 L
 389   82 mt  393   86 L
 393   82 mt  389   86 L
 398   81 mt  402   85 L
 402   81 mt  398   85 L
 407   81 mt  411   85 L
 411   81 mt  407   85 L
 416   80 mt  420   84 L
 420   80 mt  416   84 L
 425   80 mt  429   84 L
 429   80 mt  425   84 L
 434   79 mt  438   83 L
 438   79 mt  434   83 L
 443   79 mt  447   83 L
 447   79 mt  443   83 L
 452   79 mt  456   83 L
 456   79 mt  452   83 L
 461   78 mt  465   82 L
 465   78 mt  461   82 L
 469   78 mt  473   82 L
 473   78 mt  469   82 L
 478   77 mt  482   81 L
 482   77 mt  478   81 L
 487   77 mt  491   81 L
 491   77 mt  487   81 L
 496   77 mt  500   81 L
 500   77 mt  496   81 L
 505   76 mt  509   80 L
 509   76 mt  505   80 L
 514   76 mt  518   80 L
 518   76 mt  514   80 L
gr

gs 75 17 447 181 rc
gr

%%IncludeResource: font Helvetica
/Helvetica /ISOLatin1Encoding 12.1667 FMSR

 255  226 mt 
(Variance \(m/s) s
%%IncludeResource: font Helvetica
/Helvetica /ISOLatin1Encoding 9.125 FMSR

 329  220 mt 
(2) s
%%IncludeResource: font Helvetica
/Helvetica /ISOLatin1Encoding 12.1667 FMSR

 334  226 mt 
(\)) s
%%IncludeResource: font Helvetica
/Helvetica /ISOLatin1Encoding 9.125 FMSR

 338  220 mt 
(2) s
%%IncludeResource: font Helvetica
/Helvetica /ISOLatin1Encoding 12.1667 FMSR

  53  141 mt  -90 rotate
(Speed \(m/s\)) s
90 rotate
%%IncludeResource: font Helvetica
/Helvetica /ISOLatin1Encoding 10.1389 FMSR

  74  202 mt 
( ) s
 521   21 mt 
( ) s
0.506944 w
1 sg
0 57 72 0 0 -57 445 193 4 MP
PP
-72 0 0 57 72 0 0 -57 445 193 5 MP stroke
0.337963 w
DO
SO
0.506944 w
0 sg
 445  193 mt  517  193 L
 445  136 mt  517  136 L
 445  193 mt  445  136 L
 517  193 mt  517  136 L
 445  193 mt  517  193 L
 445  193 mt  445  136 L
 445  193 mt  517  193 L
 445  136 mt  517  136 L
 445  193 mt  445  136 L
 517  193 mt  517  136 L
 484  148 mt 
(Run 1) s
gs 445 136 73 58 rc
2.02778 w
c8
30 0 450 144 2 MP stroke
gr

2.02778 w
c8
gs 455 134 21 21 rc
   3    3  465  144 FO
gr

gs 445 136 73 58 rc
gr

0 sg
 484  162 mt 
(Run 2) s
gs 445 136 73 58 rc
c9
30 0 450 157 2 MP stroke
gs 455 147 21 21 rc
0 j
0 -6 -6 0 0 6 6 0 462 154 5 MP
DP
gr

gr

c9
0 sg
 484  176 mt 
(Run 3) s
gs 445 136 73 58 rc
c10
30 0 450 171 2 MP stroke
gs 455 161 21 21 rc
0 j
-3 5 -3 -5 6 0 462 173 4 MP
DP
gr

gr

c10
0 sg
 484  190 mt 
(Run 4) s
gs 445 136 73 58 rc
30 0 450 184 2 MP stroke
gr

gs 455 174 21 21 rc
 463  182 mt  467  186 L
 467  182 mt  463  186 L
gr

gs 445 136 73 58 rc
0.506944 w
gr

0.506944 w

end %%Color Dict

eplot
%%EndObject

epage
end

showpage

%%Trailer
%%EOF
