%!PS-Adobe-3.0 EPSF-3.0
%%Creator: MATLAB, The MathWorks, Inc. Version 8.0.0.783 (R2012b). Operating System: Darwin 12.5.0 Darwin Kernel Version 12.5.0: Sun Sep 29 13:33:47 PDT 2013; root:xnu-2050.48.12~1/RELEASE_X86_64 x86_64.
%%Title: figs/path_estimate_dc_corrected.eps
%%CreationDate: 11/05/2013  15:02:43
%%DocumentNeededFonts: Helvetica
%%DocumentProcessColors: Cyan Magenta Yellow Black
%%LanguageLevel: 2
%%Pages: 1
%%BoundingBox:    46   203   545   586
%%EndComments

%%BeginProlog
% MathWorks dictionary
/MathWorks 160 dict begin
% definition operators
/bdef {bind def} bind def
/ldef {load def} bind def
/xdef {exch def} bdef
/xstore {exch store} bdef
% operator abbreviations
/c  /clip ldef
/cc /concat ldef
/cp /closepath ldef
/gr /grestore ldef
/gs /gsave ldef
/mt /moveto ldef
/np /newpath ldef
/cm /currentmatrix ldef
/sm /setmatrix ldef
/rm /rmoveto ldef
/rl /rlineto ldef
/s {show newpath} bdef
/sc {setcmykcolor} bdef
/sr /setrgbcolor ldef
/sg /setgray ldef
/w /setlinewidth ldef
/j /setlinejoin ldef
/cap /setlinecap ldef
/rc {rectclip} bdef
/rf {rectfill} bdef
% page state control
/pgsv () def
/bpage {/pgsv save def} bdef
/epage {pgsv restore} bdef
/bplot /gsave ldef
/eplot {stroke grestore} bdef
% orientation switch
/portraitMode 0 def /landscapeMode 1 def /rotateMode 2 def
% coordinate system mappings
/dpi2point 0 def
% font control
/FontSize 0 def
/FMS {/FontSize xstore findfont [FontSize 0 0 FontSize neg 0 0]
  makefont setfont} bdef
/reencode {exch dup where {pop load} {pop StandardEncoding} ifelse
  exch dup 3 1 roll findfont dup length dict begin
  { 1 index /FID ne {def}{pop pop} ifelse } forall
  /Encoding exch def currentdict end definefont pop} bdef
/isroman {findfont /CharStrings get /Agrave known} bdef
/FMSR {3 1 roll 1 index dup isroman {reencode} {pop pop} ifelse
  exch FMS} bdef
/csm {1 dpi2point div -1 dpi2point div scale neg translate
 dup landscapeMode eq {pop -90 rotate}
  {rotateMode eq {90 rotate} if} ifelse} bdef
% line types: solid, dotted, dashed, dotdash
/SO { [] 0 setdash } bdef
/DO { [.5 dpi2point mul 4 dpi2point mul] 0 setdash } bdef
/DA { [6 dpi2point mul] 0 setdash } bdef
/DD { [.5 dpi2point mul 4 dpi2point mul 6 dpi2point mul 4
  dpi2point mul] 0 setdash } bdef
% macros for lines and objects
/L {lineto stroke} bdef
/MP {3 1 roll moveto 1 sub {rlineto} repeat} bdef
/AP {{rlineto} repeat} bdef
/PDlw -1 def
/W {/PDlw currentlinewidth def setlinewidth} def
/PP {closepath eofill} bdef
/DP {closepath stroke} bdef
/MR {4 -2 roll moveto dup  0 exch rlineto exch 0 rlineto
  neg 0 exch rlineto closepath} bdef
/FR {MR stroke} bdef
/PR {MR fill} bdef
/L1i {{currentfile picstr readhexstring pop} image} bdef
/tMatrix matrix def
/MakeOval {newpath tMatrix currentmatrix pop translate scale
0 0 1 0 360 arc tMatrix setmatrix} bdef
/FO {MakeOval stroke} bdef
/PO {MakeOval fill} bdef
/PD {currentlinewidth 2 div 0 360 arc fill
   PDlw -1 eq not {PDlw w /PDlw -1 def} if} def
/FA {newpath tMatrix currentmatrix pop translate scale
  0 0 1 5 -2 roll arc tMatrix setmatrix stroke} bdef
/PA {newpath tMatrix currentmatrix pop	translate 0 0 moveto scale
  0 0 1 5 -2 roll arc closepath tMatrix setmatrix fill} bdef
/FAn {newpath tMatrix currentmatrix pop translate scale
  0 0 1 5 -2 roll arcn tMatrix setmatrix stroke} bdef
/PAn {newpath tMatrix currentmatrix pop translate 0 0 moveto scale
  0 0 1 5 -2 roll arcn closepath tMatrix setmatrix fill} bdef
/vradius 0 def /hradius 0 def /lry 0 def
/lrx 0 def /uly 0 def /ulx 0 def /rad 0 def
/MRR {/vradius xdef /hradius xdef /lry xdef /lrx xdef /uly xdef
  /ulx xdef newpath tMatrix currentmatrix pop ulx hradius add uly
  vradius add translate hradius vradius scale 0 0 1 180 270 arc 
  tMatrix setmatrix lrx hradius sub uly vradius add translate
  hradius vradius scale 0 0 1 270 360 arc tMatrix setmatrix
  lrx hradius sub lry vradius sub translate hradius vradius scale
  0 0 1 0 90 arc tMatrix setmatrix ulx hradius add lry vradius sub
  translate hradius vradius scale 0 0 1 90 180 arc tMatrix setmatrix
  closepath} bdef
/FRR {MRR stroke } bdef
/PRR {MRR fill } bdef
/MlrRR {/lry xdef /lrx xdef /uly xdef /ulx xdef /rad lry uly sub 2 div def
  newpath tMatrix currentmatrix pop ulx rad add uly rad add translate
  rad rad scale 0 0 1 90 270 arc tMatrix setmatrix lrx rad sub lry rad
  sub translate rad rad scale 0 0 1 270 90 arc tMatrix setmatrix
  closepath} bdef
/FlrRR {MlrRR stroke } bdef
/PlrRR {MlrRR fill } bdef
/MtbRR {/lry xdef /lrx xdef /uly xdef /ulx xdef /rad lrx ulx sub 2 div def
  newpath tMatrix currentmatrix pop ulx rad add uly rad add translate
  rad rad scale 0 0 1 180 360 arc tMatrix setmatrix lrx rad sub lry rad
  sub translate rad rad scale 0 0 1 0 180 arc tMatrix setmatrix
  closepath} bdef
/FtbRR {MtbRR stroke } bdef
/PtbRR {MtbRR fill } bdef
/stri 6 array def /dtri 6 array def
/smat 6 array def /dmat 6 array def
/tmat1 6 array def /tmat2 6 array def /dif 3 array def
/asub {/ind2 exch def /ind1 exch def dup dup
  ind1 get exch ind2 get sub exch } bdef
/tri_to_matrix {
  2 0 asub 3 1 asub 4 0 asub 5 1 asub
  dup 0 get exch 1 get 7 -1 roll astore } bdef
/compute_transform {
  dmat dtri tri_to_matrix tmat1 invertmatrix 
  smat stri tri_to_matrix tmat2 concatmatrix } bdef
/ds {stri astore pop} bdef
/dt {dtri astore pop} bdef
/db {2 copy /cols xdef /rows xdef mul dup 3 mul string
  currentfile 
  3 index 0 eq {/ASCIIHexDecode filter}
  {/ASCII85Decode filter 3 index 2 eq {/RunLengthDecode filter} if }
  ifelse exch readstring pop
  dup 0 3 index getinterval /rbmap xdef
  dup 2 index dup getinterval /gbmap xdef
  1 index dup 2 mul exch getinterval /bbmap xdef pop pop}bdef
/it {gs np dtri aload pop moveto lineto lineto cp c
  cols rows 8 compute_transform 
  rbmap gbmap bbmap true 3 colorimage gr}bdef
/il {newpath moveto lineto stroke}bdef
currentdict end def
%%EndProlog

%%BeginSetup
MathWorks begin

0 cap

end
%%EndSetup

%%Page: 1 1
%%BeginPageSetup
%%PageBoundingBox:    46   203   545   586
MathWorks begin
bpage
%%EndPageSetup

%%BeginObject: obj1
bplot

/dpi2point 1.01389 def
portraitMode 0026 0614 csm

   21    20   506   388 rc
85 dict begin %Colortable dictionary
/c0 { 0.000000 0.000000 0.000000 sr} bdef
/c1 { 1.000000 1.000000 1.000000 sr} bdef
/c2 { 0.900000 0.000000 0.000000 sr} bdef
/c3 { 0.000000 0.820000 0.000000 sr} bdef
/c4 { 0.000000 0.000000 0.800000 sr} bdef
/c5 { 0.910000 0.820000 0.320000 sr} bdef
/c6 { 1.000000 0.260000 0.820000 sr} bdef
/c7 { 0.000000 0.820000 0.820000 sr} bdef
c0
1 j
1 sg
   0    0  569  426 rf
0.506944 w
0 346 440 0 0 -346 74 378 4 MP
PP
-440 0 0 346 440 0 0 -346 74 378 5 MP stroke
0.337963 w
DO
0 sg
  74  378 mt   74   32 L
  74   32 mt   74   32 L
 136  378 mt  136   32 L
 136   32 mt  136   32 L
 199  378 mt  199   32 L
 199   32 mt  199   32 L
 262  378 mt  262   32 L
 262   32 mt  262   32 L
 325  378 mt  325   32 L
 325   32 mt  325   32 L
 388  378 mt  388   32 L
 388   32 mt  388   32 L
 451  378 mt  451   32 L
 451   32 mt  451   32 L
 514  378 mt  514   32 L
 514   32 mt  514   32 L
  74  378 mt  514  378 L
 514  378 mt  514  378 L
  74  308 mt  514  308 L
 514  308 mt  514  308 L
  74  239 mt  514  239 L
 514  239 mt  514  239 L
  74  170 mt  514  170 L
 514  170 mt  514  170 L
  74  101 mt  514  101 L
 514  101 mt  514  101 L
  74   32 mt  514   32 L
 514   32 mt  514   32 L
SO
0.506944 w
  74  378 mt  514  378 L
  74   32 mt  514   32 L
  74  378 mt   74   32 L
 514  378 mt  514   32 L
  74  378 mt  514  378 L
  74  378 mt   74   32 L
  74  378 mt   74  373 L
  74   32 mt   74   36 L
%%IncludeResource: font Helvetica
/Helvetica /ISOLatin1Encoding 10.1389 FMSR

  58  389 mt 
(-3000) s
 136  378 mt  136  373 L
 136   32 mt  136   36 L
 120  389 mt 
(-2500) s
 199  378 mt  199  373 L
 199   32 mt  199   36 L
 183  389 mt 
(-2000) s
 262  378 mt  262  373 L
 262   32 mt  262   36 L
 246  389 mt 
(-1500) s
 325  378 mt  325  373 L
 325   32 mt  325   36 L
 309  389 mt 
(-1000) s
 388  378 mt  388  373 L
 388   32 mt  388   36 L
 375  389 mt 
(-500) s
 451  378 mt  451  373 L
 451   32 mt  451   36 L
 449  389 mt 
(0) s
 514  378 mt  514  373 L
 514   32 mt  514   36 L
 506  389 mt 
(500) s
  74  378 mt   78  378 L
 514  378 mt  509  378 L
  43  381 mt 
(-1500) s
  74  308 mt   78  308 L
 514  308 mt  509  308 L
  43  311 mt 
(-1000) s
  74  239 mt   78  239 L
 514  239 mt  509  239 L
  49  242 mt 
(-500) s
  74  170 mt   78  170 L
 514  170 mt  509  170 L
  66  173 mt 
(0) s
  74  101 mt   78  101 L
 514  101 mt  509  101 L
  55  104 mt 
(500) s
  74   32 mt   78   32 L
 514   32 mt  509   32 L
  49   35 mt 
(1000) s
  74  378 mt  514  378 L
  74   32 mt  514   32 L
  74  378 mt   74   32 L
 514  378 mt  514   32 L
gs 74 32 441 347 rc
2.02778 w
/c8 { 0.000000 0.000000 1.000000 sr} bdef
c8
-24 -2 -28 23 -15 -8 -27 13 -1 -64 -27 4 -5 -29 -74 -86 
-13 21 -18 -31 -3 -44 -25 2 -6 -16 -18 3 -67 -25 -30 16 
-5 16 1 7 48 21 -5 11 -9 4 -13 24 0 74 451 170 24 MP stroke
/c9 { 1.000000 0.000000 0.000000 sr} bdef
c9
-1 0 -1 0 -1 0 -2 -1 -1 0 -2 -1 -2 -2 -1 -2 
-2 -2 -2 -1 -2 -1 -3 -2 -2 -1 -3 -2 -3 0 -3 0 
-2 0 -3 0 -3 0 -3 1 -2 2 -2 1 -2 2 -2 1 
-2 2 -1 1 -2 2 -1 1 -2 1 -1 2 -2 1 -2 2 
-2 1 -2 1 -2 1 -3 0 -2 0 -2 -1 -3 -1 -2 -1 
-2 0 -3 0 -2 0 -2 1 -2 1 -2 1 -2 2 -2 1 
-2 2 -1 1 -2 2 -2 2 -1 1 -2 2 -1 1 -2 1 
-1 1 -1 1 -1 1 -1 1 -1 0 -1 -1 -1 -1 0 -8 
-1 -1 0 -11 -1 -3 0 -12 -1 -3 0 -7 -1 -3 0 -5 
-1 -2 0 -9 -1 -2 0 -7 -1 -2 0 -4 -1 -1 -1 -1 
-1 0 -2 0 -2 0 -1 0 -1 0 -1 0 -1 1 -1 0 
-1 -1 -2 0 -2 0 -1 1 -2 0 -1 1 -1 0 -1 0 
-1 0 -1 0 0 -2 -2 -2 -1 -1 0 -1 -1 -1 -1 -1 
-1 -1 0 -1 -1 -1 -1 -1 -1 -1 -1 -1 -1 0 -2 -1 
-1 0 -1 -1 -1 -1 -2 -1 -1 -1 -1 -1 -1 0 -1 -2 
-2 -1 -1 -1 -1 -1 -1 -1 -1 -1 -1 -1 -1 -1 -1 -1 
-1 -1 -1 -1 0 -1 -1 -1 -1 -1 -1 -1 -1 -1 -1 -1 
-1 -1 -1 -1 -1 -1 -1 -1 0 -1 -1 -1 -1 -1 -1 -1 
-1 -1 -1 0 -1 -1 -1 0 0 0 0 2 -1 1 -1 1 
0 2 -1 1 -1 1 0 2 -1 1 0 1 -1 1 0 2 
-1 1 -1 1 -1 0 -1 0 -1 0 1 0 -2 -2 -1 -1 
0 -1 -1 -2 -1 -1 -1 -2 -1 -1 -1 -2 -1 -1 -1 -2 
-1 -1 -1 -2 -1 -1 -1 -1 -1 -2 -1 -1 -2 -1 -1 -1 
-1 -1 0 -1 -1 -1 0 -2 -1 -1 1 -1 -1 0 1 -1 
0 -2 1 -1 0 -3 1 -1 0 -3 1 -2 1 -1 0 -2 
1 -2 0 -1 1 -2 0 -3 1 -1 0 -5 1 -1 0 -2 
1 -1 0 -7 -1 -1 -1 1 -1 0 -1 -1 -1 0 -1 0 
-2 0 -2 0 -2 0 -1 0 -2 0 -2 0 -2 0 -2 0 
-2 0 -2 0 -2 0 -2 0 -1 0 -2 0 -1 0 -2 0 
-1 0 -1 -1 -1 0 0 -2 -1 -1 0 -7 -1 -4 -1 -1 
-1 0 -1 0 -1 0 -1 0 -1 0 -1 0 -1 0 1 0 
-1 0 -1 0 -1 0 -1 0 -1 0 -2 0 -1 0 -1 -1 
-1 0 -1 0 -1 -1 -2 0 -1 -1 -1 0 -1 0 -1 -1 
-1 -1 -1 0 -1 -1 -2 0 -1 0 -1 -1 -1 0 -1 -1 
-1 0 -1 0 -1 -1 -1 0 -1 -1 -1 0 -2 -1 -1 -1 
-2 -1 -1 0 -1 -1 -1 0 -1 -1 -1 0 -1 0 -1 -1 
-1 0 -1 -1 -1 0 -1 0 -1 0 -1 0 -2 0 -2 0 
-2 1 -2 1 -1 0 430 296 300 MP stroke
-2 1 -2 0 -2 1 -1 1 -2 0 -2 1 -1 1 -1 0 
-2 1 0 1 -2 1 0 3 -1 2 -1 2 0 1 -1 2 
0 1 -1 2 0 3 1 2 0 3 1 1 1 1 1 0 
2 0 1 1 2 1 1 0 1 1 1 1 1 0 1 1 
1 0 1 0 1 0 1 0 2 0 1 0 2 0 1 0 
1 0 1 0 2 0 1 0 1 1 0 3 -1 1 0 3 
1 1 -1 1 -1 0 -1 1 0 3 -1 1 -1 1 -1 1 
-1 1 -1 1 -1 1 -1 1 -1 2 -1 1 -1 2 -1 2 
0 1 -1 2 -1 2 0 2 -2 1 -1 2 -1 1 -1 2 
-1 2 -1 1 -1 2 0 2 -1 2 -1 2 0 6 -1 2 
0 5 1 2 0 4 -1 2 0 4 -1 1 0 6 -1 1 
0 4 -1 1 451 170 91 MP stroke
gr

2.02778 w
c9
0 sg
%%IncludeResource: font Helvetica
/Helvetica /ISOLatin1Encoding 12.1667 FMSR

 211  403 mt 
(Longitudinal Displacement \(m\)) s
  35  283 mt  -90 rotate
(Latitudinal Displacement \(m\)) s
90 rotate
%%IncludeResource: font Helvetica
/Helvetica /ISOLatin1Encoding 10.1389 FMSR

  73  383 mt 
( ) s
 514   36 mt 
( ) s
0.506944 w
1 sg
0 30 84 0 0 -30 426 68 4 MP
PP
-84 0 0 30 84 0 0 -30 426 68 5 MP stroke
0.337963 w
DO
SO
0.506944 w
0 sg
 426   68 mt  510   68 L
 426   38 mt  510   38 L
 426   68 mt  426   38 L
 510   68 mt  510   38 L
 426   68 mt  510   68 L
 426   68 mt  426   38 L
 426   68 mt  510   68 L
 426   38 mt  510   38 L
 426   68 mt  426   38 L
 510   68 mt  510   38 L
 465   51 mt 
(Estimate) s
gs 426 38 85 31 rc
2.02778 w
c8
30 0 431 46 2 MP stroke
gr

2.02778 w
c8
0 sg
 465   64 mt 
(True) s
gs 426 38 85 31 rc
c9
30 0 431 59 2 MP stroke
0.506944 w
gr

0.506944 w
c9

end %%Color Dict

eplot
%%EndObject

epage
end

showpage

%%Trailer
%%EOF
