%!PS-Adobe-3.0 EPSF-3.0
%%Creator: MATLAB, The MathWorks, Inc. Version 8.0.0.783 (R2012b). Operating System: Darwin 12.5.0 Darwin Kernel Version 12.5.0: Sun Sep 29 13:33:47 PDT 2013; root:xnu-2050.48.12~1/RELEASE_X86_64 x86_64.
%%Title: figs/path_estimate_thetamin_10.eps
%%CreationDate: 11/22/2013  13:51:17
%%DocumentNeededFonts: Helvetica
%%DocumentProcessColors: Cyan Magenta Yellow Black
%%LanguageLevel: 2
%%Pages: 1
%%BoundingBox:    52   203   548   586
%%EndComments

%%BeginProlog
% MathWorks dictionary
/MathWorks 160 dict begin
% definition operators
/bdef {bind def} bind def
/ldef {load def} bind def
/xdef {exch def} bdef
/xstore {exch store} bdef
% operator abbreviations
/c  /clip ldef
/cc /concat ldef
/cp /closepath ldef
/gr /grestore ldef
/gs /gsave ldef
/mt /moveto ldef
/np /newpath ldef
/cm /currentmatrix ldef
/sm /setmatrix ldef
/rm /rmoveto ldef
/rl /rlineto ldef
/s {show newpath} bdef
/sc {setcmykcolor} bdef
/sr /setrgbcolor ldef
/sg /setgray ldef
/w /setlinewidth ldef
/j /setlinejoin ldef
/cap /setlinecap ldef
/rc {rectclip} bdef
/rf {rectfill} bdef
% page state control
/pgsv () def
/bpage {/pgsv save def} bdef
/epage {pgsv restore} bdef
/bplot /gsave ldef
/eplot {stroke grestore} bdef
% orientation switch
/portraitMode 0 def /landscapeMode 1 def /rotateMode 2 def
% coordinate system mappings
/dpi2point 0 def
% font control
/FontSize 0 def
/FMS {/FontSize xstore findfont [FontSize 0 0 FontSize neg 0 0]
  makefont setfont} bdef
/reencode {exch dup where {pop load} {pop StandardEncoding} ifelse
  exch dup 3 1 roll findfont dup length dict begin
  { 1 index /FID ne {def}{pop pop} ifelse } forall
  /Encoding exch def currentdict end definefont pop} bdef
/isroman {findfont /CharStrings get /Agrave known} bdef
/FMSR {3 1 roll 1 index dup isroman {reencode} {pop pop} ifelse
  exch FMS} bdef
/csm {1 dpi2point div -1 dpi2point div scale neg translate
 dup landscapeMode eq {pop -90 rotate}
  {rotateMode eq {90 rotate} if} ifelse} bdef
% line types: solid, dotted, dashed, dotdash
/SO { [] 0 setdash } bdef
/DO { [.5 dpi2point mul 4 dpi2point mul] 0 setdash } bdef
/DA { [6 dpi2point mul] 0 setdash } bdef
/DD { [.5 dpi2point mul 4 dpi2point mul 6 dpi2point mul 4
  dpi2point mul] 0 setdash } bdef
% macros for lines and objects
/L {lineto stroke} bdef
/MP {3 1 roll moveto 1 sub {rlineto} repeat} bdef
/AP {{rlineto} repeat} bdef
/PDlw -1 def
/W {/PDlw currentlinewidth def setlinewidth} def
/PP {closepath eofill} bdef
/DP {closepath stroke} bdef
/MR {4 -2 roll moveto dup  0 exch rlineto exch 0 rlineto
  neg 0 exch rlineto closepath} bdef
/FR {MR stroke} bdef
/PR {MR fill} bdef
/L1i {{currentfile picstr readhexstring pop} image} bdef
/tMatrix matrix def
/MakeOval {newpath tMatrix currentmatrix pop translate scale
0 0 1 0 360 arc tMatrix setmatrix} bdef
/FO {MakeOval stroke} bdef
/PO {MakeOval fill} bdef
/PD {currentlinewidth 2 div 0 360 arc fill
   PDlw -1 eq not {PDlw w /PDlw -1 def} if} def
/FA {newpath tMatrix currentmatrix pop translate scale
  0 0 1 5 -2 roll arc tMatrix setmatrix stroke} bdef
/PA {newpath tMatrix currentmatrix pop	translate 0 0 moveto scale
  0 0 1 5 -2 roll arc closepath tMatrix setmatrix fill} bdef
/FAn {newpath tMatrix currentmatrix pop translate scale
  0 0 1 5 -2 roll arcn tMatrix setmatrix stroke} bdef
/PAn {newpath tMatrix currentmatrix pop translate 0 0 moveto scale
  0 0 1 5 -2 roll arcn closepath tMatrix setmatrix fill} bdef
/vradius 0 def /hradius 0 def /lry 0 def
/lrx 0 def /uly 0 def /ulx 0 def /rad 0 def
/MRR {/vradius xdef /hradius xdef /lry xdef /lrx xdef /uly xdef
  /ulx xdef newpath tMatrix currentmatrix pop ulx hradius add uly
  vradius add translate hradius vradius scale 0 0 1 180 270 arc 
  tMatrix setmatrix lrx hradius sub uly vradius add translate
  hradius vradius scale 0 0 1 270 360 arc tMatrix setmatrix
  lrx hradius sub lry vradius sub translate hradius vradius scale
  0 0 1 0 90 arc tMatrix setmatrix ulx hradius add lry vradius sub
  translate hradius vradius scale 0 0 1 90 180 arc tMatrix setmatrix
  closepath} bdef
/FRR {MRR stroke } bdef
/PRR {MRR fill } bdef
/MlrRR {/lry xdef /lrx xdef /uly xdef /ulx xdef /rad lry uly sub 2 div def
  newpath tMatrix currentmatrix pop ulx rad add uly rad add translate
  rad rad scale 0 0 1 90 270 arc tMatrix setmatrix lrx rad sub lry rad
  sub translate rad rad scale 0 0 1 270 90 arc tMatrix setmatrix
  closepath} bdef
/FlrRR {MlrRR stroke } bdef
/PlrRR {MlrRR fill } bdef
/MtbRR {/lry xdef /lrx xdef /uly xdef /ulx xdef /rad lrx ulx sub 2 div def
  newpath tMatrix currentmatrix pop ulx rad add uly rad add translate
  rad rad scale 0 0 1 180 360 arc tMatrix setmatrix lrx rad sub lry rad
  sub translate rad rad scale 0 0 1 0 180 arc tMatrix setmatrix
  closepath} bdef
/FtbRR {MtbRR stroke } bdef
/PtbRR {MtbRR fill } bdef
/stri 6 array def /dtri 6 array def
/smat 6 array def /dmat 6 array def
/tmat1 6 array def /tmat2 6 array def /dif 3 array def
/asub {/ind2 exch def /ind1 exch def dup dup
  ind1 get exch ind2 get sub exch } bdef
/tri_to_matrix {
  2 0 asub 3 1 asub 4 0 asub 5 1 asub
  dup 0 get exch 1 get 7 -1 roll astore } bdef
/compute_transform {
  dmat dtri tri_to_matrix tmat1 invertmatrix 
  smat stri tri_to_matrix tmat2 concatmatrix } bdef
/ds {stri astore pop} bdef
/dt {dtri astore pop} bdef
/db {2 copy /cols xdef /rows xdef mul dup 3 mul string
  currentfile 
  3 index 0 eq {/ASCIIHexDecode filter}
  {/ASCII85Decode filter 3 index 2 eq {/RunLengthDecode filter} if }
  ifelse exch readstring pop
  dup 0 3 index getinterval /rbmap xdef
  dup 2 index dup getinterval /gbmap xdef
  1 index dup 2 mul exch getinterval /bbmap xdef pop pop}bdef
/it {gs np dtri aload pop moveto lineto lineto cp c
  cols rows 8 compute_transform 
  rbmap gbmap bbmap true 3 colorimage gr}bdef
/il {newpath moveto lineto stroke}bdef
currentdict end def
%%EndProlog

%%BeginSetup
MathWorks begin

0 cap

end
%%EndSetup

%%Page: 1 1
%%BeginPageSetup
%%PageBoundingBox:    52   203   548   586
MathWorks begin
bpage
%%EndPageSetup

%%BeginObject: obj1
bplot

/dpi2point 1.01389 def
portraitMode 0026 0614 csm

   27    20   503   388 rc
85 dict begin %Colortable dictionary
/c0 { 0.000000 0.000000 0.000000 sr} bdef
/c1 { 1.000000 1.000000 1.000000 sr} bdef
/c2 { 0.900000 0.000000 0.000000 sr} bdef
/c3 { 0.000000 0.820000 0.000000 sr} bdef
/c4 { 0.000000 0.000000 0.800000 sr} bdef
/c5 { 0.910000 0.820000 0.320000 sr} bdef
/c6 { 1.000000 0.260000 0.820000 sr} bdef
/c7 { 0.000000 0.820000 0.820000 sr} bdef
c0
1 j
1 sg
   0    0  569  426 rf
0.506944 w
0 346 440 0 0 -346 74 378 4 MP
PP
-440 0 0 346 440 0 0 -346 74 378 5 MP stroke
0.337963 w
DO
0 sg
  74  378 mt   74   32 L
  74   32 mt   74   32 L
 147  378 mt  147   32 L
 147   32 mt  147   32 L
 220  378 mt  220   32 L
 220   32 mt  220   32 L
 294  378 mt  294   32 L
 294   32 mt  294   32 L
 367  378 mt  367   32 L
 367   32 mt  367   32 L
 440  378 mt  440   32 L
 440   32 mt  440   32 L
 514  378 mt  514   32 L
 514   32 mt  514   32 L
  74  378 mt  514  378 L
 514  378 mt  514  378 L
  74  339 mt  514  339 L
 514  339 mt  514  339 L
  74  301 mt  514  301 L
 514  301 mt  514  301 L
  74  262 mt  514  262 L
 514  262 mt  514  262 L
  74  224 mt  514  224 L
 514  224 mt  514  224 L
  74  185 mt  514  185 L
 514  185 mt  514  185 L
  74  147 mt  514  147 L
 514  147 mt  514  147 L
  74  108 mt  514  108 L
 514  108 mt  514  108 L
  74   70 mt  514   70 L
 514   70 mt  514   70 L
  74   32 mt  514   32 L
 514   32 mt  514   32 L
SO
0.506944 w
  74  378 mt  514  378 L
  74   32 mt  514   32 L
  74  378 mt   74   32 L
 514  378 mt  514   32 L
  74  378 mt  514  378 L
  74  378 mt   74   32 L
  74  378 mt   74  373 L
  74   32 mt   74   36 L
%%IncludeResource: font Helvetica
/Helvetica /ISOLatin1Encoding 10.1389 FMSR

  61  389 mt 
(-200) s
 147  378 mt  147  373 L
 147   32 mt  147   36 L
 145  389 mt 
(0) s
 220  378 mt  220  373 L
 220   32 mt  220   36 L
 212  389 mt 
(200) s
 294  378 mt  294  373 L
 294   32 mt  294   36 L
 286  389 mt 
(400) s
 367  378 mt  367  373 L
 367   32 mt  367   36 L
 359  389 mt 
(600) s
 440  378 mt  440  373 L
 440   32 mt  440   36 L
 432  389 mt 
(800) s
 514  378 mt  514  373 L
 514   32 mt  514   36 L
 503  389 mt 
(1000) s
  74  378 mt   78  378 L
 514  378 mt  509  378 L
  49  381 mt 
(-700) s
  74  339 mt   78  339 L
 514  339 mt  509  339 L
  49  342 mt 
(-600) s
  74  301 mt   78  301 L
 514  301 mt  509  301 L
  49  304 mt 
(-500) s
  74  262 mt   78  262 L
 514  262 mt  509  262 L
  49  265 mt 
(-400) s
  74  224 mt   78  224 L
 514  224 mt  509  224 L
  49  227 mt 
(-300) s
  74  185 mt   78  185 L
 514  185 mt  509  185 L
  49  188 mt 
(-200) s
  74  147 mt   78  147 L
 514  147 mt  509  147 L
  49  150 mt 
(-100) s
  74  108 mt   78  108 L
 514  108 mt  509  108 L
  66  111 mt 
(0) s
  74   70 mt   78   70 L
 514   70 mt  509   70 L
  55   73 mt 
(100) s
  74   32 mt   78   32 L
 514   32 mt  509   32 L
  55   35 mt 
(200) s
  74  378 mt  514  378 L
  74   32 mt  514   32 L
  74  378 mt   74   32 L
 514  378 mt  514   32 L
gs 74 32 441 347 rc
2.02778 w
/c8 { 0.000000 0.000000 1.000000 sr} bdef
c8
-45 -18 -54 4 -15 34 -20 8 -14 23 -20 20 -33 81 -30 -19 
-11 -38 -41 -28 -13 -37 -29 -33 -6 -42 35 -21 21 -23 68 0 
27 -33 28 29 66 36 -27 39 -22 3 -48 52 12 19 36 21 
19 -26 208 -8 -9 96 -15 -2 -3 -25 -34 0 147 108 31 MP stroke
/c9 { 1.000000 0.000000 0.000000 sr} bdef
c9
-1 0 -1 0 -3 0 -3 0 -4 0 -4 0 -5 0 -5 0 
-6 1 -5 0 -6 0 -6 0 -7 0 -6 0 -6 0 -6 1 
-6 0 -6 1 -5 0 -7 3 -5 2 -5 1 -5 2 -6 2 
-4 1 -5 2 -4 1 -4 2 -3 1 -3 1 -2 1 -2 2 
-1 2 0 2 -1 4 -1 3 -1 4 -1 4 -1 4 -2 4 
-2 5 -4 4 -4 3 -5 4 -5 4 -4 4 -3 4 -2 4 
-2 5 -2 5 -2 6 -2 5 -3 5 -2 5 -4 5 -3 5 
-4 4 -3 5 -3 5 -3 5 -1 5 -2 5 -1 6 0 5 
-1 6 0 20 -1 5 0 16 -1 5 -1 5 -1 5 -1 5 
-1 5 0 4 -1 3 -1 4 -2 2 -2 2 -4 0 -3 0 
-4 0 -4 -1 -4 -1 -4 -2 -4 -2 -3 -2 -2 -4 -2 -3 
-2 -3 -2 -4 -2 -4 -2 -4 -1 -4 -2 -4 -2 -4 -2 -4 
-3 -3 -4 -4 -3 -3 -5 -2 -4 -3 -5 -3 -4 -3 -5 -2 
-4 -3 -4 -2 -5 -3 -3 -3 -3 -3 -2 -4 -2 -5 -2 -4 
-2 -5 -2 -4 -2 -4 -1 -5 -3 -4 -2 -3 -3 -4 -3 -2 
-2 -3 -3 -2 -1 -2 -2 -2 -1 -1 -1 -1 -1 -1 -1 -1 
-1 -2 -1 -4 0 -16 1 -5 0 -9 1 -4 0 -6 1 -2 
1 -2 2 -1 1 0 1 0 1 0 1 -1 1 0 2 -1 
3 -1 4 -1 3 -1 4 -2 4 -3 4 -2 4 -3 3 -3 
3 -3 4 -2 4 -2 4 0 4 -1 5 0 4 0 4 1 
4 0 3 1 4 0 2 0 3 0 2 0 1 0 2 1 
1 0 1 0 1 -1 2 0 2 0 3 -1 3 -2 3 -2 
3 -3 3 -3 2 -4 3 -3 3 -4 2 -4 3 -4 2 -3 
2 -4 1 -3 2 -3 2 -1 2 0 2 0 1 1 2 1 
2 1 3 1 4 2 4 2 5 2 4 2 4 1 3 1 
3 1 2 1 1 0 1 -1 1 0 2 1 1 0 3 0 
4 0 3 0 4 1 3 0 4 0 4 1 4 0 3 1 
4 1 1 2 1 2 0 4 -1 1 0 5 -1 1 0 4 
-1 3 0 3 -1 4 -1 4 -1 4 -2 4 -4 4 -4 4 
-6 4 -4 4 -5 4 -3 5 -3 5 -3 6 -2 6 -2 6 
-3 6 -3 5 -3 6 -4 5 -3 6 -3 4 -3 5 -3 5 
-1 4 -2 5 0 6 2 1 2 1 1 0 -1 0 3 1 
1 0 2 0 3 1 3 0 4 0 4 1 4 1 4 1 
4 1 2 0 4 1 3 0 2 0 1 0 1 -1 1 -1 
0 -4 1 -2 1 -2 1 -3 2 -2 2 -1 3 -3 4 -3 
4 -2 7 -2 5 0 4 -1 4 0 4 0 3 0 4 0 
2 0 2 0 2 -1 2 0 1 1 1 0 2 0 1 0 
0 -2 1 1 0 1 235 175 300 MP stroke
4 0 3 0 3 0 4 0 4 1 4 0 4 0 4 0 
5 -1 5 0 5 -1 4 0 5 0 5 0 5 -1 4 0 
6 2 2 0 1 1 2 0 1 -1 1 0 1 0 -1 0 
1 0 -1 0 3 0 1 0 2 0 2 0 2 0 3 0 
4 0 4 -1 4 0 5 -1 3 0 3 1 2 1 4 0 
1 2 1 2 0 22 -1 4 -1 4 0 8 -1 5 0 5 
-1 4 0 11 -1 3 -1 2 -1 2 -5 3 -3 1 -2 0 
-2 0 -2 0 -1 -1 0 -1 -1 -1 0 -1 -1 -1 0 -4 
-1 -1 0 -1 1 -1 0 -1 -7 0 -6 2 147 108 71 MP stroke
gr

2.02778 w
c9
0 sg
%%IncludeResource: font Helvetica
/Helvetica /ISOLatin1Encoding 12.1667 FMSR

 211  403 mt 
(Longitudinal Displacement \(m\)) s
  41  283 mt  -90 rotate
(Latitudinal Displacement \(m\)) s
90 rotate
%%IncludeResource: font Helvetica
/Helvetica /ISOLatin1Encoding 10.1389 FMSR

  73  383 mt 
( ) s
 514   36 mt 
( ) s
0.506944 w
1 sg
0 30 84 0 0 -30 79 68 4 MP
PP
-84 0 0 30 84 0 0 -30 79 68 5 MP stroke
0.337963 w
DO
SO
0.506944 w
0 sg
  79   68 mt  163   68 L
  79   38 mt  163   38 L
  79   68 mt   79   38 L
 163   68 mt  163   38 L
  79   68 mt  163   68 L
  79   68 mt   79   38 L
  79   68 mt  163   68 L
  79   38 mt  163   38 L
  79   68 mt   79   38 L
 163   68 mt  163   38 L
 118   51 mt 
(Estimate) s
gs 79 38 85 31 rc
2.02778 w
c8
30 0 84 46 2 MP stroke
gr

2.02778 w
c8
0 sg
 118   64 mt 
(True) s
gs 79 38 85 31 rc
c9
30 0 84 59 2 MP stroke
0.506944 w
gr

0.506944 w
c9

end %%Color Dict

eplot
%%EndObject

epage
end

showpage

%%Trailer
%%EOF
