%!PS-Adobe-3.0 EPSF-3.0
%%Creator: MATLAB, The MathWorks, Inc. Version 8.0.0.783 (R2012b). Operating System: Darwin 12.5.0 Darwin Kernel Version 12.5.0: Sun Sep 29 13:33:47 PDT 2013; root:xnu-2050.48.12~1/RELEASE_X86_64 x86_64.
%%Title: figs/path_estimate_806.eps
%%CreationDate: 11/22/2013  14:16:13
%%DocumentNeededFonts: Helvetica
%%DocumentProcessColors: Cyan Magenta Yellow Black
%%LanguageLevel: 2
%%Pages: 1
%%BoundingBox:    46   203   545   586
%%EndComments

%%BeginProlog
% MathWorks dictionary
/MathWorks 160 dict begin
% definition operators
/bdef {bind def} bind def
/ldef {load def} bind def
/xdef {exch def} bdef
/xstore {exch store} bdef
% operator abbreviations
/c  /clip ldef
/cc /concat ldef
/cp /closepath ldef
/gr /grestore ldef
/gs /gsave ldef
/mt /moveto ldef
/np /newpath ldef
/cm /currentmatrix ldef
/sm /setmatrix ldef
/rm /rmoveto ldef
/rl /rlineto ldef
/s {show newpath} bdef
/sc {setcmykcolor} bdef
/sr /setrgbcolor ldef
/sg /setgray ldef
/w /setlinewidth ldef
/j /setlinejoin ldef
/cap /setlinecap ldef
/rc {rectclip} bdef
/rf {rectfill} bdef
% page state control
/pgsv () def
/bpage {/pgsv save def} bdef
/epage {pgsv restore} bdef
/bplot /gsave ldef
/eplot {stroke grestore} bdef
% orientation switch
/portraitMode 0 def /landscapeMode 1 def /rotateMode 2 def
% coordinate system mappings
/dpi2point 0 def
% font control
/FontSize 0 def
/FMS {/FontSize xstore findfont [FontSize 0 0 FontSize neg 0 0]
  makefont setfont} bdef
/reencode {exch dup where {pop load} {pop StandardEncoding} ifelse
  exch dup 3 1 roll findfont dup length dict begin
  { 1 index /FID ne {def}{pop pop} ifelse } forall
  /Encoding exch def currentdict end definefont pop} bdef
/isroman {findfont /CharStrings get /Agrave known} bdef
/FMSR {3 1 roll 1 index dup isroman {reencode} {pop pop} ifelse
  exch FMS} bdef
/csm {1 dpi2point div -1 dpi2point div scale neg translate
 dup landscapeMode eq {pop -90 rotate}
  {rotateMode eq {90 rotate} if} ifelse} bdef
% line types: solid, dotted, dashed, dotdash
/SO { [] 0 setdash } bdef
/DO { [.5 dpi2point mul 4 dpi2point mul] 0 setdash } bdef
/DA { [6 dpi2point mul] 0 setdash } bdef
/DD { [.5 dpi2point mul 4 dpi2point mul 6 dpi2point mul 4
  dpi2point mul] 0 setdash } bdef
% macros for lines and objects
/L {lineto stroke} bdef
/MP {3 1 roll moveto 1 sub {rlineto} repeat} bdef
/AP {{rlineto} repeat} bdef
/PDlw -1 def
/W {/PDlw currentlinewidth def setlinewidth} def
/PP {closepath eofill} bdef
/DP {closepath stroke} bdef
/MR {4 -2 roll moveto dup  0 exch rlineto exch 0 rlineto
  neg 0 exch rlineto closepath} bdef
/FR {MR stroke} bdef
/PR {MR fill} bdef
/L1i {{currentfile picstr readhexstring pop} image} bdef
/tMatrix matrix def
/MakeOval {newpath tMatrix currentmatrix pop translate scale
0 0 1 0 360 arc tMatrix setmatrix} bdef
/FO {MakeOval stroke} bdef
/PO {MakeOval fill} bdef
/PD {currentlinewidth 2 div 0 360 arc fill
   PDlw -1 eq not {PDlw w /PDlw -1 def} if} def
/FA {newpath tMatrix currentmatrix pop translate scale
  0 0 1 5 -2 roll arc tMatrix setmatrix stroke} bdef
/PA {newpath tMatrix currentmatrix pop	translate 0 0 moveto scale
  0 0 1 5 -2 roll arc closepath tMatrix setmatrix fill} bdef
/FAn {newpath tMatrix currentmatrix pop translate scale
  0 0 1 5 -2 roll arcn tMatrix setmatrix stroke} bdef
/PAn {newpath tMatrix currentmatrix pop translate 0 0 moveto scale
  0 0 1 5 -2 roll arcn closepath tMatrix setmatrix fill} bdef
/vradius 0 def /hradius 0 def /lry 0 def
/lrx 0 def /uly 0 def /ulx 0 def /rad 0 def
/MRR {/vradius xdef /hradius xdef /lry xdef /lrx xdef /uly xdef
  /ulx xdef newpath tMatrix currentmatrix pop ulx hradius add uly
  vradius add translate hradius vradius scale 0 0 1 180 270 arc 
  tMatrix setmatrix lrx hradius sub uly vradius add translate
  hradius vradius scale 0 0 1 270 360 arc tMatrix setmatrix
  lrx hradius sub lry vradius sub translate hradius vradius scale
  0 0 1 0 90 arc tMatrix setmatrix ulx hradius add lry vradius sub
  translate hradius vradius scale 0 0 1 90 180 arc tMatrix setmatrix
  closepath} bdef
/FRR {MRR stroke } bdef
/PRR {MRR fill } bdef
/MlrRR {/lry xdef /lrx xdef /uly xdef /ulx xdef /rad lry uly sub 2 div def
  newpath tMatrix currentmatrix pop ulx rad add uly rad add translate
  rad rad scale 0 0 1 90 270 arc tMatrix setmatrix lrx rad sub lry rad
  sub translate rad rad scale 0 0 1 270 90 arc tMatrix setmatrix
  closepath} bdef
/FlrRR {MlrRR stroke } bdef
/PlrRR {MlrRR fill } bdef
/MtbRR {/lry xdef /lrx xdef /uly xdef /ulx xdef /rad lrx ulx sub 2 div def
  newpath tMatrix currentmatrix pop ulx rad add uly rad add translate
  rad rad scale 0 0 1 180 360 arc tMatrix setmatrix lrx rad sub lry rad
  sub translate rad rad scale 0 0 1 0 180 arc tMatrix setmatrix
  closepath} bdef
/FtbRR {MtbRR stroke } bdef
/PtbRR {MtbRR fill } bdef
/stri 6 array def /dtri 6 array def
/smat 6 array def /dmat 6 array def
/tmat1 6 array def /tmat2 6 array def /dif 3 array def
/asub {/ind2 exch def /ind1 exch def dup dup
  ind1 get exch ind2 get sub exch } bdef
/tri_to_matrix {
  2 0 asub 3 1 asub 4 0 asub 5 1 asub
  dup 0 get exch 1 get 7 -1 roll astore } bdef
/compute_transform {
  dmat dtri tri_to_matrix tmat1 invertmatrix 
  smat stri tri_to_matrix tmat2 concatmatrix } bdef
/ds {stri astore pop} bdef
/dt {dtri astore pop} bdef
/db {2 copy /cols xdef /rows xdef mul dup 3 mul string
  currentfile 
  3 index 0 eq {/ASCIIHexDecode filter}
  {/ASCII85Decode filter 3 index 2 eq {/RunLengthDecode filter} if }
  ifelse exch readstring pop
  dup 0 3 index getinterval /rbmap xdef
  dup 2 index dup getinterval /gbmap xdef
  1 index dup 2 mul exch getinterval /bbmap xdef pop pop}bdef
/it {gs np dtri aload pop moveto lineto lineto cp c
  cols rows 8 compute_transform 
  rbmap gbmap bbmap true 3 colorimage gr}bdef
/il {newpath moveto lineto stroke}bdef
currentdict end def
%%EndProlog

%%BeginSetup
MathWorks begin

0 cap

end
%%EndSetup

%%Page: 1 1
%%BeginPageSetup
%%PageBoundingBox:    46   203   545   586
MathWorks begin
bpage
%%EndPageSetup

%%BeginObject: obj1
bplot

/dpi2point 1.01389 def
portraitMode 0026 0614 csm

   21    20   506   388 rc
85 dict begin %Colortable dictionary
/c0 { 0.000000 0.000000 0.000000 sr} bdef
/c1 { 1.000000 1.000000 1.000000 sr} bdef
/c2 { 0.900000 0.000000 0.000000 sr} bdef
/c3 { 0.000000 0.820000 0.000000 sr} bdef
/c4 { 0.000000 0.000000 0.800000 sr} bdef
/c5 { 0.910000 0.820000 0.320000 sr} bdef
/c6 { 1.000000 0.260000 0.820000 sr} bdef
/c7 { 0.000000 0.820000 0.820000 sr} bdef
c0
1 j
1 sg
   0    0  569  426 rf
0.506944 w
0 347 440 0 0 -347 74 378 4 MP
PP
-440 0 0 347 440 0 0 -347 74 378 5 MP stroke
0.337963 w
DO
0 sg
  74  378 mt   74   32 L
  74   32 mt   74   32 L
 118  378 mt  118   32 L
 118   32 mt  118   32 L
 162  378 mt  162   32 L
 162   32 mt  162   32 L
 206  378 mt  206   32 L
 206   32 mt  206   32 L
 250  378 mt  250   32 L
 250   32 mt  250   32 L
 294  378 mt  294   32 L
 294   32 mt  294   32 L
 338  378 mt  338   32 L
 338   32 mt  338   32 L
 382  378 mt  382   32 L
 382   32 mt  382   32 L
 426  378 mt  426   32 L
 426   32 mt  426   32 L
 470  378 mt  470   32 L
 470   32 mt  470   32 L
 514  378 mt  514   32 L
 514   32 mt  514   32 L
  74  378 mt  514  378 L
 514  378 mt  514  378 L
  74  343 mt  514  343 L
 514  343 mt  514  343 L
  74  308 mt  514  308 L
 514  308 mt  514  308 L
  74  274 mt  514  274 L
 514  274 mt  514  274 L
  74  239 mt  514  239 L
 514  239 mt  514  239 L
  74  205 mt  514  205 L
 514  205 mt  514  205 L
  74  170 mt  514  170 L
 514  170 mt  514  170 L
  74  135 mt  514  135 L
 514  135 mt  514  135 L
  74  101 mt  514  101 L
 514  101 mt  514  101 L
  74   66 mt  514   66 L
 514   66 mt  514   66 L
  74   32 mt  514   32 L
 514   32 mt  514   32 L
SO
0.506944 w
  74  378 mt  514  378 L
  74   31 mt  514   31 L
  74  378 mt   74   31 L
 514  378 mt  514   31 L
  74  378 mt  514  378 L
  74  378 mt   74   31 L
  74  378 mt   74  373 L
  74   32 mt   74   36 L
%%IncludeResource: font Helvetica
/Helvetica /ISOLatin1Encoding 10.1389 FMSR

  58  389 mt 
(-1800) s
 118  378 mt  118  373 L
 118   32 mt  118   36 L
 102  389 mt 
(-1600) s
 162  378 mt  162  373 L
 162   32 mt  162   36 L
 146  389 mt 
(-1400) s
 206  378 mt  206  373 L
 206   32 mt  206   36 L
 190  389 mt 
(-1200) s
 250  378 mt  250  373 L
 250   32 mt  250   36 L
 234  389 mt 
(-1000) s
 294  378 mt  294  373 L
 294   32 mt  294   36 L
 281  389 mt 
(-800) s
 338  378 mt  338  373 L
 338   32 mt  338   36 L
 325  389 mt 
(-600) s
 382  378 mt  382  373 L
 382   32 mt  382   36 L
 369  389 mt 
(-400) s
 426  378 mt  426  373 L
 426   32 mt  426   36 L
 413  389 mt 
(-200) s
 470  378 mt  470  373 L
 470   32 mt  470   36 L
 468  389 mt 
(0) s
 514  378 mt  514  373 L
 514   32 mt  514   36 L
 506  389 mt 
(200) s
  74  378 mt   78  378 L
 514  378 mt  509  378 L
  43  381 mt 
(-1200) s
  74  343 mt   78  343 L
 514  343 mt  509  343 L
  43  346 mt 
(-1000) s
  74  308 mt   78  308 L
 514  308 mt  509  308 L
  49  311 mt 
(-800) s
  74  274 mt   78  274 L
 514  274 mt  509  274 L
  49  277 mt 
(-600) s
  74  239 mt   78  239 L
 514  239 mt  509  239 L
  49  242 mt 
(-400) s
  74  205 mt   78  205 L
 514  205 mt  509  205 L
  49  208 mt 
(-200) s
  74  170 mt   78  170 L
 514  170 mt  509  170 L
  66  173 mt 
(0) s
  74  135 mt   78  135 L
 514  135 mt  509  135 L
  55  138 mt 
(200) s
  74  101 mt   78  101 L
 514  101 mt  509  101 L
  55  104 mt 
(400) s
  74   66 mt   78   66 L
 514   66 mt  509   66 L
  55   69 mt 
(600) s
  74   32 mt   78   32 L
 514   32 mt  509   32 L
  55   35 mt 
(800) s
  74  378 mt  514  378 L
  74   31 mt  514   31 L
  74  378 mt   74   31 L
 514  378 mt  514   31 L
gs 74 32 441 347 rc
2.02778 w
/c8 { 0.000000 0.000000 1.000000 sr} bdef
c8
-9 -46 -14 -16 -29 -15 -56 -12 -10 -5 -11 -21 -17 -11 -2 -9 
17 -15 4 -6 16 54 -10 96 -5 7 -18 85 1 11 -95 34 
-55 -16 -28 -22 -47 -3 -11 3 -7 -9 0 -65 470 170 23 MP stroke
/c9 { 1.000000 0.000000 0.000000 sr} bdef
c9
0 2 1 1 1 1 1 0 1 1 1 0 2 0 1 -1 
2 0 1 0 2 0 1 0 1 0 1 0 1 0 2 0 
1 0 2 0 2 0 3 0 2 0 4 0 2 0 4 0 
25 0 4 0 4 0 4 0 3 0 4 0 3 -1 3 0 
4 0 3 0 2 0 3 -1 2 0 2 -1 2 0 1 -1 
1 -1 1 0 1 -1 -1 0 1 0 1 -1 2 -1 0 -1 
1 -1 0 -2 1 -1 2 -2 0 -1 1 -2 1 -1 1 -2 
1 -1 1 -1 1 -1 1 -1 0 -2 1 -1 0 -1 1 -1 
0 -3 1 -1 0 -1 1 -2 0 -1 1 -2 1 -1 1 -2 
0 -2 1 -1 0 -1 1 -1 0 -1 1 -1 1 -2 1 -1 
1 -1 1 0 2 -1 1 -1 1 -1 1 -1 1 0 1 -1 
1 -1 1 0 -1 0 2 -2 1 -1 0 -16 1 -1 0 -1 
1 -1 1 -1 1 -1 1 0 1 -1 1 0 2 -1 2 0 
2 0 2 0 2 0 3 0 2 1 3 0 3 -1 3 0 
3 0 3 0 3 -1 2 0 3 -1 3 0 2 -1 2 0 
2 -1 1 0 2 -1 1 -1 2 0 2 1 1 1 2 2 
1 1 2 2 2 2 2 2 2 1 2 2 2 2 2 2 
2 2 1 2 2 2 2 2 1 2 2 2 1 3 1 2 
2 3 1 3 1 2 0 6 1 3 0 6 1 3 0 6 
1 2 0 6 1 3 0 5 1 3 1 3 0 8 1 3 
0 2 1 3 0 3 1 2 0 3 1 2 0 3 1 2 
1 1 0 1 -1 1 0 2 -1 1 1 0 -1 0 1 0 
-2 2 0 1 1 1 0 6 1 2 0 6 1 3 0 5 
1 3 0 6 1 3 0 6 1 3 0 2 1 3 0 3 
1 3 0 8 1 2 0 5 1 1 0 4 1 3 0 4 
1 3 0 4 1 2 0 4 1 1 0 3 -1 1 -1 0 
1 0 -2 2 -1 1 -2 2 -2 1 -3 2 -2 1 -3 2 
-2 1 -2 2 -3 1 -3 0 -1 0 -1 2 1 1 -1 1 
-1 0 -1 1 -2 1 -2 1 -3 1 -3 1 -3 0 -3 0 
-3 0 -4 0 -3 -1 -3 -1 -4 -1 -4 -1 -3 -2 -4 -1 
-4 -2 -4 -2 -4 -1 -4 -2 -4 -1 -4 -2 -5 -1 -4 -2 
-3 -1 -4 -2 -4 -1 -5 -2 -4 -1 -4 -3 -2 -2 -3 -3 
-2 -2 -3 -2 -2 -3 -2 -2 -2 -4 -1 -2 -2 -3 -2 -3 
-2 -2 -2 -2 -3 -2 -4 -2 -3 -2 -4 -1 -4 0 -4 -1 
-5 0 -4 1 -4 0 -5 1 -5 0 -5 0 -5 1 -5 0 
-5 0 -4 0 -5 0 -4 0 -3 0 -4 0 -3 1 -3 0 
-2 1 -3 1 -1 0 -2 -1 -2 -1 -1 -1 -1 -1 -2 -1 
-1 -1 -1 -2 -1 -1 472 164 300 MP stroke
0 -3 1 -1 0 -1 1 -1 470 170 5 MP stroke
gr

2.02778 w
c9
0 sg
%%IncludeResource: font Helvetica
/Helvetica /ISOLatin1Encoding 12.1667 FMSR

 211  403 mt 
(Longitudinal Displacement \(m\)) s
  35  283 mt  -90 rotate
(Latitudinal Displacement \(m\)) s
90 rotate
%%IncludeResource: font Helvetica
/Helvetica /ISOLatin1Encoding 10.1389 FMSR

  73  383 mt 
( ) s
 514   36 mt 
( ) s
0.506944 w
1 sg
0 30 84 0 0 -30 79 68 4 MP
PP
-84 0 0 30 84 0 0 -30 79 68 5 MP stroke
0.337963 w
DO
SO
0.506944 w
0 sg
  79   68 mt  163   68 L
  79   38 mt  163   38 L
  79   68 mt   79   38 L
 163   68 mt  163   38 L
  79   68 mt  163   68 L
  79   68 mt   79   38 L
  79   68 mt  163   68 L
  79   38 mt  163   38 L
  79   68 mt   79   38 L
 163   68 mt  163   38 L
 118   51 mt 
(Estimate) s
gs 79 38 85 31 rc
2.02778 w
c8
30 0 84 46 2 MP stroke
gr

2.02778 w
c8
0 sg
 118   64 mt 
(True) s
gs 79 38 85 31 rc
c9
30 0 84 59 2 MP stroke
0.506944 w
gr

0.506944 w
c9

end %%Color Dict

eplot
%%EndObject

epage
end

showpage

%%Trailer
%%EOF
