%!PS-Adobe-3.0 EPSF-3.0
%%Creator: MATLAB, The MathWorks, Inc. Version 8.0.0.783 (R2012b). Operating System: Darwin 13.0.0 Darwin Kernel Version 13.0.0: Thu Sep 19 22:22:27 PDT 2013; root:xnu-2422.1.72~6/RELEASE_X86_64 x86_64.
%%Title: figs/predictOrientation_ucla_palms.eps
%%CreationDate: 10/30/2013  22:31:06
%%DocumentNeededFonts: Helvetica
%%DocumentProcessColors: Cyan Magenta Yellow Black
%%LanguageLevel: 2
%%Pages: 1
%%BoundingBox:    -3   234   603   553
%%EndComments

%%BeginProlog
% MathWorks dictionary
/MathWorks 160 dict begin
% definition operators
/bdef {bind def} bind def
/ldef {load def} bind def
/xdef {exch def} bdef
/xstore {exch store} bdef
% operator abbreviations
/c  /clip ldef
/cc /concat ldef
/cp /closepath ldef
/gr /grestore ldef
/gs /gsave ldef
/mt /moveto ldef
/np /newpath ldef
/cm /currentmatrix ldef
/sm /setmatrix ldef
/rm /rmoveto ldef
/rl /rlineto ldef
/s {show newpath} bdef
/sc {setcmykcolor} bdef
/sr /setrgbcolor ldef
/sg /setgray ldef
/w /setlinewidth ldef
/j /setlinejoin ldef
/cap /setlinecap ldef
/rc {rectclip} bdef
/rf {rectfill} bdef
% page state control
/pgsv () def
/bpage {/pgsv save def} bdef
/epage {pgsv restore} bdef
/bplot /gsave ldef
/eplot {stroke grestore} bdef
% orientation switch
/portraitMode 0 def /landscapeMode 1 def /rotateMode 2 def
% coordinate system mappings
/dpi2point 0 def
% font control
/FontSize 0 def
/FMS {/FontSize xstore findfont [FontSize 0 0 FontSize neg 0 0]
  makefont setfont} bdef
/reencode {exch dup where {pop load} {pop StandardEncoding} ifelse
  exch dup 3 1 roll findfont dup length dict begin
  { 1 index /FID ne {def}{pop pop} ifelse } forall
  /Encoding exch def currentdict end definefont pop} bdef
/isroman {findfont /CharStrings get /Agrave known} bdef
/FMSR {3 1 roll 1 index dup isroman {reencode} {pop pop} ifelse
  exch FMS} bdef
/csm {1 dpi2point div -1 dpi2point div scale neg translate
 dup landscapeMode eq {pop -90 rotate}
  {rotateMode eq {90 rotate} if} ifelse} bdef
% line types: solid, dotted, dashed, dotdash
/SO { [] 0 setdash } bdef
/DO { [.5 dpi2point mul 4 dpi2point mul] 0 setdash } bdef
/DA { [6 dpi2point mul] 0 setdash } bdef
/DD { [.5 dpi2point mul 4 dpi2point mul 6 dpi2point mul 4
  dpi2point mul] 0 setdash } bdef
% macros for lines and objects
/L {lineto stroke} bdef
/MP {3 1 roll moveto 1 sub {rlineto} repeat} bdef
/AP {{rlineto} repeat} bdef
/PDlw -1 def
/W {/PDlw currentlinewidth def setlinewidth} def
/PP {closepath eofill} bdef
/DP {closepath stroke} bdef
/MR {4 -2 roll moveto dup  0 exch rlineto exch 0 rlineto
  neg 0 exch rlineto closepath} bdef
/FR {MR stroke} bdef
/PR {MR fill} bdef
/L1i {{currentfile picstr readhexstring pop} image} bdef
/tMatrix matrix def
/MakeOval {newpath tMatrix currentmatrix pop translate scale
0 0 1 0 360 arc tMatrix setmatrix} bdef
/FO {MakeOval stroke} bdef
/PO {MakeOval fill} bdef
/PD {currentlinewidth 2 div 0 360 arc fill
   PDlw -1 eq not {PDlw w /PDlw -1 def} if} def
/FA {newpath tMatrix currentmatrix pop translate scale
  0 0 1 5 -2 roll arc tMatrix setmatrix stroke} bdef
/PA {newpath tMatrix currentmatrix pop	translate 0 0 moveto scale
  0 0 1 5 -2 roll arc closepath tMatrix setmatrix fill} bdef
/FAn {newpath tMatrix currentmatrix pop translate scale
  0 0 1 5 -2 roll arcn tMatrix setmatrix stroke} bdef
/PAn {newpath tMatrix currentmatrix pop translate 0 0 moveto scale
  0 0 1 5 -2 roll arcn closepath tMatrix setmatrix fill} bdef
/vradius 0 def /hradius 0 def /lry 0 def
/lrx 0 def /uly 0 def /ulx 0 def /rad 0 def
/MRR {/vradius xdef /hradius xdef /lry xdef /lrx xdef /uly xdef
  /ulx xdef newpath tMatrix currentmatrix pop ulx hradius add uly
  vradius add translate hradius vradius scale 0 0 1 180 270 arc 
  tMatrix setmatrix lrx hradius sub uly vradius add translate
  hradius vradius scale 0 0 1 270 360 arc tMatrix setmatrix
  lrx hradius sub lry vradius sub translate hradius vradius scale
  0 0 1 0 90 arc tMatrix setmatrix ulx hradius add lry vradius sub
  translate hradius vradius scale 0 0 1 90 180 arc tMatrix setmatrix
  closepath} bdef
/FRR {MRR stroke } bdef
/PRR {MRR fill } bdef
/MlrRR {/lry xdef /lrx xdef /uly xdef /ulx xdef /rad lry uly sub 2 div def
  newpath tMatrix currentmatrix pop ulx rad add uly rad add translate
  rad rad scale 0 0 1 90 270 arc tMatrix setmatrix lrx rad sub lry rad
  sub translate rad rad scale 0 0 1 270 90 arc tMatrix setmatrix
  closepath} bdef
/FlrRR {MlrRR stroke } bdef
/PlrRR {MlrRR fill } bdef
/MtbRR {/lry xdef /lrx xdef /uly xdef /ulx xdef /rad lrx ulx sub 2 div def
  newpath tMatrix currentmatrix pop ulx rad add uly rad add translate
  rad rad scale 0 0 1 180 360 arc tMatrix setmatrix lrx rad sub lry rad
  sub translate rad rad scale 0 0 1 0 180 arc tMatrix setmatrix
  closepath} bdef
/FtbRR {MtbRR stroke } bdef
/PtbRR {MtbRR fill } bdef
/stri 6 array def /dtri 6 array def
/smat 6 array def /dmat 6 array def
/tmat1 6 array def /tmat2 6 array def /dif 3 array def
/asub {/ind2 exch def /ind1 exch def dup dup
  ind1 get exch ind2 get sub exch } bdef
/tri_to_matrix {
  2 0 asub 3 1 asub 4 0 asub 5 1 asub
  dup 0 get exch 1 get 7 -1 roll astore } bdef
/compute_transform {
  dmat dtri tri_to_matrix tmat1 invertmatrix 
  smat stri tri_to_matrix tmat2 concatmatrix } bdef
/ds {stri astore pop} bdef
/dt {dtri astore pop} bdef
/db {2 copy /cols xdef /rows xdef mul dup 3 mul string
  currentfile 
  3 index 0 eq {/ASCIIHexDecode filter}
  {/ASCII85Decode filter 3 index 2 eq {/RunLengthDecode filter} if }
  ifelse exch readstring pop
  dup 0 3 index getinterval /rbmap xdef
  dup 2 index dup getinterval /gbmap xdef
  1 index dup 2 mul exch getinterval /bbmap xdef pop pop}bdef
/it {gs np dtri aload pop moveto lineto lineto cp c
  cols rows 8 compute_transform 
  rbmap gbmap bbmap true 3 colorimage gr}bdef
/il {newpath moveto lineto stroke}bdef
currentdict end def
%%EndProlog

%%BeginSetup
MathWorks begin

0 cap

end
%%EndSetup

%%Page: 1 1
%%BeginPageSetup
%%PageBoundingBox:    -3   234   603   553
MathWorks begin
bpage
%%EndPageSetup

%%BeginObject: obj1
bplot

/dpi2point 1.01389 def
portraitMode -0049 0574 csm

   46    14   616   323 rc
85 dict begin %Colortable dictionary
/c0 { 0.000000 0.000000 0.000000 sr} bdef
/c1 { 1.000000 1.000000 1.000000 sr} bdef
/c2 { 0.900000 0.000000 0.000000 sr} bdef
/c3 { 0.000000 0.820000 0.000000 sr} bdef
/c4 { 0.000000 0.000000 0.800000 sr} bdef
/c5 { 0.910000 0.820000 0.320000 sr} bdef
/c6 { 1.000000 0.260000 0.820000 sr} bdef
/c7 { 0.000000 0.820000 0.820000 sr} bdef
c0
1 j
1 sg
   0    0  720  346 rf
0.506944 w
0 281 558 0 0 -281 93 307 4 MP
PP
-558 0 0 281 558 0 0 -281 93 307 5 MP stroke
0.337963 w
DO
0 sg
  93  307 mt   93   26 L
  93   26 mt   93   26 L
 162  307 mt  162   26 L
 162   26 mt  162   26 L
 232  307 mt  232   26 L
 232   26 mt  232   26 L
 302  307 mt  302   26 L
 302   26 mt  302   26 L
 372  307 mt  372   26 L
 372   26 mt  372   26 L
 441  307 mt  441   26 L
 441   26 mt  441   26 L
 511  307 mt  511   26 L
 511   26 mt  511   26 L
 581  307 mt  581   26 L
 581   26 mt  581   26 L
 651  307 mt  651   26 L
 651   26 mt  651   26 L
  93  307 mt  651  307 L
 651  307 mt  651  307 L
  93  260 mt  651  260 L
 651  260 mt  651  260 L
  93  213 mt  651  213 L
 651  213 mt  651  213 L
  93  166 mt  651  166 L
 651  166 mt  651  166 L
  93  119 mt  651  119 L
 651  119 mt  651  119 L
  93   72 mt  651   72 L
 651   72 mt  651   72 L
  93   26 mt  651   26 L
 651   26 mt  651   26 L
SO
0.506944 w
  93  307 mt  651  307 L
  93   26 mt  651   26 L
  93  307 mt   93   26 L
 651  307 mt  651   26 L
  93  307 mt  651  307 L
  93  307 mt   93   26 L
  93  307 mt   93  301 L
  93   26 mt   93   31 L
%%IncludeResource: font Helvetica
/Helvetica /ISOLatin1Encoding 10.1389 FMSR

  91  318 mt 
(0) s
 162  307 mt  162  301 L
 162   26 mt  162   31 L
 160  318 mt 
(5) s
 232  307 mt  232  301 L
 232   26 mt  232   31 L
 227  318 mt 
(10) s
 302  307 mt  302  301 L
 302   26 mt  302   31 L
 297  318 mt 
(15) s
 372  307 mt  372  301 L
 372   26 mt  372   31 L
 367  318 mt 
(20) s
 441  307 mt  441  301 L
 441   26 mt  441   31 L
 436  318 mt 
(25) s
 511  307 mt  511  301 L
 511   26 mt  511   31 L
 506  318 mt 
(30) s
 581  307 mt  581  301 L
 581   26 mt  581   31 L
 576  318 mt 
(35) s
 651  307 mt  651  301 L
 651   26 mt  651   31 L
 646  318 mt 
(40) s
  93  307 mt   98  307 L
 651  307 mt  645  307 L
  68  310 mt 
(-300) s
  93  260 mt   98  260 L
 651  260 mt  645  260 L
  68  263 mt 
(-200) s
  93  213 mt   98  213 L
 651  213 mt  645  213 L
  68  216 mt 
(-100) s
  93  166 mt   98  166 L
 651  166 mt  645  166 L
  85  169 mt 
(0) s
  93  119 mt   98  119 L
 651  119 mt  645  119 L
  74  122 mt 
(100) s
  93   72 mt   98   72 L
 651   72 mt  645   72 L
  74   75 mt 
(200) s
  93   26 mt   98   26 L
 651   26 mt  645   26 L
  74   29 mt 
(300) s
  93  307 mt  651  307 L
  93   26 mt  651   26 L
  93  307 mt   93   26 L
 651  307 mt  651   26 L
gs 93 26 559 282 rc
/c8 { 0.000000 0.000000 1.000000 sr} bdef
c8
0 -6 1 -1 0 -68 0 16 1 1 0 -24 1 -1 0 -31 
0 97 1 1 0 80 0 -231 0 19 1 1 0 161 0 -93 
1 1 0 29 0 -31 0 7 1 1 0 12 0 -19 0 10 
1 -1 0 38 0 -51 0 36 1 1 0 2 0 -3 0 1 
1 1 0 1 0 -3 1 1 0 1 0 -2 1 -1 1 2 
-1 -3 0 3 2 0 1 1 0 2 0 -2 0 1 1 -1 
0 -3 0 2 2 2 0 -3 1 1 0 1 0 -1 1 1 
0 1 0 -1 1 1 0 4 0 -4 1 -1 0 -4 1 1 
0 2 1 1 0 0 0 -1 1 -1 1 1 0 2 0 -3 
1 1 0 -2 0 1 1 1 0 3 0 -1 1 -1 0 -3 
0 2 1 -1 0 0 0 3 1 -1 0 -1 0 1 1 1 
1 1 0 21 0 -1 1 1 0 8 1 1 0 2 0 -2 
0 1 1 1 0 3 0 -3 1 -1 0 -7 1 1 0 3 
0 -6 0 4 1 -1 0 3 0 -4 0 4 1 -1 1 1 
0 -1 0 2 1 1 0 1 0 -5 0 4 1 1 0 -3 
0 4 1 -1 0 9 0 -26 1 -6 0 44 0 -101 0 99 
1 1 0 3 0 -124 0 86 1 1 0 42 1 1 0 6 
0 -39 1 1 0 7 0 -3 1 -1 0 8 0 -37 1 -1 
0 -5 1 -1 0 3 1 1 0 3 0 -3 1 -1 0 -1 
1 -1 0 -1 0 4 1 -1 0 3 0 -15 0 11 2 -2 
0 1 0 -1 1 1 0 1 0 -2 1 1 0 -1 0 1 
1 -1 0 -1 0 1 1 -1 0 1 0 -1 1 1 0 1 
0 -2 1 1 0 -1 0 1 1 -1 0 1 0 -2 1 -1 
1 1 0 2 2 2 1 0 1 0 1 1 0 1 0 -1 
1 1 0 4 0 -19 1 -1 0 15 0 -4 1 -1 0 -2 
0 3 1 1 0 2 1 -1 0 -1 0 1 1 -1 0 2 
1 -1 0 -1 0 3 1 -1 1 0 -1 0 2 0 0 3 
2 0 0 3 0 -1 1 1 0 1 0 -2 1 -1 0 1 
0 -5 1 -1 0 -1 0 2 1 -1 0 0 0 -3 1 1 
0 4 0 -5 0 3 1 -1 0 1 0 -1 1 -1 0 -2 
0 5 1 -1 0 -1 0 1 1 -1 0 2 0 -4 0 2 
1 -1 0 3 0 -1 1 1 0 -3 0 3 1 -1 0 -2 
1 1 0 -2 1 1 0 -1 0 7 1 1 0 5 0 -21 
0 1 1 1 0 17 1 1 1 1 1 0 1 0 1 0 
1 0 1 0 1 0 1 0 1 1 0 -3 0 4 1 -1 
0 1 0 -3 1 -1 0 -5 1 -1 0 -3 1 -1 0 -10 
1 1 0 4 1 1 1 1 1 0 -1 0 2 2 0 2 
1 1 0 2 1 1 484 157 300 MP stroke
1 0 0 -1 1 1 1 0 1 0 1 0 -1 0 2 0 
1 0 1 0 -1 0 2 2 0 3 0 -6 0 4 1 -1 
0 -11 0 1 1 1 0 4 1 1 1 1 1 0 1 0 
1 0 1 0 1 0 1 0 1 0 1 0 1 0 1 0 
1 0 1 0 1 0 1 0 1 0 -1 0 2 0 0 0 
0 1 1 1 0 -1 0 1 1 -1 0 -6 0 1 1 -1 
0 1 1 1 0 -5 1 1 0 4 0 -1 1 1 0 3 
1 -1 1 0 0 1 0 -1 0 1 1 -1 1 0 1 0 
1 0 1 0 -1 0 2 0 0 -3 1 -1 1 1 1 0 
0 1 0 -1 1 1 0 -1 0 0 1 1 1 -1 1 1 
-1 0 2 -2 0 0 0 2 1 1 0 2 0 -6 0 1 
1 1 0 -3 0 1 1 1 0 3 1 -1 0 -2 1 -1 
0 -1 0 1 1 1 0 2 2 0 0 2 0 -4 0 1 
1 -1 1 0 1 0 1 0 0 1 0 -1 1 1 1 -1 
0 1 2 2 0 1 0 0 1 -1 0 -3 1 1 0 1 
0 -1 1 1 0 -2 0 1 1 1 0 1 0 -6 0 3 
1 1 0 4 0 -10 0 2 1 -1 0 6 1 1 0 1 
0 -2 1 1 0 -2 1 1 0 -2 1 -1 0 4 2 0 
0 1 0 -3 1 -1 0 3 1 1 0 -5 1 1 0 2 
0 -4 0 2 1 -1 0 5 0 -3 1 -1 0 0 0 4 
1 1 0 -5 1 1 0 0 0 1 1 1 0 -4 0 3 
1 -1 0 2 0 -3 0 1 1 -1 0 0 0 -3 0 2 
1 1 0 3 0 -4 0 3 1 -1 0 -5 0 5 2 0 
1 3 -1 -5 0 5 2 0 0 -4 0 2 1 1 0 -5 
0 3 1 -1 0 4 0 -14 0 11 1 1 0 -3 0 3 
2 2 1 0 1 -1 0 0 0 1 2 2 0 -2 1 -1 
0 6 0 -12 0 1 1 -1 0 2 0 -9 0 5 2 2 
1 1 1 1 0 1 0 -1 1 -1 0 4 1 -1 0 4 
1 1 0 -4 0 1 1 -1 0 2 0 -3 2 -2 0 3 
1 1 0 1 0 -5 0 1 1 1 0 -1 0 3 1 1 
0 -3 1 -1 0 4 1 1 0 -4 1 1 0 2 0 -7 
0 6 1 1 0 -5 0 2 2 0 0 -2 0 2 1 1 
0 1 0 -1 1 1 0 -3 0 1 1 1 0 1 0 -2 
0 1 1 1 0 1 0 -3 1 -1 0 5 0 -2 1 -1 
0 0 0 -1 0 1 1 -1 0 1 0 -1 0 0 1 1 
0 1 0 -2 1 1 0 0 0 -2 0 1 1 1 0 2 
0 -4 1 -1 0 0 0 5 1 -1 0 0 0 -4 0 1 
1 -1 0 3 0 -2 346 163 300 MP stroke
1 -1 0 16 1 1 0 20 0 -1 1 1 0 -6 0 2 
1 -1 0 6 0 -1 1 -1 0 4 0 -7 0 5 1 1 
0 -2 1 -1 0 2 0 -1 1 1 0 2 0 -2 1 -1 
0 -1 0 4 1 1 0 -1 0 4 1 1 0 0 0 11 
1 1 0 6 0 -1 1 1 0 -9 0 3 1 1 0 0 
0 32 1 1 0 -26 1 1 0 -4 0 13 1 1 0 13 
0 -19 1 1 0 13 0 -15 0 14 1 -1 0 1 0 -4 
0 3 1 -1 0 2 0 -4 0 3 1 1 0 1 0 -4 
0 1 1 1 0 -2 0 1 1 -1 0 -3 0 5 1 -1 
0 -3 0 8 1 1 0 -5 0 3 1 1 0 3 0 -5 
1 -1 0 1 0 -5 0 1 1 -1 0 -10 0 11 1 -1 
0 5 0 -3 1 -1 0 5 0 -34 1 -1 0 -24 1 -1 
0 -4 1 -1 0 -4 0 1 1 -1 0 2 0 -1 1 -1 
0 -1 0 1 1 1 1 1 0 1 1 -1 0 1 0 -1 
0 1 1 -1 0 1 0 0 1 -1 0 -1 0 2 1 -1 
0 -6 0 4 1 1 0 0 0 -1 1 1 0 -1 0 1 
1 -1 1 0 1 0 -1 0 2 0 1 0 1 0 0 0 
0 1 1 -1 0 1 0 -1 1 1 1 1 0 -2 1 -1 
0 -3 0 1 1 1 0 27 1 1 0 42 1 1 0 3 
0 -2 1 -1 0 1 0 -7 1 1 0 -1 0 10 1 1 
0 -55 1 -1 0 -21 1 -1 0 -4 1 -1 0 -6 1 -1 
0 -2 0 2 1 1 0 2 1 -1 0 1 1 -1 0 -1 
0 1 1 -1 0 -1 0 1 1 1 1 1 1 0 0 2 
0 -1 1 1 0 1 0 -2 0 1 1 -1 1 1 -1 -2 
0 2 2 0 1 1 0 -1 0 1 1 1 0 -3 2 -2 
0 5 1 1 0 9 2 0 0 -2 0 1 2 2 0 1 
1 1 0 -2 1 -1 0 -4 1 1 0 3 0 -2 1 -1 
0 2 1 1 0 2 0 -1 1 -1 0 -3 1 1 0 1 
0 -1 1 1 0 -2 0 0 2 2 1 0 1 0 0 1 
0 -1 0 0 1 1 0 -2 0 1 2 2 1 1 0 -1 
1 1 1 -1 0 1 1 -1 1 1 -1 0 2 0 1 0 
1 1 0 2 0 -4 1 1 0 1 0 -4 0 2 1 -1 
0 -4 0 1 1 1 1 1 0 -1 0 1 1 1 1 0 
0 -12 1 -1 0 -20 1 -1 0 -2 0 1 1 1 1 1 
1 2 -1 0 2 -2 0 -2 1 -1 1 -1 1 2 -1 0 
2 -2 0 9 1 1 0 22 1 1 0 7 1 -1 0 1 
0 -1 1 -1 1 1 1 -1 0 1 0 -1 1 1 0 -3 
1 -1 0 2 1 -1 215 148 300 MP stroke
0 0 0 1 1 -1 1 1 -1 0 2 0 0 1 0 -1 
1 1 0 -1 0 2 1 1 0 -2 1 1 0 -1 0 1 
1 1 1 2 -1 0 2 0 0 1 0 -2 1 -1 0 -9 
1 -1 0 -3 0 7 1 1 0 21 1 1 0 -1 0 18 
1 1 0 46 0 -213 0 19 1 -1 0 -7 0 4 1 -1 
0 -2 0 7 1 1 0 -2 1 1 0 -5 1 -1 0 -7 
0 2 1 1 0 2 0 -5 0 3 1 1 0 -6 0 3 
1 -1 0 7 0 -15 1 -1 0 226 0 -228 0 35 1 1 
0 24 1 1 0 5 1 1 1 0 1 0 1 0 0 1 
0 -1 0 0 1 1 1 1 0 -4 1 -1 0 1 0 0 
1 -1 0 5 0 -1 1 -2 0 -64 1 -1 1 0 1 0 
-1 0 2 0 1 1 -1 -1 0 1 2 0 1 0 1 1 
1 0 0 1 1 -1 1 1 0 1 0 -1 1 -1 0 57 
1 1 0 2 0 -64 1 0 0 233 0 -5 1 -1 0 1 
0 -227 1 0 1 0 0 2 1 1 0 1 0 -4 0 1 
2 0 0 -2 1 -1 0 2 1 1 0 93 0 -4 1 -1 
0 -34 1 -1 0 -9 0 24 1 1 0 28 0 -8 1 1 
0 -17 1 -1 0 -44 0 3 1 -1 0 32 0 -44 0 43 
1 -1 0 -12 0 4 1 1 0 2 0 -3 0 2 1 1 
0 14 0 -16 0 14 1 -1 0 -1 0 16 1 1 0 41 
1 1 0 19 0 -7 1 1 0 1 0 -38 1 -1 0 2 
0 -20 1 -1 0 16 0 -25 1 -1 0 1 0 -2 0 1 
1 1 0 3 0 -7 1 -1 0 -15 0 1 1 -1 0 -1 
0 1 1 -1 0 0 2 0 0 1 0 -2 2 0 0 2 
0 -2 0 1 1 -1 0 -20 0 2 1 1 0 34 0 -14 
1 1 0 -41 0 19 1 1 0 21 0 -10 1 1 0 28 
1 1 0 -2 0 1 2 0 0 -1 0 9 1 1 0 -8 
1 1 1 0 0 1 0 -1 1 -1 0 3 1 -1 0 6 
0 -8 0 2 1 -1 0 1 2 0 0 0 0 -1 1 -1 
0 4 1 1 0 -4 0 1 1 1 0 -12 1 -1 0 1 
0 -1 1 -1 1 0 1 0 1 0 1 1 0 -1 0 1 
1 -1 0 1 0 -1 0 0 1 1 0 -1 2 0 1 0 
0 -1 0 1 1 -1 0 1 0 -1 0 0 1 1 0 -1 
0 1 1 -1 0 17 0 -18 0 17 1 -1 0 -15 1 1 
1 0 1 0 -1 0 2 0 0 -4 0 2 1 -1 0 18 
0 -18 0 1 1 -1 0 116 0 -118 0 91 1 0 0 45 
0 -5 1 1 0 0 0 -192 0 117 93 166 294 MP stroke
/c9 { 1.000000 0.000000 0.000000 sr} bdef
c9
1 -12 0 -15 1 1 0 -4 0 44 1 14 0 -104 1 93 
0 36 0 -88 0 18 1 58 0 -129 0 61 95 166 15 MP stroke
100 155 PD
0 -13 0 7 101 159 3 MP stroke
0 -6 102 158 2 MP stroke
102 149 PD
0 11 103 135 2 MP stroke
103 159 PD
104 154 PD
104 168 PD
0 -7 105 157 2 MP stroke
0 -12 1 -1 0 -7 1 -3 0 80 1 -1 105 154 7 MP stroke
0 3 1 -8 0 -35 108 190 4 MP stroke
0 -15 1 4 0 22 1 -20 0 -43 0 1 1 3 0 49 
1 2 0 -15 0 29 1 -2 0 6 110 152 14 MP stroke
1 -18 0 43 0 -91 1 -3 0 26 1 -2 0 2 115 187 8 MP stroke
118 148 PD
1 15 118 132 2 MP stroke
1 -21 0 22 0 -3 1 6 0 5 0 -7 0 2 1 6 
0 -5 0 0 1 -2 0 5 0 -11 1 6 0 3 0 -26 
1 31 0 -28 0 1 1 25 0 22 0 -20 1 1 0 -88 
1 39 0 48 1 -4 0 -4 0 4 1 1 0 2 119 149 32 MP stroke
1 -6 0 -43 130 204 3 MP stroke
0 -12 1 -17 0 2 1 10 0 -10 0 38 1 46 0 12 
1 -1 0 -113 1 119 0 -114 1 13 0 141 0 -154 1 83 
0 -88 0 4 1 9 0 45 131 183 21 MP stroke
0 -5 140 207 2 MP stroke
1 7 0 -31 1 -3 0 -4 0 13 141 200 6 MP stroke
143 166 PD
0 58 1 -12 0 29 0 -98 1 19 0 -2 0 44 1 -35 
0 114 0 -160 0 159 1 -165 0 18 1 -5 0 -6 0 12 
1 -17 0 -3 0 162 1 -129 0 -26 0 1 1 9 0 -2 
0 152 1 -131 0 38 1 11 0 -1 1 -3 0 -11 0 90 
1 -92 0 54 0 -27 1 -27 0 73 0 -4 1 -54 0 8 
144 158 41 MP stroke
0 8 1 -12 0 93 0 -21 1 -72 0 92 0 -29 1 24 
0 -27 1 -84 0 118 0 -88 1 10 0 81 0 -13 1 -72 
0 80 0 -11 1 24 0 -118 0 20 1 60 0 9 0 -93 
0 6 1 84 0 -114 0 154 1 -127 0 57 0 -78 1 38 
0 -45 0 66 1 -22 0 116 0 -3 1 -78 0 3 0 -58 
0 56 1 77 0 -151 0 74 1 -4 0 6 0 -2 1 -3 
0 6 0 -6 1 4 0 4 0 -9 0 5 1 -1 0 2 
0 -3 0 1 1 5 0 4 0 -59 1 -9 0 -7 0 7 
1 2 0 23 0 -2 1 2 0 8 158 196 70 MP stroke
0 77 1 -3 0 -74 1 -4 0 29 1 -4 0 -15 1 -7 
0 7 0 -12 1 -2 0 -7 0 42 1 -2 0 28 1 -4 
0 13 0 -2 1 -3 0 -41 0 24 1 -12 0 -115 0 26 
1 68 0 -86 0 7 1 -3 0 154 0 -13 1 7 0 -14 
1 -4 0 6 0 -19 0 15 1 12 0 1 0 -18 0 11 
1 4 0 -71 0 64 1 0 0 6 1 0 0 10 1 3 
0 -166 1 163 0 -163 0 3 1 1 0 154 0 -157 0 16 
1 7 0 140 0 -158 1 159 0 -163 0 163 1 -166 0 7 
0 -1 1 -6 0 168 0 -167 1 5 0 159 0 -163 1 11 
0 153 0 -155 0 154 1 -147 0 -17 0 2 1 163 0 -164 
0 166 1 -160 0 159 0 -133 1 -22 0 144 0 -150 0 109 
1 -3 0 -108 1 7 0 80 1 6 0 12 0 -1 1 -3 
0 -59 0 74 1 -6 0 42 0 -93 1 46 0 -6 0 1 
1 23 0 39 0 -166 0 161 1 -22 0 8 0 -70 1 -8 
0 -66 0 108 1 23 0 -51 0 1 1 -3 0 -78 1 6 
0 -4 0 85 1 25 0 -84 0 128 1 4 0 -159 0 159 
1 0 0 -7 0 10 1 -1 0 -6 0 2 1 -12 0 -29 
0 23 1 -2 0 10 1 13 0 -4 0 2 1 3 0 2 
0 -15 1 -7 0 -17 1 0 0 -4 1 3 0 -101 0 96 
1 0 0 13 0 -134 0 123 1 7 0 -4 1 3 0 -6 
1 2 0 -2 0 4 1 -3 0 14 1 -9 0 -3 1 2 
0 -2 0 7 1 4 0 13 1 -118 0 114 0 -105 1 1 
0 82 0 -3 1 -26 0 -12 0 5 1 -1 0 45 1 -15 
0 29 0 -53 0 4 1 -9 0 -69 1 -19 0 136 0 -5 
1 3 0 -97 0 12 1 -1 0 2 0 -23 1 -3 0 -25 
0 3 1 2 0 102 0 -107 1 30 0 138 0 -148 0 140 
1 -158 0 166 0 -165 1 1 0 2 0 -4 1 1 0 7 
0 -6 1 5 0 6 0 -2 1 -4 0 3 0 -4 0 1 
1 -5 0 164 0 -2 1 -1 0 -165 0 13 1 4 0 18 
1 8 0 107 0 -139 0 4 1 41 0 28 0 -33 1 -4 
0 -5 1 -10 0 56 0 -17 1 -7 0 60 0 -87 1 6 
0 3 0 -20 0 17 1 24 0 -33 1 9 0 -7 0 4 
1 3 0 7 0 -15 1 5 0 -17 0 14 1 8 0 -1 
0 3 1 20 0 16 0 -7 1 4 0 -32 0 5 1 71 
0 1 1 -1 0 40 0 -10 1 -32 0 14 0 -20 0 15 
1 -11 0 7 0 -1 1 -5 0 5 0 -10 1 4 0 7 
0 -22 1 2 0 40 0 -2 1 -25 0 -2 0 45 1 -28 
0 -93 0 35 1 -9 181 182 300 MP stroke
0 2 0 -41 1 55 180 166 4 MP stroke
0 128 1 3 0 1 1 -1 0 2 0 -1 1 5 0 -11 
0 6 1 -2 0 -1 0 4 1 -6 0 -122 0 126 1 0 
0 1 0 -6 0 4 1 2 0 0 0 1 1 1 0 -5 
0 7 1 -4 0 5 0 -41 1 37 0 2 0 -6 0 2 
1 1 0 -2 1 -1 0 5 1 -5 0 4 0 -2 1 3 
0 -4 0 2 1 -1 0 1 0 -2 0 0 1 1 0 1 
1 -1 -1 0 2 0 0 1 0 -1 1 1 0 2 0 -4 
0 3 1 -1 0 1 0 -3 1 2 0 -2 1 -1 0 14 
0 -10 1 -4 0 3 0 -2 1 1 0 6 0 -10 1 2 
0 -1 0 4 1 0 0 3 0 -13 1 -75 0 79 1 -2 
0 -73 0 87 1 -19 0 20 0 -82 0 75 1 -8 0 10 
1 -2 0 5 0 -7 0 1 1 -7 0 9 1 -4 0 -5 
0 1 1 12 0 -142 1 83 0 65 1 -161 0 164 0 -24 
1 -63 0 -13 0 104 1 -95 0 89 0 -139 0 35 1 92 
0 2 0 -1 1 -1 0 15 0 -14 1 -151 0 149 1 4 
0 5 0 -158 0 150 1 0 0 -41 0 8 1 19 0 12 
1 -3 0 -69 0 19 1 60 0 -16 0 25 1 -17 0 -11 
0 8 1 -7 0 14 0 -15 0 8 1 2 0 -2 0 5 
1 1 0 3 0 -5 1 -1 0 2 0 -1 1 2 1 1 
0 1 0 -3 1 5 0 -4 0 4 1 -3 0 2 0 -7 
1 4 0 4 0 -1 1 -4 0 3 1 -3 0 4 0 -3 
1 0 0 3 0 -10 0 10 1 -9 0 7 0 -144 0 110 
1 -116 0 161 0 -23 1 -66 0 76 0 -1 1 -3 0 4 
0 0 1 -3 0 2 1 1 0 2 0 -2 1 0 0 -1 
0 1 1 1 0 -2 0 1 1 1 0 -2 1 2 0 -1 
1 1 1 -1 0 -2 1 1 0 0 0 3 1 -2 0 -1 
0 1 1 2 0 7 0 -10 0 8 1 -150 0 162 0 -147 
1 8 0 3 0 -4 0 3 1 -5 0 40 0 -9 1 20 
0 32 0 -94 1 14 0 -4 1 5 0 -4 1 5 0 -2 
1 -1 0 8 0 -4 1 0 0 -3 1 -3 0 3 1 -4 
0 9 0 -2 1 3 0 3 0 -5 0 4 1 -3 0 4 
0 -1 1 -2 0 -1 0 2 1 -1 0 3 1 2 0 -2 
0 25 1 -21 0 30 1 -46 0 16 0 -30 1 30 0 -13 
0 139 1 -21 0 -93 1 9 0 105 0 -147 0 21 1 -13 
0 129 0 -137 0 40 1 86 0 -140 1 10 0 146 0 -4 
1 -49 0 -107 0 164 1 -164 0 158 0 -157 1 22 0 -11 
0 18 1 -1 0 -3 0 4 1 5 0 1 0 -1 1 -3 
0 -8 1 -9 0 -14 315 246 300 MP stroke
1 -4 0 168 0 -1 1 -10 0 1 0 -1 1 -2 0 2 
0 -3 1 3 0 10 0 -31 0 3 1 -6 0 15 0 -22 
1 8 0 -2 0 1 1 -2 0 4 0 -11 1 2 0 1 
0 -7 1 6 0 16 0 -19 0 7 1 5 0 -6 0 3 
1 -2 0 6 0 -2 1 -3 0 -15 0 18 1 0 0 -8 
0 2 1 -4 0 10 0 -12 1 1 0 13 0 -13 1 -6 
0 13 0 -41 0 22 1 25 0 -47 0 46 1 3 0 7 
0 -11 0 10 1 6 0 4 0 -11 1 10 0 10 0 -163 
1 163 0 2 0 -9 0 4 1 7 0 -159 0 1 1 16 
0 7 1 1 0 -4 0 14 1 8 0 -29 0 139 1 -129 
0 -10 0 15 1 -5 0 -19 0 1 1 -10 0 -2 0 166 
1 -166 0 97 286 151 91 MP stroke
0 -114 0 103 1 -19 0 16 1 9 0 -2 0 4 1 7 
0 4 0 -159 421 245 11 MP stroke
0 -9 1 52 0 -25 1 -29 0 48 0 -10 1 -38 0 62 
0 -102 1 21 0 -64 0 149 1 -30 0 -49 0 76 1 -39 
0 47 0 -14 1 -1 0 5 0 -2 1 -1 1 1 0 1 
0 -1 1 1 1 -1 0 -2 0 12 1 -138 0 132 0 -5 
1 2 0 -1 1 1 0 1 0 -1 1 -2 0 -85 425 187 40 MP stroke
0 -5 1 -1 0 0 0 -85 1 -1 0 84 0 -7 1 10 
0 3 0 -3 1 -82 0 83 1 -82 0 21 0 -19 1 -2 
0 80 1 -32 440 130 19 MP stroke
1 0 0 9 1 5 447 89 4 MP stroke
0 -7 1 -95 449 192 3 MP stroke
0 81 1 -5 0 -125 0 123 1 21 0 -93 0 79 1 8 
0 6 0 -7 1 1 1 -1 -1 0 2 3 0 -3 1 -1 
0 -4 0 12 1 -9 450 103 20 MP stroke
0 111 1 15 0 -65 1 -2 0 41 0 -130 0 95 1 38 
0 -50 0 57 1 -7 0 -23 0 8 1 23 0 -31 0 35 
1 -26 0 9 0 -20 0 0 1 -3 0 -75 0 84 1 31 
0 3 0 -98 0 19 1 -65 0 49 1 -23 0 106 0 -5 
1 11 0 -20 0 17 1 4 0 1 0 -4 1 1 0 0 
0 -6 1 -8 0 -104 1 7 0 8 1 -8 0 120 0 -129 
1 9 0 21 0 -1 1 85 0 -87 0 103 1 -1 0 6 
0 -21 1 -105 0 84 0 -44 1 1 0 85 0 -63 1 -21 
0 79 0 -12 1 5 0 -2 0 5 1 3 0 -12 1 -1 
0 7 0 -8 1 1 0 1 1 -2 0 -66 1 15 0 -19 
0 62 459 110 82 MP stroke
1 13 0 88 1 19 0 -17 0 3 1 -3 0 6 1 -4 
0 -2 0 3 1 -1 0 -1 0 3 1 2 0 -2 1 -1 
0 -2 1 1 1 -1 0 -1 0 2 1 -1 1 1 0 -1 
0 1 1 -1 0 1 1 -1 0 -1 0 2 1 -1 0 -1 
0 2 1 -1 0 -1 0 2 1 1 0 -2 0 1 1 -1 
0 1 0 -1 1 2 0 -1 1 -1 0 1 0 -3 0 1 
1 1 0 1 1 -1 0 2 0 -4 1 -3 0 -49 0 45 
1 8 0 5 0 -18 1 -2 0 -79 1 36 0 64 0 -9 
1 -2 0 13 0 -5 1 -1 0 1 1 1 0 2 1 -2 
0 1 0 -3 1 -1 0 4 0 -1 1 12 0 -150 1 139 
0 -135 1 42 0 69 0 -127 1 116 0 -71 1 23 0 79 
0 -149 0 71 1 86 0 5 0 -7 1 2 0 8 0 -11 
1 1 0 6 1 -2 0 -6 1 -1 0 -4 1 3 0 -4 
1 2 0 2 0 -2 0 2 1 -3 0 2 1 -3 0 2 
1 0 0 1 0 -2 1 1 0 2 0 -3 1 1 0 3 
0 -3 1 0 0 2 0 -1 1 2 0 -3 1 -2 0 0 
0 5 1 -3 0 -1 0 7 1 0 0 11 0 -161 0 71 
1 -23 0 18 0 -3 1 36 0 -21 0 69 1 -27 0 26 
0 -2 1 -2 0 -5 1 25 0 -120 0 108 1 -95 0 -22 
0 128 1 -157 0 -9 0 150 1 -25 0 13 0 -137 0 6 
1 43 0 -43 0 151 1 -6 0 -34 0 37 1 -82 0 80 
0 -78 1 69 0 15 0 -4 1 8 0 -8 0 1 1 -3 
0 1 0 -4 0 1 1 -11 0 10 0 -139 1 20 0 116 
1 -21 0 18 0 -141 1 154 0 1 0 -57 1 -18 0 72 
0 -97 0 67 488 124 195 MP stroke
0 -104 0 99 1 -6 0 17 0 -4 1 -17 0 -132 0 159 
1 -145 0 38 559 190 11 MP stroke
0 -125 563 243 2 MP stroke
0 106 1 -15 563 139 3 MP stroke
565 232 PD
565 200 PD
566 210 PD
1 8 0 23 566 198 3 MP stroke
567 243 PD
0 131 1 2 567 94 3 MP stroke
568 90 PD
569 217 PD
1 0 0 -157 1 2 0 83 1 -1 0 -2 0 2 1 0 
0 -6 0 10 1 -28 0 14 0 -13 1 -10 0 2 0 -11 
0 4 1 3 0 5 0 -10 1 2 0 3 0 -4 0 1 
1 -1 0 9 1 8 0 -16 1 4 0 -4 0 7 1 2 
0 -7 1 4 0 -14 0 9 1 -8 0 16 0 -3 1 1 
0 5 1 -1 0 3 0 -6 1 4 0 -7 0 10 1 1 
0 30 0 -39 1 -13 0 10 1 4 0 -4 0 7 1 0 
0 -3 1 9 0 -2 0 5 1 7 0 -17 0 2 1 -4 
0 1 1 1 0 6 1 -9 0 -1 0 2 1 1 0 6 
0 -4 1 4 0 -5 0 5 1 -4 0 16 1 -10 0 27 
1 7 0 6 1 7 0 -1 1 1 0 14 0 -1 1 27 
569 89 89 MP stroke
1 0 604 166 2 MP stroke
gr

c9
0 sg
%%IncludeResource: font Helvetica
/Helvetica /ISOLatin1Encoding 12.1667 FMSR

 342  332 mt 
(Time \(min\)) s
  60  225 mt  -90 rotate
(Orientation \(degrees\)) s
90 rotate
%%IncludeResource: font Helvetica
/Helvetica /ISOLatin1Encoding 10.1389 FMSR

  92  312 mt 
( ) s
 651   30 mt 
( ) s
1 sg
0 30 127 0 0 -30 520 62 4 MP
PP
-127 0 0 30 127 0 0 -30 520 62 5 MP stroke
0.337963 w
DO
SO
0.506944 w
0 sg
 520   62 mt  647   62 L
 520   32 mt  647   32 L
 520   62 mt  520   32 L
 647   62 mt  647   32 L
 520   62 mt  647   62 L
 520   62 mt  520   32 L
 520   62 mt  647   62 L
 520   32 mt  647   32 L
 520   62 mt  520   32 L
 647   62 mt  647   32 L
 558   45 mt 
(Heading Estimate) s
gs 520 32 128 31 rc
c8
29 0 525 40 2 MP stroke
gr

c8
0 sg
 558   58 mt 
(HPF True Heading) s
gs 520 32 128 31 rc
c9
29 0 525 53 2 MP stroke
gr

c9

end %%Color Dict

eplot
%%EndObject

epage
end

showpage

%%Trailer
%%EOF
