%!PS-Adobe-3.0 EPSF-3.0
%%Creator: MATLAB, The MathWorks, Inc. Version 8.0.0.783 (R2012b). Operating System: Darwin 12.5.0 Darwin Kernel Version 12.5.0: Sun Sep 29 13:33:47 PDT 2013; root:xnu-2050.48.12~1/RELEASE_X86_64 x86_64.
%%Title: figs/predictOrientation_delta.eps
%%CreationDate: 11/01/2013  14:46:51
%%DocumentNeededFonts: Helvetica
%%DocumentProcessColors: Cyan Magenta Yellow Black
%%LanguageLevel: 2
%%Pages: 1
%%BoundingBox:    -2   232   605   552
%%EndComments

%%BeginProlog
% MathWorks dictionary
/MathWorks 160 dict begin
% definition operators
/bdef {bind def} bind def
/ldef {load def} bind def
/xdef {exch def} bdef
/xstore {exch store} bdef
% operator abbreviations
/c  /clip ldef
/cc /concat ldef
/cp /closepath ldef
/gr /grestore ldef
/gs /gsave ldef
/mt /moveto ldef
/np /newpath ldef
/cm /currentmatrix ldef
/sm /setmatrix ldef
/rm /rmoveto ldef
/rl /rlineto ldef
/s {show newpath} bdef
/sc {setcmykcolor} bdef
/sr /setrgbcolor ldef
/sg /setgray ldef
/w /setlinewidth ldef
/j /setlinejoin ldef
/cap /setlinecap ldef
/rc {rectclip} bdef
/rf {rectfill} bdef
% page state control
/pgsv () def
/bpage {/pgsv save def} bdef
/epage {pgsv restore} bdef
/bplot /gsave ldef
/eplot {stroke grestore} bdef
% orientation switch
/portraitMode 0 def /landscapeMode 1 def /rotateMode 2 def
% coordinate system mappings
/dpi2point 0 def
% font control
/FontSize 0 def
/FMS {/FontSize xstore findfont [FontSize 0 0 FontSize neg 0 0]
  makefont setfont} bdef
/reencode {exch dup where {pop load} {pop StandardEncoding} ifelse
  exch dup 3 1 roll findfont dup length dict begin
  { 1 index /FID ne {def}{pop pop} ifelse } forall
  /Encoding exch def currentdict end definefont pop} bdef
/isroman {findfont /CharStrings get /Agrave known} bdef
/FMSR {3 1 roll 1 index dup isroman {reencode} {pop pop} ifelse
  exch FMS} bdef
/csm {1 dpi2point div -1 dpi2point div scale neg translate
 dup landscapeMode eq {pop -90 rotate}
  {rotateMode eq {90 rotate} if} ifelse} bdef
% line types: solid, dotted, dashed, dotdash
/SO { [] 0 setdash } bdef
/DO { [.5 dpi2point mul 4 dpi2point mul] 0 setdash } bdef
/DA { [6 dpi2point mul] 0 setdash } bdef
/DD { [.5 dpi2point mul 4 dpi2point mul 6 dpi2point mul 4
  dpi2point mul] 0 setdash } bdef
% macros for lines and objects
/L {lineto stroke} bdef
/MP {3 1 roll moveto 1 sub {rlineto} repeat} bdef
/AP {{rlineto} repeat} bdef
/PDlw -1 def
/W {/PDlw currentlinewidth def setlinewidth} def
/PP {closepath eofill} bdef
/DP {closepath stroke} bdef
/MR {4 -2 roll moveto dup  0 exch rlineto exch 0 rlineto
  neg 0 exch rlineto closepath} bdef
/FR {MR stroke} bdef
/PR {MR fill} bdef
/L1i {{currentfile picstr readhexstring pop} image} bdef
/tMatrix matrix def
/MakeOval {newpath tMatrix currentmatrix pop translate scale
0 0 1 0 360 arc tMatrix setmatrix} bdef
/FO {MakeOval stroke} bdef
/PO {MakeOval fill} bdef
/PD {currentlinewidth 2 div 0 360 arc fill
   PDlw -1 eq not {PDlw w /PDlw -1 def} if} def
/FA {newpath tMatrix currentmatrix pop translate scale
  0 0 1 5 -2 roll arc tMatrix setmatrix stroke} bdef
/PA {newpath tMatrix currentmatrix pop	translate 0 0 moveto scale
  0 0 1 5 -2 roll arc closepath tMatrix setmatrix fill} bdef
/FAn {newpath tMatrix currentmatrix pop translate scale
  0 0 1 5 -2 roll arcn tMatrix setmatrix stroke} bdef
/PAn {newpath tMatrix currentmatrix pop translate 0 0 moveto scale
  0 0 1 5 -2 roll arcn closepath tMatrix setmatrix fill} bdef
/vradius 0 def /hradius 0 def /lry 0 def
/lrx 0 def /uly 0 def /ulx 0 def /rad 0 def
/MRR {/vradius xdef /hradius xdef /lry xdef /lrx xdef /uly xdef
  /ulx xdef newpath tMatrix currentmatrix pop ulx hradius add uly
  vradius add translate hradius vradius scale 0 0 1 180 270 arc 
  tMatrix setmatrix lrx hradius sub uly vradius add translate
  hradius vradius scale 0 0 1 270 360 arc tMatrix setmatrix
  lrx hradius sub lry vradius sub translate hradius vradius scale
  0 0 1 0 90 arc tMatrix setmatrix ulx hradius add lry vradius sub
  translate hradius vradius scale 0 0 1 90 180 arc tMatrix setmatrix
  closepath} bdef
/FRR {MRR stroke } bdef
/PRR {MRR fill } bdef
/MlrRR {/lry xdef /lrx xdef /uly xdef /ulx xdef /rad lry uly sub 2 div def
  newpath tMatrix currentmatrix pop ulx rad add uly rad add translate
  rad rad scale 0 0 1 90 270 arc tMatrix setmatrix lrx rad sub lry rad
  sub translate rad rad scale 0 0 1 270 90 arc tMatrix setmatrix
  closepath} bdef
/FlrRR {MlrRR stroke } bdef
/PlrRR {MlrRR fill } bdef
/MtbRR {/lry xdef /lrx xdef /uly xdef /ulx xdef /rad lrx ulx sub 2 div def
  newpath tMatrix currentmatrix pop ulx rad add uly rad add translate
  rad rad scale 0 0 1 180 360 arc tMatrix setmatrix lrx rad sub lry rad
  sub translate rad rad scale 0 0 1 0 180 arc tMatrix setmatrix
  closepath} bdef
/FtbRR {MtbRR stroke } bdef
/PtbRR {MtbRR fill } bdef
/stri 6 array def /dtri 6 array def
/smat 6 array def /dmat 6 array def
/tmat1 6 array def /tmat2 6 array def /dif 3 array def
/asub {/ind2 exch def /ind1 exch def dup dup
  ind1 get exch ind2 get sub exch } bdef
/tri_to_matrix {
  2 0 asub 3 1 asub 4 0 asub 5 1 asub
  dup 0 get exch 1 get 7 -1 roll astore } bdef
/compute_transform {
  dmat dtri tri_to_matrix tmat1 invertmatrix 
  smat stri tri_to_matrix tmat2 concatmatrix } bdef
/ds {stri astore pop} bdef
/dt {dtri astore pop} bdef
/db {2 copy /cols xdef /rows xdef mul dup 3 mul string
  currentfile 
  3 index 0 eq {/ASCIIHexDecode filter}
  {/ASCII85Decode filter 3 index 2 eq {/RunLengthDecode filter} if }
  ifelse exch readstring pop
  dup 0 3 index getinterval /rbmap xdef
  dup 2 index dup getinterval /gbmap xdef
  1 index dup 2 mul exch getinterval /bbmap xdef pop pop}bdef
/it {gs np dtri aload pop moveto lineto lineto cp c
  cols rows 8 compute_transform 
  rbmap gbmap bbmap true 3 colorimage gr}bdef
/il {newpath moveto lineto stroke}bdef
currentdict end def
%%EndProlog

%%BeginSetup
MathWorks begin

0 cap

end
%%EndSetup

%%Page: 1 1
%%BeginPageSetup
%%PageBoundingBox:    -2   232   605   552
MathWorks begin
bpage
%%EndPageSetup

%%BeginObject: obj1
bplot

/dpi2point 1.01389 def
portraitMode -0048 0573 csm

   46    14   617   324 rc
85 dict begin %Colortable dictionary
/c0 { 0.000000 0.000000 0.000000 sr} bdef
/c1 { 1.000000 1.000000 1.000000 sr} bdef
/c2 { 0.900000 0.000000 0.000000 sr} bdef
/c3 { 0.000000 0.820000 0.000000 sr} bdef
/c4 { 0.000000 0.000000 0.800000 sr} bdef
/c5 { 0.910000 0.820000 0.320000 sr} bdef
/c6 { 1.000000 0.260000 0.820000 sr} bdef
/c7 { 0.000000 0.820000 0.820000 sr} bdef
c0
1 j
1 sg
   0    0  720  347 rf
0.506944 w
0 282 558 0 0 -282 93 308 4 MP
PP
-558 0 0 282 558 0 0 -282 93 308 5 MP stroke
0.337963 w
DO
0 sg
  93  308 mt   93   26 L
  93   26 mt   93   26 L
 186  308 mt  186   26 L
 186   26 mt  186   26 L
 279  308 mt  279   26 L
 279   26 mt  279   26 L
 372  308 mt  372   26 L
 372   26 mt  372   26 L
 465  308 mt  465   26 L
 465   26 mt  465   26 L
 558  308 mt  558   26 L
 558   26 mt  558   26 L
 651  308 mt  651   26 L
 651   26 mt  651   26 L
  93  308 mt  651  308 L
 651  308 mt  651  308 L
  93  272 mt  651  272 L
 651  272 mt  651  272 L
  93  237 mt  651  237 L
 651  237 mt  651  237 L
  93  202 mt  651  202 L
 651  202 mt  651  202 L
  93  167 mt  651  167 L
 651  167 mt  651  167 L
  93  131 mt  651  131 L
 651  131 mt  651  131 L
  93   96 mt  651   96 L
 651   96 mt  651   96 L
  93   61 mt  651   61 L
 651   61 mt  651   61 L
  93   26 mt  651   26 L
 651   26 mt  651   26 L
SO
0.506944 w
  93  308 mt  651  308 L
  93   26 mt  651   26 L
  93  308 mt   93   26 L
 651  308 mt  651   26 L
  93  308 mt  651  308 L
  93  308 mt   93   26 L
  93  308 mt   93  302 L
  93   26 mt   93   31 L
%%IncludeResource: font Helvetica
/Helvetica /ISOLatin1Encoding 10.1389 FMSR

  81  319 mt 
(-0.5) s
 186  308 mt  186  302 L
 186   26 mt  186   31 L
 184  319 mt 
(0) s
 279  308 mt  279  302 L
 279   26 mt  279   31 L
 272  319 mt 
(0.5) s
 372  308 mt  372  302 L
 372   26 mt  372   31 L
 370  319 mt 
(1) s
 465  308 mt  465  302 L
 465   26 mt  465   31 L
 458  319 mt 
(1.5) s
 558  308 mt  558  302 L
 558   26 mt  558   31 L
 556  319 mt 
(2) s
 651  308 mt  651  302 L
 651   26 mt  651   31 L
 644  319 mt 
(2.5) s
  93  308 mt   98  308 L
 651  308 mt  645  308 L
  68  311 mt 
(-200) s
  93  272 mt   98  272 L
 651  272 mt  645  272 L
  68  275 mt 
(-150) s
  93  237 mt   98  237 L
 651  237 mt  645  237 L
  68  240 mt 
(-100) s
  93  202 mt   98  202 L
 651  202 mt  645  202 L
  73  205 mt 
(-50) s
  93  167 mt   98  167 L
 651  167 mt  645  167 L
  85  170 mt 
(0) s
  93  131 mt   98  131 L
 651  131 mt  645  131 L
  79  134 mt 
(50) s
  93   96 mt   98   96 L
 651   96 mt  645   96 L
  74   99 mt 
(100) s
  93   61 mt   98   61 L
 651   61 mt  645   61 L
  74   64 mt 
(150) s
  93   26 mt   98   26 L
 651   26 mt  645   26 L
  74   29 mt 
(200) s
  93  308 mt  651  308 L
  93   26 mt  651   26 L
  93  308 mt   93   26 L
 651  308 mt  651   26 L
gs 93 26 559 283 rc
/c8 { 0.000000 0.000000 1.000000 sr} bdef
c8
1 0 1 0 1 -1 1 0 1 0 1 0 1 0 1 0 
1 0 1 0 1 0 1 0 1 1 1 0 1 1 1 0 
1 0 1 1 1 0 1 0 1 0 1 0 1 1 1 0 
1 1 1 0 1 0 1 0 1 0 1 1 1 0 1 0 
1 0 1 0 1 0 1 0 1 -1 1 0 1 0 1 0 
1 1 1 -1 1 0 1 0 1 0 1 -1 0 -1 2 -2 
1 0 1 -1 1 0 1 -1 1 0 1 -1 1 0 1 0 
1 0 1 0 -1 0 2 2 1 0 1 0 1 0 1 1 
1 0 1 1 1 0 1 0 1 1 1 0 1 0 1 0 
1 0 1 0 1 0 1 1 1 0 1 0 1 0 1 0 
1 0 -1 0 2 2 1 0 1 0 0 -2 1 -1 1 0 
1 1 1 0 1 0 1 -1 1 0 1 0 1 0 1 -1 
1 -1 1 -1 1 -1 1 -1 1 0 1 0 1 0 1 0 
1 0 1 0 1 0 1 0 1 0 1 0 1 1 1 0 
1 1 1 0 1 1 1 0 1 1 1 0 1 0 1 1 
1 0 1 0 1 0 1 0 1 1 1 0 1 0 1 0 
1 0 1 0 1 0 1 0 1 -1 1 0 1 0 1 1 
1 0 1 1 1 0 1 0 1 0 0 -2 2 -2 1 -1 
1 -1 1 -1 1 0 1 -1 1 0 1 0 1 0 1 0 
1 1 1 1 1 0 1 0 1 1 1 0 1 0 1 1 
1 0 1 0 1 1 1 0 1 0 1 0 1 1 1 0 
1 1 1 0 1 0 1 0 1 0 1 0 1 0 1 -1 
1 0 1 0 1 -1 1 0 1 0 1 -1 1 0 1 -1 
1 0 1 -1 1 0 1 0 1 1 0 2 2 2 1 0 
-1 0 2 -2 1 -1 0 -1 2 -2 1 0 0 -1 2 -2 
1 0 1 0 1 0 1 0 1 1 1 0 1 1 1 0 
1 1 1 0 1 1 1 1 1 0 1 0 1 1 1 0 
1 1 1 1 1 0 1 0 1 0 1 0 1 0 1 0 
1 0 1 0 1 0 1 0 1 0 1 0 1 0 1 0 
1 0 1 0 1 0 1 0 1 1 1 0 1 0 1 0 
1 0 1 0 1 0 1 0 1 0 1 1 0 -1 0 1 
1 -1 1 1 1 -1 1 0 1 0 1 0 1 1 1 0 
1 0 1 0 1 1 1 0 1 0 1 0 1 1 1 1 
1 0 1 0 1 1 1 0 1 0 1 1 1 0 1 1 
1 0 1 0 1 0 1 1 1 0 1 -1 1 0 1 -1 
1 -1 1 0 1 0 1 0 1 0 0 -1 2 -2 1 -1 
1 0 1 1 1 0 1 0 1 1 1 0 1 1 1 0 
-1 0 2 -2 1 -1 287 162 300 MP stroke
1 -1 1 0 1 0 1 0 1 1 1 0 1 0 1 1 
1 0 1 1 1 0 1 1 1 1 1 1 1 0 1 1 
1 0 1 1 1 0 1 1 1 0 1 1 1 1 1 0 
1 0 1 1 1 0 1 1 1 0 1 0 1 1 1 0 
1 0 1 0 1 0 1 1 1 0 1 1 1 0 1 0 
1 0 1 -1 1 0 1 0 1 1 1 -1 1 0 1 0 
1 0 1 -1 1 1 1 1 1 0 1 1 1 0 1 1 
1 1 1 1 1 0 1 1 1 1 1 1 1 1 1 1 
1 1 1 0 1 1 1 1 0 1 2 2 1 0 -1 0 
2 0 1 1 1 1 1 1 1 1 1 1 1 1 1 1 
1 1 1 1 1 0 1 1 1 1 1 1 1 1 1 0 
1 1 1 1 0 1 2 2 1 0 1 1 1 1 1 0 
1 1 1 1 1 1 1 1 1 1 1 1 0 -122 0 1 
186 227 105 MP stroke
/c9 { 1.000000 0.000000 0.000000 sr} bdef
c9
4 3 3 -7 3 -14 3 3 3 -1 3 8 1 -8 5 -3 
3 4 3 7 4 5 3 -4 3 7 3 -18 3 22 3 -61 
3 64 3 12 3 -4 3 -5 4 5 3 -4 3 3 3 1 
3 -2 3 24 1 -20 5 -3 3 -9 3 -17 4 -29 3 41 
3 11 3 14 3 8 3 -5 3 3 3 0 3 -1 3 0 
4 4 3 -1 3 0 3 -8 3 -40 3 -27 1 80 2 -131 
3 186 3 -49 3 7 4 -9 3 -14 3 5 3 4 3 -3 
3 0 3 -1 3 -13 3 13 3 -43 4 -50 3 17 3 36 
3 58 3 -56 3 0 1 2 5 0 3 -1 3 0 4 2 
3 1 3 2 3 -1 3 0 3 1 3 2 3 1 3 -3 
3 1 4 -3 3 1 3 -1 3 -1 3 0 3 -2 2 6 
4 12 3 -5 3 11 4 38 3 -1 3 -64 3 -3 6 100 
3 -34 3 7 3 -8 3 -15 4 11 3 -2 3 7 3 1 
3 10 3 -10 1 -35 2 -26 3 0 3 26 3 -4 4 74 
3 -20 3 -4 3 -2 3 -2 3 5 3 6 3 2 3 -2 
3 -9 4 14 3 66 3 -196 11 75 185 160 126 MP stroke
gr

c9
0 sg
%%IncludeResource: font Helvetica
/Helvetica /ISOLatin1Encoding 12.1667 FMSR

 342  333 mt 
(Time \(min\)) s
  60  226 mt  -90 rotate
(Orientation \(degrees\)) s
90 rotate
%%IncludeResource: font Helvetica
/Helvetica /ISOLatin1Encoding 10.1389 FMSR

  92  313 mt 
( ) s
 651   30 mt 
( ) s
1 sg
0 30 148 0 0 -30 499 62 4 MP
PP
-148 0 0 30 148 0 0 -30 499 62 5 MP stroke
0.337963 w
DO
SO
0.506944 w
0 sg
 499   62 mt  647   62 L
 499   32 mt  647   32 L
 499   62 mt  499   32 L
 647   62 mt  647   32 L
 499   62 mt  647   62 L
 499   62 mt  499   32 L
 499   62 mt  647   62 L
 499   32 mt  647   32 L
 499   62 mt  499   32 L
 647   62 mt  647   32 L
 538   45 mt 
(HPF Heading Estimate) s
gs 499 32 149 31 rc
c8
30 0 504 40 2 MP stroke
gr

c8
0 sg
 538   58 mt 
(HPF True Heading) s
gs 499 32 149 31 rc
c9
30 0 504 53 2 MP stroke
gr

c9

end %%Color Dict

eplot
%%EndObject

epage
end

showpage

%%Trailer
%%EOF
