%!PS-Adobe-3.0 EPSF-3.0
%%Creator: MATLAB, The MathWorks, Inc. Version 8.0.0.783 (R2012b). Operating System: Darwin 13.0.0 Darwin Kernel Version 13.0.0: Thu Sep 19 22:22:27 PDT 2013; root:xnu-2422.1.72~6/RELEASE_X86_64 x86_64.
%%Title: figs/predictOrientation_cali_roll.eps
%%CreationDate: 10/31/2013  13:41:30
%%DocumentNeededFonts: Helvetica
%%DocumentProcessColors: Cyan Magenta Yellow Black
%%LanguageLevel: 2
%%Pages: 1
%%BoundingBox:    -3   234   601   553
%%EndComments

%%BeginProlog
% MathWorks dictionary
/MathWorks 160 dict begin
% definition operators
/bdef {bind def} bind def
/ldef {load def} bind def
/xdef {exch def} bdef
/xstore {exch store} bdef
% operator abbreviations
/c  /clip ldef
/cc /concat ldef
/cp /closepath ldef
/gr /grestore ldef
/gs /gsave ldef
/mt /moveto ldef
/np /newpath ldef
/cm /currentmatrix ldef
/sm /setmatrix ldef
/rm /rmoveto ldef
/rl /rlineto ldef
/s {show newpath} bdef
/sc {setcmykcolor} bdef
/sr /setrgbcolor ldef
/sg /setgray ldef
/w /setlinewidth ldef
/j /setlinejoin ldef
/cap /setlinecap ldef
/rc {rectclip} bdef
/rf {rectfill} bdef
% page state control
/pgsv () def
/bpage {/pgsv save def} bdef
/epage {pgsv restore} bdef
/bplot /gsave ldef
/eplot {stroke grestore} bdef
% orientation switch
/portraitMode 0 def /landscapeMode 1 def /rotateMode 2 def
% coordinate system mappings
/dpi2point 0 def
% font control
/FontSize 0 def
/FMS {/FontSize xstore findfont [FontSize 0 0 FontSize neg 0 0]
  makefont setfont} bdef
/reencode {exch dup where {pop load} {pop StandardEncoding} ifelse
  exch dup 3 1 roll findfont dup length dict begin
  { 1 index /FID ne {def}{pop pop} ifelse } forall
  /Encoding exch def currentdict end definefont pop} bdef
/isroman {findfont /CharStrings get /Agrave known} bdef
/FMSR {3 1 roll 1 index dup isroman {reencode} {pop pop} ifelse
  exch FMS} bdef
/csm {1 dpi2point div -1 dpi2point div scale neg translate
 dup landscapeMode eq {pop -90 rotate}
  {rotateMode eq {90 rotate} if} ifelse} bdef
% line types: solid, dotted, dashed, dotdash
/SO { [] 0 setdash } bdef
/DO { [.5 dpi2point mul 4 dpi2point mul] 0 setdash } bdef
/DA { [6 dpi2point mul] 0 setdash } bdef
/DD { [.5 dpi2point mul 4 dpi2point mul 6 dpi2point mul 4
  dpi2point mul] 0 setdash } bdef
% macros for lines and objects
/L {lineto stroke} bdef
/MP {3 1 roll moveto 1 sub {rlineto} repeat} bdef
/AP {{rlineto} repeat} bdef
/PDlw -1 def
/W {/PDlw currentlinewidth def setlinewidth} def
/PP {closepath eofill} bdef
/DP {closepath stroke} bdef
/MR {4 -2 roll moveto dup  0 exch rlineto exch 0 rlineto
  neg 0 exch rlineto closepath} bdef
/FR {MR stroke} bdef
/PR {MR fill} bdef
/L1i {{currentfile picstr readhexstring pop} image} bdef
/tMatrix matrix def
/MakeOval {newpath tMatrix currentmatrix pop translate scale
0 0 1 0 360 arc tMatrix setmatrix} bdef
/FO {MakeOval stroke} bdef
/PO {MakeOval fill} bdef
/PD {currentlinewidth 2 div 0 360 arc fill
   PDlw -1 eq not {PDlw w /PDlw -1 def} if} def
/FA {newpath tMatrix currentmatrix pop translate scale
  0 0 1 5 -2 roll arc tMatrix setmatrix stroke} bdef
/PA {newpath tMatrix currentmatrix pop	translate 0 0 moveto scale
  0 0 1 5 -2 roll arc closepath tMatrix setmatrix fill} bdef
/FAn {newpath tMatrix currentmatrix pop translate scale
  0 0 1 5 -2 roll arcn tMatrix setmatrix stroke} bdef
/PAn {newpath tMatrix currentmatrix pop translate 0 0 moveto scale
  0 0 1 5 -2 roll arcn closepath tMatrix setmatrix fill} bdef
/vradius 0 def /hradius 0 def /lry 0 def
/lrx 0 def /uly 0 def /ulx 0 def /rad 0 def
/MRR {/vradius xdef /hradius xdef /lry xdef /lrx xdef /uly xdef
  /ulx xdef newpath tMatrix currentmatrix pop ulx hradius add uly
  vradius add translate hradius vradius scale 0 0 1 180 270 arc 
  tMatrix setmatrix lrx hradius sub uly vradius add translate
  hradius vradius scale 0 0 1 270 360 arc tMatrix setmatrix
  lrx hradius sub lry vradius sub translate hradius vradius scale
  0 0 1 0 90 arc tMatrix setmatrix ulx hradius add lry vradius sub
  translate hradius vradius scale 0 0 1 90 180 arc tMatrix setmatrix
  closepath} bdef
/FRR {MRR stroke } bdef
/PRR {MRR fill } bdef
/MlrRR {/lry xdef /lrx xdef /uly xdef /ulx xdef /rad lry uly sub 2 div def
  newpath tMatrix currentmatrix pop ulx rad add uly rad add translate
  rad rad scale 0 0 1 90 270 arc tMatrix setmatrix lrx rad sub lry rad
  sub translate rad rad scale 0 0 1 270 90 arc tMatrix setmatrix
  closepath} bdef
/FlrRR {MlrRR stroke } bdef
/PlrRR {MlrRR fill } bdef
/MtbRR {/lry xdef /lrx xdef /uly xdef /ulx xdef /rad lrx ulx sub 2 div def
  newpath tMatrix currentmatrix pop ulx rad add uly rad add translate
  rad rad scale 0 0 1 180 360 arc tMatrix setmatrix lrx rad sub lry rad
  sub translate rad rad scale 0 0 1 0 180 arc tMatrix setmatrix
  closepath} bdef
/FtbRR {MtbRR stroke } bdef
/PtbRR {MtbRR fill } bdef
/stri 6 array def /dtri 6 array def
/smat 6 array def /dmat 6 array def
/tmat1 6 array def /tmat2 6 array def /dif 3 array def
/asub {/ind2 exch def /ind1 exch def dup dup
  ind1 get exch ind2 get sub exch } bdef
/tri_to_matrix {
  2 0 asub 3 1 asub 4 0 asub 5 1 asub
  dup 0 get exch 1 get 7 -1 roll astore } bdef
/compute_transform {
  dmat dtri tri_to_matrix tmat1 invertmatrix 
  smat stri tri_to_matrix tmat2 concatmatrix } bdef
/ds {stri astore pop} bdef
/dt {dtri astore pop} bdef
/db {2 copy /cols xdef /rows xdef mul dup 3 mul string
  currentfile 
  3 index 0 eq {/ASCIIHexDecode filter}
  {/ASCII85Decode filter 3 index 2 eq {/RunLengthDecode filter} if }
  ifelse exch readstring pop
  dup 0 3 index getinterval /rbmap xdef
  dup 2 index dup getinterval /gbmap xdef
  1 index dup 2 mul exch getinterval /bbmap xdef pop pop}bdef
/it {gs np dtri aload pop moveto lineto lineto cp c
  cols rows 8 compute_transform 
  rbmap gbmap bbmap true 3 colorimage gr}bdef
/il {newpath moveto lineto stroke}bdef
currentdict end def
%%EndProlog

%%BeginSetup
MathWorks begin

0 cap

end
%%EndSetup

%%Page: 1 1
%%BeginPageSetup
%%PageBoundingBox:    -3   234   601   553
MathWorks begin
bpage
%%EndPageSetup

%%BeginObject: obj1
bplot

/dpi2point 1.01389 def
portraitMode -0049 0574 csm

   46    14   614   323 rc
85 dict begin %Colortable dictionary
/c0 { 0.000000 0.000000 0.000000 sr} bdef
/c1 { 1.000000 1.000000 1.000000 sr} bdef
/c2 { 0.900000 0.000000 0.000000 sr} bdef
/c3 { 0.000000 0.820000 0.000000 sr} bdef
/c4 { 0.000000 0.000000 0.800000 sr} bdef
/c5 { 0.910000 0.820000 0.320000 sr} bdef
/c6 { 1.000000 0.260000 0.820000 sr} bdef
/c7 { 0.000000 0.820000 0.820000 sr} bdef
c0
1 j
1 sg
   0    0  720  346 rf
0.506944 w
0 281 558 0 0 -281 93 307 4 MP
PP
-558 0 0 281 558 0 0 -281 93 307 5 MP stroke
0.337963 w
DO
0 sg
  93  307 mt   93   26 L
  93   26 mt   93   26 L
 204  307 mt  204   26 L
 204   26 mt  204   26 L
 316  307 mt  316   26 L
 316   26 mt  316   26 L
 427  307 mt  427   26 L
 427   26 mt  427   26 L
 539  307 mt  539   26 L
 539   26 mt  539   26 L
 651  307 mt  651   26 L
 651   26 mt  651   26 L
  93  307 mt  651  307 L
 651  307 mt  651  307 L
  93  266 mt  651  266 L
 651  266 mt  651  266 L
  93  226 mt  651  226 L
 651  226 mt  651  226 L
  93  186 mt  651  186 L
 651  186 mt  651  186 L
  93  146 mt  651  146 L
 651  146 mt  651  146 L
  93  106 mt  651  106 L
 651  106 mt  651  106 L
  93   66 mt  651   66 L
 651   66 mt  651   66 L
  93   26 mt  651   26 L
 651   26 mt  651   26 L
SO
0.506944 w
  93  307 mt  651  307 L
  93   26 mt  651   26 L
  93  307 mt   93   26 L
 651  307 mt  651   26 L
  93  307 mt  651  307 L
  93  307 mt   93   26 L
  93  307 mt   93  301 L
  93   26 mt   93   31 L
%%IncludeResource: font Helvetica
/Helvetica /ISOLatin1Encoding 10.1389 FMSR

  81  318 mt 
(-0.5) s
 204  307 mt  204  301 L
 204   26 mt  204   31 L
 202  318 mt 
(0) s
 316  307 mt  316  301 L
 316   26 mt  316   31 L
 309  318 mt 
(0.5) s
 427  307 mt  427  301 L
 427   26 mt  427   31 L
 425  318 mt 
(1) s
 539  307 mt  539  301 L
 539   26 mt  539   31 L
 532  318 mt 
(1.5) s
 651  307 mt  651  301 L
 651   26 mt  651   31 L
 649  318 mt 
(2) s
  93  307 mt   98  307 L
 651  307 mt  645  307 L
  68  310 mt 
(-150) s
  93  266 mt   98  266 L
 651  266 mt  645  266 L
  68  269 mt 
(-100) s
  93  226 mt   98  226 L
 651  226 mt  645  226 L
  73  229 mt 
(-50) s
  93  186 mt   98  186 L
 651  186 mt  645  186 L
  85  189 mt 
(0) s
  93  146 mt   98  146 L
 651  146 mt  645  146 L
  79  149 mt 
(50) s
  93  106 mt   98  106 L
 651  106 mt  645  106 L
  74  109 mt 
(100) s
  93   66 mt   98   66 L
 651   66 mt  645   66 L
  74   69 mt 
(150) s
  93   26 mt   98   26 L
 651   26 mt  645   26 L
  74   29 mt 
(200) s
  93  307 mt  651  307 L
  93   26 mt  651   26 L
  93  307 mt   93   26 L
 651  307 mt  651   26 L
gs 93 26 559 282 rc
/c8 { 0.000000 0.000000 1.000000 sr} bdef
c8
1 0 1 0 1 0 1 0 1 0 1 0 1 0 1 -1 
1 0 1 0 1 0 1 0 1 1 1 0 1 0 1 0 
1 1 1 1 1 1 1 0 1 0 1 0 1 1 1 -1 
1 0 1 1 1 0 1 0 1 0 1 0 1 1 1 0 
1 1 1 0 1 0 1 0 1 0 1 0 1 0 1 1 
1 0 1 0 1 0 1 0 1 0 1 0 1 -1 1 0 
1 0 1 0 1 0 1 -1 1 0 1 0 0 -1 2 -2 
1 0 1 0 1 -1 1 0 1 0 1 0 1 1 1 0 
1 1 1 0 1 1 1 0 1 0 1 0 1 0 1 1 
1 0 1 1 1 0 1 0 1 0 1 0 1 0 1 0 
1 1 1 0 1 0 1 0 1 0 1 0 1 0 1 1 
1 1 1 0 1 0 0 -2 1 -1 1 0 1 0 1 0 
1 0 1 0 1 -1 1 -1 1 0 1 -1 1 0 1 -1 
1 0 1 -1 1 0 1 0 1 0 1 1 1 0 1 0 
1 0 1 0 1 1 1 0 1 1 1 1 1 0 1 1 
1 0 1 0 1 0 1 0 1 0 1 0 1 1 1 0 
1 0 1 0 1 0 1 1 1 0 1 0 1 0 1 0 
1 0 1 0 1 -1 1 0 1 -1 1 1 1 -1 1 1 
1 0 1 1 1 0 1 -1 1 -1 1 0 1 0 1 -1 
1 -1 1 -1 1 -1 1 0 1 -1 1 0 1 0 1 1 
1 0 1 1 1 1 1 0 1 1 1 0 1 0 1 0 
1 0 1 1 1 0 1 0 1 0 1 0 1 1 1 0 
1 0 1 0 1 -1 1 0 1 0 1 0 1 0 1 0 
1 0 1 0 1 -1 1 0 1 0 1 -1 1 0 1 0 
1 0 1 -1 1 -1 1 -1 1 -1 1 -1 1 0 1 0 
1 1 1 1 1 0 1 0 1 0 1 -1 0 -1 1 -1 
1 0 1 0 1 0 1 0 1 1 1 0 1 1 1 0 
1 0 1 1 1 1 1 1 1 0 1 0 1 1 1 0 
1 1 1 0 1 0 1 1 1 0 -1 0 2 0 1 0 
1 0 1 0 1 0 1 0 1 1 1 0 1 0 1 0 
1 0 1 0 1 -1 1 0 1 0 1 0 1 1 1 0 
1 0 1 0 1 0 1 1 1 0 1 -1 1 0 1 1 
1 0 1 0 1 0 1 0 1 0 1 0 1 0 1 0 
1 1 1 0 1 0 1 1 1 0 1 0 1 0 1 0 
1 0 1 1 1 0 1 0 1 0 1 0 1 0 1 1 
1 0 1 0 1 0 1 0 1 0 1 0 1 1 1 0 
1 0 1 0 1 0 1 1 1 0 1 1 1 1 0 1 
2 2 0 2 1 1 326 31 300 MP stroke
1 1 1 0 0 -3 1 -1 0 -4 1 -1 0 -6 1 -1 
0 -2 1 -1 0 -2 1 -1 1 0 1 0 1 1 0 2 
2 2 1 0 1 0 1 0 1 -1 1 -1 1 0 1 -1 
1 -1 1 0 1 -1 1 0 1 -1 1 0 1 0 1 1 
1 0 1 0 1 0 1 0 1 1 1 0 1 1 1 0 
1 1 1 1 1 0 1 0 1 1 1 0 1 1 1 0 
1 0 1 0 1 0 1 1 1 0 1 0 1 0 1 0 
1 0 1 0 1 0 1 0 1 -1 1 0 1 0 1 0 
1 0 1 0 1 0 1 0 1 -1 1 -1 1 0 -1 0 
2 -2 1 -1 1 -1 1 0 1 0 1 0 1 1 1 0 
1 1 1 0 1 0 1 1 1 0 1 0 1 0 1 1 
1 0 1 0 1 1 1 0 1 1 1 1 1 0 1 0 
1 0 1 0 1 0 1 1 1 0 1 0 1 0 1 0 
1 0 1 0 1 0 1 0 1 0 1 0 1 0 1 0 
1 0 1 0 1 0 1 0 1 0 1 0 1 0 1 0 
1 -1 1 0 1 0 1 -1 1 0 1 0 1 -1 0 -139 
1 0 204 186 130 MP stroke
/c9 { 1.000000 0.000000 0.000000 sr} bdef
c9
4 -31 4 0 3 -8 4 -2 4 -7 3 23 4 -32 4 8 
4 3 3 4 4 -17 0 -145 4 164 3 -11 4 0 4 40 
4 -36 3 14 4 -20 4 12 3 -2 4 -8 4 9 4 -3 
3 -10 4 -3 4 1 4 36 3 -40 4 3 4 8 3 -14 
0 -145 4 167 4 -7 4 4 3 0 4 17 4 0 3 -49 
4 50 4 -76 4 74 3 -4 4 13 4 -22 3 -1 4 -15 
4 11 4 -3 3 6 4 -13 4 -16 -1 -145 5 135 3 -16 
4 -18 4 -17 3 25 4 1 4 -6 4 -5 3 5 4 -3 
4 1 3 -2 4 3 4 2 4 -2 3 -3 4 3 4 -3 
3 1 4 69 0 -143 4 74 4 0 3 -1 4 4 4 -1 
4 -4 3 3 4 1 4 19 3 47 4 -8 4 -24 4 39 
3 20 4 -3 4 -12 3 -9 4 -2 4 4 4 14 0 -144 
3 124 4 9 4 -2 3 -2 4 -64 4 104 4 -10 3 -26 
4 -4 4 2 4 -11 3 -6 4 17 4 -8 3 -6 4 -5 
4 -8 4 69 7 -115 204 186 116 MP stroke
gr

c9
0 sg
%%IncludeResource: font Helvetica
/Helvetica /ISOLatin1Encoding 12.1667 FMSR

 342  332 mt 
(Time \(min\)) s
  60  225 mt  -90 rotate
(Orientation \(degrees\)) s
90 rotate
%%IncludeResource: font Helvetica
/Helvetica /ISOLatin1Encoding 10.1389 FMSR

  92  312 mt 
( ) s
 651   30 mt 
( ) s
1 sg
0 30 127 0 0 -30 520 62 4 MP
PP
-127 0 0 30 127 0 0 -30 520 62 5 MP stroke
0.337963 w
DO
SO
0.506944 w
0 sg
 520   62 mt  647   62 L
 520   32 mt  647   32 L
 520   62 mt  520   32 L
 647   62 mt  647   32 L
 520   62 mt  647   62 L
 520   62 mt  520   32 L
 520   62 mt  647   62 L
 520   32 mt  647   32 L
 520   62 mt  520   32 L
 647   62 mt  647   32 L
 558   45 mt 
(Heading Estimate) s
gs 520 32 128 31 rc
c8
29 0 525 40 2 MP stroke
gr

c8
0 sg
 558   58 mt 
(HPF True Heading) s
gs 520 32 128 31 rc
c9
29 0 525 53 2 MP stroke
gr

c9

end %%Color Dict

eplot
%%EndObject

epage
end

showpage

%%Trailer
%%EOF
