%!PS-Adobe-3.0 EPSF-3.0
%%Creator: MATLAB, The MathWorks, Inc. Version 8.0.0.783 (R2012b). Operating System: Darwin 12.5.0 Darwin Kernel Version 12.5.0: Sun Sep 29 13:33:47 PDT 2013; root:xnu-2050.48.12~1/RELEASE_X86_64 x86_64.
%%Title: figs/predictOrientation.eps
%%CreationDate: 11/06/2013  10:22:45
%%DocumentNeededFonts: Helvetica
%%DocumentProcessColors: Cyan Magenta Yellow Black
%%LanguageLevel: 2
%%Pages: 1
%%BoundingBox:    -2   232   604   552
%%EndComments

%%BeginProlog
% MathWorks dictionary
/MathWorks 160 dict begin
% definition operators
/bdef {bind def} bind def
/ldef {load def} bind def
/xdef {exch def} bdef
/xstore {exch store} bdef
% operator abbreviations
/c  /clip ldef
/cc /concat ldef
/cp /closepath ldef
/gr /grestore ldef
/gs /gsave ldef
/mt /moveto ldef
/np /newpath ldef
/cm /currentmatrix ldef
/sm /setmatrix ldef
/rm /rmoveto ldef
/rl /rlineto ldef
/s {show newpath} bdef
/sc {setcmykcolor} bdef
/sr /setrgbcolor ldef
/sg /setgray ldef
/w /setlinewidth ldef
/j /setlinejoin ldef
/cap /setlinecap ldef
/rc {rectclip} bdef
/rf {rectfill} bdef
% page state control
/pgsv () def
/bpage {/pgsv save def} bdef
/epage {pgsv restore} bdef
/bplot /gsave ldef
/eplot {stroke grestore} bdef
% orientation switch
/portraitMode 0 def /landscapeMode 1 def /rotateMode 2 def
% coordinate system mappings
/dpi2point 0 def
% font control
/FontSize 0 def
/FMS {/FontSize xstore findfont [FontSize 0 0 FontSize neg 0 0]
  makefont setfont} bdef
/reencode {exch dup where {pop load} {pop StandardEncoding} ifelse
  exch dup 3 1 roll findfont dup length dict begin
  { 1 index /FID ne {def}{pop pop} ifelse } forall
  /Encoding exch def currentdict end definefont pop} bdef
/isroman {findfont /CharStrings get /Agrave known} bdef
/FMSR {3 1 roll 1 index dup isroman {reencode} {pop pop} ifelse
  exch FMS} bdef
/csm {1 dpi2point div -1 dpi2point div scale neg translate
 dup landscapeMode eq {pop -90 rotate}
  {rotateMode eq {90 rotate} if} ifelse} bdef
% line types: solid, dotted, dashed, dotdash
/SO { [] 0 setdash } bdef
/DO { [.5 dpi2point mul 4 dpi2point mul] 0 setdash } bdef
/DA { [6 dpi2point mul] 0 setdash } bdef
/DD { [.5 dpi2point mul 4 dpi2point mul 6 dpi2point mul 4
  dpi2point mul] 0 setdash } bdef
% macros for lines and objects
/L {lineto stroke} bdef
/MP {3 1 roll moveto 1 sub {rlineto} repeat} bdef
/AP {{rlineto} repeat} bdef
/PDlw -1 def
/W {/PDlw currentlinewidth def setlinewidth} def
/PP {closepath eofill} bdef
/DP {closepath stroke} bdef
/MR {4 -2 roll moveto dup  0 exch rlineto exch 0 rlineto
  neg 0 exch rlineto closepath} bdef
/FR {MR stroke} bdef
/PR {MR fill} bdef
/L1i {{currentfile picstr readhexstring pop} image} bdef
/tMatrix matrix def
/MakeOval {newpath tMatrix currentmatrix pop translate scale
0 0 1 0 360 arc tMatrix setmatrix} bdef
/FO {MakeOval stroke} bdef
/PO {MakeOval fill} bdef
/PD {currentlinewidth 2 div 0 360 arc fill
   PDlw -1 eq not {PDlw w /PDlw -1 def} if} def
/FA {newpath tMatrix currentmatrix pop translate scale
  0 0 1 5 -2 roll arc tMatrix setmatrix stroke} bdef
/PA {newpath tMatrix currentmatrix pop	translate 0 0 moveto scale
  0 0 1 5 -2 roll arc closepath tMatrix setmatrix fill} bdef
/FAn {newpath tMatrix currentmatrix pop translate scale
  0 0 1 5 -2 roll arcn tMatrix setmatrix stroke} bdef
/PAn {newpath tMatrix currentmatrix pop translate 0 0 moveto scale
  0 0 1 5 -2 roll arcn closepath tMatrix setmatrix fill} bdef
/vradius 0 def /hradius 0 def /lry 0 def
/lrx 0 def /uly 0 def /ulx 0 def /rad 0 def
/MRR {/vradius xdef /hradius xdef /lry xdef /lrx xdef /uly xdef
  /ulx xdef newpath tMatrix currentmatrix pop ulx hradius add uly
  vradius add translate hradius vradius scale 0 0 1 180 270 arc 
  tMatrix setmatrix lrx hradius sub uly vradius add translate
  hradius vradius scale 0 0 1 270 360 arc tMatrix setmatrix
  lrx hradius sub lry vradius sub translate hradius vradius scale
  0 0 1 0 90 arc tMatrix setmatrix ulx hradius add lry vradius sub
  translate hradius vradius scale 0 0 1 90 180 arc tMatrix setmatrix
  closepath} bdef
/FRR {MRR stroke } bdef
/PRR {MRR fill } bdef
/MlrRR {/lry xdef /lrx xdef /uly xdef /ulx xdef /rad lry uly sub 2 div def
  newpath tMatrix currentmatrix pop ulx rad add uly rad add translate
  rad rad scale 0 0 1 90 270 arc tMatrix setmatrix lrx rad sub lry rad
  sub translate rad rad scale 0 0 1 270 90 arc tMatrix setmatrix
  closepath} bdef
/FlrRR {MlrRR stroke } bdef
/PlrRR {MlrRR fill } bdef
/MtbRR {/lry xdef /lrx xdef /uly xdef /ulx xdef /rad lrx ulx sub 2 div def
  newpath tMatrix currentmatrix pop ulx rad add uly rad add translate
  rad rad scale 0 0 1 180 360 arc tMatrix setmatrix lrx rad sub lry rad
  sub translate rad rad scale 0 0 1 0 180 arc tMatrix setmatrix
  closepath} bdef
/FtbRR {MtbRR stroke } bdef
/PtbRR {MtbRR fill } bdef
/stri 6 array def /dtri 6 array def
/smat 6 array def /dmat 6 array def
/tmat1 6 array def /tmat2 6 array def /dif 3 array def
/asub {/ind2 exch def /ind1 exch def dup dup
  ind1 get exch ind2 get sub exch } bdef
/tri_to_matrix {
  2 0 asub 3 1 asub 4 0 asub 5 1 asub
  dup 0 get exch 1 get 7 -1 roll astore } bdef
/compute_transform {
  dmat dtri tri_to_matrix tmat1 invertmatrix 
  smat stri tri_to_matrix tmat2 concatmatrix } bdef
/ds {stri astore pop} bdef
/dt {dtri astore pop} bdef
/db {2 copy /cols xdef /rows xdef mul dup 3 mul string
  currentfile 
  3 index 0 eq {/ASCIIHexDecode filter}
  {/ASCII85Decode filter 3 index 2 eq {/RunLengthDecode filter} if }
  ifelse exch readstring pop
  dup 0 3 index getinterval /rbmap xdef
  dup 2 index dup getinterval /gbmap xdef
  1 index dup 2 mul exch getinterval /bbmap xdef pop pop}bdef
/it {gs np dtri aload pop moveto lineto lineto cp c
  cols rows 8 compute_transform 
  rbmap gbmap bbmap true 3 colorimage gr}bdef
/il {newpath moveto lineto stroke}bdef
currentdict end def
%%EndProlog

%%BeginSetup
MathWorks begin

0 cap

end
%%EndSetup

%%Page: 1 1
%%BeginPageSetup
%%PageBoundingBox:    -2   232   604   552
MathWorks begin
bpage
%%EndPageSetup

%%BeginObject: obj1
bplot

/dpi2point 1.01389 def
portraitMode -0048 0573 csm

   46    14   616   324 rc
85 dict begin %Colortable dictionary
/c0 { 0.000000 0.000000 0.000000 sr} bdef
/c1 { 1.000000 1.000000 1.000000 sr} bdef
/c2 { 0.900000 0.000000 0.000000 sr} bdef
/c3 { 0.000000 0.820000 0.000000 sr} bdef
/c4 { 0.000000 0.000000 0.800000 sr} bdef
/c5 { 0.910000 0.820000 0.320000 sr} bdef
/c6 { 1.000000 0.260000 0.820000 sr} bdef
/c7 { 0.000000 0.820000 0.820000 sr} bdef
c0
1 j
1 sg
   0    0  720  347 rf
0.506944 w
0 282 558 0 0 -282 93 308 4 MP
PP
-558 0 0 282 558 0 0 -282 93 308 5 MP stroke
0.337963 w
DO
0 sg
  93  308 mt   93   26 L
  93   26 mt   93   26 L
 172  308 mt  172   26 L
 172   26 mt  172   26 L
 252  308 mt  252   26 L
 252   26 mt  252   26 L
 332  308 mt  332   26 L
 332   26 mt  332   26 L
 411  308 mt  411   26 L
 411   26 mt  411   26 L
 491  308 mt  491   26 L
 491   26 mt  491   26 L
 571  308 mt  571   26 L
 571   26 mt  571   26 L
 651  308 mt  651   26 L
 651   26 mt  651   26 L
  93  308 mt  651  308 L
 651  308 mt  651  308 L
  93  279 mt  651  279 L
 651  279 mt  651  279 L
  93  251 mt  651  251 L
 651  251 mt  651  251 L
  93  223 mt  651  223 L
 651  223 mt  651  223 L
  93  195 mt  651  195 L
 651  195 mt  651  195 L
  93  167 mt  651  167 L
 651  167 mt  651  167 L
  93  138 mt  651  138 L
 651  138 mt  651  138 L
  93  110 mt  651  110 L
 651  110 mt  651  110 L
  93   82 mt  651   82 L
 651   82 mt  651   82 L
  93   54 mt  651   54 L
 651   54 mt  651   54 L
  93   26 mt  651   26 L
 651   26 mt  651   26 L
SO
0.506944 w
  93  308 mt  651  308 L
  93   26 mt  651   26 L
  93  308 mt   93   26 L
 651  308 mt  651   26 L
  93  308 mt  651  308 L
  93  308 mt   93   26 L
  93  308 mt   93  302 L
  93   26 mt   93   31 L
%%IncludeResource: font Helvetica
/Helvetica /ISOLatin1Encoding 10.1389 FMSR

  91  319 mt 
(0) s
 172  308 mt  172  302 L
 172   26 mt  172   31 L
 170  319 mt 
(2) s
 252  308 mt  252  302 L
 252   26 mt  252   31 L
 250  319 mt 
(4) s
 332  308 mt  332  302 L
 332   26 mt  332   31 L
 330  319 mt 
(6) s
 411  308 mt  411  302 L
 411   26 mt  411   31 L
 409  319 mt 
(8) s
 491  308 mt  491  302 L
 491   26 mt  491   31 L
 486  319 mt 
(10) s
 571  308 mt  571  302 L
 571   26 mt  571   31 L
 566  319 mt 
(12) s
 651  308 mt  651  302 L
 651   26 mt  651   31 L
 646  319 mt 
(14) s
  93  308 mt   98  308 L
 651  308 mt  645  308 L
  68  311 mt 
(-250) s
  93  279 mt   98  279 L
 651  279 mt  645  279 L
  68  282 mt 
(-200) s
  93  251 mt   98  251 L
 651  251 mt  645  251 L
  68  254 mt 
(-150) s
  93  223 mt   98  223 L
 651  223 mt  645  223 L
  68  226 mt 
(-100) s
  93  195 mt   98  195 L
 651  195 mt  645  195 L
  73  198 mt 
(-50) s
  93  167 mt   98  167 L
 651  167 mt  645  167 L
  85  170 mt 
(0) s
  93  138 mt   98  138 L
 651  138 mt  645  138 L
  79  141 mt 
(50) s
  93  110 mt   98  110 L
 651  110 mt  645  110 L
  74  113 mt 
(100) s
  93   82 mt   98   82 L
 651   82 mt  645   82 L
  74   85 mt 
(150) s
  93   54 mt   98   54 L
 651   54 mt  645   54 L
  74   57 mt 
(200) s
  93   26 mt   98   26 L
 651   26 mt  645   26 L
  74   29 mt 
(250) s
  93  308 mt  651  308 L
  93   26 mt  651   26 L
  93  308 mt   93   26 L
 651  308 mt  651   26 L
gs 93 26 559 283 rc
/c8 { 0.000000 0.000000 1.000000 sr} bdef
c8
0 -4 1 -1 0 -6 1 1 0 11 1 1 0 9 1 1 
0 7 1 1 0 5 1 1 0 6 1 1 0 1 0 -1 
1 -1 0 -2 1 -1 0 -3 1 -1 0 -7 1 -1 0 -7 
1 -1 0 -9 1 -1 0 -16 1 -1 0 -34 1 -1 0 -35 
1 -1 0 269 0 -2 1 -1 0 -19 1 -1 0 1 0 -2 
1 -1 0 -4 0 1 1 -1 0 3 2 2 0 -7 2 -2 
0 5 1 1 0 -70 1 -7 0 -48 0 4 1 1 0 6 
1 1 1 -1 0 -7 1 -1 0 -6 1 1 0 -48 0 94 
1 97 0 5 0 -10 1 -1 0 -6 1 -1 0 -5 1 1 
0 4 1 1 0 -4 1 -1 0 2 0 -3 1 -1 0 -1 
0 2 1 1 0 -3 1 1 0 -4 1 -1 1 0 0 6 
1 1 0 -112 1 -1 0 9 1 1 0 7 1 1 0 5 
1 1 1 1 0 -1 0 0 1 1 1 -1 1 0 1 0 
-1 0 2 0 1 2 -1 0 2 0 1 0 1 0 1 0 
1 0 1 0 -1 0 2 0 1 0 1 0 1 0 1 0 
1 0 -1 0 2 0 1 0 1 0 1 0 1 0 1 0 
1 0 1 -1 1 1 -1 0 2 0 1 0 -1 0 2 0 
1 0 1 0 1 1 1 -1 1 0 1 0 1 1 0 -1 
0 1 1 -1 1 0 1 1 -1 0 2 -2 1 1 1 0 
1 0 1 0 1 -1 1 1 -1 0 2 0 1 -1 0 1 
2 0 1 0 -1 0 2 0 1 0 1 0 -1 0 2 0 
1 1 1 -1 1 0 1 0 1 0 1 1 1 0 1 1 
1 -1 1 1 0 -1 2 -2 1 0 1 0 1 0 1 0 
1 1 1 -1 1 1 1 -1 1 0 1 0 -1 0 2 0 
1 0 1 0 1 0 -1 0 2 0 1 -1 1 -1 1 -1 
0 1 0 -2 1 -1 0 -4 1 -1 0 6 1 1 0 -7 
0 8 1 1 0 -8 0 10 1 -1 0 -38 1 -1 0 19 
0 -2 1 -1 0 -17 1 -1 0 -8 0 17 1 1 0 -7 
1 -1 0 15 1 1 0 -13 0 13 1 3 0 6 1 3 
0 -3 0 36 1 1 0 1 0 -24 1 -1 0 -12 1 1 
0 4 1 1 0 3 2 0 1 0 0 1 0 0 2 0 
1 -1 1 1 1 -1 0 -1 0 1 1 1 0 1 0 -2 
1 -1 0 -2 1 1 1 -1 0 -2 1 1 0 -2 1 -1 
0 -1 0 2 1 1 0 16 1 0 0 2 2 0 0 2 
1 -1 1 -1 1 -1 0 -1 2 0 0 0 2 0 1 1 
-1 0 2 0 1 0 0 -1 0 1 1 -1 1 0 1 0 
0 -1 2 0 1 0 1 1 1 1 -1 0 2 -2 1 1 
1 -1 1 1 -1 0 443 140 300 MP stroke
2 -2 1 0 0 3 1 1 0 21 1 1 0 14 1 1 
0 2 1 1 1 1 1 0 1 0 1 0 0 1 0 -1 
1 1 1 0 1 0 1 1 1 -1 1 0 1 1 1 1 
0 -1 0 1 1 -1 0 -1 0 1 1 -1 0 2 1 -1 
0 -2 1 -1 0 -8 1 -1 0 -25 1 -1 0 -4 2 0 
1 1 1 0 1 -1 1 0 -1 0 2 -2 1 -1 1 -1 
1 1 1 -1 1 0 1 1 1 -1 -1 0 2 2 1 -1 
-1 0 2 2 0 -1 0 1 2 2 0 1 2 2 1 0 
1 1 1 0 1 0 1 0 1 0 1 0 1 0 1 0 
1 0 1 0 1 0 1 0 1 0 1 0 1 0 1 0 
-1 0 2 0 1 1 1 1 1 0 1 0 1 -1 1 -2 
-1 0 2 0 1 1 1 -1 -1 0 2 0 1 0 1 -3 
-1 0 2 2 1 1 1 -1 1 -1 1 0 1 0 1 0 
1 1 1 1 1 -1 1 -1 1 -1 1 -1 1 0 0 -4 
1 -1 0 6 1 1 0 3 1 1 1 1 1 1 1 -1 
1 0 1 0 1 0 1 0 1 0 0 1 0 0 2 0 
1 0 1 1 1 0 1 2 -1 0 2 0 0 -1 0 0 
1 1 0 -1 1 1 1 1 1 0 0 -2 1 -1 0 1 
0 -1 2 -2 1 1 1 -1 1 -1 1 -1 1 1 -1 0 
2 -2 0 -4 1 -1 1 -2 -1 0 2 2 1 1 0 1 
0 -1 0 0 1 1 1 0 1 1 1 0 1 1 1 0 
1 0 1 0 1 1 0 -1 2 0 0 -3 1 1 1 0 
1 1 1 0 1 0 1 0 1 0 1 0 1 0 1 0 
1 0 1 0 -1 0 2 0 1 0 1 0 1 0 1 0 
0 1 0 -1 1 1 0 0 0 -1 0 0 2 0 1 0 
1 -1 -1 0 2 2 1 0 0 -1 0 0 1 1 1 -1 
1 -1 1 -1 1 -1 0 -2 1 -1 0 -2 1 -1 0 -1 
0 2 2 2 0 2 1 1 1 0 0 3 1 1 0 2 
0 -1 1 -1 0 0 0 -1 0 0 1 1 0 -1 0 2 
1 -1 0 -2 1 -1 0 2 1 1 1 0 0 1 0 -1 
0 1 1 -1 0 0 2 2 0 -7 1 -1 0 -2 0 1 
1 1 0 1 0 -1 1 -1 1 1 0 1 2 2 1 0 
-1 0 2 0 1 1 0 -1 0 1 1 -1 1 0 1 1 
0 -1 0 1 1 -1 0 1 1 1 0 0 2 2 0 3 
1 1 0 -2 1 -1 0 1 0 -1 1 -1 0 4 0 -2 
2 -2 0 -4 1 -1 0 -1 2 -2 0 2 0 -2 1 -1 
0 1 2 2 0 2 1 1 1 -1 1 0 1 1 0 -1 
2 0 0 -3 1 -1 228 141 300 MP stroke
0 2 1 -1 0 2 2 0 1 2 -1 0 2 0 1 0 
-1 0 2 2 1 1 1 -3 -1 0 2 2 0 -2 1 -1 
1 -1 1 0 0 -3 0 2 1 1 1 1 1 0 0 -4 
0 2 1 1 1 0 1 1 1 1 1 0 0 -1 0 1 
1 -1 1 1 1 -1 1 0 1 1 1 0 1 0 0 1 
0 -1 2 -2 0 -1 0 2 1 1 0 10 1 1 0 5 
2 2 0 -1 0 2 1 -1 0 3 1 -1 1 0 0 -1 
0 3 1 1 1 1 -1 0 2 -2 0 -1 0 1 1 1 
0 4 1 1 0 8 1 1 1 0 1 1 1 -1 0 1 
1 -2 -1 0 2 0 0 2 0 -2 1 -1 0 2 1 -1 
1 0 0 -1 2 -2 0 -3 1 -1 1 1 1 0 1 -1 
0 -1 2 -2 1 0 1 0 1 -1 1 0 1 1 1 1 
0 1 0 -1 1 -1 1 -1 1 -1 1 0 -1 0 2 0 
0 -1 0 1 2 2 0 4 1 1 0 6 2 2 1 1 
1 1 1 0 1 0 -1 0 2 -2 1 -1 1 -1 1 1 
1 0 1 1 1 1 1 0 1 -1 1 1 1 1 -1 0 
2 0 1 1 1 0 -1 0 2 -2 1 0 1 -1 0 -6 
2 -2 1 1 0 3 2 2 1 1 1 0 1 0 1 0 
1 -1 1 -1 1 0 1 1 1 0 1 0 1 1 1 0 
0 1 0 -1 1 1 1 0 1 1 1 0 1 -1 1 0 
1 0 1 0 0 1 0 -1 1 1 0 -1 0 1 1 -1 
1 1 1 0 0 -2 0 1 1 1 1 0 1 1 1 0 
1 2 -1 0 2 0 1 0 1 0 1 0 1 0 0 -37 
93 130 185 MP stroke
/c9 { 1.000000 0.000000 0.000000 sr} bdef
c9
1 -149 0 -3 1 2 0 -1 1 4 1 3 0 5 1 0 
1 9 0 10 1 -5 1 -11 1 4 1 -7 0 -1 1 -6 
1 -5 0 -1 1 -1 1 -6 0 -2 1 -9 1 -2 0 -2 
1 0 1 -1 0 2 1 0 1 -1 0 -5 1 5 1 -2 
0 2 1 2 1 12 1 8 1 3 0 5 1 2 1 -2 
0 -4 1 -4 1 0 0 -13 1 0 1 -4 0 -5 1 -1 
1 1 1 -1 1 -1 1 1 1 0 1 1 1 -2 0 3 
1 1 1 14 0 6 1 8 1 30 0 -1 1 10 1 -4 
0 5 1 2 1 0 1 0 1 4 1 47 1 0 1 0 
1 0 1 0 1 0 0 -6 1 6 1 0 1 -3 1 9 
1 -6 1 0 0 2 1 -2 1 -51 1 26 1 -26 0 -25 
1 0 1 -25 1 0 1 0 1 0 1 0 1 0 1 0 
0 -19 1 0 1 4 1 167 1 -152 0 152 1 -51 1 0 
0 -25 1 0 1 0 0 25 1 0 1 -127 1 76 1 0 
0 -50 1 101 1 0 0 -25 1 25 1 0 1 51 1 -30 
1 -13 1 33 0 -5 1 15 0 -10 1 10 1 -25 1 -7 
1 -4 0 36 1 -178 1 26 0 15 1 29 1 0 0 -5 
1 0 1 -15 0 18 1 -14 1 12 0 -15 1 -5 1 -3 
0 31 1 -2 1 -7 0 10 1 0 1 -1 1 -2 1 3 
1 -1 1 -2 0 2 1 0 1 2 0 -2 1 1 1 -1 
1 -3 1 2 1 -1 1 0 1 0 1 3 0 -3 1 1 
1 -1 1 1 1 0 0 2 1 -3 1 4 0 -6 1 3 
1 -6 0 -16 1 -8 1 -17 1 1 1 -1 1 -3 1 2 
0 -4 1 5 1 5 0 -5 1 -1 1 -6 0 -1 1 -1 
1 -1 0 10 1 5 1 -2 0 19 1 19 1 -1 0 -40 
1 152 1 0 1 -51 1 -9 0 -29 1 -13 1 -18 0 -10 
1 18 1 -5 0 -7 1 -4 1 1 0 2 1 6 1 -3 
0 -4 1 -1 1 0 -1 0 2 -10 1 -7 0 9 1 -7 
1 5 0 3 1 0 1 5 0 -4 1 -1 1 9 0 -11 
1 11 1 1 0 -5 1 -1 1 -5 0 10 1 -1 1 1 
0 1 1 -1 1 1 0 -3 1 -1 1 2 0 -3 1 3 
1 1 0 -4 1 2 1 -3 0 5 1 -1 0 -1 1 2 
1 -1 0 -6 1 -3 1 -1 0 -16 1 -2 1 -3 0 -13 
1 6 1 0 0 -18 1 30 1 49 1 1 1 -50 0 152 
1 -192 1 9 0 -18 1 15 1 7 0 -8 1 0 1 -1 
1 -4 1 3 0 -1 1 2 1 2 0 1 1 3 1 12 
0 3 1 15 1 13 0 5 1 14 1 5 0 -7 1 -8 
1 8 0 -2 1 5 416 184 300 MP stroke
1 2 0 -8 1 3 1 1 0 1 1 4 1 -3 0 -5 
1 1 1 1 0 -7 1 0 1 -1 1 3 1 2 0 2 
1 9 1 1 0 4 1 -2 1 9 0 8 1 -4 1 0 
0 -4 1 51 1 0 0 9 1 2 1 -3 0 -3 1 9 
1 1 1 0 1 -7 0 -8 1 -51 1 0 0 -2 1 -4 
1 -5 0 3 1 -11 1 -3 0 6 1 -27 1 26 0 17 
1 51 1 -9 0 9 1 -35 1 -2 0 -11 1 6 1 2 
0 1 1 -6 1 3 0 2 1 1 1 -1 0 4 1 -4 
1 -1 0 2 1 2 1 -6 0 -1 1 3 1 -1 0 1 
1 -7 1 -3 0 -1 1 1 1 17 0 20 1 -35 1 1 
0 10 1 5 1 -13 1 -5 1 0 1 -21 1 3 0 -20 
1 42 1 0 1 0 0 25 1 70 1 0 0 -193 1 0 
1 13 0 -10 1 12 1 -19 0 22 1 -14 1 192 1 -186 
1 34 0 4 1 -1 1 -6 0 5 1 2 1 -3 1 0 
1 -1 1 0 1 -1 0 1 1 2 1 -1 1 -1 1 0 
1 0 1 0 1 0 1 0 0 6 1 7 1 6 0 8 
1 7 1 8 0 1 1 1 1 3 0 3 1 0 1 10 
0 -10 1 -28 1 -2 0 29 1 0 1 -4 0 4 1 1 
1 0 1 -3 1 1 0 2 1 51 1 0 0 51 1 0 
1 -51 0 -127 1 0 1 0 1 0 1 0 1 178 1 0 
0 -25 1 0 1 -19 0 44 1 -17 1 -34 0 1 1 50 
1 -166 0 14 1 0 1 -11 0 1 1 6 1 -31 0 36 
1 6 1 12 0 31 1 -28 1 28 0 -9 1 9 1 2 
0 -2 1 -3 1 3 0 -2 1 -16 1 -8 0 -15 1 2 
1 -9 1 -1 1 -1 0 -2 1 -4 1 5 0 -1 1 2 
1 0 0 9 1 -6 1 11 0 -14 1 152 1 -171 0 120 
1 -76 1 -22 1 -3 1 1 1 -1 1 0 0 2 1 10 
0 11 1 -23 1 152 0 -37 1 -11 1 -3 0 9 1 -8 
1 4 0 2 1 -7 1 -3 0 -15 1 -89 1 0 0 2 
1 2 1 1 1 0 1 1 1 0 1 6 0 4 1 0 
1 3 0 -4 1 1 1 0 -1 0 2 6 1 6 0 -8 
1 2 1 -3 0 -1 1 -2 1 -2 0 3 1 1 1 1 
1 -1 1 -3 0 3 1 -1 1 -2 0 2 1 -3 1 7 
0 -7 1 2 1 4 0 -13 1 13 1 -2 0 3 1 -4 
1 4 0 -2 1 0 1 2 0 -4 1 1 1 2 0 -3 
1 0 1 6 0 -1 1 20 1 -19 0 15 1 -24 1 -8 
0 -11 1 9 1 2 0 9 1 -9 1 -4 0 4 1 0 
1 50 0 18 1 -18 204 167 300 MP stroke
1 -45 0 -5 1 10 1 -1 0 -1 1 -8 1 -3 1 -5 
1 -1 1 0 1 0 1 -3 1 -1 0 1 1 2 1 -5 
0 -2 1 7 1 -22 0 8 1 -14 1 -4 0 3 1 7 
1 -10 0 4 1 -5 1 7 0 -7 1 195 1 -15 0 6 
1 4 1 5 0 -197 1 197 1 -41 0 -7 1 15 1 13 
0 -21 1 -4 1 9 0 -1 1 1 1 2 1 -1 1 -7 
0 13 1 -1 0 -2 1 4 1 -20 1 1 1 -4 0 -1 
1 1 1 0 1 -4 1 3 0 1 1 8 1 6 0 19 
1 18 1 -190 0 -4 1 182 1 -186 0 198 1 -197 1 2 
0 195 1 -202 1 202 0 -2 1 -7 1 9 0 -171 1 9 
1 10 0 -4 1 -12 1 4 0 -2 1 -28 1 194 0 -51 
1 -50 1 -1 0 51 1 -140 1 10 0 -19 1 11 1 1 
0 1 1 12 1 5 0 -1 1 -3 1 -6 0 -3 1 1 
1 -9 0 2 1 2 1 -1 0 -9 1 13 1 3 0 1 
1 -2 1 -4 0 1 1 2 1 -5 0 -1 1 2 1 -6 
0 -9 1 3 1 -4 0 7 1 196 1 -1 0 1 1 -1 
1 1 1 -202 1 0 0 3 1 13 1 -10 0 -4 1 1 
1 1 1 -1 1 2 0 1 1 1 1 9 0 -5 1 16 
1 175 1 -35 1 -121 0 101 1 -2 1 -10 0 -35 1 0 
97 167 153 MP stroke
gr

c9
0 sg
%%IncludeResource: font Helvetica
/Helvetica /ISOLatin1Encoding 12.1667 FMSR

 342  333 mt 
(Time \(min\)) s
  60  226 mt  -90 rotate
(Orientation \(degrees\)) s
90 rotate
%%IncludeResource: font Helvetica
/Helvetica /ISOLatin1Encoding 10.1389 FMSR

  92  313 mt 
( ) s
 651   30 mt 
( ) s
1 sg
0 30 127 0 0 -30 520 62 4 MP
PP
-127 0 0 30 127 0 0 -30 520 62 5 MP stroke
0.337963 w
DO
SO
0.506944 w
0 sg
 520   62 mt  647   62 L
 520   32 mt  647   32 L
 520   62 mt  520   32 L
 647   62 mt  647   32 L
 520   62 mt  647   62 L
 520   62 mt  520   32 L
 520   62 mt  647   62 L
 520   32 mt  647   32 L
 520   62 mt  520   32 L
 647   62 mt  647   32 L
 558   45 mt 
(Heading Estimate) s
gs 520 32 128 31 rc
c8
29 0 525 40 2 MP stroke
gr

c8
0 sg
 558   58 mt 
(HPF True Heading) s
gs 520 32 128 31 rc
c9
29 0 525 53 2 MP stroke
gr

c9

end %%Color Dict

eplot
%%EndObject

epage
end

showpage

%%Trailer
%%EOF
