%!PS-Adobe-3.0 EPSF-3.0
%%Creator: MATLAB, The MathWorks, Inc. Version 8.0.0.783 (R2012b). Operating System: Darwin 12.5.0 Darwin Kernel Version 12.5.0: Sun Sep 29 13:33:47 PDT 2013; root:xnu-2050.48.12~1/RELEASE_X86_64 x86_64.
%%Title: figs/predicting_speed_from_integration.eps
%%CreationDate: 10/30/2013  14:08:40
%%DocumentNeededFonts: Helvetica
%%DocumentProcessColors: Cyan Magenta Yellow Black
%%LanguageLevel: 2
%%Pages: 1
%%BoundingBox:   -45   232   661   552
%%EndComments

%%BeginProlog
% MathWorks dictionary
/MathWorks 160 dict begin
% definition operators
/bdef {bind def} bind def
/ldef {load def} bind def
/xdef {exch def} bdef
/xstore {exch store} bdef
% operator abbreviations
/c  /clip ldef
/cc /concat ldef
/cp /closepath ldef
/gr /grestore ldef
/gs /gsave ldef
/mt /moveto ldef
/np /newpath ldef
/cm /currentmatrix ldef
/sm /setmatrix ldef
/rm /rmoveto ldef
/rl /rlineto ldef
/s {show newpath} bdef
/sc {setcmykcolor} bdef
/sr /setrgbcolor ldef
/sg /setgray ldef
/w /setlinewidth ldef
/j /setlinejoin ldef
/cap /setlinecap ldef
/rc {rectclip} bdef
/rf {rectfill} bdef
% page state control
/pgsv () def
/bpage {/pgsv save def} bdef
/epage {pgsv restore} bdef
/bplot /gsave ldef
/eplot {stroke grestore} bdef
% orientation switch
/portraitMode 0 def /landscapeMode 1 def /rotateMode 2 def
% coordinate system mappings
/dpi2point 0 def
% font control
/FontSize 0 def
/FMS {/FontSize xstore findfont [FontSize 0 0 FontSize neg 0 0]
  makefont setfont} bdef
/reencode {exch dup where {pop load} {pop StandardEncoding} ifelse
  exch dup 3 1 roll findfont dup length dict begin
  { 1 index /FID ne {def}{pop pop} ifelse } forall
  /Encoding exch def currentdict end definefont pop} bdef
/isroman {findfont /CharStrings get /Agrave known} bdef
/FMSR {3 1 roll 1 index dup isroman {reencode} {pop pop} ifelse
  exch FMS} bdef
/csm {1 dpi2point div -1 dpi2point div scale neg translate
 dup landscapeMode eq {pop -90 rotate}
  {rotateMode eq {90 rotate} if} ifelse} bdef
% line types: solid, dotted, dashed, dotdash
/SO { [] 0 setdash } bdef
/DO { [.5 dpi2point mul 4 dpi2point mul] 0 setdash } bdef
/DA { [6 dpi2point mul] 0 setdash } bdef
/DD { [.5 dpi2point mul 4 dpi2point mul 6 dpi2point mul 4
  dpi2point mul] 0 setdash } bdef
% macros for lines and objects
/L {lineto stroke} bdef
/MP {3 1 roll moveto 1 sub {rlineto} repeat} bdef
/AP {{rlineto} repeat} bdef
/PDlw -1 def
/W {/PDlw currentlinewidth def setlinewidth} def
/PP {closepath eofill} bdef
/DP {closepath stroke} bdef
/MR {4 -2 roll moveto dup  0 exch rlineto exch 0 rlineto
  neg 0 exch rlineto closepath} bdef
/FR {MR stroke} bdef
/PR {MR fill} bdef
/L1i {{currentfile picstr readhexstring pop} image} bdef
/tMatrix matrix def
/MakeOval {newpath tMatrix currentmatrix pop translate scale
0 0 1 0 360 arc tMatrix setmatrix} bdef
/FO {MakeOval stroke} bdef
/PO {MakeOval fill} bdef
/PD {currentlinewidth 2 div 0 360 arc fill
   PDlw -1 eq not {PDlw w /PDlw -1 def} if} def
/FA {newpath tMatrix currentmatrix pop translate scale
  0 0 1 5 -2 roll arc tMatrix setmatrix stroke} bdef
/PA {newpath tMatrix currentmatrix pop	translate 0 0 moveto scale
  0 0 1 5 -2 roll arc closepath tMatrix setmatrix fill} bdef
/FAn {newpath tMatrix currentmatrix pop translate scale
  0 0 1 5 -2 roll arcn tMatrix setmatrix stroke} bdef
/PAn {newpath tMatrix currentmatrix pop translate 0 0 moveto scale
  0 0 1 5 -2 roll arcn closepath tMatrix setmatrix fill} bdef
/vradius 0 def /hradius 0 def /lry 0 def
/lrx 0 def /uly 0 def /ulx 0 def /rad 0 def
/MRR {/vradius xdef /hradius xdef /lry xdef /lrx xdef /uly xdef
  /ulx xdef newpath tMatrix currentmatrix pop ulx hradius add uly
  vradius add translate hradius vradius scale 0 0 1 180 270 arc 
  tMatrix setmatrix lrx hradius sub uly vradius add translate
  hradius vradius scale 0 0 1 270 360 arc tMatrix setmatrix
  lrx hradius sub lry vradius sub translate hradius vradius scale
  0 0 1 0 90 arc tMatrix setmatrix ulx hradius add lry vradius sub
  translate hradius vradius scale 0 0 1 90 180 arc tMatrix setmatrix
  closepath} bdef
/FRR {MRR stroke } bdef
/PRR {MRR fill } bdef
/MlrRR {/lry xdef /lrx xdef /uly xdef /ulx xdef /rad lry uly sub 2 div def
  newpath tMatrix currentmatrix pop ulx rad add uly rad add translate
  rad rad scale 0 0 1 90 270 arc tMatrix setmatrix lrx rad sub lry rad
  sub translate rad rad scale 0 0 1 270 90 arc tMatrix setmatrix
  closepath} bdef
/FlrRR {MlrRR stroke } bdef
/PlrRR {MlrRR fill } bdef
/MtbRR {/lry xdef /lrx xdef /uly xdef /ulx xdef /rad lrx ulx sub 2 div def
  newpath tMatrix currentmatrix pop ulx rad add uly rad add translate
  rad rad scale 0 0 1 180 360 arc tMatrix setmatrix lrx rad sub lry rad
  sub translate rad rad scale 0 0 1 0 180 arc tMatrix setmatrix
  closepath} bdef
/FtbRR {MtbRR stroke } bdef
/PtbRR {MtbRR fill } bdef
/stri 6 array def /dtri 6 array def
/smat 6 array def /dmat 6 array def
/tmat1 6 array def /tmat2 6 array def /dif 3 array def
/asub {/ind2 exch def /ind1 exch def dup dup
  ind1 get exch ind2 get sub exch } bdef
/tri_to_matrix {
  2 0 asub 3 1 asub 4 0 asub 5 1 asub
  dup 0 get exch 1 get 7 -1 roll astore } bdef
/compute_transform {
  dmat dtri tri_to_matrix tmat1 invertmatrix 
  smat stri tri_to_matrix tmat2 concatmatrix } bdef
/ds {stri astore pop} bdef
/dt {dtri astore pop} bdef
/db {2 copy /cols xdef /rows xdef mul dup 3 mul string
  currentfile 
  3 index 0 eq {/ASCIIHexDecode filter}
  {/ASCII85Decode filter 3 index 2 eq {/RunLengthDecode filter} if }
  ifelse exch readstring pop
  dup 0 3 index getinterval /rbmap xdef
  dup 2 index dup getinterval /gbmap xdef
  1 index dup 2 mul exch getinterval /bbmap xdef pop pop}bdef
/it {gs np dtri aload pop moveto lineto lineto cp c
  cols rows 8 compute_transform 
  rbmap gbmap bbmap true 3 colorimage gr}bdef
/il {newpath moveto lineto stroke}bdef
currentdict end def
%%EndProlog

%%BeginSetup
MathWorks begin

0 cap

end
%%EndSetup

%%Page: 1 1
%%BeginPageSetup
%%PageBoundingBox:   -45   232   661   552
MathWorks begin
bpage
%%EndPageSetup

%%BeginObject: obj1
bplot

/dpi2point 1.01389 def
portraitMode -0121 0573 csm

   76    14   716   324 rc
85 dict begin %Colortable dictionary
/c0 { 0.000000 0.000000 0.000000 sr} bdef
/c1 { 1.000000 1.000000 1.000000 sr} bdef
/c2 { 0.900000 0.000000 0.000000 sr} bdef
/c3 { 0.000000 0.820000 0.000000 sr} bdef
/c4 { 0.000000 0.000000 0.800000 sr} bdef
/c5 { 0.910000 0.820000 0.320000 sr} bdef
/c6 { 1.000000 0.260000 0.820000 sr} bdef
/c7 { 0.000000 0.820000 0.820000 sr} bdef
c0
1 j
1 sg
   0    0  864  347 rf
0.506944 w
0 282 669 0 0 -282 112 308 4 MP
PP
-669 0 0 282 669 0 0 -282 112 308 5 MP stroke
0.337963 w
DO
SO
0.506944 w
0 sg
 112  308 mt  781  308 L
 112   26 mt  781   26 L
 112  308 mt  112   26 L
 781  308 mt  781   26 L
 112  308 mt  781  308 L
 112  308 mt  112   26 L
 112  308 mt  112  301 L
 112   26 mt  112   32 L
%%IncludeResource: font Helvetica
/Helvetica /ISOLatin1Encoding 10.1389 FMSR

 110  319 mt 
(0) s
 195  308 mt  195  301 L
 195   26 mt  195   32 L
 193  319 mt 
(2) s
 279  308 mt  279  301 L
 279   26 mt  279   32 L
 277  319 mt 
(4) s
 362  308 mt  362  301 L
 362   26 mt  362   32 L
 360  319 mt 
(6) s
 446  308 mt  446  301 L
 446   26 mt  446   32 L
 444  319 mt 
(8) s
 530  308 mt  530  301 L
 530   26 mt  530   32 L
 525  319 mt 
(10) s
 613  308 mt  613  301 L
 613   26 mt  613   32 L
 608  319 mt 
(12) s
 697  308 mt  697  301 L
 697   26 mt  697   32 L
 692  319 mt 
(14) s
 781  308 mt  781  301 L
 781   26 mt  781   32 L
 776  319 mt 
(16) s
 112  308 mt  118  308 L
 781  308 mt  774  308 L
  98  311 mt 
(-3) s
 112  272 mt  118  272 L
 781  272 mt  774  272 L
  98  275 mt 
(-2) s
 112  237 mt  118  237 L
 781  237 mt  774  237 L
  98  240 mt 
(-1) s
 112  202 mt  118  202 L
 781  202 mt  774  202 L
 104  205 mt 
(0) s
 112  167 mt  118  167 L
 781  167 mt  774  167 L
 104  170 mt 
(1) s
 112  131 mt  118  131 L
 781  131 mt  774  131 L
 104  134 mt 
(2) s
 112   96 mt  118   96 L
 781   96 mt  774   96 L
 104   99 mt 
(3) s
 112   61 mt  118   61 L
 781   61 mt  774   61 L
 104   64 mt 
(4) s
 112   26 mt  118   26 L
 781   26 mt  774   26 L
 104   29 mt 
(5) s
 112  308 mt  781  308 L
 112   26 mt  781   26 L
 112  308 mt  112   26 L
 781  308 mt  781   26 L
gs 112 26 670 283 rc
/c8 { 1.000000 0.000000 0.000000 sr} bdef
c8
1 4 1 -10 1 -12 0 -6 1 -7 1 -12 1 -4 0 -1 
1 3 1 4 0 6 1 7 1 9 0 18 1 6 1 -5 
1 -1 0 -1 1 1 1 5 0 5 1 -2 1 1 0 -3 
1 -7 1 -7 1 -13 0 -30 1 -30 1 18 0 23 1 16 
1 8 1 3 1 8 0 2 1 -3 1 9 1 0 0 3 
1 -9 1 5 0 14 1 -14 1 1 0 -5 1 -8 1 -4 
1 0 0 2 1 -3 1 -19 0 -20 1 -4 1 -1 0 2 
1 3 1 7 1 18 0 22 1 18 1 2 0 -4 1 -6 
1 -10 1 0 1 -1 0 -7 1 3 1 6 1 -6 0 -10 
1 -8 1 6 0 7 1 -1 1 -7 1 0 1 -2 1 2 
0 1 1 -1 1 8 0 2 1 -2 1 1 0 3 1 2 
1 0 1 -7 0 -13 1 -7 1 -13 0 -6 1 26 1 20 
0 9 1 8 1 5 0 -4 1 -14 1 -7 1 3 0 4 
1 -12 1 -8 0 2 1 11 1 8 0 6 1 2 1 0 
1 2 1 -4 1 -4 0 4 1 11 1 4 0 -14 1 -24 
1 -8 0 -2 1 4 1 3 1 3 0 2 1 1 1 1 
0 1 1 1 1 0 1 0 1 1 1 0 1 0 1 0 
1 0 1 0 1 0 1 0 1 0 1 0 1 0 1 0 
1 -1 1 0 1 0 1 0 1 1 1 0 1 0 1 0 
1 0 1 0 1 0 1 0 1 0 1 0 1 0 1 0 
1 0 1 0 1 0 1 0 1 0 1 0 1 1 1 0 
1 1 1 0 1 0 1 1 1 0 1 0 1 -2 0 -2 
1 -3 1 -3 0 -20 1 -18 1 -1 1 6 0 14 1 18 
1 9 0 2 1 3 1 11 0 2 1 -3 1 -10 1 -7 
0 6 1 4 1 3 0 1 1 3 1 0 0 -2 1 -1 
1 -7 0 -6 1 1 1 3 1 1 1 1 1 0 0 -2 
1 -1 1 -3 0 -3 1 -2 1 0 1 3 0 1 1 -3 
1 3 0 -4 1 -5 1 -3 1 5 1 4 1 3 0 5 
1 5 1 0 0 -3 1 -2 1 -3 0 -2 1 -3 1 -1 
0 4 1 3 1 0 1 -1 0 1 1 1 1 -2 0 -2 
1 -1 1 0 -1 0 2 2 1 3 1 -1 0 1 1 -1 
1 0 1 1 1 0 1 1 1 0 1 1 0 -2 1 -3 
1 0 0 3 1 1 1 -2 0 -2 1 -2 1 -3 0 -4 
1 -3 1 -2 1 -1 0 5 1 5 1 7 0 5 1 0 
1 -1 0 1 1 3 1 3 1 -7 0 -11 1 -2 1 3 
0 5 1 6 1 -3 0 -4 1 -1 1 -3 1 6 0 9 
1 -7 1 -13 0 -5 1 3 1 6 0 3 1 -2 1 3 
0 5 1 -9 1 3 515 204 300 MP stroke
1 17 0 4 1 -2 1 -4 0 -2 1 -2 1 -6 0 -9 
1 -12 1 -9 1 3 0 10 1 13 1 9 0 2 1 -3 
1 -6 0 -7 1 0 1 6 1 -1 0 11 1 8 1 -2 
0 -6 1 -6 1 -6 0 -11 1 -12 1 1 0 11 1 15 
1 10 1 1 0 -2 1 -3 1 -3 0 -3 1 1 1 -1 
0 -6 1 -8 1 -5 1 10 0 7 1 -7 1 -7 0 1 
1 8 1 7 0 -2 1 -4 1 -4 1 7 0 10 1 0 
1 -1 1 1 1 -1 0 -1 1 -2 1 -3 0 -4 1 -2 
1 0 1 -1 0 -1 1 3 1 11 0 6 1 -2 1 0 
-1 0 2 -2 1 -4 1 -5 0 -2 1 1 1 2 0 6 
1 -1 1 -10 0 -6 1 12 1 3 1 -12 0 -14 1 -1 
1 2 0 1 1 1 1 2 0 1 1 1 1 4 0 3 
1 7 1 7 1 7 0 -1 1 -3 1 -3 0 -4 1 -2 
1 4 0 12 1 0 1 -2 1 -2 0 -3 1 -6 1 -6 
0 -6 1 -4 1 8 0 -2 1 -5 1 2 0 -6 1 -5 
1 6 1 10 0 9 1 -4 1 -13 0 -6 1 6 1 5 
0 10 1 1 1 3 1 1 0 -3 1 -4 1 -1 0 3 
1 5 1 1 1 0 1 -1 1 -2 0 -3 1 -4 1 -7 
0 -6 1 3 1 0 -1 0 2 12 1 12 0 -4 1 -3 
1 -3 1 -2 0 -2 1 -3 1 -3 1 3 1 7 0 2 
1 -1 1 -1 1 -3 0 -5 1 -8 1 -3 0 6 1 8 
1 -6 0 -2 1 13 1 14 1 -2 0 -9 1 -12 1 -14 
0 -6 1 3 1 11 0 13 1 10 1 6 0 -1 1 -7 
1 -7 1 -7 0 -2 1 6 1 3 1 -1 1 0 1 -2 
1 -2 1 -3 0 1 1 5 1 10 0 3 1 -1 1 0 
0 3 1 4 1 0 1 1 0 -3 1 -7 1 -14 0 -17 
1 -10 1 -5 0 2 1 5 1 8 0 15 1 9 1 -3 
1 -8 0 4 1 12 1 11 0 6 1 -3 1 -8 0 -7 
1 -9 1 -14 1 -11 0 7 1 11 1 -3 0 -9 1 6 
1 9 0 5 1 1 1 11 1 9 0 -1 1 -5 1 -6 
0 -5 1 -5 1 -3 0 2 1 5 1 3 0 2 1 0 
1 -1 1 1 1 -3 1 -6 0 -8 1 -8 1 5 0 10 
1 15 1 14 1 -5 0 -14 1 -18 1 -13 0 -3 1 -3 
1 -2 0 -1 1 3 1 19 1 14 0 5 1 5 1 9 
0 -1 1 -5 1 -4 0 -5 1 -6 1 -6 0 -9 1 -5 
1 4 1 7 0 5 1 9 1 9 0 -3 1 -6 1 -6 
0 -8 1 -6 1 -4 1 0 0 9 1 13 1 6 0 2 
1 -2 1 0 1 -3 302 194 300 MP stroke
1 -3 1 -1 1 1 1 1 0 3 1 2 1 0 0 -4 
1 -9 1 -7 0 -9 1 -5 1 10 1 2 0 -11 1 0 
1 4 0 16 1 26 1 10 0 3 1 -3 1 -5 1 -8 
0 -20 1 -35 1 -24 0 -2 1 20 1 47 0 17 1 -9 
1 -1 1 -2 0 -6 1 -5 1 -12 0 7 1 30 1 6 
0 -10 1 -7 1 -14 0 -28 1 -5 1 10 1 8 0 15 
1 21 1 2 0 -12 1 -3 1 8 0 13 1 -6 1 -15 
1 -9 0 -4 1 -6 1 -12 0 -8 1 2 1 -13 0 -14 
1 -1 1 7 1 5 0 6 1 14 1 10 0 -1 1 -4 
1 -5 0 -1 1 3 1 13 0 13 1 7 1 0 1 -4 
0 -3 1 7 1 12 0 3 1 -8 1 -3 0 5 1 6 
1 11 1 -5 0 -8 1 -14 1 -23 0 -19 1 7 1 18 
0 5 1 -2 1 1 1 3 0 10 1 8 1 3 0 2 
1 4 1 0 0 -8 1 -12 1 -16 0 -17 1 -9 1 -6 
1 0 0 5 1 9 1 14 0 22 1 10 1 2 0 2 
1 0 1 -2 1 -3 0 -4 1 -6 1 0 -1 0 2 0 
1 -11 0 -7 1 2 1 -1 0 1 1 6 1 11 1 5 
0 -7 1 -18 1 -12 0 3 1 14 1 12 0 8 1 -1 
1 -3 1 4 0 4 1 -3 1 -3 1 -2 1 6 0 -1 
1 -5 1 -5 1 -1 0 1 1 -3 1 -14 0 -15 1 -6 
1 10 0 10 1 5 1 3 0 4 1 7 1 9 1 5 
0 -1 1 -8 1 -9 0 -7 1 -6 1 -3 0 3 1 11 
1 17 1 6 0 -4 1 -8 1 -7 0 -7 1 -4 1 5 
0 5 1 -1 1 -2 1 -4 1 -1 1 0 1 0 1 1 
0 2 1 3 1 1 0 -2 1 -3 1 -4 1 -6 0 -4 
1 -1 1 5 0 8 1 8 1 0 0 -4 1 2 1 13 
1 4 0 -7 1 -9 1 -7 0 -3 1 3 1 4 0 1 
1 1 1 1 1 -1 0 -1 1 3 1 6 0 3 1 3 
1 2 0 4 1 3 1 0 0 -4 1 -7 1 -5 1 -8 
0 -18 1 -22 1 -8 0 6 1 21 1 19 0 18 1 19 
1 0 1 -6 0 -4 1 -6 1 -17 0 -11 1 1 1 16 
0 21 1 -7 1 -27 1 -7 0 -2 1 -6 1 -11 0 -1 
1 10 1 6 1 1 1 9 0 9 1 3 1 6 0 9 
115 181 265 MP stroke
/c9 { 0.000000 0.000000 1.000000 sr} bdef
c9
1 -2 0 1 1 10 1 16 0 -7 1 -28 1 -12 1 -3 
0 -10 1 11 1 3 0 -27 1 -14 1 9 0 21 1 20 
1 6 1 6 0 10 1 7 1 8 0 9 1 3 1 -1 
0 6 1 2 1 -12 1 -13 0 -29 1 -37 1 1 0 14 
1 7 1 8 0 3 1 7 1 11 0 5 1 -3 1 17 
1 28 0 -14 1 -26 1 9 0 14 1 -4 1 -4 0 -5 
1 -13 1 -8 1 -5 0 -10 1 -11 1 -13 0 -17 1 -17 
1 -8 0 1 1 -3 1 -5 1 8 0 24 1 25 1 17 
0 8 1 -1 1 -2 0 3 1 6 1 1 0 -1 1 5 
1 6 1 0 0 -6 1 -7 1 3 0 14 1 0 1 -10 
0 1 1 2 1 0 1 -1 0 -5 1 -5 1 13 0 30 
1 14 1 -9 0 -20 1 11 1 16 1 2 0 8 1 -34 
1 -51 0 -34 1 -7 1 2 0 -2 1 52 1 60 0 -8 
1 -28 1 -25 1 0 0 25 1 0 1 -14 0 -18 1 6 
1 51 0 26 1 -25 1 -19 1 3 0 6 1 -3 1 4 
0 14 1 3 1 4 0 1 1 -17 1 -21 0 -10 1 -2 
1 -1 1 0 1 0 1 0 1 0 1 0 1 0 1 0 
1 0 1 0 1 0 1 0 1 0 1 0 1 0 1 0 
1 0 1 0 1 0 1 0 1 0 1 0 1 0 1 0 
1 0 1 0 1 0 1 0 1 0 1 0 1 0 1 0 
1 0 1 0 1 0 1 0 1 0 1 0 1 0 1 0 
1 0 1 -1 1 -1 0 -1 1 2 1 1 1 1 1 -1 
1 -2 0 -2 1 1 1 2 0 3 1 1 1 -10 0 -12 
1 -11 1 -20 1 -17 0 -6 1 -6 1 7 0 9 1 0 
1 13 0 15 1 9 1 14 1 -9 0 -26 1 10 1 18 
0 2 1 6 1 12 0 3 1 2 1 5 0 -5 1 -7 
1 -5 1 5 0 3 1 0 1 2 0 -4 1 2 1 2 
0 -11 1 -1 1 41 1 -15 0 -79 1 12 1 50 0 -3 
1 -13 1 -4 0 -10 1 13 1 32 1 2 0 -15 1 -2 
1 23 0 4 1 -42 1 -20 0 11 1 9 1 7 0 -2 
1 11 1 22 1 7 0 -3 1 -24 1 -19 0 16 1 12 
1 -7 0 25 1 -5 1 -74 1 -5 0 60 1 8 1 -20 
0 20 1 4 1 -25 0 4 1 9 1 -9 1 -3 0 8 
1 0 1 -3 0 7 1 10 1 -4 0 -23 1 -7 1 11 
1 -6 1 6 1 0 0 -6 1 2 1 8 0 3 1 -3 
1 4 0 3 1 1 1 8 1 0 0 -7 1 -6 1 -3 
0 7 1 5 1 -5 0 1 1 3 1 -5 1 1 0 8 
1 -4 1 -10 0 -8 521 211 300 MP stroke
1 -5 1 9 0 5 1 -1 1 1 0 -3 1 -5 1 4 
1 8 0 7 1 2 1 0 1 2 1 2 0 -4 1 -18 
1 -11 1 0 0 -4 1 1 1 13 0 12 1 2 1 -4 
0 -4 1 -2 1 0 1 -3 0 6 1 12 1 -1 0 -6 
1 6 1 8 0 -16 1 -29 1 0 0 15 1 -2 1 7 
1 22 0 -2 1 -16 1 2 0 3 1 -2 1 -6 0 -2 
1 7 1 -4 1 -5 0 9 1 -5 1 -6 0 7 1 4 
1 4 0 2 1 -7 1 -12 1 9 0 24 1 3 1 -5 
0 -6 1 -5 1 3 0 3 1 2 1 -2 0 -5 1 -1 
1 -2 1 4 0 4 1 -11 1 -7 0 14 1 13 1 -2 
0 -4 1 4 1 -4 1 -10 0 -2 1 1 1 0 0 7 
1 7 1 -12 0 -12 1 14 1 11 1 -23 0 -30 1 -6 
1 11 0 6 1 -1 1 9 0 -5 1 -19 1 3 0 11 
1 3 1 3 1 4 0 15 1 7 1 -7 0 -1 1 1 
1 2 0 8 1 1 1 -4 1 2 0 1 1 1 1 -4 
0 -10 1 0 1 0 0 -8 1 -2 1 1 0 -6 1 -6 
1 0 1 5 0 10 1 7 1 -7 0 -8 1 1 1 5 
0 6 1 3 1 4 1 6 0 3 1 -1 1 1 0 1 
1 -4 1 -2 0 5 1 3 1 -1 1 -1 0 1 1 -4 
1 -7 0 -7 1 -7 1 -5 1 7 1 8 0 3 1 1 
1 2 1 2 0 -1 1 -6 1 -5 1 5 1 7 0 2 
1 -2 1 -5 1 -1 0 1 1 -8 1 -11 0 2 1 7 
1 -5 0 -10 1 3 1 13 1 9 0 3 1 -7 1 -12 
0 -11 1 -3 1 8 0 12 1 15 1 8 0 -2 1 -1 
1 -2 1 -10 0 -5 1 9 1 8 1 -1 1 0 0 -2 
1 0 1 2 1 0 0 -3 1 0 1 8 0 6 1 -1 
1 0 0 5 1 3 1 0 1 0 0 -4 1 -1 1 -4 
0 -13 1 -15 1 -9 0 -6 1 -9 1 -4 0 10 1 12 
1 6 1 -3 0 -5 1 4 1 13 0 9 1 3 1 1 
1 -3 1 -13 1 -15 0 -1 1 7 1 -2 0 -6 1 3 
1 5 0 3 1 3 1 6 1 10 0 7 1 2 1 -3 
0 -5 1 -5 1 -2 0 -2 1 1 1 7 0 5 1 -1 
1 -4 1 -2 0 4 1 5 1 -2 0 -13 1 -17 1 -8 
0 3 1 10 1 13 1 7 0 -3 1 -11 1 -16 0 -14 
1 0 1 2 0 -10 1 -8 1 4 1 10 0 12 1 13 
1 12 0 4 1 1 1 1 1 -1 1 -7 0 -10 1 -11 
1 -1 1 10 0 1 1 1 1 12 0 9 1 0 1 -4 
0 -1 1 -3 1 -7 308 205 300 MP stroke
1 -8 0 2 1 13 1 11 0 2 1 -2 1 10 0 9 
1 -13 1 -10 1 10 0 4 1 -4 1 2 0 2 1 1 
1 0 0 4 1 -5 1 -12 0 -9 1 -8 1 3 1 -1 
0 -2 1 -4 1 -9 0 -1 1 26 1 23 0 5 1 8 
1 -4 1 0 0 -5 1 -27 1 -26 0 -29 1 3 1 38 
0 20 1 6 1 0 1 2 0 4 1 -22 1 -52 0 33 
1 96 1 -7 0 -38 1 -12 1 -19 0 -13 1 -3 1 3 
1 7 0 12 1 8 1 0 0 -8 1 -5 1 8 0 14 
1 1 1 -19 1 -15 0 -4 1 4 1 -7 0 -5 1 -13 
1 -32 0 5 1 14 1 -11 1 -5 0 4 1 10 1 24 
0 19 1 -3 1 -10 0 12 1 4 1 6 0 24 1 2 
1 -5 1 -11 0 7 1 1 1 -21 0 -10 1 -9 1 9 
0 6 1 8 1 22 1 -20 0 -14 1 -18 1 -42 0 6 
1 18 1 10 0 5 1 -1 1 12 1 9 0 4 1 -6 
1 -18 0 12 1 40 1 5 0 -14 1 -8 1 -11 0 -5 
1 -10 1 -12 1 -4 0 -5 1 -11 1 3 0 11 1 16 
1 27 0 4 1 -17 1 -11 1 17 0 23 1 -8 1 -13 
0 4 1 7 1 1 0 -4 1 -3 1 -7 0 -12 1 -8 
1 1 1 7 0 11 1 8 1 -7 0 -9 1 0 1 10 
0 15 1 0 1 -9 1 -4 0 -1 1 -4 1 1 0 4 
1 0 1 0 0 10 1 2 1 -13 1 8 0 18 1 -10 
1 -8 0 -9 1 -17 1 4 0 14 1 3 1 3 0 -3 
1 -16 1 -3 1 22 0 11 1 -13 1 -13 0 -2 1 -3 
1 -17 0 -9 1 11 1 17 1 11 0 1 1 5 1 2 
0 -8 1 -2 1 8 1 -4 1 0 1 -2 0 3 1 -3 
1 -6 0 4 1 6 1 -1 0 -2 1 2 1 0 0 2 
1 -2 1 0 1 10 0 3 1 -27 1 -20 0 18 1 9 
1 -8 0 -9 1 1 1 3 1 4 0 14 1 1 1 -8 
0 -2 1 -10 1 -2 0 15 1 4 1 -3 1 15 0 12 
1 -1 1 6 0 9 1 12 1 -11 0 3 1 8 1 -2 
0 15 1 -15 1 -15 1 0 0 -20 1 -22 1 -14 0 -10 
1 1 1 14 0 13 1 16 1 34 1 2 0 -22 1 -3 
1 -10 0 -16 1 8 1 16 0 2 1 -8 1 -10 1 -15 
0 -6 1 11 1 1 0 -12 1 -6 1 -3 0 -24 1 -34 
1 32 0 86 1 67 1 39 0 -142 115 202 278 MP stroke
gr

c9
0 sg
%%IncludeResource: font Helvetica
/Helvetica /ISOLatin1Encoding 12.1667 FMSR

 416  333 mt 
(Time \(min\)) s
  90  235 mt  -90 rotate
(Change in Velocity \(mps\)) s
90 rotate
%%IncludeResource: font Helvetica
/Helvetica /ISOLatin1Encoding 10.1389 FMSR

 111  313 mt 
( ) s
 781   30 mt 
( ) s
1 sg
0 30 207 0 0 -30 570 62 4 MP
PP
-207 0 0 30 207 0 0 -30 570 62 5 MP stroke
0.337963 w
DO
SO
0.506944 w
0 sg
 570   62 mt  777   62 L
 570   32 mt  777   32 L
 570   62 mt  570   32 L
 777   62 mt  777   32 L
 570   62 mt  777   62 L
 570   62 mt  570   32 L
 570   62 mt  777   62 L
 570   32 mt  777   32 L
 570   62 mt  570   32 L
 777   62 mt  777   32 L
 608   45 mt 
(Predicted change in speed from Acc) s
gs 570 32 208 31 rc
c8
30 0 575 40 2 MP stroke
gr

c8
0 sg
 608   58 mt 
(Change in speed from GPS) s
gs 570 32 208 31 rc
c9
30 0 575 53 2 MP stroke
gr

c9

end %%Color Dict

eplot
%%EndObject

epage
end

showpage

%%Trailer
%%EOF
