%!PS-Adobe-3.0 EPSF-3.0
%%Creator: MATLAB, The MathWorks, Inc. Version 8.0.0.783 (R2012b). Operating System: Darwin 13.0.0 Darwin Kernel Version 13.0.0: Thu Sep 19 22:22:27 PDT 2013; root:xnu-2422.1.72~6/RELEASE_X86_64 x86_64.
%%Title: figs/predictOrientation_delta_ucla_palms.eps
%%CreationDate: 10/30/2013  22:31:30
%%DocumentNeededFonts: Helvetica
%%DocumentProcessColors: Cyan Magenta Yellow Black
%%LanguageLevel: 2
%%Pages: 1
%%BoundingBox:    -3   234   603   553
%%EndComments

%%BeginProlog
% MathWorks dictionary
/MathWorks 160 dict begin
% definition operators
/bdef {bind def} bind def
/ldef {load def} bind def
/xdef {exch def} bdef
/xstore {exch store} bdef
% operator abbreviations
/c  /clip ldef
/cc /concat ldef
/cp /closepath ldef
/gr /grestore ldef
/gs /gsave ldef
/mt /moveto ldef
/np /newpath ldef
/cm /currentmatrix ldef
/sm /setmatrix ldef
/rm /rmoveto ldef
/rl /rlineto ldef
/s {show newpath} bdef
/sc {setcmykcolor} bdef
/sr /setrgbcolor ldef
/sg /setgray ldef
/w /setlinewidth ldef
/j /setlinejoin ldef
/cap /setlinecap ldef
/rc {rectclip} bdef
/rf {rectfill} bdef
% page state control
/pgsv () def
/bpage {/pgsv save def} bdef
/epage {pgsv restore} bdef
/bplot /gsave ldef
/eplot {stroke grestore} bdef
% orientation switch
/portraitMode 0 def /landscapeMode 1 def /rotateMode 2 def
% coordinate system mappings
/dpi2point 0 def
% font control
/FontSize 0 def
/FMS {/FontSize xstore findfont [FontSize 0 0 FontSize neg 0 0]
  makefont setfont} bdef
/reencode {exch dup where {pop load} {pop StandardEncoding} ifelse
  exch dup 3 1 roll findfont dup length dict begin
  { 1 index /FID ne {def}{pop pop} ifelse } forall
  /Encoding exch def currentdict end definefont pop} bdef
/isroman {findfont /CharStrings get /Agrave known} bdef
/FMSR {3 1 roll 1 index dup isroman {reencode} {pop pop} ifelse
  exch FMS} bdef
/csm {1 dpi2point div -1 dpi2point div scale neg translate
 dup landscapeMode eq {pop -90 rotate}
  {rotateMode eq {90 rotate} if} ifelse} bdef
% line types: solid, dotted, dashed, dotdash
/SO { [] 0 setdash } bdef
/DO { [.5 dpi2point mul 4 dpi2point mul] 0 setdash } bdef
/DA { [6 dpi2point mul] 0 setdash } bdef
/DD { [.5 dpi2point mul 4 dpi2point mul 6 dpi2point mul 4
  dpi2point mul] 0 setdash } bdef
% macros for lines and objects
/L {lineto stroke} bdef
/MP {3 1 roll moveto 1 sub {rlineto} repeat} bdef
/AP {{rlineto} repeat} bdef
/PDlw -1 def
/W {/PDlw currentlinewidth def setlinewidth} def
/PP {closepath eofill} bdef
/DP {closepath stroke} bdef
/MR {4 -2 roll moveto dup  0 exch rlineto exch 0 rlineto
  neg 0 exch rlineto closepath} bdef
/FR {MR stroke} bdef
/PR {MR fill} bdef
/L1i {{currentfile picstr readhexstring pop} image} bdef
/tMatrix matrix def
/MakeOval {newpath tMatrix currentmatrix pop translate scale
0 0 1 0 360 arc tMatrix setmatrix} bdef
/FO {MakeOval stroke} bdef
/PO {MakeOval fill} bdef
/PD {currentlinewidth 2 div 0 360 arc fill
   PDlw -1 eq not {PDlw w /PDlw -1 def} if} def
/FA {newpath tMatrix currentmatrix pop translate scale
  0 0 1 5 -2 roll arc tMatrix setmatrix stroke} bdef
/PA {newpath tMatrix currentmatrix pop	translate 0 0 moveto scale
  0 0 1 5 -2 roll arc closepath tMatrix setmatrix fill} bdef
/FAn {newpath tMatrix currentmatrix pop translate scale
  0 0 1 5 -2 roll arcn tMatrix setmatrix stroke} bdef
/PAn {newpath tMatrix currentmatrix pop translate 0 0 moveto scale
  0 0 1 5 -2 roll arcn closepath tMatrix setmatrix fill} bdef
/vradius 0 def /hradius 0 def /lry 0 def
/lrx 0 def /uly 0 def /ulx 0 def /rad 0 def
/MRR {/vradius xdef /hradius xdef /lry xdef /lrx xdef /uly xdef
  /ulx xdef newpath tMatrix currentmatrix pop ulx hradius add uly
  vradius add translate hradius vradius scale 0 0 1 180 270 arc 
  tMatrix setmatrix lrx hradius sub uly vradius add translate
  hradius vradius scale 0 0 1 270 360 arc tMatrix setmatrix
  lrx hradius sub lry vradius sub translate hradius vradius scale
  0 0 1 0 90 arc tMatrix setmatrix ulx hradius add lry vradius sub
  translate hradius vradius scale 0 0 1 90 180 arc tMatrix setmatrix
  closepath} bdef
/FRR {MRR stroke } bdef
/PRR {MRR fill } bdef
/MlrRR {/lry xdef /lrx xdef /uly xdef /ulx xdef /rad lry uly sub 2 div def
  newpath tMatrix currentmatrix pop ulx rad add uly rad add translate
  rad rad scale 0 0 1 90 270 arc tMatrix setmatrix lrx rad sub lry rad
  sub translate rad rad scale 0 0 1 270 90 arc tMatrix setmatrix
  closepath} bdef
/FlrRR {MlrRR stroke } bdef
/PlrRR {MlrRR fill } bdef
/MtbRR {/lry xdef /lrx xdef /uly xdef /ulx xdef /rad lrx ulx sub 2 div def
  newpath tMatrix currentmatrix pop ulx rad add uly rad add translate
  rad rad scale 0 0 1 180 360 arc tMatrix setmatrix lrx rad sub lry rad
  sub translate rad rad scale 0 0 1 0 180 arc tMatrix setmatrix
  closepath} bdef
/FtbRR {MtbRR stroke } bdef
/PtbRR {MtbRR fill } bdef
/stri 6 array def /dtri 6 array def
/smat 6 array def /dmat 6 array def
/tmat1 6 array def /tmat2 6 array def /dif 3 array def
/asub {/ind2 exch def /ind1 exch def dup dup
  ind1 get exch ind2 get sub exch } bdef
/tri_to_matrix {
  2 0 asub 3 1 asub 4 0 asub 5 1 asub
  dup 0 get exch 1 get 7 -1 roll astore } bdef
/compute_transform {
  dmat dtri tri_to_matrix tmat1 invertmatrix 
  smat stri tri_to_matrix tmat2 concatmatrix } bdef
/ds {stri astore pop} bdef
/dt {dtri astore pop} bdef
/db {2 copy /cols xdef /rows xdef mul dup 3 mul string
  currentfile 
  3 index 0 eq {/ASCIIHexDecode filter}
  {/ASCII85Decode filter 3 index 2 eq {/RunLengthDecode filter} if }
  ifelse exch readstring pop
  dup 0 3 index getinterval /rbmap xdef
  dup 2 index dup getinterval /gbmap xdef
  1 index dup 2 mul exch getinterval /bbmap xdef pop pop}bdef
/it {gs np dtri aload pop moveto lineto lineto cp c
  cols rows 8 compute_transform 
  rbmap gbmap bbmap true 3 colorimage gr}bdef
/il {newpath moveto lineto stroke}bdef
currentdict end def
%%EndProlog

%%BeginSetup
MathWorks begin

0 cap

end
%%EndSetup

%%Page: 1 1
%%BeginPageSetup
%%PageBoundingBox:    -3   234   603   553
MathWorks begin
bpage
%%EndPageSetup

%%BeginObject: obj1
bplot

/dpi2point 1.01389 def
portraitMode -0049 0574 csm

   46    14   616   323 rc
85 dict begin %Colortable dictionary
/c0 { 0.000000 0.000000 0.000000 sr} bdef
/c1 { 1.000000 1.000000 1.000000 sr} bdef
/c2 { 0.900000 0.000000 0.000000 sr} bdef
/c3 { 0.000000 0.820000 0.000000 sr} bdef
/c4 { 0.000000 0.000000 0.800000 sr} bdef
/c5 { 0.910000 0.820000 0.320000 sr} bdef
/c6 { 1.000000 0.260000 0.820000 sr} bdef
/c7 { 0.000000 0.820000 0.820000 sr} bdef
c0
1 j
1 sg
   0    0  720  346 rf
0.506944 w
0 281 558 0 0 -281 93 307 4 MP
PP
-558 0 0 281 558 0 0 -281 93 307 5 MP stroke
0.337963 w
DO
0 sg
  93  307 mt   93   26 L
  93   26 mt   93   26 L
 162  307 mt  162   26 L
 162   26 mt  162   26 L
 232  307 mt  232   26 L
 232   26 mt  232   26 L
 302  307 mt  302   26 L
 302   26 mt  302   26 L
 372  307 mt  372   26 L
 372   26 mt  372   26 L
 441  307 mt  441   26 L
 441   26 mt  441   26 L
 511  307 mt  511   26 L
 511   26 mt  511   26 L
 581  307 mt  581   26 L
 581   26 mt  581   26 L
 651  307 mt  651   26 L
 651   26 mt  651   26 L
  93  307 mt  651  307 L
 651  307 mt  651  307 L
  93  271 mt  651  271 L
 651  271 mt  651  271 L
  93  236 mt  651  236 L
 651  236 mt  651  236 L
  93  201 mt  651  201 L
 651  201 mt  651  201 L
  93  166 mt  651  166 L
 651  166 mt  651  166 L
  93  131 mt  651  131 L
 651  131 mt  651  131 L
  93   96 mt  651   96 L
 651   96 mt  651   96 L
  93   61 mt  651   61 L
 651   61 mt  651   61 L
  93   26 mt  651   26 L
 651   26 mt  651   26 L
SO
0.506944 w
  93  307 mt  651  307 L
  93   26 mt  651   26 L
  93  307 mt   93   26 L
 651  307 mt  651   26 L
  93  307 mt  651  307 L
  93  307 mt   93   26 L
  93  307 mt   93  301 L
  93   26 mt   93   31 L
%%IncludeResource: font Helvetica
/Helvetica /ISOLatin1Encoding 10.1389 FMSR

  91  318 mt 
(0) s
 162  307 mt  162  301 L
 162   26 mt  162   31 L
 160  318 mt 
(5) s
 232  307 mt  232  301 L
 232   26 mt  232   31 L
 227  318 mt 
(10) s
 302  307 mt  302  301 L
 302   26 mt  302   31 L
 297  318 mt 
(15) s
 372  307 mt  372  301 L
 372   26 mt  372   31 L
 367  318 mt 
(20) s
 441  307 mt  441  301 L
 441   26 mt  441   31 L
 436  318 mt 
(25) s
 511  307 mt  511  301 L
 511   26 mt  511   31 L
 506  318 mt 
(30) s
 581  307 mt  581  301 L
 581   26 mt  581   31 L
 576  318 mt 
(35) s
 651  307 mt  651  301 L
 651   26 mt  651   31 L
 646  318 mt 
(40) s
  93  307 mt   98  307 L
 651  307 mt  645  307 L
  68  310 mt 
(-300) s
  93  271 mt   98  271 L
 651  271 mt  645  271 L
  68  274 mt 
(-200) s
  93  236 mt   98  236 L
 651  236 mt  645  236 L
  68  239 mt 
(-100) s
  93  201 mt   98  201 L
 651  201 mt  645  201 L
  85  204 mt 
(0) s
  93  166 mt   98  166 L
 651  166 mt  645  166 L
  74  169 mt 
(100) s
  93  131 mt   98  131 L
 651  131 mt  645  131 L
  74  134 mt 
(200) s
  93   96 mt   98   96 L
 651   96 mt  645   96 L
  74   99 mt 
(300) s
  93   61 mt   98   61 L
 651   61 mt  645   61 L
  74   64 mt 
(400) s
  93   26 mt   98   26 L
 651   26 mt  645   26 L
  74   29 mt 
(500) s
  93  307 mt  651  307 L
  93   26 mt  651   26 L
  93  307 mt   93   26 L
 651  307 mt  651   26 L
gs 93 26 559 282 rc
/c8 { 0.000000 0.000000 1.000000 sr} bdef
c8
0 -3 0 2 1 -1 0 0 0 -46 0 16 1 1 0 1 
0 -12 1 -1 0 -19 0 73 1 1 0 63 0 -173 0 16 
1 1 0 121 0 -67 1 1 0 22 0 -23 0 6 1 1 
0 9 0 -14 0 8 1 -1 0 27 0 -38 0 29 1 -1 
0 1 0 -2 0 0 1 1 0 1 0 -3 1 1 0 0 
1 -2 -1 0 2 2 0 -2 1 1 1 1 0 1 0 -1 
1 -1 0 -2 0 1 1 1 1 1 0 -3 1 1 0 1 
0 -1 0 0 1 1 0 1 0 -1 1 1 0 3 0 -3 
1 -1 0 -2 1 -1 1 3 -1 0 2 -2 0 -1 0 2 
1 -1 0 1 0 -2 1 1 0 -2 1 1 0 2 0 -1 
1 -1 0 -3 0 1 1 -1 0 2 0 -3 0 2 1 -1 
0 -1 0 1 1 -1 0 -2 1 1 0 13 0 -1 1 1 
0 3 1 1 0 -1 0 1 1 -1 0 2 0 -2 1 -1 
0 -6 1 1 0 2 0 -5 0 3 1 -1 0 -1 0 2 
1 1 1 0 0 -1 0 1 1 1 0 1 0 -4 0 3 
1 1 0 -2 0 2 1 1 0 7 0 -20 1 -4 0 34 
0 -75 0 74 1 1 0 2 0 -93 0 65 1 1 0 31 
1 1 0 4 0 -28 0 0 1 1 0 6 0 -1 1 -1 
0 8 0 -26 1 -1 0 -3 1 1 0 4 1 1 0 2 
0 -1 1 -1 0 1 0 0 1 -1 0 4 1 -1 0 3 
0 -11 0 10 1 -1 0 -2 1 1 0 1 0 -1 1 1 
0 1 0 -2 1 1 0 1 0 -1 2 0 0 1 0 -1 
1 1 1 -1 -1 0 2 0 1 -1 0 -1 0 1 1 1 
0 1 0 -1 1 1 1 1 1 0 0 0 0 -1 0 1 
1 -1 1 2 -1 0 2 0 0 3 0 -14 1 -1 0 12 
0 -3 1 -1 0 -2 0 2 1 1 0 2 1 -1 1 -1 
-1 0 2 0 0 2 1 -1 1 -1 0 1 0 -1 0 0 
1 1 0 1 2 0 0 2 0 -1 1 1 0 1 0 -1 
1 -1 0 -2 1 -1 0 -1 0 2 1 -1 0 -2 1 1 
0 3 0 -4 0 1 1 1 0 1 0 -1 1 -1 0 -1 
0 3 1 -1 0 1 0 -1 1 -1 0 2 0 -3 0 2 
1 -1 0 1 1 1 0 -3 0 3 1 -1 0 -1 2 -2 
0 0 0 5 1 1 0 3 0 -16 1 1 0 12 1 1 
1 0 0 -1 0 1 1 -1 1 0 1 0 1 0 1 0 
1 0 1 0 1 1 0 -1 0 3 1 -1 0 1 0 -1 
1 -1 0 -3 1 -1 0 -2 1 1 0 -7 1 1 0 3 
1 1 1 1 1 0 0 1 2 2 1 1 1 0 1 0 
1 0 0 0 0 -1 481 201 300 MP stroke
0 0 1 1 0 -1 0 1 1 -1 1 1 0 -1 0 1 
1 -1 1 0 -1 0 2 2 0 2 0 -4 0 3 1 -1 
0 -8 0 1 1 1 0 3 1 1 1 0 1 0 1 0 
1 0 1 0 1 0 1 0 1 0 1 0 1 0 1 0 
1 0 1 0 1 0 1 0 1 0 0 1 0 -1 1 1 
1 1 0 -1 0 1 1 -1 0 -4 0 2 1 -1 0 -1 
0 1 1 1 0 -2 1 -1 0 2 1 1 1 2 -1 0 
2 0 1 0 0 -1 0 1 1 -1 1 0 1 1 0 0 
0 -1 0 0 1 1 1 0 0 -2 1 -1 1 1 1 0 
1 1 1 0 1 0 -1 0 2 0 1 -1 0 0 0 1 
1 1 0 1 0 -4 0 1 1 1 0 -2 1 1 1 2 
-1 0 2 -2 0 -1 0 1 2 2 1 0 0 1 0 -3 
0 0 2 0 0 1 0 -1 0 1 1 -1 1 0 1 1 
0 -1 0 1 1 -1 1 0 -1 0 2 2 0 1 0 -1 
2 -2 0 2 0 -1 2 0 0 1 0 -4 0 2 1 1 
0 2 0 -7 1 1 0 4 1 1 0 1 0 -2 1 1 
0 -1 2 -2 0 3 2 0 0 1 0 -2 1 -1 0 2 
1 1 0 -4 1 1 0 2 0 -3 0 1 1 -1 0 4 
0 -2 1 -1 0 2 1 1 0 -3 1 1 0 1 1 1 
0 0 0 -4 0 3 1 -1 0 2 0 -3 0 1 1 -1 
0 1 0 -3 0 2 1 1 0 -1 0 2 1 -1 0 -4 
0 4 2 0 0 -2 0 3 1 1 0 0 0 -1 1 1 
0 -3 0 1 1 1 0 -3 0 2 1 -1 0 3 0 -11 
0 9 1 1 0 -2 0 1 1 1 1 0 1 0 1 0 
1 1 1 1 0 -2 1 1 0 4 0 -9 0 1 1 -1 
0 2 0 -7 0 4 2 2 1 0 1 1 0 1 0 -1 
1 -1 0 3 1 -1 0 3 1 1 0 -4 0 1 1 -1 
0 2 0 -2 2 -2 0 2 1 1 0 1 0 -4 1 1 
1 2 -1 0 2 -2 1 3 -1 0 2 -2 0 2 0 -5 
0 4 1 1 0 -4 0 1 1 1 0 -2 1 1 0 -1 
0 2 2 0 0 -2 1 1 0 1 0 -1 1 1 0 1 
0 -3 1 -1 0 4 0 -1 1 -1 0 0 0 -1 0 1 
1 -1 1 0 0 1 0 -2 0 1 1 -1 0 -1 0 0 
1 1 0 0 0 -2 1 -1 0 -1 0 3 1 -1 0 0 
0 -4 1 -1 0 1 0 -2 1 -1 0 9 1 1 0 13 
0 -3 1 1 0 -6 0 1 1 -1 0 2 1 -1 0 1 
0 -6 0 3 1 1 0 -3 1 -1 0 0 0 -1 0 0 
1 1 0 0 0 -3 338 205 300 MP stroke
2 0 0 1 0 -3 0 2 1 1 0 -1 0 6 1 1 
0 3 0 -4 0 3 1 -1 0 -9 0 2 1 1 0 -2 
0 23 1 1 0 -20 1 -1 0 6 0 -9 0 8 1 1 
0 9 0 -15 1 1 0 -2 0 10 1 -1 0 0 0 -3 
0 2 1 -1 0 2 0 -4 0 2 1 1 0 0 0 -3 
0 1 1 1 0 -2 0 1 1 -1 0 -1 0 2 1 1 
0 -3 0 6 1 1 0 -2 0 2 1 1 0 3 0 -4 
0 2 1 -1 0 -2 0 2 1 -1 0 -6 0 10 1 -1 
0 7 0 -1 1 -1 0 5 0 -21 1 -1 0 -13 1 -1 
0 1 0 -1 1 1 0 -1 0 2 1 -1 0 4 1 -1 
0 3 2 2 0 2 2 0 1 1 1 1 0 -4 0 2 
1 1 1 0 1 0 1 0 1 0 -1 0 2 0 0 -1 
0 1 1 -1 1 -1 1 -1 1 -1 1 -1 0 -3 1 -1 
0 -5 1 1 0 17 1 1 0 28 0 -29 0 28 1 1 
0 1 0 -1 1 -1 0 -5 1 1 0 9 1 1 0 -36 
1 -1 0 -10 1 -1 0 3 0 -1 1 -1 0 -2 0 1 
1 -1 0 2 1 1 0 2 1 1 1 2 -1 0 2 0 
0 1 0 -2 0 1 1 1 1 1 1 0 0 2 0 -1 
1 1 0 1 0 -2 0 1 1 -1 1 1 0 -1 0 1 
2 0 0 0 2 -2 0 -2 0 1 1 -1 0 2 1 1 
0 5 1 1 0 -1 0 1 1 -1 0 -2 0 1 1 -1 
0 2 0 -1 1 1 1 0 -1 0 2 -2 0 -3 1 1 
0 2 0 -1 1 -1 0 -1 0 2 1 1 0 1 0 -1 
2 -2 0 1 0 -1 1 1 1 -2 -1 0 2 2 1 0 
1 0 0 0 0 -1 1 1 0 -1 0 1 1 -1 0 1 
2 2 1 -1 1 0 -1 0 2 0 1 0 1 0 0 1 
0 -1 1 1 1 1 0 2 0 -3 1 1 0 1 0 -3 
0 2 1 -1 0 0 0 -1 1 1 0 2 1 1 0 -1 
0 1 1 1 0 2 1 1 0 -6 1 -1 0 -13 1 -1 
0 0 0 2 1 1 0 2 2 2 0 -1 2 -2 1 -1 
1 0 0 -2 1 -1 0 4 1 1 0 13 1 1 0 3 
0 -1 2 -2 0 -1 2 -2 1 0 0 -2 1 -1 0 0 
0 1 1 -1 1 0 1 1 1 -1 0 1 1 1 0 -1 
0 1 1 1 0 -1 0 1 2 2 0 2 1 1 0 -1 
0 2 2 2 0 -3 1 -1 0 -1 0 8 1 1 0 21 
1 1 0 21 1 1 0 39 0 -159 0 19 1 1 0 6 
0 -10 0 9 1 1 0 10 1 1 0 4 2 0 0 -4 
0 2 1 1 0 2 195 219 300 MP stroke
0 -4 0 2 1 1 0 -5 0 2 1 -1 0 4 0 -12 
1 -1 0 169 0 -172 0 25 1 1 0 16 1 1 0 3 
1 -1 1 -1 1 0 1 0 1 1 0 2 1 1 0 -3 
0 1 1 1 0 2 1 1 0 8 0 -1 1 -1 0 -42 
1 -1 0 4 1 1 0 2 1 1 0 2 1 1 1 1 
1 1 1 1 1 0 1 -1 1 -1 1 -1 0 -3 1 -1 
0 39 1 1 0 1 0 -51 1 0 0 174 0 -174 0 168 
1 1 0 1 0 -170 0 2 1 1 0 2 1 1 0 2 
1 1 0 1 0 -3 1 1 0 -2 0 1 1 -1 0 -4 
1 -1 0 -3 1 1 0 65 0 -3 1 -1 0 -30 1 -1 
0 -8 0 15 1 1 0 20 0 -6 1 -1 0 -14 1 -1 
0 -33 0 2 1 -1 0 23 0 -32 0 31 1 -1 0 -10 
0 1 1 1 0 0 0 -2 1 1 0 9 0 -11 0 8 
1 -1 0 -3 0 11 1 1 0 -1 0 28 1 1 0 13 
0 -6 1 1 0 -26 1 -1 0 2 0 -13 1 -1 0 13 
0 -17 1 -1 0 3 1 1 0 5 0 -4 1 -1 0 -11 
0 1 1 1 0 1 2 2 0 2 1 -1 0 1 0 -1 
1 1 0 -1 0 1 2 0 0 0 0 -14 0 1 1 1 
0 25 0 -11 1 1 0 -32 0 15 1 1 0 14 0 -15 
0 7 1 1 0 18 1 1 0 -3 2 -2 0 -1 0 6 
1 1 0 -7 0 1 1 -1 1 -1 0 1 0 -1 1 -1 
0 2 1 -1 0 4 0 -6 0 2 1 -1 0 2 1 -1 
1 1 0 0 0 -2 0 1 1 -1 0 3 1 1 0 -2 
0 0 1 1 0 1 0 -8 1 -1 0 1 0 -1 0 1 
1 -1 0 1 0 -1 1 1 0 1 0 -1 1 1 1 0 
1 1 1 0 -1 0 2 0 0 -1 0 1 1 -1 1 0 
1 0 0 -1 0 1 1 -1 1 0 1 -1 0 11 0 -13 
0 12 1 -1 0 -11 0 1 1 -1 0 -2 2 -2 0 -2 
1 -1 0 -5 1 -1 0 11 0 -14 1 -1 0 82 0 -86 
0 67 1 -3 0 30 0 -3 1 -1 0 0 0 -144 0 87 
93 195 241 MP stroke
/c9 { 1.000000 0.000000 0.000000 sr} bdef
c9
1 -1 1 63 1 1 0 1 0 -118 1 3 0 1 0 -1 
1 63 0 -1 0 1 1 1 0 -3 0 7 1 -20 0 11 
0 -8 1 -7 0 3 0 -10 0 5 1 3 0 4 0 -7 
1 2 0 2 0 -2 1 0 0 8 1 6 0 -12 1 3 
0 -3 0 5 1 2 0 -5 1 3 0 -11 0 7 1 -6 
0 12 0 -3 1 0 0 4 1 -1 0 2 0 -5 1 4 
0 -6 0 8 1 -1 0 23 0 -29 1 -10 0 7 1 3 
0 -3 0 5 1 0 0 -3 1 7 0 -2 0 3 1 6 
0 -14 0 2 1 -3 0 -1 0 2 1 -1 0 4 1 -7 
1 -1 0 4 0 -3 1 2 0 -5 0 3 1 -4 0 11 
1 -9 0 18 0 -1 1 5 0 -1 0 4 1 4 1 -1 
0 11 0 -1 1 21 0 -96 1 96 0 -103 0 99 1 2 
0 -111 0 11 1 6 0 17 0 -9 1 7 0 -25 1 1 
0 78 1 -12 0 15 0 -95 1 31 0 77 0 -5 1 -6 
0 12 0 -4 1 -14 0 -100 0 118 1 -109 0 27 0 -11 
1 9 0 62 0 -1 1 14 0 -17 0 2 1 -3 0 -1 
0 3 1 -3 0 -3 0 2 1 -2 0 -2 0 2 1 1 
0 -3 1 -1 0 -2 1 1 0 -1 1 -1 0 -1 0 2 
1 -1 1 0 0 -1 0 1 1 -1 0 1 1 -1 0 1 
1 -1 0 -1 0 2 1 -1 0 -1 0 2 1 1 1 -1 
0 1 0 -1 1 2 0 -2 1 1 0 1 0 -2 0 1 
1 1 0 2 1 -1 0 2 0 -2 1 -2 0 -36 0 34 
1 6 0 5 0 -13 1 -1 0 -58 1 27 0 47 0 -7 
1 -2 0 10 0 -4 2 2 0 2 1 -1 0 3 0 -2 
1 0 0 5 1 10 0 -109 1 106 0 -99 1 32 0 51 
0 -95 1 87 0 -55 1 17 0 57 0 -111 0 50 1 63 
0 1 0 -6 1 0 0 5 0 -10 1 1 0 2 1 -2 
0 -7 1 -1 0 -3 1 2 0 -4 1 2 0 1 0 -1 
0 1 1 -2 0 1 1 -2 0 2 1 -1 0 1 0 -1 
1 1 0 1 0 -1 1 1 0 2 0 -2 1 1 0 1 
1 2 0 1 0 -2 0 1 1 -1 0 5 1 -1 0 7 
1 1 0 10 0 -120 0 55 1 -17 0 14 0 -1 1 27 
0 -16 0 51 1 -20 0 20 0 -1 1 -1 0 1 0 -3 
1 19 0 -89 0 83 1 -71 0 -15 0 97 1 -117 0 -6 
0 112 1 -19 0 9 0 -102 0 4 1 32 0 -33 0 112 
1 -6 0 -27 0 26 1 -62 0 59 0 -59 1 51 0 11 
0 -4 1 7 0 -7 0 2 1 -2 0 1 0 -3 0 2 
1 -8 0 9 0 -103 492 279 300 MP stroke
1 15 0 88 1 -15 0 14 0 -106 1 116 0 1 0 -43 
1 -13 0 54 0 -73 0 50 1 -63 0 83 1 11 0 -49 
1 -1 0 30 0 -97 0 70 1 29 0 -39 0 43 1 -6 
0 -17 0 6 1 17 0 -23 0 26 1 -19 0 8 0 -16 
0 1 1 -2 0 -55 0 63 1 25 0 2 0 -73 0 15 
1 -49 0 38 1 -18 0 78 0 -5 1 8 0 -15 0 12 
1 3 0 -3 0 2 1 0 0 2 0 -4 1 -5 0 -75 
1 6 0 7 1 -6 0 89 0 -96 1 6 0 16 0 -17 
0 15 1 63 0 -67 0 76 1 -2 0 5 0 -17 1 -79 
0 62 0 -35 1 0 0 62 0 -48 1 -16 0 57 0 -58 
0 48 1 3 0 -2 0 2 1 2 0 -9 1 -1 0 5 
0 -6 1 1 0 2 1 -1 0 -48 1 12 0 -14 0 47 
1 -60 0 62 1 -5 0 -94 0 91 1 15 0 -70 0 58 
1 5 0 3 0 -6 2 -2 0 -1 0 1 1 1 0 -2 
1 -1 0 -3 0 9 1 -7 0 10 0 -5 1 -71 0 67 
1 0 0 7 1 4 0 -5 1 0 0 1 0 -63 1 -1 
0 64 0 -4 1 7 0 3 0 -1 1 -60 0 63 1 -61 
0 17 0 -14 1 -1 0 60 1 -25 0 -21 1 40 0 -20 
1 -21 0 36 0 -8 1 -29 0 47 0 -77 1 16 0 -49 
0 110 1 -23 0 -38 0 57 1 -30 0 33 0 -11 1 -2 
0 4 0 -2 1 -2 0 1 1 -1 1 0 1 -1 0 -1 
0 10 1 -104 0 99 0 -3 1 1 0 -1 1 1 0 2 
0 -1 1 -1 0 -64 1 64 0 6 0 -85 0 77 1 -14 
0 12 1 7 0 -1 0 3 1 5 0 4 0 -120 1 10 
0 95 1 2 0 -2 1 0 0 1 0 -1 1 4 0 -9 
0 4 1 -1 0 -1 0 3 1 -5 0 -91 0 94 1 -1 
0 -5 0 3 1 2 0 -1 1 1 0 -4 0 5 1 -3 
0 4 0 -31 1 28 0 1 0 -4 0 1 1 1 0 -2 
1 -1 0 -1 0 4 1 -3 0 3 0 -2 1 2 0 -3 
1 1 0 1 0 -2 0 0 2 0 1 1 1 0 0 -1 
0 3 1 -1 0 1 0 -2 1 1 1 -1 0 10 0 -7 
1 -3 0 4 0 -2 1 1 0 5 0 -7 1 2 0 0 
0 3 1 1 0 2 0 -8 1 -55 0 60 1 -2 0 -54 
0 65 1 -13 0 15 0 -62 0 56 1 -6 0 7 1 -1 
0 5 0 -6 0 1 1 -5 0 8 1 -3 0 1 0 -3 
0 2 1 10 0 -104 1 62 0 50 1 -120 0 123 0 -17 
1 -47 0 -11 0 78 1 -71 0 66 0 -104 0 26 1 68 
0 1 0 -1 1 -1 380 181 300 MP stroke
0 11 0 -11 1 -112 0 111 0 -1 1 3 0 4 0 -119 
0 112 1 -1 0 -32 0 6 1 14 0 7 1 -2 0 -53 
0 14 1 44 0 -13 0 18 1 -13 0 -9 0 5 1 -5 
0 10 0 -11 0 5 1 1 0 -1 0 2 1 1 0 2 
0 -4 1 -1 0 1 1 1 0 -1 1 1 0 1 0 -3 
1 4 0 -2 0 2 1 -2 0 2 0 -5 1 3 0 3 
0 0 1 -2 0 3 1 -2 0 4 0 -2 1 0 0 -3 
0 8 1 -6 0 6 0 -107 0 83 1 -87 0 121 0 -18 
1 -50 0 56 0 -1 1 -3 0 3 0 -3 0 2 1 -2 
1 1 0 1 0 -2 1 1 0 -1 1 1 0 -1 0 1 
1 1 0 1 0 -1 1 1 0 2 1 1 0 1 1 1 
0 2 1 1 0 8 1 -1 0 7 1 2 0 10 1 -110 
0 124 0 -105 1 8 0 9 1 -3 0 33 0 -6 1 16 
0 26 0 -68 1 12 0 2 0 -4 0 3 1 4 0 -1 
1 5 0 -1 0 1 1 -1 0 7 0 -3 1 1 0 -2 
1 -2 0 2 1 -3 0 7 0 -1 1 1 0 2 0 -3 
0 2 1 -2 0 2 0 -1 1 -2 0 1 0 -2 0 0 
1 0 0 1 0 -1 1 1 0 -2 0 18 1 -17 0 21 
1 -35 0 11 0 -25 1 22 0 -11 0 103 1 -17 0 -70 
1 6 0 78 0 -110 0 15 1 -10 0 95 0 -102 0 29 
1 64 0 -106 1 8 0 108 0 -3 1 -37 0 -79 0 124 
1 -123 0 120 0 -117 1 18 0 -8 0 13 1 0 0 -3 
0 2 1 4 0 -3 1 -3 0 -10 1 -8 0 -16 1 -5 
0 121 0 -6 1 -9 0 -5 1 -2 0 -4 1 1 0 8 
0 -25 0 2 1 -5 0 11 0 -17 1 5 0 -2 0 1 
1 -1 0 3 0 -9 1 1 0 1 0 -6 1 5 0 12 
0 -14 0 5 1 3 0 -4 0 2 1 -1 0 4 0 -1 
1 -2 0 -11 0 13 1 1 0 -6 0 2 1 -3 0 8 
0 -8 1 1 0 10 0 -10 1 -4 0 11 0 -31 0 17 
1 19 0 -35 0 35 1 3 0 -3 0 8 1 5 0 5 
0 -8 1 9 0 9 0 -120 1 123 0 4 0 -5 0 4 
1 7 0 2 0 -117 0 2 1 14 0 11 1 1 0 -1 
0 12 1 6 0 -21 0 105 1 -96 0 -8 0 12 1 -3 
0 -15 1 -8 0 -4 0 123 1 -126 0 71 1 -10 0 54 
1 -3 0 -57 1 -3 0 -1 0 20 1 -3 0 -13 1 -5 
0 5 0 -10 1 -2 0 -6 0 30 1 -2 0 -1 0 20 
1 -3 0 9 0 -1 1 -3 0 -30 0 18 1 -8 0 -86 
0 20 1 51 0 -65 275 272 300 MP stroke
0 4 1 -4 0 115 0 -12 1 4 0 -12 1 -3 0 4 
0 -14 0 10 1 9 0 1 0 -14 0 10 1 3 0 -53 
0 49 1 1 0 7 1 1 0 14 1 4 0 -121 0 3 
1 123 0 -120 0 4 1 2 0 117 0 -118 0 13 1 5 
0 106 0 -119 1 120 0 -121 0 122 1 -124 0 6 1 -5 
0 125 0 -124 1 4 0 119 0 -121 1 8 0 115 0 -117 
0 116 1 -110 0 -13 0 1 1 121 0 -123 0 123 1 -121 
0 119 0 -100 1 -17 0 106 0 -111 0 80 1 -3 0 -81 
1 5 0 57 1 5 0 7 0 -2 1 -3 0 -46 0 55 
1 -5 0 31 0 -71 1 35 0 -5 1 17 0 28 0 -124 
0 120 1 -17 0 7 0 -52 1 -6 0 -49 0 81 1 18 
0 -39 0 1 1 -2 0 -58 1 3 0 -3 0 61 1 17 
0 -64 0 93 1 1 0 -121 0 116 1 -2 0 -6 0 5 
1 -2 0 -5 0 1 1 -10 0 -22 0 17 1 -3 0 7 
1 9 0 -3 0 2 1 2 0 2 0 -10 1 -5 0 -10 
1 0 0 0 0 -1 1 2 0 -74 0 73 1 0 0 10 
0 -100 0 92 1 5 0 -3 1 3 0 -5 1 2 0 -1 
0 3 1 -2 0 11 1 -6 0 -2 0 0 1 2 0 7 
1 3 0 12 1 -87 0 86 0 -77 1 2 0 62 0 -1 
1 -18 0 -9 0 1 1 5 0 36 1 -10 0 23 0 -39 
0 4 1 -5 0 1 0 -49 1 -13 0 103 0 -2 1 4 
0 -71 0 11 1 0 0 2 0 -14 0 0 1 -2 0 -17 
0 2 1 3 0 76 0 -80 1 23 0 104 0 -112 0 106 
1 -118 0 127 0 -123 1 2 0 2 0 -3 0 1 1 1 
0 6 0 -4 1 4 0 3 0 -4 0 2 1 -4 0 2 
0 -4 1 -5 0 123 0 -3 1 -1 0 -123 0 10 1 3 
0 14 1 6 0 80 0 -104 0 3 1 30 0 21 0 -25 
1 -2 0 -5 1 -7 0 41 0 -13 1 -5 0 45 0 -65 
1 5 0 2 0 -15 0 13 1 17 0 -25 1 6 0 -6 
0 3 1 2 0 4 0 -12 1 3 0 -14 0 9 1 4 
0 -2 1 15 0 8 0 -6 1 2 0 -29 0 3 1 51 
0 -4 1 -1 0 29 0 -10 1 -24 0 10 0 -16 0 10 
1 -8 0 4 0 0 1 -4 0 4 0 -8 1 3 0 5 
0 -16 1 2 0 30 0 -1 1 -18 0 0 0 34 1 -20 
0 -68 0 28 1 -6 0 2 0 -29 1 41 0 -28 0 6 
1 -9 0 69 0 -16 1 -54 0 69 0 -21 1 18 0 -20 
1 -62 0 89 0 -66 1 8 0 61 0 -9 1 -53 0 60 
0 -7 1 18 0 -88 173 242 300 MP stroke
0 16 1 46 0 7 0 -69 0 5 1 64 0 -85 0 116 
1 -95 0 43 0 -58 1 29 0 -34 0 49 1 -17 0 87 
0 -3 1 -58 0 3 0 -44 0 43 1 57 0 -112 0 56 
1 -3 0 5 0 -1 1 -2 0 5 0 -4 1 3 0 3 
0 -6 0 4 1 -1 0 3 1 4 0 4 0 -43 1 -6 
0 -5 0 6 1 2 0 17 0 -2 1 1 0 47 1 -9 
0 22 0 -73 1 14 0 -1 0 33 1 -26 0 87 0 -121 
0 120 1 -123 0 15 1 -4 0 -4 0 8 1 -12 0 -4 
0 120 1 -96 0 -21 0 1 1 6 0 -3 0 113 1 -99 
0 27 1 7 0 -6 1 -1 0 -9 0 67 1 -69 0 40 
0 -21 1 -19 0 54 0 -42 1 0 0 8 1 -5 0 -11 
1 6 0 -22 0 1 1 -2 0 -2 0 10 1 -1 0 -3 
1 8 0 -9 1 -12 0 -1 0 1 1 7 0 -9 0 28 
1 33 0 8 1 -1 0 -84 1 89 0 -86 1 10 0 106 
0 -116 1 62 0 -66 0 3 1 6 0 53 1 -5 0 -33 
0 33 1 -16 0 15 0 -3 1 4 0 3 0 -6 0 1 
1 4 0 -4 1 -2 0 2 0 -8 1 5 0 2 0 -20 
1 23 0 -21 0 1 1 18 0 17 0 -15 1 1 0 -65 
1 29 0 36 1 -3 0 -2 0 3 1 1 0 3 1 12 
0 -12 0 4 1 -13 0 34 0 -68 1 -1 0 21 1 -1 
0 13 0 -11 1 4 0 17 1 -15 0 -32 0 1 1 3 
0 0 0 36 1 1 0 -11 0 21 1 -2 0 -1 0 5 
1 2 0 2 1 -6 0 -50 1 0 0 -6 1 -2 0 58 
1 -2 0 2 0 -5 1 -9 0 10 1 -4 0 17 1 -10 
0 -7 1 3 0 -10 0 5 1 3 0 12 1 -9 0 -10 
1 1 0 -2 0 34 1 11 0 -77 1 71 0 28 0 -65 
0 16 1 44 0 -95 0 48 95 184 213 MP stroke
gr

c9
0 sg
%%IncludeResource: font Helvetica
/Helvetica /ISOLatin1Encoding 12.1667 FMSR

 342  332 mt 
(Time \(min\)) s
  60  225 mt  -90 rotate
(Orientation \(degrees\)) s
90 rotate
%%IncludeResource: font Helvetica
/Helvetica /ISOLatin1Encoding 10.1389 FMSR

  92  312 mt 
( ) s
 651   30 mt 
( ) s
1 sg
0 30 148 0 0 -30 499 62 4 MP
PP
-148 0 0 30 148 0 0 -30 499 62 5 MP stroke
0.337963 w
DO
SO
0.506944 w
0 sg
 499   62 mt  647   62 L
 499   32 mt  647   32 L
 499   62 mt  499   32 L
 647   62 mt  647   32 L
 499   62 mt  647   62 L
 499   62 mt  499   32 L
 499   62 mt  647   62 L
 499   32 mt  647   32 L
 499   62 mt  499   32 L
 647   62 mt  647   32 L
 538   45 mt 
(HPF Heading Estimate) s
gs 499 32 149 31 rc
c8
30 0 504 40 2 MP stroke
gr

c8
0 sg
 538   58 mt 
(HPF True Heading) s
gs 499 32 149 31 rc
c9
30 0 504 53 2 MP stroke
gr

c9

end %%Color Dict

eplot
%%EndObject

epage
end

showpage

%%Trailer
%%EOF
