%!PS-Adobe-3.0 EPSF-3.0
%%Creator: MATLAB, The MathWorks, Inc. Version 8.0.0.783 (R2012b). Operating System: Darwin 12.5.0 Darwin Kernel Version 12.5.0: Sun Sep 29 13:33:47 PDT 2013; root:xnu-2050.48.12~1/RELEASE_X86_64 x86_64.
%%Title: figs/predicting_acc_from_acc.eps
%%CreationDate: 10/31/2013  15:47:42
%%DocumentNeededFonts: Helvetica
%%DocumentProcessColors: Cyan Magenta Yellow Black
%%LanguageLevel: 2
%%Pages: 1
%%BoundingBox:   -45   232   661   552
%%EndComments

%%BeginProlog
% MathWorks dictionary
/MathWorks 160 dict begin
% definition operators
/bdef {bind def} bind def
/ldef {load def} bind def
/xdef {exch def} bdef
/xstore {exch store} bdef
% operator abbreviations
/c  /clip ldef
/cc /concat ldef
/cp /closepath ldef
/gr /grestore ldef
/gs /gsave ldef
/mt /moveto ldef
/np /newpath ldef
/cm /currentmatrix ldef
/sm /setmatrix ldef
/rm /rmoveto ldef
/rl /rlineto ldef
/s {show newpath} bdef
/sc {setcmykcolor} bdef
/sr /setrgbcolor ldef
/sg /setgray ldef
/w /setlinewidth ldef
/j /setlinejoin ldef
/cap /setlinecap ldef
/rc {rectclip} bdef
/rf {rectfill} bdef
% page state control
/pgsv () def
/bpage {/pgsv save def} bdef
/epage {pgsv restore} bdef
/bplot /gsave ldef
/eplot {stroke grestore} bdef
% orientation switch
/portraitMode 0 def /landscapeMode 1 def /rotateMode 2 def
% coordinate system mappings
/dpi2point 0 def
% font control
/FontSize 0 def
/FMS {/FontSize xstore findfont [FontSize 0 0 FontSize neg 0 0]
  makefont setfont} bdef
/reencode {exch dup where {pop load} {pop StandardEncoding} ifelse
  exch dup 3 1 roll findfont dup length dict begin
  { 1 index /FID ne {def}{pop pop} ifelse } forall
  /Encoding exch def currentdict end definefont pop} bdef
/isroman {findfont /CharStrings get /Agrave known} bdef
/FMSR {3 1 roll 1 index dup isroman {reencode} {pop pop} ifelse
  exch FMS} bdef
/csm {1 dpi2point div -1 dpi2point div scale neg translate
 dup landscapeMode eq {pop -90 rotate}
  {rotateMode eq {90 rotate} if} ifelse} bdef
% line types: solid, dotted, dashed, dotdash
/SO { [] 0 setdash } bdef
/DO { [.5 dpi2point mul 4 dpi2point mul] 0 setdash } bdef
/DA { [6 dpi2point mul] 0 setdash } bdef
/DD { [.5 dpi2point mul 4 dpi2point mul 6 dpi2point mul 4
  dpi2point mul] 0 setdash } bdef
% macros for lines and objects
/L {lineto stroke} bdef
/MP {3 1 roll moveto 1 sub {rlineto} repeat} bdef
/AP {{rlineto} repeat} bdef
/PDlw -1 def
/W {/PDlw currentlinewidth def setlinewidth} def
/PP {closepath eofill} bdef
/DP {closepath stroke} bdef
/MR {4 -2 roll moveto dup  0 exch rlineto exch 0 rlineto
  neg 0 exch rlineto closepath} bdef
/FR {MR stroke} bdef
/PR {MR fill} bdef
/L1i {{currentfile picstr readhexstring pop} image} bdef
/tMatrix matrix def
/MakeOval {newpath tMatrix currentmatrix pop translate scale
0 0 1 0 360 arc tMatrix setmatrix} bdef
/FO {MakeOval stroke} bdef
/PO {MakeOval fill} bdef
/PD {currentlinewidth 2 div 0 360 arc fill
   PDlw -1 eq not {PDlw w /PDlw -1 def} if} def
/FA {newpath tMatrix currentmatrix pop translate scale
  0 0 1 5 -2 roll arc tMatrix setmatrix stroke} bdef
/PA {newpath tMatrix currentmatrix pop	translate 0 0 moveto scale
  0 0 1 5 -2 roll arc closepath tMatrix setmatrix fill} bdef
/FAn {newpath tMatrix currentmatrix pop translate scale
  0 0 1 5 -2 roll arcn tMatrix setmatrix stroke} bdef
/PAn {newpath tMatrix currentmatrix pop translate 0 0 moveto scale
  0 0 1 5 -2 roll arcn closepath tMatrix setmatrix fill} bdef
/vradius 0 def /hradius 0 def /lry 0 def
/lrx 0 def /uly 0 def /ulx 0 def /rad 0 def
/MRR {/vradius xdef /hradius xdef /lry xdef /lrx xdef /uly xdef
  /ulx xdef newpath tMatrix currentmatrix pop ulx hradius add uly
  vradius add translate hradius vradius scale 0 0 1 180 270 arc 
  tMatrix setmatrix lrx hradius sub uly vradius add translate
  hradius vradius scale 0 0 1 270 360 arc tMatrix setmatrix
  lrx hradius sub lry vradius sub translate hradius vradius scale
  0 0 1 0 90 arc tMatrix setmatrix ulx hradius add lry vradius sub
  translate hradius vradius scale 0 0 1 90 180 arc tMatrix setmatrix
  closepath} bdef
/FRR {MRR stroke } bdef
/PRR {MRR fill } bdef
/MlrRR {/lry xdef /lrx xdef /uly xdef /ulx xdef /rad lry uly sub 2 div def
  newpath tMatrix currentmatrix pop ulx rad add uly rad add translate
  rad rad scale 0 0 1 90 270 arc tMatrix setmatrix lrx rad sub lry rad
  sub translate rad rad scale 0 0 1 270 90 arc tMatrix setmatrix
  closepath} bdef
/FlrRR {MlrRR stroke } bdef
/PlrRR {MlrRR fill } bdef
/MtbRR {/lry xdef /lrx xdef /uly xdef /ulx xdef /rad lrx ulx sub 2 div def
  newpath tMatrix currentmatrix pop ulx rad add uly rad add translate
  rad rad scale 0 0 1 180 360 arc tMatrix setmatrix lrx rad sub lry rad
  sub translate rad rad scale 0 0 1 0 180 arc tMatrix setmatrix
  closepath} bdef
/FtbRR {MtbRR stroke } bdef
/PtbRR {MtbRR fill } bdef
/stri 6 array def /dtri 6 array def
/smat 6 array def /dmat 6 array def
/tmat1 6 array def /tmat2 6 array def /dif 3 array def
/asub {/ind2 exch def /ind1 exch def dup dup
  ind1 get exch ind2 get sub exch } bdef
/tri_to_matrix {
  2 0 asub 3 1 asub 4 0 asub 5 1 asub
  dup 0 get exch 1 get 7 -1 roll astore } bdef
/compute_transform {
  dmat dtri tri_to_matrix tmat1 invertmatrix 
  smat stri tri_to_matrix tmat2 concatmatrix } bdef
/ds {stri astore pop} bdef
/dt {dtri astore pop} bdef
/db {2 copy /cols xdef /rows xdef mul dup 3 mul string
  currentfile 
  3 index 0 eq {/ASCIIHexDecode filter}
  {/ASCII85Decode filter 3 index 2 eq {/RunLengthDecode filter} if }
  ifelse exch readstring pop
  dup 0 3 index getinterval /rbmap xdef
  dup 2 index dup getinterval /gbmap xdef
  1 index dup 2 mul exch getinterval /bbmap xdef pop pop}bdef
/it {gs np dtri aload pop moveto lineto lineto cp c
  cols rows 8 compute_transform 
  rbmap gbmap bbmap true 3 colorimage gr}bdef
/il {newpath moveto lineto stroke}bdef
currentdict end def
%%EndProlog

%%BeginSetup
MathWorks begin

0 cap

end
%%EndSetup

%%Page: 1 1
%%BeginPageSetup
%%PageBoundingBox:   -45   232   661   552
MathWorks begin
bpage
%%EndPageSetup

%%BeginObject: obj1
bplot

/dpi2point 1.01389 def
portraitMode -0121 0573 csm

   76    14   716   324 rc
85 dict begin %Colortable dictionary
/c0 { 0.000000 0.000000 0.000000 sr} bdef
/c1 { 1.000000 1.000000 1.000000 sr} bdef
/c2 { 0.900000 0.000000 0.000000 sr} bdef
/c3 { 0.000000 0.820000 0.000000 sr} bdef
/c4 { 0.000000 0.000000 0.800000 sr} bdef
/c5 { 0.910000 0.820000 0.320000 sr} bdef
/c6 { 1.000000 0.260000 0.820000 sr} bdef
/c7 { 0.000000 0.820000 0.820000 sr} bdef
c0
1 j
1 sg
   0    0  864  347 rf
0.506944 w
0 282 669 0 0 -282 112 308 4 MP
PP
-669 0 0 282 669 0 0 -282 112 308 5 MP stroke
0.337963 w
DO
0 sg
 112  308 mt  112   26 L
 112   26 mt  112   26 L
 195  308 mt  195   26 L
 195   26 mt  195   26 L
 279  308 mt  279   26 L
 279   26 mt  279   26 L
 362  308 mt  362   26 L
 362   26 mt  362   26 L
 446  308 mt  446   26 L
 446   26 mt  446   26 L
 530  308 mt  530   26 L
 530   26 mt  530   26 L
 613  308 mt  613   26 L
 613   26 mt  613   26 L
 697  308 mt  697   26 L
 697   26 mt  697   26 L
 781  308 mt  781   26 L
 781   26 mt  781   26 L
 112  308 mt  781  308 L
 781  308 mt  781  308 L
 112  276 mt  781  276 L
 781  276 mt  781  276 L
 112  245 mt  781  245 L
 781  245 mt  781  245 L
 112  214 mt  781  214 L
 781  214 mt  781  214 L
 112  182 mt  781  182 L
 781  182 mt  781  182 L
 112  151 mt  781  151 L
 781  151 mt  781  151 L
 112  120 mt  781  120 L
 781  120 mt  781  120 L
 112   88 mt  781   88 L
 781   88 mt  781   88 L
 112   57 mt  781   57 L
 781   57 mt  781   57 L
 112   26 mt  781   26 L
 781   26 mt  781   26 L
SO
0.506944 w
 112  308 mt  781  308 L
 112   26 mt  781   26 L
 112  308 mt  112   26 L
 781  308 mt  781   26 L
 112  308 mt  781  308 L
 112  308 mt  112   26 L
 112  308 mt  112  301 L
 112   26 mt  112   32 L
%%IncludeResource: font Helvetica
/Helvetica /ISOLatin1Encoding 10.1389 FMSR

 110  319 mt 
(0) s
 195  308 mt  195  301 L
 195   26 mt  195   32 L
 193  319 mt 
(2) s
 279  308 mt  279  301 L
 279   26 mt  279   32 L
 277  319 mt 
(4) s
 362  308 mt  362  301 L
 362   26 mt  362   32 L
 360  319 mt 
(6) s
 446  308 mt  446  301 L
 446   26 mt  446   32 L
 444  319 mt 
(8) s
 530  308 mt  530  301 L
 530   26 mt  530   32 L
 525  319 mt 
(10) s
 613  308 mt  613  301 L
 613   26 mt  613   32 L
 608  319 mt 
(12) s
 697  308 mt  697  301 L
 697   26 mt  697   32 L
 692  319 mt 
(14) s
 781  308 mt  781  301 L
 781   26 mt  781   32 L
 776  319 mt 
(16) s
 112  308 mt  118  308 L
 781  308 mt  774  308 L
  98  311 mt 
(-8) s
 112  276 mt  118  276 L
 781  276 mt  774  276 L
  98  279 mt 
(-6) s
 112  245 mt  118  245 L
 781  245 mt  774  245 L
  98  248 mt 
(-4) s
 112  214 mt  118  214 L
 781  214 mt  774  214 L
  98  217 mt 
(-2) s
 112  182 mt  118  182 L
 781  182 mt  774  182 L
 104  185 mt 
(0) s
 112  151 mt  118  151 L
 781  151 mt  774  151 L
 104  154 mt 
(2) s
 112  120 mt  118  120 L
 781  120 mt  774  120 L
 104  123 mt 
(4) s
 112   88 mt  118   88 L
 781   88 mt  774   88 L
 104   91 mt 
(6) s
 112   57 mt  118   57 L
 781   57 mt  774   57 L
 104   60 mt 
(8) s
 112   26 mt  118   26 L
 781   26 mt  774   26 L
  98   29 mt 
(10) s
 112  308 mt  781  308 L
 112   26 mt  781   26 L
 112  308 mt  112   26 L
 781  308 mt  781   26 L
gs 112 26 670 283 rc
/c8 { 1.000000 0.000000 0.000000 sr} bdef
c8
0 6 1 -3 1 -5 1 -2 0 3 1 -13 1 -2 0 -9 
1 5 1 1 0 -19 1 -8 1 2 1 11 0 10 1 -1 
1 -3 0 4 1 -2 1 2 0 12 1 -5 1 2 1 5 
0 2 1 5 1 15 0 2 1 -49 1 -3 0 8 1 0 
1 11 0 -6 1 0 1 2 1 6 0 -15 1 17 1 -11 
0 27 1 -26 1 -7 0 35 1 -21 1 12 1 -1 0 3 
1 -6 1 -2 0 4 1 14 1 -2 0 -16 1 -5 1 -3 
1 -1 0 -7 1 -9 1 -3 0 4 1 12 1 3 0 6 
1 21 1 -25 0 7 1 -1 1 0 1 -1 0 -8 1 12 
1 4 0 -2 1 -10 1 -2 0 8 1 -1 1 -1 1 2 
0 1 1 -5 1 -1 0 3 1 -7 1 1 0 1 1 3 
1 3 1 -4 0 7 1 0 1 8 0 -14 1 10 1 -11 
0 -25 1 11 1 0 0 7 1 1 1 9 1 16 0 -11 
1 -9 1 -5 0 21 1 -15 1 -3 0 -3 1 0 1 0 
1 2 0 3 1 0 1 1 0 2 1 0 1 -4 0 -5 
1 5 1 17 1 15 0 -21 1 0 1 -8 1 0 1 -1 
1 0 1 -1 1 0 1 0 1 0 1 1 1 0 1 1 
1 -1 1 0 1 0 1 0 1 0 1 1 0 -1 1 1 
1 0 1 0 1 0 1 0 1 0 1 0 1 -1 1 0 
1 0 1 0 1 1 1 0 1 0 1 -1 1 1 1 -1 
1 0 1 1 1 -1 1 1 0 -1 1 1 1 -1 1 0 
1 1 1 0 1 1 1 -1 1 1 1 0 1 2 1 -1 
0 1 1 1 1 2 1 -2 1 18 1 -4 0 -19 1 -6 
1 -7 1 1 1 7 0 -3 1 -10 1 15 1 17 0 -11 
1 4 1 -17 0 -11 1 15 1 -2 0 8 1 -8 1 23 
0 -13 1 -3 1 16 1 -29 0 7 1 2 1 2 0 23 
1 -24 1 30 0 -25 1 -5 1 11 1 -4 0 -7 1 1 
1 3 0 4 1 -7 1 8 0 1 1 -2 1 -3 1 -6 
0 1 1 -3 1 -2 0 8 1 -5 1 7 0 -2 1 5 
1 -5 0 3 1 7 1 -12 1 -5 0 5 1 4 1 -3 
0 9 1 -4 1 1 0 -1 1 -2 1 4 1 -6 0 -6 
1 11 1 -17 0 22 1 -10 1 -2 0 11 1 -12 1 8 
1 -2 0 6 1 -6 1 -5 0 3 1 5 1 -8 1 14 
1 -6 0 -2 1 2 1 -1 1 -3 0 1 1 2 1 -12 
0 8 1 -6 1 -7 0 7 1 5 1 0 1 -7 0 3 
1 18 1 -5 0 -3 1 -8 1 -3 1 11 1 -1 1 -2 
0 3 1 -14 1 6 0 10 1 13 1 -5 0 -22 1 -6 
1 13 1 -4 1 -10 514 197 300 MP stroke
1 21 0 -7 1 -12 1 9 0 5 1 -3 1 -3 0 -7 
1 18 1 0 1 9 0 -15 1 1 1 -20 0 5 1 -1 
1 15 0 4 1 9 1 -15 1 1 0 -5 1 3 1 -10 
0 10 1 2 1 9 0 2 1 -4 1 7 0 -7 1 -7 
1 -8 1 -2 1 14 1 0 1 -4 1 10 0 -8 1 3 
1 3 1 -6 0 3 1 -11 1 0 0 14 1 -6 1 0 
0 -5 1 -4 1 7 1 1 0 -6 1 1 1 -12 0 8 
1 3 1 1 0 3 1 6 1 1 1 -5 1 5 1 -1 
0 -7 1 1 1 3 0 -4 1 -9 1 4 0 5 1 2 
1 1 1 0 0 4 1 1 1 2 0 -1 1 -11 1 5 
0 2 1 7 1 0 1 -22 0 10 1 15 1 2 0 -13 
1 0 1 -6 0 3 1 -2 1 0 0 4 1 -9 1 5 
1 -4 0 -7 1 8 1 15 1 0 1 -1 0 -13 1 8 
1 -10 1 8 0 3 1 0 1 2 0 -1 1 6 1 0 
0 -8 1 -11 1 15 1 2 0 -15 1 17 1 -8 0 -5 
1 -10 1 5 0 12 1 5 1 -8 0 -13 1 6 1 -7 
1 15 0 -3 1 2 1 -5 0 1 1 2 1 -5 0 2 
1 1 1 2 1 -1 0 5 1 4 1 0 -1 0 2 0 
1 -2 0 -6 1 2 1 2 1 -12 0 -6 1 20 1 -8 
0 6 1 0 1 0 0 -3 1 1 1 -3 0 -2 1 -7 
1 11 1 -3 0 5 1 -1 1 5 1 -3 1 -8 1 11 
1 -8 1 -10 0 -1 1 8 1 11 0 18 1 -9 1 -17 
0 -4 1 -1 1 -2 1 -2 1 6 1 4 0 3 1 2 
1 -6 0 1 1 4 1 -1 1 -5 1 -1 1 7 0 -8 
1 6 1 2 0 -9 1 -4 1 4 0 4 1 -1 1 1 
1 3 0 1 1 3 1 -1 0 12 1 1 1 2 0 -6 
1 -7 1 -6 0 -10 1 5 1 -6 1 4 0 3 1 10 
1 -19 0 2 1 -1 1 1 0 13 1 9 1 -6 1 6 
1 -5 1 -11 0 -4 1 15 1 3 0 -22 1 2 1 7 
1 4 0 -10 1 -6 1 14 0 10 1 1 1 -6 0 2 
1 0 1 -4 0 -3 1 -3 1 5 1 -3 0 1 1 6 
1 -3 0 5 1 0 1 1 0 -2 1 -7 1 -5 1 -5 
0 1 1 19 1 3 0 10 1 -5 1 -12 1 -1 1 -9 
1 9 0 -23 1 1 1 16 0 -5 1 -1 1 9 1 4 
1 3 0 -1 1 -3 1 7 1 -4 0 -12 1 19 1 -13 
0 -8 1 4 1 5 0 4 1 -4 1 5 1 -2 0 -4 
1 1 1 -8 0 -5 1 14 1 -10 0 10 1 -7 1 7 
1 -1 0 2 1 -6 298 185 300 MP stroke
1 3 0 -1 1 5 1 -6 0 3 1 -3 1 5 0 12 
1 -10 1 4 1 -3 0 -15 1 4 1 15 0 -9 1 -3 
1 -20 0 -7 1 23 1 2 1 10 0 4 1 -1 1 10 
0 14 1 -15 1 -16 0 -21 1 -26 1 26 1 22 0 -12 
1 9 1 2 0 -2 1 11 1 -21 0 -19 1 24 1 12 
0 1 1 4 1 13 1 -24 0 -11 1 3 1 -6 0 -6 
1 19 1 8 0 -4 1 -7 1 -8 1 22 0 6 1 -4 
1 1 0 -3 1 7 1 -4 0 -11 1 16 1 -2 1 -18 
0 -5 1 0 1 -1 0 -14 1 6 1 17 0 1 1 -1 
1 1 0 -4 1 -23 1 -3 1 17 0 3 1 -4 1 11 
0 -10 1 1 1 9 0 5 1 -2 1 2 1 2 0 -19 
1 11 1 11 0 5 1 8 1 -1 0 -36 1 -13 1 14 
1 15 0 -8 1 12 1 -8 0 -9 1 14 1 -1 0 -4 
1 9 1 12 0 6 1 -7 1 2 1 -15 0 -6 1 0 
1 -13 0 11 1 -16 1 -4 0 3 1 14 1 5 1 9 
0 -7 1 -2 1 -5 0 15 1 20 1 -20 0 1 1 2 
1 -3 1 -4 0 11 1 -10 1 -16 0 6 1 8 1 2 
0 14 1 -30 1 8 0 -11 1 3 1 -3 1 1 1 1 
1 23 0 -13 1 -7 1 15 0 1 1 -10 1 2 1 8 
0 -13 1 11 1 -5 0 18 1 13 1 -28 0 1 1 -9 
1 -6 1 26 0 -23 1 -3 1 13 0 -7 1 0 1 7 
0 10 1 -10 1 -2 0 -8 1 4 1 -8 1 4 0 -4 
1 2 1 10 0 10 1 -5 1 -2 0 3 1 -13 1 4 
1 1 0 4 1 -1 1 0 0 3 1 -7 1 4 1 -2 
1 -1 0 -3 1 3 1 0 1 2 0 8 1 -3 1 2 
0 -18 1 -4 1 7 0 8 1 -1 1 1 1 -5 0 -9 
1 4 1 23 0 -3 1 -7 1 -7 0 -6 1 9 1 -1 
1 4 0 6 1 -10 1 5 0 -7 1 -1 1 2 0 1 
1 -1 1 4 0 3 1 -6 1 9 1 -4 0 2 1 5 
1 8 0 3 1 -16 1 -8 0 -23 1 6 1 1 1 -11 
0 38 1 -6 1 2 0 -2 1 21 1 -16 0 -8 1 -9 
1 -6 1 25 0 17 1 -23 1 2 0 2 1 4 1 -17 
0 -3 1 0 1 6 0 -3 1 -1 1 -13 0 17 1 -7 
1 -5 0 10 112 186 267 MP stroke
/c9 { 0.000000 0.000000 1.000000 sr} bdef
c9
0 -8 1 10 1 -11 1 30 0 -11 1 -20 1 -14 0 30 
1 -44 1 28 0 19 1 -51 1 16 1 -10 0 25 1 5 
1 4 0 -7 1 17 1 -6 0 6 1 7 1 2 1 -9 
0 11 1 2 1 -8 0 -11 1 11 1 -67 0 42 1 -7 
1 4 0 10 1 -9 1 9 1 5 0 3 1 -1 1 -15 
0 65 1 -46 1 -9 0 2 1 31 1 -29 1 12 0 -2 
1 -13 1 -1 1 -5 1 -7 0 -1 1 -13 1 -7 1 -7 
0 9 1 -5 1 -4 0 -3 1 23 1 7 0 9 1 6 
1 -6 0 1 1 -2 1 10 1 -5 0 -1 1 3 1 5 
1 -3 1 -6 0 -2 1 16 1 4 1 -27 0 25 1 -17 
1 13 0 -9 1 4 1 -10 1 34 1 -2 1 -2 0 -17 
1 -15 1 79 0 -109 1 135 1 -127 0 48 1 -74 1 36 
0 -2 1 -23 1 21 1 94 0 -74 1 22 1 -30 0 -17 
1 67 1 -55 0 37 1 -46 1 11 1 27 0 54 1 -77 
1 32 0 -29 1 38 1 -28 0 5 1 23 1 -17 1 11 
0 4 1 -12 1 -15 0 -2 1 1 1 -1 0 1 1 -1 
1 1 1 0 1 -1 1 1 0 -1 1 1 1 0 1 -1 
1 1 1 0 1 0 1 0 -1 0 2 0 1 0 1 -1 
1 1 0 -1 1 1 1 0 1 0 1 0 1 -1 1 1 
1 0 1 0 1 -1 1 1 1 0 1 -1 1 1 1 0 
1 0 1 0 1 0 1 0 1 0 1 0 1 0 1 0 
1 0 1 0 1 -1 0 1 1 -5 1 8 1 -5 0 3 
1 -2 1 2 0 -2 1 -4 1 5 0 -2 1 2 1 7 
1 -11 0 -7 1 1 1 -10 0 -22 1 20 1 -23 0 10 
1 20 1 -31 1 35 0 -10 1 15 1 -10 0 41 1 -89 
1 68 0 -18 1 9 1 -5 0 13 1 6 1 -24 1 44 
0 -49 1 42 1 -49 0 43 1 -25 1 14 0 -3 1 -3 
1 -2 1 12 0 -12 1 -17 1 30 0 70 1 -194 1 117 
0 2 1 5 1 -36 1 37 0 -40 1 13 1 40 0 -17 
1 -7 1 -9 0 18 1 33 1 -68 0 1 1 27 1 -22 
1 32 0 -27 1 10 1 28 0 -17 1 19 1 -24 0 -23 
1 24 1 17 1 -28 0 4 1 89 1 -176 0 77 1 16 
1 43 0 -96 1 86 1 -19 1 -35 0 20 1 13 1 -20 
0 1 1 10 1 1 0 -14 1 17 1 -7 0 23 1 -45 
1 15 1 -1 0 18 1 -35 1 34 0 -16 1 -1 1 1 
0 3 1 11 1 -18 1 14 1 -7 1 13 1 -12 1 7 
0 -14 1 13 1 6 1 -14 0 6 1 6 1 -8 0 -6 
1 23 1 -19 0 4 518 180 300 MP stroke
1 -7 1 -7 0 11 1 6 1 -11 1 9 0 -5 1 -3 
1 0 0 10 1 -3 1 8 0 -8 1 4 1 1 1 -2 
0 11 1 -26 1 -1 0 7 1 -6 1 -3 0 12 1 5 
1 4 1 -11 0 6 1 -8 1 7 0 -5 1 -5 1 25 
0 -15 1 -1 1 2 0 11 1 -1 1 -41 1 13 0 21 
1 -17 1 2 0 22 1 7 1 -42 0 35 1 -18 1 10 
1 -7 0 -7 1 14 1 0 0 -26 1 38 1 -23 0 -5 
1 16 1 -9 1 8 0 2 1 -7 1 -3 0 -17 1 56 
1 -37 0 17 1 -10 1 -8 0 14 1 -11 1 12 1 -8 
1 -2 1 4 0 -13 1 30 1 -32 0 5 1 6 1 15 
1 -7 0 -11 1 20 1 -16 0 3 1 -12 1 18 0 -20 
1 19 1 -3 1 7 0 -40 1 40 1 -1 0 -6 1 -39 
1 17 0 -3 1 19 1 -24 0 21 1 7 1 -44 1 32 
0 -8 1 7 1 -2 0 1 1 6 1 19 0 -28 1 16 
1 -5 1 -2 0 11 1 0 1 -13 0 14 1 -9 1 6 
0 1 1 -15 1 7 1 4 0 -11 1 -1 1 8 0 -9 
1 -4 1 4 0 -2 1 8 1 8 0 -8 1 -8 1 6 
1 -1 0 5 1 2 1 -3 0 8 1 1 1 -2 0 -2 
1 8 1 -11 1 4 0 -1 1 8 1 -7 0 2 1 1 
1 -1 0 -6 1 -1 1 -5 1 -1 0 -4 1 8 1 5 
1 -3 1 6 0 -4 1 8 1 -14 0 6 1 -7 1 8 
1 1 0 3 1 -2 1 -3 0 -5 1 11 1 -9 0 -9 
1 0 1 18 1 -17 0 2 1 -11 1 26 0 -11 1 13 
1 -10 0 -5 1 -5 1 -8 0 15 1 -6 1 18 1 2 
0 -7 1 4 1 -1 0 -4 1 -14 1 19 1 -2 1 -1 
1 4 0 -7 1 4 1 0 0 2 1 -3 1 -4 0 10 
1 0 1 2 1 -7 0 9 1 1 1 -6 0 11 1 -14 
1 7 0 -1 1 -8 1 -10 0 -3 1 2 1 -8 1 -7 
0 13 1 3 1 8 0 -9 1 2 1 -8 0 21 1 -6 
1 6 1 -1 0 -3 1 7 1 -14 0 -5 1 -9 1 22 
0 -14 1 0 1 -1 1 8 0 -3 1 3 1 0 0 9 
1 1 1 3 0 -5 1 1 1 -6 0 3 1 -3 1 -1 
1 6 0 2 1 0 1 -4 0 -2 1 5 1 1 0 3 
1 -8 1 -12 1 -4 0 5 1 3 1 8 0 5 1 -4 
1 -3 0 -10 1 -10 1 4 1 7 0 -12 1 -6 1 8 
1 10 1 1 0 13 1 -5 1 3 0 -1 1 1 1 0 
1 -2 0 -8 1 0 1 -15 0 26 1 -12 1 -2 0 12 
1 4 1 0 1 -6 306 181 300 MP stroke
0 3 1 -1 1 -4 0 -5 1 -4 1 15 0 2 1 3 
1 -8 1 3 0 27 1 -34 1 8 0 -6 1 33 1 -52 
0 56 1 -52 1 53 0 -53 1 51 1 -37 1 11 0 -8 
1 -11 1 13 0 -6 1 -2 1 7 0 -18 1 6 1 -3 
1 59 0 -67 1 75 1 -63 0 37 1 -6 1 -28 0 5 
1 -25 1 -22 1 74 0 -39 1 37 1 -27 0 12 1 9 
1 -10 0 -27 1 -74 1 241 0 -170 1 59 1 -41 1 14 
0 -25 1 11 1 -2 0 -1 1 16 1 -6 0 13 1 -18 
1 2 1 2 0 12 1 7 1 -24 1 -7 1 10 0 3 
1 -35 1 60 1 -104 0 70 1 -16 1 1 0 -17 1 23 
1 -22 0 35 1 2 1 1 0 -15 1 -1 1 51 1 -96 
0 145 1 -137 1 128 0 -128 1 98 1 -44 0 -3 1 -2 
1 -7 1 -7 0 47 1 -77 1 115 0 -90 1 10 1 47 
0 -128 1 105 1 -55 1 44 0 -15 1 -6 1 18 0 -2 
1 2 1 5 0 -22 1 -9 1 65 0 -26 1 -11 1 14 
1 -28 0 20 1 -18 1 -3 0 -1 1 1 1 -8 0 -11 
1 36 1 -39 1 67 0 -33 1 6 1 -21 0 10 1 38 
1 -30 0 -4 1 8 1 2 1 3 0 -10 1 10 1 -12 
0 -1 1 -9 1 3 0 5 1 0 1 19 0 -20 1 3 
1 -6 1 8 0 11 1 3 1 -16 0 5 1 1 1 -7 
0 4 1 0 1 5 1 -13 0 19 1 1 1 -16 0 -7 
1 50 1 -48 0 18 1 -1 1 -28 1 14 0 12 1 -5 
1 1 0 8 1 -20 1 -5 0 19 1 20 1 -32 0 10 
1 -15 1 20 1 -26 0 -5 1 13 1 4 0 16 1 -15 
1 11 0 4 1 -13 1 0 1 9 0 3 1 -18 1 24 
0 -27 1 23 1 -10 0 -8 1 9 1 2 0 2 1 -12 
1 17 1 -16 0 13 1 -5 1 -9 0 19 1 -3 1 2 
0 -63 1 76 1 -40 1 24 0 -29 1 15 1 3 0 -16 
1 33 1 -14 0 -7 1 9 1 -9 1 -17 0 36 1 -17 
1 5 0 -10 1 52 1 -70 0 79 1 -78 1 95 0 -80 
1 30 1 29 1 -67 0 91 1 -69 1 9 0 17 1 -29 
1 -4 0 -4 1 -12 1 9 1 -7 0 36 1 -43 1 72 
0 -20 1 -33 1 29 0 -18 1 -11 1 0 1 28 0 -17 
1 8 1 -14 0 2 1 -22 1 29 0 -7 1 -12 1 1 
0 2 1 0 1 -50 0 -8 1 107 1 -3 0 36 112 108 280 MP stroke
gr

c9
0 sg
%%IncludeResource: font Helvetica
/Helvetica /ISOLatin1Encoding 12.1667 FMSR

 416  333 mt 
(Time \(min\)) s
  90  235 mt  -90 rotate
(Change in Velocity \(mps\)) s
90 rotate
%%IncludeResource: font Helvetica
/Helvetica /ISOLatin1Encoding 10.1389 FMSR

 111  313 mt 
( ) s
 781   30 mt 
( ) s
1 sg
0 30 143 0 0 -30 634 62 4 MP
PP
-143 0 0 30 143 0 0 -30 634 62 5 MP stroke
0.337963 w
DO
SO
0.506944 w
0 sg
 634   62 mt  777   62 L
 634   32 mt  777   32 L
 634   62 mt  634   32 L
 777   62 mt  777   32 L
 634   62 mt  777   62 L
 634   62 mt  634   32 L
 634   62 mt  777   62 L
 634   32 mt  777   32 L
 634   62 mt  634   32 L
 777   62 mt  777   32 L
 672   45 mt 
(Predicted change Acc) s
gs 634 32 144 31 rc
c8
30 0 639 40 2 MP stroke
gr

c8
0 sg
 672   58 mt 
(True Acc from GPS) s
gs 634 32 144 31 rc
c9
30 0 639 53 2 MP stroke
gr

c9

end %%Color Dict

eplot
%%EndObject

epage
end

showpage

%%Trailer
%%EOF
