%!PS-Adobe-3.0 EPSF-3.0
%%Creator: MATLAB, The MathWorks, Inc. Version 8.0.0.783 (R2012b). Operating System: Darwin 12.5.0 Darwin Kernel Version 12.5.0: Sun Sep 29 13:33:47 PDT 2013; root:xnu-2050.48.12~1/RELEASE_X86_64 x86_64.
%%Title: figs/speed_PDF.eps
%%CreationDate: 11/22/2013  17:02:48
%%DocumentNeededFonts: Helvetica
%%DocumentProcessColors: Cyan Magenta Yellow Black
%%LanguageLevel: 2
%%Pages: 1
%%BoundingBox:    46   232   547   552
%%EndComments

%%BeginProlog
% MathWorks dictionary
/MathWorks 160 dict begin
% definition operators
/bdef {bind def} bind def
/ldef {load def} bind def
/xdef {exch def} bdef
/xstore {exch store} bdef
% operator abbreviations
/c  /clip ldef
/cc /concat ldef
/cp /closepath ldef
/gr /grestore ldef
/gs /gsave ldef
/mt /moveto ldef
/np /newpath ldef
/cm /currentmatrix ldef
/sm /setmatrix ldef
/rm /rmoveto ldef
/rl /rlineto ldef
/s {show newpath} bdef
/sc {setcmykcolor} bdef
/sr /setrgbcolor ldef
/sg /setgray ldef
/w /setlinewidth ldef
/j /setlinejoin ldef
/cap /setlinecap ldef
/rc {rectclip} bdef
/rf {rectfill} bdef
% page state control
/pgsv () def
/bpage {/pgsv save def} bdef
/epage {pgsv restore} bdef
/bplot /gsave ldef
/eplot {stroke grestore} bdef
% orientation switch
/portraitMode 0 def /landscapeMode 1 def /rotateMode 2 def
% coordinate system mappings
/dpi2point 0 def
% font control
/FontSize 0 def
/FMS {/FontSize xstore findfont [FontSize 0 0 FontSize neg 0 0]
  makefont setfont} bdef
/reencode {exch dup where {pop load} {pop StandardEncoding} ifelse
  exch dup 3 1 roll findfont dup length dict begin
  { 1 index /FID ne {def}{pop pop} ifelse } forall
  /Encoding exch def currentdict end definefont pop} bdef
/isroman {findfont /CharStrings get /Agrave known} bdef
/FMSR {3 1 roll 1 index dup isroman {reencode} {pop pop} ifelse
  exch FMS} bdef
/csm {1 dpi2point div -1 dpi2point div scale neg translate
 dup landscapeMode eq {pop -90 rotate}
  {rotateMode eq {90 rotate} if} ifelse} bdef
% line types: solid, dotted, dashed, dotdash
/SO { [] 0 setdash } bdef
/DO { [.5 dpi2point mul 4 dpi2point mul] 0 setdash } bdef
/DA { [6 dpi2point mul] 0 setdash } bdef
/DD { [.5 dpi2point mul 4 dpi2point mul 6 dpi2point mul 4
  dpi2point mul] 0 setdash } bdef
% macros for lines and objects
/L {lineto stroke} bdef
/MP {3 1 roll moveto 1 sub {rlineto} repeat} bdef
/AP {{rlineto} repeat} bdef
/PDlw -1 def
/W {/PDlw currentlinewidth def setlinewidth} def
/PP {closepath eofill} bdef
/DP {closepath stroke} bdef
/MR {4 -2 roll moveto dup  0 exch rlineto exch 0 rlineto
  neg 0 exch rlineto closepath} bdef
/FR {MR stroke} bdef
/PR {MR fill} bdef
/L1i {{currentfile picstr readhexstring pop} image} bdef
/tMatrix matrix def
/MakeOval {newpath tMatrix currentmatrix pop translate scale
0 0 1 0 360 arc tMatrix setmatrix} bdef
/FO {MakeOval stroke} bdef
/PO {MakeOval fill} bdef
/PD {currentlinewidth 2 div 0 360 arc fill
   PDlw -1 eq not {PDlw w /PDlw -1 def} if} def
/FA {newpath tMatrix currentmatrix pop translate scale
  0 0 1 5 -2 roll arc tMatrix setmatrix stroke} bdef
/PA {newpath tMatrix currentmatrix pop	translate 0 0 moveto scale
  0 0 1 5 -2 roll arc closepath tMatrix setmatrix fill} bdef
/FAn {newpath tMatrix currentmatrix pop translate scale
  0 0 1 5 -2 roll arcn tMatrix setmatrix stroke} bdef
/PAn {newpath tMatrix currentmatrix pop translate 0 0 moveto scale
  0 0 1 5 -2 roll arcn closepath tMatrix setmatrix fill} bdef
/vradius 0 def /hradius 0 def /lry 0 def
/lrx 0 def /uly 0 def /ulx 0 def /rad 0 def
/MRR {/vradius xdef /hradius xdef /lry xdef /lrx xdef /uly xdef
  /ulx xdef newpath tMatrix currentmatrix pop ulx hradius add uly
  vradius add translate hradius vradius scale 0 0 1 180 270 arc 
  tMatrix setmatrix lrx hradius sub uly vradius add translate
  hradius vradius scale 0 0 1 270 360 arc tMatrix setmatrix
  lrx hradius sub lry vradius sub translate hradius vradius scale
  0 0 1 0 90 arc tMatrix setmatrix ulx hradius add lry vradius sub
  translate hradius vradius scale 0 0 1 90 180 arc tMatrix setmatrix
  closepath} bdef
/FRR {MRR stroke } bdef
/PRR {MRR fill } bdef
/MlrRR {/lry xdef /lrx xdef /uly xdef /ulx xdef /rad lry uly sub 2 div def
  newpath tMatrix currentmatrix pop ulx rad add uly rad add translate
  rad rad scale 0 0 1 90 270 arc tMatrix setmatrix lrx rad sub lry rad
  sub translate rad rad scale 0 0 1 270 90 arc tMatrix setmatrix
  closepath} bdef
/FlrRR {MlrRR stroke } bdef
/PlrRR {MlrRR fill } bdef
/MtbRR {/lry xdef /lrx xdef /uly xdef /ulx xdef /rad lrx ulx sub 2 div def
  newpath tMatrix currentmatrix pop ulx rad add uly rad add translate
  rad rad scale 0 0 1 180 360 arc tMatrix setmatrix lrx rad sub lry rad
  sub translate rad rad scale 0 0 1 0 180 arc tMatrix setmatrix
  closepath} bdef
/FtbRR {MtbRR stroke } bdef
/PtbRR {MtbRR fill } bdef
/stri 6 array def /dtri 6 array def
/smat 6 array def /dmat 6 array def
/tmat1 6 array def /tmat2 6 array def /dif 3 array def
/asub {/ind2 exch def /ind1 exch def dup dup
  ind1 get exch ind2 get sub exch } bdef
/tri_to_matrix {
  2 0 asub 3 1 asub 4 0 asub 5 1 asub
  dup 0 get exch 1 get 7 -1 roll astore } bdef
/compute_transform {
  dmat dtri tri_to_matrix tmat1 invertmatrix 
  smat stri tri_to_matrix tmat2 concatmatrix } bdef
/ds {stri astore pop} bdef
/dt {dtri astore pop} bdef
/db {2 copy /cols xdef /rows xdef mul dup 3 mul string
  currentfile 
  3 index 0 eq {/ASCIIHexDecode filter}
  {/ASCII85Decode filter 3 index 2 eq {/RunLengthDecode filter} if }
  ifelse exch readstring pop
  dup 0 3 index getinterval /rbmap xdef
  dup 2 index dup getinterval /gbmap xdef
  1 index dup 2 mul exch getinterval /bbmap xdef pop pop}bdef
/it {gs np dtri aload pop moveto lineto lineto cp c
  cols rows 8 compute_transform 
  rbmap gbmap bbmap true 3 colorimage gr}bdef
/il {newpath moveto lineto stroke}bdef
currentdict end def
%%EndProlog

%%BeginSetup
MathWorks begin

0 cap

end
%%EndSetup

%%Page: 1 1
%%BeginPageSetup
%%PageBoundingBox:    46   232   547   552
MathWorks begin
bpage
%%EndPageSetup

%%BeginObject: obj1
bplot

/dpi2point 1.01389 def
portraitMode 0022 0573 csm

   25    14   508   324 rc
85 dict begin %Colortable dictionary
/c0 { 0.000000 0.000000 0.000000 sr} bdef
/c1 { 1.000000 1.000000 1.000000 sr} bdef
/c2 { 0.900000 0.000000 0.000000 sr} bdef
/c3 { 0.000000 0.820000 0.000000 sr} bdef
/c4 { 0.000000 0.000000 0.800000 sr} bdef
/c5 { 0.910000 0.820000 0.320000 sr} bdef
/c6 { 1.000000 0.260000 0.820000 sr} bdef
/c7 { 0.000000 0.820000 0.820000 sr} bdef
c0
1 j
1 sg
   0    0  577  347 rf
0.506944 w
0 282 446 0 0 -282 75 308 4 MP
PP
-446 0 0 282 446 0 0 -282 75 308 5 MP stroke
0.337963 w
DO
0 sg
  75  308 mt   75   26 L
  75   26 mt   75   26 L
 164  308 mt  164   26 L
 164   26 mt  164   26 L
 253  308 mt  253   26 L
 253   26 mt  253   26 L
 342  308 mt  342   26 L
 342   26 mt  342   26 L
 431  308 mt  431   26 L
 431   26 mt  431   26 L
 521  308 mt  521   26 L
 521   26 mt  521   26 L
  75  308 mt  521  308 L
 521  308 mt  521  308 L
  75  276 mt  521  276 L
 521  276 mt  521  276 L
  75  245 mt  521  245 L
 521  245 mt  521  245 L
  75  214 mt  521  214 L
 521  214 mt  521  214 L
  75  182 mt  521  182 L
 521  182 mt  521  182 L
  75  151 mt  521  151 L
 521  151 mt  521  151 L
  75  120 mt  521  120 L
 521  120 mt  521  120 L
  75   88 mt  521   88 L
 521   88 mt  521   88 L
  75   57 mt  521   57 L
 521   57 mt  521   57 L
  75   26 mt  521   26 L
 521   26 mt  521   26 L
SO
0.506944 w
  75  308 mt  521  308 L
  75   26 mt  521   26 L
  75  308 mt   75   26 L
 521  308 mt  521   26 L
  75  308 mt  521  308 L
  75  308 mt   75   26 L
  75  308 mt   75  303 L
  75   26 mt   75   30 L
%%IncludeResource: font Helvetica
/Helvetica /ISOLatin1Encoding 10.1389 FMSR

  73  319 mt 
(0) s
 164  308 mt  164  303 L
 164   26 mt  164   30 L
 162  319 mt 
(5) s
 253  308 mt  253  303 L
 253   26 mt  253   30 L
 248  319 mt 
(10) s
 342  308 mt  342  303 L
 342   26 mt  342   30 L
 337  319 mt 
(15) s
 431  308 mt  431  303 L
 431   26 mt  431   30 L
 426  319 mt 
(20) s
 521  308 mt  521  303 L
 521   26 mt  521   30 L
 516  319 mt 
(25) s
  75  308 mt   79  308 L
 521  308 mt  516  308 L
  67  311 mt 
(0) s
  75  276 mt   79  276 L
 521  276 mt  516  276 L
  47  279 mt 
(0.005) s
  75  245 mt   79  245 L
 521  245 mt  516  245 L
  53  248 mt 
(0.01) s
  75  214 mt   79  214 L
 521  214 mt  516  214 L
  47  217 mt 
(0.015) s
  75  182 mt   79  182 L
 521  182 mt  516  182 L
  53  185 mt 
(0.02) s
  75  151 mt   79  151 L
 521  151 mt  516  151 L
  47  154 mt 
(0.025) s
  75  120 mt   79  120 L
 521  120 mt  516  120 L
  53  123 mt 
(0.03) s
  75   88 mt   79   88 L
 521   88 mt  516   88 L
  47   91 mt 
(0.035) s
  75   57 mt   79   57 L
 521   57 mt  516   57 L
  53   60 mt 
(0.04) s
  75   26 mt   79   26 L
 521   26 mt  516   26 L
  47   29 mt 
(0.045) s
  75  308 mt  521  308 L
  75   26 mt  521   26 L
  75  308 mt   75   26 L
 521  308 mt  521   26 L
gs 75 26 447 283 rc
2.02778 w
/c8 { 0.000000 0.000000 1.000000 sr} bdef
c8
8 0 9 8 8 4 8 0 9 3 8 -3 9 -12 8 15 
9 11 8 12 8 -15 9 48 8 -37 9 0 8 52 9 -37 
8 67 8 -19 9 26 8 -48 9 89 8 -30 9 -4 8 45 
9 -4 8 15 8 26 9 15 8 -26 9 15 8 7 9 -22 
8 59 8 -37 9 0 8 8 9 -108 8 15 9 37 8 26 
8 -71 9 26 8 56 9 -56 8 -15 9 8 8 15 8 -30 
9 37 8 48 97 89 51 MP stroke
gr

2.02778 w
c8
gs 87 38 442 281 rc
0 j
0 -6 -6 0 0 6 6 0 94 86 5 MP
DP
0 -6 -6 0 0 6 6 0 102 134 5 MP
DP
0 -6 -6 0 0 6 6 0 111 171 5 MP
DP
0 -6 -6 0 0 6 6 0 119 141 5 MP
DP
0 -6 -6 0 0 6 6 0 127 156 5 MP
DP
0 -6 -6 0 0 6 6 0 136 164 5 MP
DP
0 -6 -6 0 0 6 6 0 144 149 5 MP
DP
0 -6 -6 0 0 6 6 0 153 93 5 MP
DP
0 -6 -6 0 0 6 6 0 161 149 5 MP
DP
0 -6 -6 0 0 6 6 0 170 175 5 MP
DP
0 -6 -6 0 0 6 6 0 178 104 5 MP
DP
0 -6 -6 0 0 6 6 0 186 130 5 MP
DP
0 -6 -6 0 0 6 6 0 195 167 5 MP
DP
0 -6 -6 0 0 6 6 0 203 182 5 MP
DP
0 -6 -6 0 0 6 6 0 212 74 5 MP
DP
0 -6 -6 0 0 6 6 0 220 82 5 MP
DP
0 -6 -6 0 0 6 6 0 229 82 5 MP
DP
0 -6 -6 0 0 6 6 0 237 45 5 MP
DP
0 -6 -6 0 0 6 6 0 245 104 5 MP
DP
0 -6 -6 0 0 6 6 0 254 82 5 MP
DP
0 -6 -6 0 0 6 6 0 262 89 5 MP
DP
0 -6 -6 0 0 6 6 0 271 104 5 MP
DP
0 -6 -6 0 0 6 6 0 279 78 5 MP
DP
0 -6 -6 0 0 6 6 0 288 93 5 MP
DP
0 -6 -6 0 0 6 6 0 296 119 5 MP
DP
0 -6 -6 0 0 6 6 0 304 134 5 MP
DP
0 -6 -6 0 0 6 6 0 313 130 5 MP
DP
0 -6 -6 0 0 6 6 0 321 175 5 MP
DP
0 -6 -6 0 0 6 6 0 330 171 5 MP
DP
0 -6 -6 0 0 6 6 0 338 141 5 MP
DP
0 -6 -6 0 0 6 6 0 347 230 5 MP
DP
0 -6 -6 0 0 6 6 0 355 182 5 MP
DP
0 -6 -6 0 0 6 6 0 364 208 5 MP
DP
0 -6 -6 0 0 6 6 0 372 189 5 MP
DP
0 -6 -6 0 0 6 6 0 380 256 5 MP
DP
0 -6 -6 0 0 6 6 0 389 219 5 MP
DP
0 -6 -6 0 0 6 6 0 397 271 5 MP
DP
0 -6 -6 0 0 6 6 0 406 271 5 MP
DP
0 -6 -6 0 0 6 6 0 414 234 5 MP
DP
0 -6 -6 0 0 6 6 0 423 282 5 MP
DP
0 -6 -6 0 0 6 6 0 431 267 5 MP
DP
0 -6 -6 0 0 6 6 0 439 279 5 MP
DP
0 -6 -6 0 0 6 6 0 448 290 5 MP
DP
0 -6 -6 0 0 6 6 0 456 305 5 MP
DP
0 -6 -6 0 0 6 6 0 465 293 5 MP
DP
0 -6 -6 0 0 6 6 0 473 290 5 MP
DP
0 -6 -6 0 0 6 6 0 482 293 5 MP
DP
0 -6 -6 0 0 6 6 0 490 293 5 MP
DP
0 -6 -6 0 0 6 6 0 498 297 5 MP
DP
0 -6 -6 0 0 6 6 0 507 305 5 MP
DP
0 -6 -6 0 0 6 6 0 515 305 5 MP
DP
gr

gs 75 26 447 283 rc
gr

0 sg
%%IncludeResource: font Helvetica
/Helvetica /ISOLatin1Encoding 12.1667 FMSR

 264  333 mt 
(Speed \(m/s\)) s
  39  196 mt  -90 rotate
(Probability) s
90 rotate
%%IncludeResource: font Helvetica
/Helvetica /ISOLatin1Encoding 10.1389 FMSR

  74  313 mt 
( ) s
 521   30 mt 
( ) s
0.506944 w
1 sg
0 17 175 0 0 -17 342 49 4 MP
PP
-175 0 0 17 175 0 0 -17 342 49 5 MP stroke
0.337963 w
DO
SO
0.506944 w
0 sg
 342   49 mt  517   49 L
 342   32 mt  517   32 L
 342   49 mt  342   32 L
 517   49 mt  517   32 L
 342   49 mt  517   49 L
 342   49 mt  342   32 L
 342   49 mt  517   49 L
 342   32 mt  517   32 L
 342   49 mt  342   32 L
 517   49 mt  517   32 L
 380   45 mt 
(Probability of speeds > 1 m/s) s
gs 342 32 176 18 rc
2.02778 w
c8
30 0 347 40 2 MP stroke
gr

2.02778 w
c8
gs 352 30 21 21 rc
0 j
0 -6 -6 0 0 6 6 0 359 37 5 MP
DP
gr

gs 342 32 176 18 rc
0.506944 w
gr

0.506944 w

end %%Color Dict

eplot
%%EndObject

epage
end

showpage

%%Trailer
%%EOF
