%!PS-Adobe-3.0 EPSF-3.0
%%Creator: MATLAB, The MathWorks, Inc. Version 8.0.0.783 (R2012b). Operating System: Darwin 12.5.0 Darwin Kernel Version 12.5.0: Sun Sep 29 13:33:47 PDT 2013; root:xnu-2050.48.12~1/RELEASE_X86_64 x86_64.
%%Title: figs/turn_estimate.eps
%%CreationDate: 12/03/2013  12:29:16
%%DocumentNeededFonts: Helvetica
%%DocumentProcessColors: Cyan Magenta Yellow Black
%%LanguageLevel: 2
%%Pages: 1
%%BoundingBox:   -55   232   663   552
%%EndComments

%%BeginProlog
% MathWorks dictionary
/MathWorks 160 dict begin
% definition operators
/bdef {bind def} bind def
/ldef {load def} bind def
/xdef {exch def} bdef
/xstore {exch store} bdef
% operator abbreviations
/c  /clip ldef
/cc /concat ldef
/cp /closepath ldef
/gr /grestore ldef
/gs /gsave ldef
/mt /moveto ldef
/np /newpath ldef
/cm /currentmatrix ldef
/sm /setmatrix ldef
/rm /rmoveto ldef
/rl /rlineto ldef
/s {show newpath} bdef
/sc {setcmykcolor} bdef
/sr /setrgbcolor ldef
/sg /setgray ldef
/w /setlinewidth ldef
/j /setlinejoin ldef
/cap /setlinecap ldef
/rc {rectclip} bdef
/rf {rectfill} bdef
% page state control
/pgsv () def
/bpage {/pgsv save def} bdef
/epage {pgsv restore} bdef
/bplot /gsave ldef
/eplot {stroke grestore} bdef
% orientation switch
/portraitMode 0 def /landscapeMode 1 def /rotateMode 2 def
% coordinate system mappings
/dpi2point 0 def
% font control
/FontSize 0 def
/FMS {/FontSize xstore findfont [FontSize 0 0 FontSize neg 0 0]
  makefont setfont} bdef
/reencode {exch dup where {pop load} {pop StandardEncoding} ifelse
  exch dup 3 1 roll findfont dup length dict begin
  { 1 index /FID ne {def}{pop pop} ifelse } forall
  /Encoding exch def currentdict end definefont pop} bdef
/isroman {findfont /CharStrings get /Agrave known} bdef
/FMSR {3 1 roll 1 index dup isroman {reencode} {pop pop} ifelse
  exch FMS} bdef
/csm {1 dpi2point div -1 dpi2point div scale neg translate
 dup landscapeMode eq {pop -90 rotate}
  {rotateMode eq {90 rotate} if} ifelse} bdef
% line types: solid, dotted, dashed, dotdash
/SO { [] 0 setdash } bdef
/DO { [.5 dpi2point mul 4 dpi2point mul] 0 setdash } bdef
/DA { [6 dpi2point mul] 0 setdash } bdef
/DD { [.5 dpi2point mul 4 dpi2point mul 6 dpi2point mul 4
  dpi2point mul] 0 setdash } bdef
% macros for lines and objects
/L {lineto stroke} bdef
/MP {3 1 roll moveto 1 sub {rlineto} repeat} bdef
/AP {{rlineto} repeat} bdef
/PDlw -1 def
/W {/PDlw currentlinewidth def setlinewidth} def
/PP {closepath eofill} bdef
/DP {closepath stroke} bdef
/MR {4 -2 roll moveto dup  0 exch rlineto exch 0 rlineto
  neg 0 exch rlineto closepath} bdef
/FR {MR stroke} bdef
/PR {MR fill} bdef
/L1i {{currentfile picstr readhexstring pop} image} bdef
/tMatrix matrix def
/MakeOval {newpath tMatrix currentmatrix pop translate scale
0 0 1 0 360 arc tMatrix setmatrix} bdef
/FO {MakeOval stroke} bdef
/PO {MakeOval fill} bdef
/PD {currentlinewidth 2 div 0 360 arc fill
   PDlw -1 eq not {PDlw w /PDlw -1 def} if} def
/FA {newpath tMatrix currentmatrix pop translate scale
  0 0 1 5 -2 roll arc tMatrix setmatrix stroke} bdef
/PA {newpath tMatrix currentmatrix pop	translate 0 0 moveto scale
  0 0 1 5 -2 roll arc closepath tMatrix setmatrix fill} bdef
/FAn {newpath tMatrix currentmatrix pop translate scale
  0 0 1 5 -2 roll arcn tMatrix setmatrix stroke} bdef
/PAn {newpath tMatrix currentmatrix pop translate 0 0 moveto scale
  0 0 1 5 -2 roll arcn closepath tMatrix setmatrix fill} bdef
/vradius 0 def /hradius 0 def /lry 0 def
/lrx 0 def /uly 0 def /ulx 0 def /rad 0 def
/MRR {/vradius xdef /hradius xdef /lry xdef /lrx xdef /uly xdef
  /ulx xdef newpath tMatrix currentmatrix pop ulx hradius add uly
  vradius add translate hradius vradius scale 0 0 1 180 270 arc 
  tMatrix setmatrix lrx hradius sub uly vradius add translate
  hradius vradius scale 0 0 1 270 360 arc tMatrix setmatrix
  lrx hradius sub lry vradius sub translate hradius vradius scale
  0 0 1 0 90 arc tMatrix setmatrix ulx hradius add lry vradius sub
  translate hradius vradius scale 0 0 1 90 180 arc tMatrix setmatrix
  closepath} bdef
/FRR {MRR stroke } bdef
/PRR {MRR fill } bdef
/MlrRR {/lry xdef /lrx xdef /uly xdef /ulx xdef /rad lry uly sub 2 div def
  newpath tMatrix currentmatrix pop ulx rad add uly rad add translate
  rad rad scale 0 0 1 90 270 arc tMatrix setmatrix lrx rad sub lry rad
  sub translate rad rad scale 0 0 1 270 90 arc tMatrix setmatrix
  closepath} bdef
/FlrRR {MlrRR stroke } bdef
/PlrRR {MlrRR fill } bdef
/MtbRR {/lry xdef /lrx xdef /uly xdef /ulx xdef /rad lrx ulx sub 2 div def
  newpath tMatrix currentmatrix pop ulx rad add uly rad add translate
  rad rad scale 0 0 1 180 360 arc tMatrix setmatrix lrx rad sub lry rad
  sub translate rad rad scale 0 0 1 0 180 arc tMatrix setmatrix
  closepath} bdef
/FtbRR {MtbRR stroke } bdef
/PtbRR {MtbRR fill } bdef
/stri 6 array def /dtri 6 array def
/smat 6 array def /dmat 6 array def
/tmat1 6 array def /tmat2 6 array def /dif 3 array def
/asub {/ind2 exch def /ind1 exch def dup dup
  ind1 get exch ind2 get sub exch } bdef
/tri_to_matrix {
  2 0 asub 3 1 asub 4 0 asub 5 1 asub
  dup 0 get exch 1 get 7 -1 roll astore } bdef
/compute_transform {
  dmat dtri tri_to_matrix tmat1 invertmatrix 
  smat stri tri_to_matrix tmat2 concatmatrix } bdef
/ds {stri astore pop} bdef
/dt {dtri astore pop} bdef
/db {2 copy /cols xdef /rows xdef mul dup 3 mul string
  currentfile 
  3 index 0 eq {/ASCIIHexDecode filter}
  {/ASCII85Decode filter 3 index 2 eq {/RunLengthDecode filter} if }
  ifelse exch readstring pop
  dup 0 3 index getinterval /rbmap xdef
  dup 2 index dup getinterval /gbmap xdef
  1 index dup 2 mul exch getinterval /bbmap xdef pop pop}bdef
/it {gs np dtri aload pop moveto lineto lineto cp c
  cols rows 8 compute_transform 
  rbmap gbmap bbmap true 3 colorimage gr}bdef
/il {newpath moveto lineto stroke}bdef
currentdict end def
%%EndProlog

%%BeginSetup
MathWorks begin

0 cap

end
%%EndSetup

%%Page: 1 1
%%BeginPageSetup
%%PageBoundingBox:   -55   232   663   552
MathWorks begin
bpage
%%EndPageSetup

%%BeginObject: obj1
bplot

/dpi2point 1.01389 def
portraitMode -0121 0573 csm

   65    14   729   324 rc
85 dict begin %Colortable dictionary
/c0 { 0.000000 0.000000 0.000000 sr} bdef
/c1 { 1.000000 1.000000 1.000000 sr} bdef
/c2 { 0.900000 0.000000 0.000000 sr} bdef
/c3 { 0.000000 0.820000 0.000000 sr} bdef
/c4 { 0.000000 0.000000 0.800000 sr} bdef
/c5 { 0.910000 0.820000 0.320000 sr} bdef
/c6 { 1.000000 0.260000 0.820000 sr} bdef
/c7 { 0.000000 0.820000 0.820000 sr} bdef
c0
1 j
1 sg
   0    0  864  347 rf
0.506944 w
0 282 669 0 0 -282 112 308 4 MP
PP
-669 0 0 282 669 0 0 -282 112 308 5 MP stroke
0.337963 w
DO
0 sg
 112  308 mt  112   26 L
 112   26 mt  112   26 L
 223  308 mt  223   26 L
 223   26 mt  223   26 L
 335  308 mt  335   26 L
 335   26 mt  335   26 L
 446  308 mt  446   26 L
 446   26 mt  446   26 L
 558  308 mt  558   26 L
 558   26 mt  558   26 L
 669  308 mt  669   26 L
 669   26 mt  669   26 L
 781  308 mt  781   26 L
 781   26 mt  781   26 L
 112  308 mt  781  308 L
 781  308 mt  781  308 L
 112  251 mt  781  251 L
 781  251 mt  781  251 L
 112  195 mt  781  195 L
 781  195 mt  781  195 L
 112  138 mt  781  138 L
 781  138 mt  781  138 L
 112   82 mt  781   82 L
 781   82 mt  781   82 L
 112   26 mt  781   26 L
 781   26 mt  781   26 L
SO
0.506944 w
 112  308 mt  781  308 L
 112   26 mt  781   26 L
 112  308 mt  112   26 L
 781  308 mt  781   26 L
 112  308 mt  781  308 L
 112  308 mt  112   26 L
 112  308 mt  112  301 L
 112   26 mt  112   32 L
%%IncludeResource: font Helvetica
/Helvetica /ISOLatin1Encoding 10.1389 FMSR

 110  319 mt 
(0) s
 223  308 mt  223  301 L
 223   26 mt  223   32 L
 215  319 mt 
(100) s
 335  308 mt  335  301 L
 335   26 mt  335   32 L
 327  319 mt 
(200) s
 446  308 mt  446  301 L
 446   26 mt  446   32 L
 438  319 mt 
(300) s
 558  308 mt  558  301 L
 558   26 mt  558   32 L
 550  319 mt 
(400) s
 669  308 mt  669  301 L
 669   26 mt  669   32 L
 661  319 mt 
(500) s
 781  308 mt  781  301 L
 781   26 mt  781   32 L
 773  319 mt 
(600) s
 112  308 mt  118  308 L
 781  308 mt  774  308 L
  87  311 mt 
(-100) s
 112  251 mt  118  251 L
 781  251 mt  774  251 L
  92  254 mt 
(-50) s
 112  195 mt  118  195 L
 781  195 mt  774  195 L
 104  198 mt 
(0) s
 112  138 mt  118  138 L
 781  138 mt  774  138 L
  98  141 mt 
(50) s
 112   82 mt  118   82 L
 781   82 mt  774   82 L
  93   85 mt 
(100) s
 112   26 mt  118   26 L
 781   26 mt  774   26 L
  93   29 mt 
(150) s
 112  308 mt  781  308 L
 112   26 mt  781   26 L
 112  308 mt  112   26 L
 781  308 mt  781   26 L
gs 112 26 670 283 rc
2.02778 w
/c8 { 0.000000 0.000000 1.000000 sr} bdef
c8
0 -1 1 -1 0 -18 1 -1 0 -27 1 -1 0 -23 1 -1 
0 -14 2 -2 0 10 1 1 0 23 1 1 0 27 1 1 
0 20 1 1 0 9 1 1 1 1 1 -1 1 -1 1 0 
1 -1 1 0 1 -1 1 0 1 0 1 0 1 0 1 0 
1 0 1 0 1 0 1 0 1 0 1 0 1 0 1 0 
1 0 1 0 1 -1 1 0 1 0 1 0 1 0 1 1 
1 1 1 0 1 1 1 1 1 1 1 -1 1 -1 1 -1 
1 -1 1 -1 1 -1 1 0 1 1 1 0 1 0 1 0 
0 -1 2 -2 0 -3 1 -1 0 -2 1 -1 0 -3 1 -1 
0 -3 2 -2 0 2 2 2 0 2 1 1 0 3 1 1 
1 3 -1 0 2 -2 0 -4 1 -1 0 -5 1 -1 0 -2 
1 -1 1 0 0 2 1 1 0 4 1 1 0 6 1 1 
0 5 2 2 1 0 1 0 1 0 1 0 1 0 1 0 
1 0 1 0 1 0 1 0 1 0 1 0 1 0 1 0 
1 0 1 0 1 0 1 0 1 0 1 0 1 0 1 0 
1 0 1 0 1 0 1 0 1 0 1 0 1 0 1 0 
1 0 1 0 1 0 1 0 1 0 1 -1 1 -1 1 -1 
0 -2 1 -1 0 -2 1 -1 0 -2 2 -2 1 -1 1 1 
0 2 1 1 0 2 1 1 0 3 2 2 1 1 1 1 
1 -1 1 0 1 0 1 1 1 0 1 0 -1 0 2 -2 
1 -1 0 -1 2 -2 1 -1 1 0 -1 0 2 2 1 0 
-1 0 2 2 0 2 1 1 1 1 1 0 1 0 1 0 
0 -1 2 0 1 0 1 1 1 0 1 0 0 -1 2 -2 
1 0 1 -1 1 1 0 5 1 1 0 7 1 1 0 2 
1 1 1 -1 1 0 1 1 0 -2 1 -1 1 -4 -1 0 
2 2 0 8 1 1 0 9 1 1 0 2 1 1 1 1 
1 -1 1 -1 0 -8 1 -1 0 -7 1 -1 0 -4 1 -1 
0 -2 1 -1 1 -1 0 -2 1 -1 0 -2 1 -1 1 -1 
1 -1 1 0 1 0 1 0 1 1 1 0 -1 0 2 -2 
0 -4 1 -1 0 -6 1 -1 0 -6 1 -1 0 -3 1 -1 
1 -1 -1 0 2 2 0 4 1 1 0 5 1 1 0 5 
1 1 0 4 2 2 0 3 1 1 0 6 1 1 0 5 
1 1 0 5 1 1 0 4 1 1 0 8 1 1 1 6 
-1 0 2 -2 0 -3 1 -1 0 -4 1 -1 0 -7 1 -1 
0 -10 1 -1 0 -8 1 -1 0 -2 1 -1 1 1 0 6 
1 1 0 7 1 1 0 9 1 1 0 8 1 1 0 7 
2 2 0 -3 1 -1 0 -7 1 -1 0 -9 1 -1 0 -9 
1 -1 0 -8 1 -1 492 194 300 MP stroke
0 -5 1 -1 0 -3 2 -2 1 -1 1 1 0 1 2 2 
1 0 1 1 1 -1 0 -3 2 0 0 16 1 1 0 39 
1 1 0 31 1 1 0 22 1 1 0 16 1 1 0 3 
0 -2 1 -1 0 -25 1 -1 0 -35 1 -1 0 -26 1 -1 
0 -17 1 -1 0 -9 2 -2 1 -1 1 0 -1 0 2 0 
1 0 1 0 0 1 2 2 0 2 1 1 0 2 1 1 
0 2 2 2 1 1 1 1 1 0 1 0 1 0 1 0 
1 -1 0 -2 2 -2 0 -2 1 -1 0 -2 1 -1 0 -1 
1 -1 1 -1 1 0 1 0 1 0 1 0 1 -1 1 0 
1 0 1 -1 1 0 1 0 1 1 1 0 1 0 1 1 
1 -1 1 0 1 0 1 -1 1 0 1 0 1 0 1 0 
-1 0 2 -2 1 -1 1 0 0 2 1 1 0 5 1 1 
0 7 1 1 0 7 2 0 0 -5 1 -1 0 -8 1 -1 
0 -9 1 -1 0 -7 1 -1 0 -2 1 -1 0 2 1 1 
0 5 1 1 0 3 1 1 0 2 1 1 1 0 1 0 
1 0 1 0 1 0 1 0 1 0 1 0 1 0 1 0 
1 0 1 0 1 0 1 0 1 0 1 0 1 0 1 0 
1 0 1 0 1 0 1 0 1 0 1 0 1 0 1 0 
1 0 1 0 1 0 1 0 1 0 1 0 1 0 1 0 
1 0 1 0 1 0 1 0 1 0 1 0 1 0 1 0 
1 0 1 0 1 1 1 0 1 0 1 0 1 0 1 -1 
1 0 1 0 1 0 1 0 1 -1 1 0 1 0 1 0 
1 1 1 0 1 0 0 -1 2 -2 0 -4 1 -1 0 -2 
1 -1 0 -1 0 4 1 1 0 14 1 1 0 18 1 1 
0 16 1 1 0 12 1 1 0 2 1 1 0 -8 1 -1 
0 -15 1 -1 0 -16 1 -1 0 -12 1 -1 0 -3 1 -1 
1 -1 1 0 1 0 1 0 1 0 1 0 1 0 1 0 
1 -1 1 0 1 -1 0 1 2 2 1 1 1 1 1 0 
1 0 1 -1 1 0 1 -1 1 -1 1 0 1 0 1 -1 
1 0 1 1 1 0 1 0 1 0 1 0 1 0 1 0 
1 0 1 0 1 0 1 0 1 0 1 0 1 0 1 0 
1 0 1 0 1 0 1 0 1 0 1 0 1 0 1 0 
1 0 1 0 1 0 1 0 1 0 1 0 1 0 1 0 
1 0 1 0 1 0 1 0 1 0 1 0 1 0 1 0 
1 0 1 0 1 0 1 0 1 0 1 0 1 0 1 0 
1 0 1 0 1 0 1 0 1 0 1 0 1 0 1 0 
1 0 1 0 1 0 1 0 1 0 1 0 1 0 1 0 
1 0 1 0 1 0 238 195 300 MP stroke
1 0 1 1 0 1 2 2 0 4 1 1 0 3 1 1 
0 5 1 1 0 4 1 1 0 4 1 1 0 3 2 2 
0 2 2 2 1 1 1 -1 0 -2 1 -1 0 -6 1 -1 
0 -6 1 -1 0 -6 1 -1 0 -5 1 -1 0 -5 2 -2 
1 -1 1 0 1 0 1 0 1 0 1 0 1 0 1 0 
1 0 -1 0 2 2 0 2 1 1 0 3 1 1 0 2 
1 1 0 4 1 1 0 3 2 2 1 1 1 -1 0 -2 
1 -1 0 -2 1 -1 0 -3 1 -1 0 -2 1 -1 0 -3 
2 -2 0 -3 1 -1 0 -5 1 -1 0 -6 1 -1 0 -7 
1 -1 0 -6 1 -1 0 -5 2 -2 1 0 1 0 1 0 
1 1 1 1 0 3 1 1 0 4 1 1 0 7 1 1 
0 7 1 1 0 8 1 1 0 4 1 1 0 2 1 1 
1 0 1 -1 0 -3 2 -2 0 -3 1 -1 0 -4 1 -1 
0 -5 1 -1 0 -5 1 -1 0 -2 1 -1 0 2 1 1 
0 12 1 1 0 21 1 1 0 25 1 1 0 18 1 1 
0 7 1 1 0 -3 1 -1 0 -9 1 -1 0 -14 1 -1 
0 -12 1 -1 1 -4 -1 0 2 2 1 0 1 -1 0 -2 
1 -1 0 -5 1 -1 0 -5 1 -1 0 -2 1 -1 1 0 
1 -1 0 -2 2 -2 1 -1 1 0 1 -1 1 0 1 0 
1 0 1 0 1 0 1 0 1 0 1 0 1 0 1 0 
1 0 1 1 1 0 1 0 1 0 1 0 1 1 1 1 
1 1 1 -1 1 0 1 0 1 -1 1 -1 1 0 1 0 
1 -1 112 195 178 MP stroke
gs 142 63 581 234 rc
/c9 { 1.000000 0.000000 0.000000 sr} bdef
c9
   3    3  152  169 FO
   3    3  158  125 FO
   3    3  164  216 FO
   3    3  184  230 FO
   3    3  200  172 FO
   3    3  224  156 FO
   3    3  335  135 FO
   3    3  340  207 FO
   3    3  410  211 FO
   3    3  415  174 FO
   3    3  452  180 FO
   3    3  475   73 FO
   3    3  481  206 FO
   3    3  498  153 FO
   3    3  511  155 FO
   3    3  525  223 FO
   3    3  546  162 FO
   3    3  554  180 FO
   3    3  598  209 FO
   3    3  646  217 FO
   3    3  656  215 FO
   3    3  712  286 FO
gr

c9
gr

2.02778 w
c9
0 sg
%%IncludeResource: font Helvetica
/Helvetica /ISOLatin1Encoding 12.1667 FMSR

 416  333 mt 
(Time \(sec\)) s
  79  224 mt  -90 rotate
(Turn angle \(degrees\)) s
90 rotate
%%IncludeResource: font Helvetica
/Helvetica /ISOLatin1Encoding 10.1389 FMSR

 111  313 mt 
( ) s
 781   30 mt 
( ) s
0.506944 w
1 sg
0 30 125 0 0 -30 652 62 4 MP
PP
-125 0 0 30 125 0 0 -30 652 62 5 MP stroke
0.337963 w
DO
SO
0.506944 w
0 sg
 652   62 mt  777   62 L
 652   32 mt  777   32 L
 652   62 mt  652   32 L
 777   62 mt  777   32 L
 652   62 mt  777   62 L
 652   62 mt  652   32 L
 652   62 mt  777   62 L
 652   32 mt  777   32 L
 652   62 mt  652   32 L
 777   62 mt  777   32 L
 691   45 mt 
(Running Estimate) s
gs 652 32 126 31 rc
2.02778 w
c8
30 0 657 40 2 MP stroke
gr

2.02778 w
c8
0 sg
 691   58 mt 
(Detected Turns) s
gs 652 32 126 31 rc
gr

gs 662 43 21 21 rc
c9
   3    3  672   53 FO
gr

c9
gs 652 32 126 31 rc
0.506944 w
gr

0.506944 w

end %%Color Dict

eplot
%%EndObject

epage
end

showpage

%%Trailer
%%EOF
