%!PS-Adobe-3.0 EPSF-3.0
%%Creator: MATLAB, The MathWorks, Inc. Version 8.0.0.783 (R2012b). Operating System: Darwin 13.0.0 Darwin Kernel Version 13.0.0: Thu Sep 19 22:22:27 PDT 2013; root:xnu-2422.1.72~6/RELEASE_X86_64 x86_64.
%%Title: figs/variance_to_speed_relation_cali_roll.eps
%%CreationDate: 10/31/2013  13:55:30
%%DocumentNeededFonts: Helvetica
%%DocumentProcessColors: Cyan Magenta Yellow Black
%%LanguageLevel: 2
%%Pages: 1
%%BoundingBox:    43   234   543   551
%%EndComments

%%BeginProlog
% MathWorks dictionary
/MathWorks 160 dict begin
% definition operators
/bdef {bind def} bind def
/ldef {load def} bind def
/xdef {exch def} bdef
/xstore {exch store} bdef
% operator abbreviations
/c  /clip ldef
/cc /concat ldef
/cp /closepath ldef
/gr /grestore ldef
/gs /gsave ldef
/mt /moveto ldef
/np /newpath ldef
/cm /currentmatrix ldef
/sm /setmatrix ldef
/rm /rmoveto ldef
/rl /rlineto ldef
/s {show newpath} bdef
/sc {setcmykcolor} bdef
/sr /setrgbcolor ldef
/sg /setgray ldef
/w /setlinewidth ldef
/j /setlinejoin ldef
/cap /setlinecap ldef
/rc {rectclip} bdef
/rf {rectfill} bdef
% page state control
/pgsv () def
/bpage {/pgsv save def} bdef
/epage {pgsv restore} bdef
/bplot /gsave ldef
/eplot {stroke grestore} bdef
% orientation switch
/portraitMode 0 def /landscapeMode 1 def /rotateMode 2 def
% coordinate system mappings
/dpi2point 0 def
% font control
/FontSize 0 def
/FMS {/FontSize xstore findfont [FontSize 0 0 FontSize neg 0 0]
  makefont setfont} bdef
/reencode {exch dup where {pop load} {pop StandardEncoding} ifelse
  exch dup 3 1 roll findfont dup length dict begin
  { 1 index /FID ne {def}{pop pop} ifelse } forall
  /Encoding exch def currentdict end definefont pop} bdef
/isroman {findfont /CharStrings get /Agrave known} bdef
/FMSR {3 1 roll 1 index dup isroman {reencode} {pop pop} ifelse
  exch FMS} bdef
/csm {1 dpi2point div -1 dpi2point div scale neg translate
 dup landscapeMode eq {pop -90 rotate}
  {rotateMode eq {90 rotate} if} ifelse} bdef
% line types: solid, dotted, dashed, dotdash
/SO { [] 0 setdash } bdef
/DO { [.5 dpi2point mul 4 dpi2point mul] 0 setdash } bdef
/DA { [6 dpi2point mul] 0 setdash } bdef
/DD { [.5 dpi2point mul 4 dpi2point mul 6 dpi2point mul 4
  dpi2point mul] 0 setdash } bdef
% macros for lines and objects
/L {lineto stroke} bdef
/MP {3 1 roll moveto 1 sub {rlineto} repeat} bdef
/AP {{rlineto} repeat} bdef
/PDlw -1 def
/W {/PDlw currentlinewidth def setlinewidth} def
/PP {closepath eofill} bdef
/DP {closepath stroke} bdef
/MR {4 -2 roll moveto dup  0 exch rlineto exch 0 rlineto
  neg 0 exch rlineto closepath} bdef
/FR {MR stroke} bdef
/PR {MR fill} bdef
/L1i {{currentfile picstr readhexstring pop} image} bdef
/tMatrix matrix def
/MakeOval {newpath tMatrix currentmatrix pop translate scale
0 0 1 0 360 arc tMatrix setmatrix} bdef
/FO {MakeOval stroke} bdef
/PO {MakeOval fill} bdef
/PD {currentlinewidth 2 div 0 360 arc fill
   PDlw -1 eq not {PDlw w /PDlw -1 def} if} def
/FA {newpath tMatrix currentmatrix pop translate scale
  0 0 1 5 -2 roll arc tMatrix setmatrix stroke} bdef
/PA {newpath tMatrix currentmatrix pop	translate 0 0 moveto scale
  0 0 1 5 -2 roll arc closepath tMatrix setmatrix fill} bdef
/FAn {newpath tMatrix currentmatrix pop translate scale
  0 0 1 5 -2 roll arcn tMatrix setmatrix stroke} bdef
/PAn {newpath tMatrix currentmatrix pop translate 0 0 moveto scale
  0 0 1 5 -2 roll arcn closepath tMatrix setmatrix fill} bdef
/vradius 0 def /hradius 0 def /lry 0 def
/lrx 0 def /uly 0 def /ulx 0 def /rad 0 def
/MRR {/vradius xdef /hradius xdef /lry xdef /lrx xdef /uly xdef
  /ulx xdef newpath tMatrix currentmatrix pop ulx hradius add uly
  vradius add translate hradius vradius scale 0 0 1 180 270 arc 
  tMatrix setmatrix lrx hradius sub uly vradius add translate
  hradius vradius scale 0 0 1 270 360 arc tMatrix setmatrix
  lrx hradius sub lry vradius sub translate hradius vradius scale
  0 0 1 0 90 arc tMatrix setmatrix ulx hradius add lry vradius sub
  translate hradius vradius scale 0 0 1 90 180 arc tMatrix setmatrix
  closepath} bdef
/FRR {MRR stroke } bdef
/PRR {MRR fill } bdef
/MlrRR {/lry xdef /lrx xdef /uly xdef /ulx xdef /rad lry uly sub 2 div def
  newpath tMatrix currentmatrix pop ulx rad add uly rad add translate
  rad rad scale 0 0 1 90 270 arc tMatrix setmatrix lrx rad sub lry rad
  sub translate rad rad scale 0 0 1 270 90 arc tMatrix setmatrix
  closepath} bdef
/FlrRR {MlrRR stroke } bdef
/PlrRR {MlrRR fill } bdef
/MtbRR {/lry xdef /lrx xdef /uly xdef /ulx xdef /rad lrx ulx sub 2 div def
  newpath tMatrix currentmatrix pop ulx rad add uly rad add translate
  rad rad scale 0 0 1 180 360 arc tMatrix setmatrix lrx rad sub lry rad
  sub translate rad rad scale 0 0 1 0 180 arc tMatrix setmatrix
  closepath} bdef
/FtbRR {MtbRR stroke } bdef
/PtbRR {MtbRR fill } bdef
/stri 6 array def /dtri 6 array def
/smat 6 array def /dmat 6 array def
/tmat1 6 array def /tmat2 6 array def /dif 3 array def
/asub {/ind2 exch def /ind1 exch def dup dup
  ind1 get exch ind2 get sub exch } bdef
/tri_to_matrix {
  2 0 asub 3 1 asub 4 0 asub 5 1 asub
  dup 0 get exch 1 get 7 -1 roll astore } bdef
/compute_transform {
  dmat dtri tri_to_matrix tmat1 invertmatrix 
  smat stri tri_to_matrix tmat2 concatmatrix } bdef
/ds {stri astore pop} bdef
/dt {dtri astore pop} bdef
/db {2 copy /cols xdef /rows xdef mul dup 3 mul string
  currentfile 
  3 index 0 eq {/ASCIIHexDecode filter}
  {/ASCII85Decode filter 3 index 2 eq {/RunLengthDecode filter} if }
  ifelse exch readstring pop
  dup 0 3 index getinterval /rbmap xdef
  dup 2 index dup getinterval /gbmap xdef
  1 index dup 2 mul exch getinterval /bbmap xdef pop pop}bdef
/it {gs np dtri aload pop moveto lineto lineto cp c
  cols rows 8 compute_transform 
  rbmap gbmap bbmap true 3 colorimage gr}bdef
/il {newpath moveto lineto stroke}bdef
currentdict end def
%%EndProlog

%%BeginSetup
MathWorks begin

0 cap

end
%%EndSetup

%%Page: 1 1
%%BeginPageSetup
%%PageBoundingBox:    43   234   543   551
MathWorks begin
bpage
%%EndPageSetup

%%BeginObject: obj1
bplot

/dpi2point 1.01389 def
portraitMode 0022 0574 csm

   22    16   507   321 rc
85 dict begin %Colortable dictionary
/c0 { 0.000000 0.000000 0.000000 sr} bdef
/c1 { 1.000000 1.000000 1.000000 sr} bdef
/c2 { 0.900000 0.000000 0.000000 sr} bdef
/c3 { 0.000000 0.820000 0.000000 sr} bdef
/c4 { 0.000000 0.000000 0.800000 sr} bdef
/c5 { 0.910000 0.820000 0.320000 sr} bdef
/c6 { 1.000000 0.260000 0.820000 sr} bdef
/c7 { 0.000000 0.820000 0.820000 sr} bdef
c0
1 j
1 sg
   0    0  577  346 rf
0.506944 w
0 281 446 0 0 -281 75 307 4 MP
PP
-446 0 0 281 446 0 0 -281 75 307 5 MP stroke
0.337963 w
DO
0 sg
  75  307 mt   75   26 L
  75   26 mt   75   26 L
 119  307 mt  119   26 L
 119   26 mt  119   26 L
 164  307 mt  164   26 L
 164   26 mt  164   26 L
 208  307 mt  208   26 L
 208   26 mt  208   26 L
 253  307 mt  253   26 L
 253   26 mt  253   26 L
 298  307 mt  298   26 L
 298   26 mt  298   26 L
 342  307 mt  342   26 L
 342   26 mt  342   26 L
 387  307 mt  387   26 L
 387   26 mt  387   26 L
 431  307 mt  431   26 L
 431   26 mt  431   26 L
 476  307 mt  476   26 L
 476   26 mt  476   26 L
 521  307 mt  521   26 L
 521   26 mt  521   26 L
  75  307 mt  521  307 L
 521  307 mt  521  307 L
  75  266 mt  521  266 L
 521  266 mt  521  266 L
  75  226 mt  521  226 L
 521  226 mt  521  226 L
  75  186 mt  521  186 L
 521  186 mt  521  186 L
  75  146 mt  521  146 L
 521  146 mt  521  146 L
  75  106 mt  521  106 L
 521  106 mt  521  106 L
  75   66 mt  521   66 L
 521   66 mt  521   66 L
  75   26 mt  521   26 L
 521   26 mt  521   26 L
SO
0.506944 w
  75  307 mt  521  307 L
  75  307 mt   75   26 L
  75  307 mt   75  302 L
%%IncludeResource: font Helvetica
/Helvetica /ISOLatin1Encoding 10.1389 FMSR

  68  318 mt 
(-1) s
 119  307 mt  119  302 L
 107  318 mt 
(-0.8) s
 164  307 mt  164  302 L
 152  318 mt 
(-0.6) s
 208  307 mt  208  302 L
 196  318 mt 
(-0.4) s
 253  307 mt  253  302 L
 241  318 mt 
(-0.2) s
 298  307 mt  298  302 L
 296  318 mt 
(0) s
 342  307 mt  342  302 L
 335  318 mt 
(0.2) s
 387  307 mt  387  302 L
 380  318 mt 
(0.4) s
 431  307 mt  431  302 L
 424  318 mt 
(0.6) s
 476  307 mt  476  302 L
 469  318 mt 
(0.8) s
 521  307 mt  521  302 L
 519  318 mt 
(1) s
  75  307 mt   79  307 L
  44  310 mt 
(-6000) s
  75  266 mt   79  266 L
  44  269 mt 
(-5000) s
  75  226 mt   79  226 L
  44  229 mt 
(-4000) s
  75  186 mt   79  186 L
  44  189 mt 
(-3000) s
  75  146 mt   79  146 L
  44  149 mt 
(-2000) s
  75  106 mt   79  106 L
  44  109 mt 
(-1000) s
  75   66 mt   79   66 L
  67   69 mt 
(0) s
  75   26 mt   79   26 L
  50   29 mt 
(1000) s
gs 75 26 447 282 rc
0 j
gs 290 33 16 273 rc
/c8 { 0.000000 0.000000 1.000000 sr} bdef
c8
   3    3  298   66 FO
gr

c8
gs 290 33 16 273 rc
   3    3  298   66 FO
gr

gs 290 33 16 273 rc
   3    3  298   65 FO
gr

gs 290 33 16 273 rc
   3    3  298   65 FO
gr

gs 290 33 16 273 rc
   3    3  298   65 FO
gr

gs 290 33 16 273 rc
   3    3  298   65 FO
gr

gs 290 33 16 273 rc
   3    3  298   65 FO
gr

gs 290 33 16 273 rc
   3    3  298   65 FO
gr

gs 290 33 16 273 rc
   3    3  298   65 FO
gr

gs 290 33 16 273 rc
   3    3  298   65 FO
gr

gs 290 33 16 273 rc
   3    3  298   65 FO
gr

gs 290 33 16 273 rc
   3    3  298  297 FO
gr

gs 290 33 16 273 rc
   3    3  298   40 FO
gr

gs 290 33 16 273 rc
   3    3  298   65 FO
gr

gs 290 33 16 273 rc
   3    3  298   65 FO
gr

gs 290 33 16 273 rc
   3    3  298   65 FO
gr

gs 290 33 16 273 rc
   3    3  298   65 FO
gr

gs 290 33 16 273 rc
   3    3  298   65 FO
gr

gs 290 33 16 273 rc
   3    3  298   65 FO
gr

gs 290 33 16 273 rc
   3    3  298   65 FO
gr

gs 290 33 16 273 rc
   3    3  298   65 FO
gr

gs 290 33 16 273 rc
   3    3  298   65 FO
gr

gs 290 33 16 273 rc
   3    3  298   65 FO
gr

gs 290 33 16 273 rc
   3    3  298   65 FO
gr

gs 290 33 16 273 rc
   3    3  298   65 FO
gr

gs 290 33 16 273 rc
   3    3  298   65 FO
gr

gs 290 33 16 273 rc
   3    3  298   65 FO
gr

gs 290 33 16 273 rc
   3    3  298   65 FO
gr

gs 290 33 16 273 rc
   3    3  298   65 FO
gr

gs 290 33 16 273 rc
   3    3  298   66 FO
gr

gs 290 33 16 273 rc
   3    3  298   65 FO
gr

gs 290 33 16 273 rc
   3    3  298   65 FO
gr

gs 290 33 16 273 rc
   3    3  298  247 FO
gr

gs 290 33 16 273 rc
   3    3  298   46 FO
gr

gs 290 33 16 273 rc
   3    3  298   65 FO
gr

gs 290 33 16 273 rc
   3    3  298   65 FO
gr

gs 290 33 16 273 rc
   3    3  298   65 FO
gr

gs 290 33 16 273 rc
   3    3  298   65 FO
gr

gs 290 33 16 273 rc
   3    3  298   65 FO
gr

gs 290 33 16 273 rc
   3    3  298   65 FO
gr

gs 290 33 16 273 rc
   3    3  298   65 FO
gr

gs 290 33 16 273 rc
   3    3  298   66 FO
gr

gs 290 33 16 273 rc
   3    3  298   65 FO
gr

gs 290 33 16 273 rc
   3    3  298   65 FO
gr

gs 290 33 16 273 rc
   3    3  298   65 FO
gr

gs 290 33 16 273 rc
   3    3  298   65 FO
gr

gs 290 33 16 273 rc
   3    3  298   65 FO
gr

gs 290 33 16 273 rc
   3    3  298   65 FO
gr

gs 290 33 16 273 rc
   3    3  298   65 FO
gr

gs 290 33 16 273 rc
   3    3  298   65 FO
gr

gs 290 33 16 273 rc
   3    3  298   65 FO
gr

gs 290 33 16 273 rc
   3    3  298   65 FO
gr

gs 290 33 16 273 rc
   3    3  298   65 FO
gr

gs 290 33 16 273 rc
   3    3  298  273 FO
gr

gs 290 33 16 273 rc
   3    3  298   51 FO
gr

gs 290 33 16 273 rc
   3    3  298   65 FO
gr

gs 290 33 16 273 rc
   3    3  298   66 FO
gr

gs 290 33 16 273 rc
   3    3  298   66 FO
gr

gs 290 33 16 273 rc
   3    3  298   65 FO
gr

gs 290 33 16 273 rc
   3    3  298   65 FO
gr

gs 290 33 16 273 rc
   3    3  298   65 FO
gr

gs 290 33 16 273 rc
   3    3  298   65 FO
gr

gs 290 33 16 273 rc
   3    3  298   65 FO
gr

gs 290 33 16 273 rc
   3    3  298   65 FO
gr

gs 290 33 16 273 rc
   3    3  298   65 FO
gr

gs 290 33 16 273 rc
   3    3  298   65 FO
gr

gs 290 33 16 273 rc
   3    3  298   65 FO
gr

gs 290 33 16 273 rc
   3    3  298   65 FO
gr

gs 290 33 16 273 rc
   3    3  298   65 FO
gr

gs 290 33 16 273 rc
   3    3  298   65 FO
gr

gs 290 33 16 273 rc
   3    3  298   65 FO
gr

gs 290 33 16 273 rc
   3    3  298   65 FO
gr

gs 290 33 16 273 rc
   3    3  298   65 FO
gr

gs 290 33 16 273 rc
   3    3  298   65 FO
gr

gs 290 33 16 273 rc
   3    3  298  232 FO
gr

gs 290 33 16 273 rc
   3    3  298   54 FO
gr

gs 290 33 16 273 rc
   3    3  298   65 FO
gr

gs 290 33 16 273 rc
   3    3  298   65 FO
gr

gs 290 33 16 273 rc
   3    3  298   65 FO
gr

gs 290 33 16 273 rc
   3    3  298   65 FO
gr

gs 290 33 16 273 rc
   3    3  298   65 FO
gr

gs 290 33 16 273 rc
   3    3  298   65 FO
gr

gs 290 33 16 273 rc
   3    3  298   65 FO
gr

gs 290 33 16 273 rc
   3    3  298   65 FO
gr

gs 290 33 16 273 rc
   3    3  298   65 FO
gr

gs 290 33 16 273 rc
   3    3  298   65 FO
gr

gs 290 33 16 273 rc
   3    3  298   65 FO
gr

gs 290 33 16 273 rc
   3    3  298   66 FO
gr

gs 290 33 16 273 rc
   3    3  298   66 FO
gr

gs 290 33 16 273 rc
   3    3  298   65 FO
gr

gs 290 33 16 273 rc
   3    3  298   65 FO
gr

gs 290 33 16 273 rc
   3    3  298   65 FO
gr

gs 290 33 16 273 rc
   3    3  298   65 FO
gr

gs 290 33 16 273 rc
   3    3  298   65 FO
gr

gs 290 33 16 273 rc
   3    3  298   65 FO
gr

gs 290 33 16 273 rc
   3    3  298   57 FO
gr

gs 290 33 16 273 rc
   3    3  298   65 FO
gr

gs 290 33 16 273 rc
   3    3  298   65 FO
gr

gs 290 33 16 273 rc
   3    3  298   65 FO
gr

gs 290 33 16 273 rc
   3    3  298   66 FO
gr

gs 290 33 16 273 rc
   3    3  298   66 FO
gr

gs 290 33 16 273 rc
   3    3  298   65 FO
gr

gs 290 33 16 273 rc
   3    3  298   65 FO
gr

gs 290 33 16 273 rc
   3    3  298   65 FO
gr

gs 290 33 16 273 rc
   3    3  298   65 FO
gr

gs 290 33 16 273 rc
   3    3  298   65 FO
gr

gs 290 33 16 273 rc
   3    3  298   65 FO
gr

gs 290 33 16 273 rc
   3    3  298   65 FO
gr

gs 290 33 16 273 rc
   3    3  298   65 FO
gr

gs 290 33 16 273 rc
   3    3  298   65 FO
gr

gs 290 33 16 273 rc
   3    3  298   65 FO
gr

gs 290 33 16 273 rc
   3    3  298   65 FO
gr

gs 290 33 16 273 rc
   3    3  298   65 FO
gr

gs 290 33 16 273 rc
   3    3  298   64 FO
gr

gs 290 33 16 273 rc
   3    3  298   66 FO
gr

gr

c8
0 sg
%%IncludeResource: font Helvetica
/Helvetica /ISOLatin1Encoding 12.1667 FMSR

 206  332 mt 
(Filtered, windowed accel variance) s
  36  213 mt  -90 rotate
(Speed from GPS) s
90 rotate

end %%Color Dict

eplot
%%EndObject

epage
end

showpage

%%Trailer
%%EOF
