%!PS-Adobe-3.0 EPSF-3.0
%%Creator: MATLAB, The MathWorks, Inc. Version 8.0.0.783 (R2012b). Operating System: Darwin 12.5.0 Darwin Kernel Version 12.5.0: Sun Sep 29 13:33:47 PDT 2013; root:xnu-2050.48.12~1/RELEASE_X86_64 x86_64.
%%Title: figs/variance_to_speed_nlin.eps
%%CreationDate: 12/17/2013  15:07:21
%%DocumentNeededFonts: Helvetica
%%DocumentProcessColors: Cyan Magenta Yellow Black
%%LanguageLevel: 2
%%Pages: 1
%%BoundingBox:  -152   282   777   504
%%EndComments

%%BeginProlog
% MathWorks dictionary
/MathWorks 160 dict begin
% definition operators
/bdef {bind def} bind def
/ldef {load def} bind def
/xdef {exch def} bdef
/xstore {exch store} bdef
% operator abbreviations
/c  /clip ldef
/cc /concat ldef
/cp /closepath ldef
/gr /grestore ldef
/gs /gsave ldef
/mt /moveto ldef
/np /newpath ldef
/cm /currentmatrix ldef
/sm /setmatrix ldef
/rm /rmoveto ldef
/rl /rlineto ldef
/s {show newpath} bdef
/sc {setcmykcolor} bdef
/sr /setrgbcolor ldef
/sg /setgray ldef
/w /setlinewidth ldef
/j /setlinejoin ldef
/cap /setlinecap ldef
/rc {rectclip} bdef
/rf {rectfill} bdef
% page state control
/pgsv () def
/bpage {/pgsv save def} bdef
/epage {pgsv restore} bdef
/bplot /gsave ldef
/eplot {stroke grestore} bdef
% orientation switch
/portraitMode 0 def /landscapeMode 1 def /rotateMode 2 def
% coordinate system mappings
/dpi2point 0 def
% font control
/FontSize 0 def
/FMS {/FontSize xstore findfont [FontSize 0 0 FontSize neg 0 0]
  makefont setfont} bdef
/reencode {exch dup where {pop load} {pop StandardEncoding} ifelse
  exch dup 3 1 roll findfont dup length dict begin
  { 1 index /FID ne {def}{pop pop} ifelse } forall
  /Encoding exch def currentdict end definefont pop} bdef
/isroman {findfont /CharStrings get /Agrave known} bdef
/FMSR {3 1 roll 1 index dup isroman {reencode} {pop pop} ifelse
  exch FMS} bdef
/csm {1 dpi2point div -1 dpi2point div scale neg translate
 dup landscapeMode eq {pop -90 rotate}
  {rotateMode eq {90 rotate} if} ifelse} bdef
% line types: solid, dotted, dashed, dotdash
/SO { [] 0 setdash } bdef
/DO { [.5 dpi2point mul 4 dpi2point mul] 0 setdash } bdef
/DA { [6 dpi2point mul] 0 setdash } bdef
/DD { [.5 dpi2point mul 4 dpi2point mul 6 dpi2point mul 4
  dpi2point mul] 0 setdash } bdef
% macros for lines and objects
/L {lineto stroke} bdef
/MP {3 1 roll moveto 1 sub {rlineto} repeat} bdef
/AP {{rlineto} repeat} bdef
/PDlw -1 def
/W {/PDlw currentlinewidth def setlinewidth} def
/PP {closepath eofill} bdef
/DP {closepath stroke} bdef
/MR {4 -2 roll moveto dup  0 exch rlineto exch 0 rlineto
  neg 0 exch rlineto closepath} bdef
/FR {MR stroke} bdef
/PR {MR fill} bdef
/L1i {{currentfile picstr readhexstring pop} image} bdef
/tMatrix matrix def
/MakeOval {newpath tMatrix currentmatrix pop translate scale
0 0 1 0 360 arc tMatrix setmatrix} bdef
/FO {MakeOval stroke} bdef
/PO {MakeOval fill} bdef
/PD {currentlinewidth 2 div 0 360 arc fill
   PDlw -1 eq not {PDlw w /PDlw -1 def} if} def
/FA {newpath tMatrix currentmatrix pop translate scale
  0 0 1 5 -2 roll arc tMatrix setmatrix stroke} bdef
/PA {newpath tMatrix currentmatrix pop	translate 0 0 moveto scale
  0 0 1 5 -2 roll arc closepath tMatrix setmatrix fill} bdef
/FAn {newpath tMatrix currentmatrix pop translate scale
  0 0 1 5 -2 roll arcn tMatrix setmatrix stroke} bdef
/PAn {newpath tMatrix currentmatrix pop translate 0 0 moveto scale
  0 0 1 5 -2 roll arcn closepath tMatrix setmatrix fill} bdef
/vradius 0 def /hradius 0 def /lry 0 def
/lrx 0 def /uly 0 def /ulx 0 def /rad 0 def
/MRR {/vradius xdef /hradius xdef /lry xdef /lrx xdef /uly xdef
  /ulx xdef newpath tMatrix currentmatrix pop ulx hradius add uly
  vradius add translate hradius vradius scale 0 0 1 180 270 arc 
  tMatrix setmatrix lrx hradius sub uly vradius add translate
  hradius vradius scale 0 0 1 270 360 arc tMatrix setmatrix
  lrx hradius sub lry vradius sub translate hradius vradius scale
  0 0 1 0 90 arc tMatrix setmatrix ulx hradius add lry vradius sub
  translate hradius vradius scale 0 0 1 90 180 arc tMatrix setmatrix
  closepath} bdef
/FRR {MRR stroke } bdef
/PRR {MRR fill } bdef
/MlrRR {/lry xdef /lrx xdef /uly xdef /ulx xdef /rad lry uly sub 2 div def
  newpath tMatrix currentmatrix pop ulx rad add uly rad add translate
  rad rad scale 0 0 1 90 270 arc tMatrix setmatrix lrx rad sub lry rad
  sub translate rad rad scale 0 0 1 270 90 arc tMatrix setmatrix
  closepath} bdef
/FlrRR {MlrRR stroke } bdef
/PlrRR {MlrRR fill } bdef
/MtbRR {/lry xdef /lrx xdef /uly xdef /ulx xdef /rad lrx ulx sub 2 div def
  newpath tMatrix currentmatrix pop ulx rad add uly rad add translate
  rad rad scale 0 0 1 180 360 arc tMatrix setmatrix lrx rad sub lry rad
  sub translate rad rad scale 0 0 1 0 180 arc tMatrix setmatrix
  closepath} bdef
/FtbRR {MtbRR stroke } bdef
/PtbRR {MtbRR fill } bdef
/stri 6 array def /dtri 6 array def
/smat 6 array def /dmat 6 array def
/tmat1 6 array def /tmat2 6 array def /dif 3 array def
/asub {/ind2 exch def /ind1 exch def dup dup
  ind1 get exch ind2 get sub exch } bdef
/tri_to_matrix {
  2 0 asub 3 1 asub 4 0 asub 5 1 asub
  dup 0 get exch 1 get 7 -1 roll astore } bdef
/compute_transform {
  dmat dtri tri_to_matrix tmat1 invertmatrix 
  smat stri tri_to_matrix tmat2 concatmatrix } bdef
/ds {stri astore pop} bdef
/dt {dtri astore pop} bdef
/db {2 copy /cols xdef /rows xdef mul dup 3 mul string
  currentfile 
  3 index 0 eq {/ASCIIHexDecode filter}
  {/ASCII85Decode filter 3 index 2 eq {/RunLengthDecode filter} if }
  ifelse exch readstring pop
  dup 0 3 index getinterval /rbmap xdef
  dup 2 index dup getinterval /gbmap xdef
  1 index dup 2 mul exch getinterval /bbmap xdef pop pop}bdef
/it {gs np dtri aload pop moveto lineto lineto cp c
  cols rows 8 compute_transform 
  rbmap gbmap bbmap true 3 colorimage gr}bdef
/il {newpath moveto lineto stroke}bdef
currentdict end def
%%EndProlog

%%BeginSetup
MathWorks begin

0 cap

end
%%EndSetup

%%Page: 1 1
%%BeginPageSetup
%%PageBoundingBox:  -152   282   777   504
MathWorks begin
bpage
%%EndPageSetup

%%BeginObject: obj1
bplot

/dpi2point 1.01389 def
portraitMode -0265 0516 csm

  111     5   943   225 rc
86 dict begin %Colortable dictionary
/c0 { 0.000000 0.000000 0.000000 sr} bdef
/c1 { 1.000000 1.000000 1.000000 sr} bdef
/c2 { 0.900000 0.000000 0.000000 sr} bdef
/c3 { 0.000000 0.820000 0.000000 sr} bdef
/c4 { 0.000000 0.000000 0.800000 sr} bdef
/c5 { 0.910000 0.820000 0.320000 sr} bdef
/c6 { 1.000000 0.260000 0.820000 sr} bdef
/c7 { 0.000000 0.820000 0.820000 sr} bdef
c0
1 j
1 sg
   0    0 1153  231 rf
0.506944 w
0 181 385 0 0 -181 150 198 4 MP
PP
-385 0 0 181 385 0 0 -181 150 198 5 MP stroke
0.337963 w
DO
0 sg
 150  198 mt  150   17 L
 150   17 mt  150   17 L
 214  198 mt  214   17 L
 214   17 mt  214   17 L
 278  198 mt  278   17 L
 278   17 mt  278   17 L
 342  198 mt  342   17 L
 342   17 mt  342   17 L
 406  198 mt  406   17 L
 406   17 mt  406   17 L
 470  198 mt  470   17 L
 470   17 mt  470   17 L
 535  198 mt  535   17 L
 535   17 mt  535   17 L
 150  198 mt  535  198 L
 535  198 mt  535  198 L
 150  167 mt  535  167 L
 535  167 mt  535  167 L
 150  137 mt  535  137 L
 535  137 mt  535  137 L
 150  107 mt  535  107 L
 535  107 mt  535  107 L
 150   77 mt  535   77 L
 535   77 mt  535   77 L
 150   47 mt  535   47 L
 535   47 mt  535   47 L
 150   17 mt  535   17 L
 535   17 mt  535   17 L
SO
0.506944 w
 150  198 mt  535  198 L
 150   17 mt  535   17 L
 150  198 mt  150   17 L
 535  198 mt  535   17 L
 150  198 mt  535  198 L
 150  198 mt  150   17 L
 150  198 mt  150  194 L
 150   17 mt  150   20 L
%%IncludeResource: font Helvetica
/Helvetica /ISOLatin1Encoding 10.1389 FMSR

 148  209 mt 
(0) s
 214  198 mt  214  194 L
 214   17 mt  214   20 L
 212  209 mt 
(2) s
 278  198 mt  278  194 L
 278   17 mt  278   20 L
 276  209 mt 
(4) s
 342  198 mt  342  194 L
 342   17 mt  342   20 L
 340  209 mt 
(6) s
 406  198 mt  406  194 L
 406   17 mt  406   20 L
 404  209 mt 
(8) s
 470  198 mt  470  194 L
 470   17 mt  470   20 L
 465  209 mt 
(10) s
 535  198 mt  535  194 L
 535   17 mt  535   20 L
 530  209 mt 
(12) s
 150  198 mt  153  198 L
 535  198 mt  531  198 L
 142  201 mt 
(0) s
 150  167 mt  153  167 L
 535  167 mt  531  167 L
 136  170 mt 
(10) s
 150  137 mt  153  137 L
 535  137 mt  531  137 L
 136  140 mt 
(20) s
 150  107 mt  153  107 L
 535  107 mt  531  107 L
 136  110 mt 
(30) s
 150   77 mt  153   77 L
 535   77 mt  531   77 L
 136   80 mt 
(40) s
 150   47 mt  153   47 L
 535   47 mt  531   47 L
 136   50 mt 
(50) s
 150   17 mt  153   17 L
 535   17 mt  531   17 L
 136   20 mt 
(60) s
 150  198 mt  535  198 L
 150   17 mt  535   17 L
 150  198 mt  150   17 L
 535  198 mt  535   17 L
gs 150 17 386 182 rc
2.02778 w
/c8 { 1.000000 0.000000 0.000000 sr} bdef
c8
0 39 1 -4 0 2 1 8 0 3 1 -2 0 -2 1 3 
0 -4 1 -8 1 2 0 -4 1 7 0 -3 1 1 0 8 
1 3 0 10 1 12 0 2 1 16 0 -18 1 -2 0 -3 
1 -12 1 -2 0 -24 1 11 0 -8 1 -5 0 6 1 30 
0 14 1 -1 0 -6 1 12 0 3 1 3 1 -2 0 8 
1 -5 0 -3 1 -7 0 -3 1 4 0 -1 1 2 0 3 
1 5 0 -2 1 -6 0 -3 1 -3 1 -1 0 -6 1 4 
0 5 1 5 0 -6 1 -5 0 -13 1 3 0 2 1 -17 
0 -12 1 -6 0 2 1 0 1 -18 0 -9 1 2 0 1 
1 13 0 10 1 30 0 8 1 4 0 11 1 0 0 11 
1 -8 1 -1 0 -1 1 -11 0 -4 1 10 0 5 1 2 
0 -2 1 -13 0 10 1 -6 0 11 1 -14 0 14 1 1 
1 2 0 -8 1 -2 0 -6 1 -10 0 -7 1 -9 0 -10 
1 -13 0 -14 1 -8 1 -1 1 1 1 0 1 0 1 0 
1 0 1 0 1 0 1 0 1 0 1 0 1 0 1 -1 
1 1 1 0 1 2 1 0 1 -1 1 0 -1 0 2 -1 
0 -1 1 4 0 -4 1 6 0 16 1 7 0 3 1 8 
0 10 1 5 1 3 1 0 0 14 1 -2 0 -3 1 -10 
0 2 1 -17 0 -1 1 -17 0 -5 1 -11 0 -6 1 -2 
1 1 1 0 -1 0 2 0 1 0 1 0 1 -1 1 1 
1 0 1 0 -1 0 2 0 1 1 -1 0 2 0 1 -1 
1 1 0 -2 1 5 1 14 0 13 1 7 0 11 1 5 
0 12 1 3 0 8 1 1 1 5 0 -3 1 -4 0 -3 
1 -4 1 13 0 -38 1 -8 0 3 1 -15 0 -12 1 -8 
1 6 0 5 1 9 0 1 1 15 1 12 0 7 1 -4 
0 6 1 2 0 3 1 3 0 10 1 -13 0 -23 1 -15 
0 -6 1 -10 0 -3 1 -1 1 -1 1 -1 -1 0 2 8 
0 -2 1 -11 0 -2 1 1 1 0 1 0 1 0 1 0 
1 0 1 -1 1 1 1 0 1 -1 1 1 1 0 1 0 
1 0 1 0 1 0 1 0 1 0 1 0 1 0 1 0 
-1 0 2 1 1 -1 1 0 -1 0 2 4 0 2 1 10 
0 2 1 11 1 -1 0 18 1 9 0 -1 1 1 0 7 
1 0 0 5 1 1 0 -8 1 -3 0 4 1 2 0 -3 
1 -2 1 0 0 -6 1 -3 0 19 1 -37 0 -2 1 0 
0 -18 1 7 0 8 1 -13 0 -7 1 -6 1 0 -1 0 
2 -1 0 12 1 25 0 -2 1 10 0 6 1 6 1 -1 
0 -4 1 -4 0 2 1 20 1 -24 0 -12 1 -23 0 -7 
1 -4 0 1 1 1 299 196 300 MP stroke
1 0 1 -1 1 1 0 -1 1 2 1 1 0 3 1 -5 
1 3 0 2 1 13 0 3 1 4 0 1 1 1 1 -8 
1 -5 0 -9 1 -5 0 -1 2 0 1 0 1 0 1 -1 
0 2 1 0 1 0 -1 0 2 1 1 -2 1 10 0 6 
1 4 0 8 1 9 0 4 1 7 0 2 1 2 1 4 
0 4 1 0 1 5 0 10 1 0 0 -2 1 -5 0 7 
1 -9 0 -11 1 -11 1 -7 0 -8 1 -14 0 -13 1 -3 
1 1 1 0 -1 0 2 0 1 0 1 0 1 1 1 0 
-1 0 2 3 0 -3 1 0 1 -1 0 3 1 -2 0 6 
1 -3 0 4 1 4 1 11 0 -2 1 32 0 -4 1 18 
0 2 1 -1 0 -1 1 -3 0 -5 1 3 0 -1 1 -12 
0 -4 1 0 1 -1 0 -8 1 2 0 -24 1 -10 0 -4 
1 -1 1 1 1 0 1 0 1 -1 1 1 1 0 1 -1 
1 1 1 0 1 -1 0 2 1 0 1 0 0 -1 2 1 
0 1 1 2 0 7 1 15 0 5 1 13 0 8 1 5 
0 13 1 3 1 6 0 7 1 1 0 -3 1 3 0 1 
1 7 0 -1 1 7 0 -7 1 4 1 1 1 -7 0 -2 
1 -13 0 -6 1 2 0 20 1 68 0 -98 1 -15 0 -31 
1 0 0 -6 1 -9 0 -2 1 0 1 0 1 0 1 0 
1 0 -1 0 2 0 0 3 1 -2 1 2 1 4 1 7 
0 -1 1 -13 0 17 1 7 0 3 1 12 0 12 1 3 
0 4 1 8 0 -3 1 -8 1 -3 0 -8 1 -15 0 -7 
1 -14 0 -8 1 -1 1 1 1 0 1 1 0 2 1 0 
1 0 1 0 -1 0 2 0 1 -1 0 1 1 -3 0 3 
1 0 0 20 1 20 0 8 1 6 1 6 0 -3 1 5 
0 -8 1 13 0 -19 1 -14 0 5 1 68 0 -58 1 -17 
0 -2 1 -2 0 4 1 0 1 0 1 -8 0 -6 1 3 
0 -8 1 -5 0 -5 1 2 0 12 1 5 0 -11 1 16 
1 -2 0 -13 1 84 0 -39 1 97 0 -143 1 18 0 8 
1 -40 0 42 1 17 0 -46 1 -14 150 198 238 MP stroke
/c9 { 0.000000 0.000000 1.000000 sr} bdef
c9
1 0 0 3 1 0 1 -9 1 0 0 14 1 0 1 0 
0 -13 1 0 1 19 1 0 0 -10 1 0 1 -6 1 0 
0 -9 1 0 1 0 0 22 1 0 1 5 1 0 0 14 
1 0 1 4 1 0 1 2 1 0 0 -7 1 0 1 -1 
1 0 0 9 1 0 1 -13 1 0 1 11 1 0 0 -9 
1 0 1 7 1 0 0 -36 1 0 1 -3 1 0 1 -34 
1 0 0 31 1 0 1 29 1 0 0 2 1 0 1 -17 
1 0 1 15 1 0 0 -7 1 0 1 -4 1 0 0 25 
1 0 1 0 1 9 1 0 0 -32 1 0 1 -21 1 0 
0 -4 1 0 1 -25 1 0 1 -1 1 0 0 2 1 0 
1 11 1 0 1 1 1 -1 1 0 1 1 1 0 0 -4 
1 0 1 -6 1 0 1 1 1 1 1 0 1 0 1 0 
1 0 1 17 1 0 0 29 1 0 1 -7 1 0 1 23 
1 0 0 -9 1 0 1 -36 1 0 0 -2 1 0 1 -21 
1 0 1 1 1 0 1 0 1 1 1 0 1 1 1 0 
0 -3 1 0 1 2 1 0 0 -2 1 0 1 0 1 0 
1 0 1 0 0 37 1 0 1 15 1 0 0 11 1 0 
1 11 1 0 0 -10 1 0 1 0 0 -14 1 0 1 -27 
1 0 0 -17 1 0 1 40 1 0 1 1 1 0 0 3 
1 0 1 -5 1 0 1 1 1 0 0 2 1 0 1 0 
0 -48 1 0 1 43 1 0 0 -29 1 0 1 -4 1 0 
0 -3 1 0 1 0 0 2 1 0 1 -3 1 0 0 2 
1 0 1 0 1 0 1 0 1 0 1 1 1 -3 1 0 
1 1 1 0 1 0 1 -1 1 0 0 3 1 0 1 -5 
1 0 0 -4 1 0 1 25 1 0 1 29 1 0 0 2 
1 0 1 -4 1 0 0 5 1 0 1 -12 1 0 1 -8 
1 0 0 16 1 0 1 -20 1 0 0 9 1 0 1 -42 
1 0 1 46 1 0 0 42 1 0 1 -18 1 0 0 -8 
1 0 1 -17 1 0 1 -19 1 0 0 -26 1 0 1 0 
1 0 1 0 1 0 1 0 1 0 1 0 0 38 1 0 
1 10 1 0 0 -22 1 0 1 0 0 -26 1 0 1 6 
1 0 1 3 1 0 0 -2 1 0 1 -1 1 0 1 -4 
1 0 0 12 1 0 1 3 1 0 0 35 1 0 1 1 
1 0 1 -1 1 0 0 -6 1 0 1 19 1 0 0 -11 
1 0 1 0 0 -15 1 0 1 -31 1 0 1 1 1 0 
1 0 1 -1 1 0 0 2 1 0 1 -1 1 0 0 -4 
1 0 1 -5 1 0 0 12 1 0 1 0 0 41 1 0 
1 -3 1 0 0 -8 245 156 300 MP stroke
1 0 1 22 1 0 0 -27 1 0 1 0 0 -8 1 0 
1 -18 1 0 0 -3 1 0 1 0 1 0 1 -2 1 0 
0 3 1 0 1 -1 1 0 0 2 1 0 1 1 1 0 
1 -4 1 0 1 -1 1 18 1 0 0 25 1 0 1 27 
1 0 1 0 1 0 0 4 1 0 1 -1 1 0 0 -11 
1 0 1 -6 1 0 1 -6 1 0 1 8 1 0 0 -22 
1 0 1 -18 1 0 1 -21 1 0 0 2 1 0 1 -1 
1 0 1 -1 1 -2 1 0 1 -1 1 0 0 12 1 0 
1 44 1 0 0 11 1 0 1 -14 1 0 1 -20 1 0 
0 -29 1 0 1 1 1 0 1 0 1 1 1 0 1 -2 
1 0 0 10 1 0 1 1 1 0 0 36 1 0 1 9 
1 0 1 -7 1 0 0 -6 1 0 1 -4 1 0 0 -2 
1 0 1 14 1 0 1 -20 1 0 0 -12 1 0 1 -23 
1 0 0 44 1 0 1 0 0 11 1 0 1 -4 1 0 
0 -15 1 0 1 7 0 0 151 155 117 MP stroke
gr

2.02778 w
c9
0 sg
%%IncludeResource: font Helvetica
/Helvetica /ISOLatin1Encoding 14.1944 FMSR

 307  225 mt 
(Time \(min\)) s
 127  149 mt  -90 rotate
(Speed \(mph\)) s
90 rotate
%%IncludeResource: font Helvetica
/Helvetica /ISOLatin1Encoding 10.1389 FMSR

 149  203 mt 
( ) s
 535   21 mt 
( ) s
0.506944 w
1 sg
0 30 187 0 0 -30 344 53 4 MP
PP
-187 0 0 30 187 0 0 -30 344 53 5 MP stroke
0.337963 w
DO
SO
0.506944 w
0 sg
 344   53 mt  531   53 L
 344   23 mt  531   23 L
 344   53 mt  344   23 L
 531   53 mt  531   23 L
 344   53 mt  531   53 L
 344   53 mt  344   23 L
 344   53 mt  531   53 L
 344   23 mt  531   23 L
 344   53 mt  344   23 L
 531   53 mt  531   23 L
 382   36 mt 
(Speed from GPS) s
gs 344 23 188 31 rc
2.02778 w
c8
30 0 349 31 2 MP stroke
gr

2.02778 w
c8
0 sg
 382   49 mt 
(Estimated Speed from Variance) s
gs 344 23 188 31 rc
c9
30 0 349 44 2 MP stroke
0.506944 w
gr

0.506944 w
c9
1 sg
0 181 386 0 0 -181 657 198 4 MP
PP
-386 0 0 181 386 0 0 -181 657 198 5 MP stroke
0.337963 w
DO
0 sg
 657  198 mt  657   17 L
 657   17 mt  657   17 L
 721  198 mt  721   17 L
 721   17 mt  721   17 L
 785  198 mt  785   17 L
 785   17 mt  785   17 L
 850  198 mt  850   17 L
 850   17 mt  850   17 L
 914  198 mt  914   17 L
 914   17 mt  914   17 L
 978  198 mt  978   17 L
 978   17 mt  978   17 L
1043  198 mt 1043   17 L
1043   17 mt 1043   17 L
 657  198 mt 1043  198 L
1043  198 mt 1043  198 L
 657  167 mt 1043  167 L
1043  167 mt 1043  167 L
 657  137 mt 1043  137 L
1043  137 mt 1043  137 L
 657  107 mt 1043  107 L
1043  107 mt 1043  107 L
 657   77 mt 1043   77 L
1043   77 mt 1043   77 L
 657   47 mt 1043   47 L
1043   47 mt 1043   47 L
 657   17 mt 1043   17 L
1043   17 mt 1043   17 L
SO
0.506944 w
 657  198 mt 1043  198 L
 657   17 mt 1043   17 L
 657  198 mt  657   17 L
1043  198 mt 1043   17 L
 657  198 mt 1043  198 L
 657  198 mt  657   17 L
 657  198 mt  657  194 L
 657   17 mt  657   20 L
 655  209 mt 
(0) s
 721  198 mt  721  194 L
 721   17 mt  721   20 L
 719  209 mt 
(2) s
 785  198 mt  785  194 L
 785   17 mt  785   20 L
 783  209 mt 
(4) s
 850  198 mt  850  194 L
 850   17 mt  850   20 L
 848  209 mt 
(6) s
 914  198 mt  914  194 L
 914   17 mt  914   20 L
 912  209 mt 
(8) s
 978  198 mt  978  194 L
 978   17 mt  978   20 L
 973  209 mt 
(10) s
1043  198 mt 1043  194 L
1043   17 mt 1043   20 L
1038  209 mt 
(12) s
 657  198 mt  660  198 L
1043  198 mt 1039  198 L
 637  201 mt 
(-20) s
 657  167 mt  660  167 L
1043  167 mt 1039  167 L
 637  170 mt 
(-10) s
 657  137 mt  660  137 L
1043  137 mt 1039  137 L
 649  140 mt 
(0) s
 657  107 mt  660  107 L
1043  107 mt 1039  107 L
 643  110 mt 
(10) s
 657   77 mt  660   77 L
1043   77 mt 1039   77 L
 643   80 mt 
(20) s
 657   47 mt  660   47 L
1043   47 mt 1039   47 L
 643   50 mt 
(30) s
 657   17 mt  660   17 L
1043   17 mt 1039   17 L
 643   20 mt 
(40) s
 657  198 mt 1043  198 L
 657   17 mt 1043   17 L
 657  198 mt  657   17 L
1043  198 mt 1043   17 L
gs 657 17 387 182 rc
2.02778 w
/c10 { 1.000000 0.000000 1.000000 sr} bdef
c10
0 39 1 -4 0 -1 1 8 0 3 1 7 1 -2 0 3 
1 -19 0 -8 1 3 0 9 1 7 0 -4 1 -17 0 7 
1 3 0 20 1 12 1 2 0 23 1 -18 0 -2 1 6 
0 -12 1 -2 0 -47 1 11 0 -8 1 -10 0 6 1 30 
0 1 1 -1 1 -6 0 8 1 2 0 3 1 -3 0 8 
1 -5 0 4 1 -7 0 -3 1 5 0 -1 1 2 1 -6 
0 6 1 -3 0 7 1 -3 0 -3 1 -13 0 -5 1 3 
0 14 1 5 0 -5 1 -13 0 -12 1 3 1 39 0 -17 
1 -13 0 -3 1 2 1 15 0 -8 1 1 0 -29 1 13 
0 10 1 1 1 8 0 4 1 8 0 1 1 11 0 8 
1 -1 1 -27 0 -4 1 11 0 12 1 1 1 -1 0 -9 
1 10 0 -6 1 -14 0 -14 1 14 0 1 1 -7 0 -8 
1 -2 0 26 1 -10 0 -6 1 10 1 -10 0 -13 1 -9 
0 -7 1 -1 0 25 1 0 1 0 1 0 0 -2 1 0 
1 0 0 -10 1 0 1 -2 1 0 1 1 1 -1 1 0 
0 5 1 0 1 0 0 5 2 0 0 1 1 1 0 -1 
1 -1 1 0 1 -2 1 0 0 4 1 -4 0 -11 1 16 
0 7 1 -27 0 9 1 10 0 12 1 4 0 -1 1 -23 
0 14 1 -1 1 4 0 -9 1 2 0 19 1 -1 0 -17 
1 -4 0 -10 1 -6 0 19 1 0 1 0 1 0 1 -1 
1 0 1 0 1 -1 1 0 0 2 1 1 1 0 0 -2 
1 1 1 1 1 0 1 -1 0 1 1 -1 0 5 1 14 
0 -24 1 8 1 10 0 -11 1 13 0 3 1 -3 1 1 
0 -6 1 -2 0 -4 1 6 0 -5 1 14 1 -24 0 -8 
1 3 0 12 1 -12 0 -8 1 16 0 7 1 4 0 -30 
1 1 0 16 1 11 0 6 1 -4 1 3 0 2 1 3 
0 8 1 10 0 -12 1 -25 0 -15 1 -6 0 -10 1 -5 
0 -1 1 -1 1 47 0 -1 1 2 0 -36 1 -2 0 -11 
1 28 1 0 0 3 1 0 1 4 1 0 1 -3 1 0 
0 3 1 0 1 -1 1 0 1 0 1 0 1 0 1 -2 
1 0 0 3 1 0 1 -1 1 0 1 1 1 -1 0 2 
1 0 1 -4 0 2 1 -1 0 5 1 -1 0 1 1 3 
0 5 1 1 0 -14 1 2 1 11 0 -30 1 18 0 9 
1 -3 0 1 1 7 0 4 1 5 1 -12 0 -3 1 3 
1 15 0 -4 1 -2 0 9 1 -7 0 -3 1 4 0 -38 
1 -2 0 21 1 -18 0 7 1 -1 0 -13 1 -7 1 35 
1 1 0 -47 1 12 0 25 1 -44 0 10 1 6 0 24 
1 -1 1 3 1 -3 811 151 300 MP stroke
0 2 1 37 0 -23 1 -13 0 -4 1 -6 0 -4 1 25 
1 1 1 0 1 -1 1 1 1 1 0 2 1 3 0 -5 
1 0 0 2 1 -35 0 13 1 3 0 -7 1 2 1 0 
0 23 1 -8 0 -5 1 16 0 -5 1 -1 0 -6 1 0 
1 0 0 -2 1 1 1 0 1 1 1 1 1 0 0 5 
1 1 0 -2 1 -12 0 10 1 5 0 2 1 8 1 9 
0 -31 1 7 0 2 1 1 0 3 1 5 0 2 1 -1 
0 5 1 15 0 1 1 -3 1 -24 0 7 1 -9 0 1 
1 -11 0 -7 1 7 0 -14 1 -14 0 29 1 0 1 -1 
1 0 1 1 1 0 0 1 2 -1 1 2 0 1 1 -2 
0 -1 1 5 1 -1 0 2 1 3 0 6 1 -2 0 -8 
1 4 0 10 1 -42 0 32 1 -3 0 20 1 2 1 0 
0 5 1 -3 0 -4 1 -19 0 -2 1 -12 0 24 1 0 
1 -1 -1 0 2 -22 0 8 1 -3 1 -1 0 2 1 0 
1 0 1 0 0 2 1 0 1 -2 1 0 1 0 1 1 
0 -1 2 -2 1 1 0 4 1 -1 1 0 0 2 1 0 
1 -15 0 7 1 14 0 -19 1 13 0 8 1 -23 0 14 
1 3 0 7 1 7 0 1 1 -8 1 4 1 7 1 7 
0 3 1 4 1 8 0 -8 1 -1 0 -8 1 -6 0 2 
1 20 1 61 0 -98 1 -15 0 -10 1 1 0 -7 1 9 
0 -2 1 0 0 21 2 -1 1 0 1 1 0 1 1 -1 
0 4 1 -2 1 3 0 1 1 3 0 8 1 0 1 -14 
0 6 1 8 0 2 1 -32 0 13 1 2 0 -7 1 7 
0 -2 1 6 0 -3 1 -8 0 5 1 -7 1 -14 0 21 
1 0 1 -1 1 0 1 0 0 2 1 0 1 -1 1 3 
1 0 0 -10 1 -1 0 1 1 -3 0 2 1 1 0 -17 
1 20 0 8 1 -3 0 6 1 -3 1 12 0 -8 1 13 
0 -13 1 -14 0 6 1 70 0 -58 1 -17 0 1 1 -1 
0 3 1 -14 1 0 1 13 0 -6 1 2 0 4 1 -5 
0 -5 1 24 0 13 1 5 0 -55 1 16 1 -3 0 -23 
1 83 0 -38 1 101 0 -143 1 18 0 23 1 -40 0 42 
1 10 0 -47 1 -13 0 1 657 179 253 MP stroke
gr

2.02778 w
c10
0 sg
%%IncludeResource: font Helvetica
/Helvetica /ISOLatin1Encoding 14.1944 FMSR

 815  225 mt 
(Time \(min\)) s
 628  178 mt  -90 rotate
(Prediction Error \(mph\)) s
90 rotate
0.506944 w

end %%Color Dict

eplot
%%EndObject

epage
end

showpage

%%Trailer
%%EOF
