%!PS-Adobe-3.0 EPSF-3.0
%%Creator: MATLAB, The MathWorks, Inc. Version 8.0.0.783 (R2012b). Operating System: Darwin 12.5.0 Darwin Kernel Version 12.5.0: Sun Sep 29 13:33:47 PDT 2013; root:xnu-2050.48.12~1/RELEASE_X86_64 x86_64.
%%Title: figs/variance_to_speed_nlin_delta.eps
%%CreationDate: 10/30/2013  19:15:53
%%DocumentNeededFonts: Helvetica
%%DocumentProcessColors: Cyan Magenta Yellow Black
%%LanguageLevel: 2
%%Pages: 1
%%BoundingBox:   -50   200   661   589
%%EndComments

%%BeginProlog
% MathWorks dictionary
/MathWorks 160 dict begin
% definition operators
/bdef {bind def} bind def
/ldef {load def} bind def
/xdef {exch def} bdef
/xstore {exch store} bdef
% operator abbreviations
/c  /clip ldef
/cc /concat ldef
/cp /closepath ldef
/gr /grestore ldef
/gs /gsave ldef
/mt /moveto ldef
/np /newpath ldef
/cm /currentmatrix ldef
/sm /setmatrix ldef
/rm /rmoveto ldef
/rl /rlineto ldef
/s {show newpath} bdef
/sc {setcmykcolor} bdef
/sr /setrgbcolor ldef
/sg /setgray ldef
/w /setlinewidth ldef
/j /setlinejoin ldef
/cap /setlinecap ldef
/rc {rectclip} bdef
/rf {rectfill} bdef
% page state control
/pgsv () def
/bpage {/pgsv save def} bdef
/epage {pgsv restore} bdef
/bplot /gsave ldef
/eplot {stroke grestore} bdef
% orientation switch
/portraitMode 0 def /landscapeMode 1 def /rotateMode 2 def
% coordinate system mappings
/dpi2point 0 def
% font control
/FontSize 0 def
/FMS {/FontSize xstore findfont [FontSize 0 0 FontSize neg 0 0]
  makefont setfont} bdef
/reencode {exch dup where {pop load} {pop StandardEncoding} ifelse
  exch dup 3 1 roll findfont dup length dict begin
  { 1 index /FID ne {def}{pop pop} ifelse } forall
  /Encoding exch def currentdict end definefont pop} bdef
/isroman {findfont /CharStrings get /Agrave known} bdef
/FMSR {3 1 roll 1 index dup isroman {reencode} {pop pop} ifelse
  exch FMS} bdef
/csm {1 dpi2point div -1 dpi2point div scale neg translate
 dup landscapeMode eq {pop -90 rotate}
  {rotateMode eq {90 rotate} if} ifelse} bdef
% line types: solid, dotted, dashed, dotdash
/SO { [] 0 setdash } bdef
/DO { [.5 dpi2point mul 4 dpi2point mul] 0 setdash } bdef
/DA { [6 dpi2point mul] 0 setdash } bdef
/DD { [.5 dpi2point mul 4 dpi2point mul 6 dpi2point mul 4
  dpi2point mul] 0 setdash } bdef
% macros for lines and objects
/L {lineto stroke} bdef
/MP {3 1 roll moveto 1 sub {rlineto} repeat} bdef
/AP {{rlineto} repeat} bdef
/PDlw -1 def
/W {/PDlw currentlinewidth def setlinewidth} def
/PP {closepath eofill} bdef
/DP {closepath stroke} bdef
/MR {4 -2 roll moveto dup  0 exch rlineto exch 0 rlineto
  neg 0 exch rlineto closepath} bdef
/FR {MR stroke} bdef
/PR {MR fill} bdef
/L1i {{currentfile picstr readhexstring pop} image} bdef
/tMatrix matrix def
/MakeOval {newpath tMatrix currentmatrix pop translate scale
0 0 1 0 360 arc tMatrix setmatrix} bdef
/FO {MakeOval stroke} bdef
/PO {MakeOval fill} bdef
/PD {currentlinewidth 2 div 0 360 arc fill
   PDlw -1 eq not {PDlw w /PDlw -1 def} if} def
/FA {newpath tMatrix currentmatrix pop translate scale
  0 0 1 5 -2 roll arc tMatrix setmatrix stroke} bdef
/PA {newpath tMatrix currentmatrix pop	translate 0 0 moveto scale
  0 0 1 5 -2 roll arc closepath tMatrix setmatrix fill} bdef
/FAn {newpath tMatrix currentmatrix pop translate scale
  0 0 1 5 -2 roll arcn tMatrix setmatrix stroke} bdef
/PAn {newpath tMatrix currentmatrix pop translate 0 0 moveto scale
  0 0 1 5 -2 roll arcn closepath tMatrix setmatrix fill} bdef
/vradius 0 def /hradius 0 def /lry 0 def
/lrx 0 def /uly 0 def /ulx 0 def /rad 0 def
/MRR {/vradius xdef /hradius xdef /lry xdef /lrx xdef /uly xdef
  /ulx xdef newpath tMatrix currentmatrix pop ulx hradius add uly
  vradius add translate hradius vradius scale 0 0 1 180 270 arc 
  tMatrix setmatrix lrx hradius sub uly vradius add translate
  hradius vradius scale 0 0 1 270 360 arc tMatrix setmatrix
  lrx hradius sub lry vradius sub translate hradius vradius scale
  0 0 1 0 90 arc tMatrix setmatrix ulx hradius add lry vradius sub
  translate hradius vradius scale 0 0 1 90 180 arc tMatrix setmatrix
  closepath} bdef
/FRR {MRR stroke } bdef
/PRR {MRR fill } bdef
/MlrRR {/lry xdef /lrx xdef /uly xdef /ulx xdef /rad lry uly sub 2 div def
  newpath tMatrix currentmatrix pop ulx rad add uly rad add translate
  rad rad scale 0 0 1 90 270 arc tMatrix setmatrix lrx rad sub lry rad
  sub translate rad rad scale 0 0 1 270 90 arc tMatrix setmatrix
  closepath} bdef
/FlrRR {MlrRR stroke } bdef
/PlrRR {MlrRR fill } bdef
/MtbRR {/lry xdef /lrx xdef /uly xdef /ulx xdef /rad lrx ulx sub 2 div def
  newpath tMatrix currentmatrix pop ulx rad add uly rad add translate
  rad rad scale 0 0 1 180 360 arc tMatrix setmatrix lrx rad sub lry rad
  sub translate rad rad scale 0 0 1 0 180 arc tMatrix setmatrix
  closepath} bdef
/FtbRR {MtbRR stroke } bdef
/PtbRR {MtbRR fill } bdef
/stri 6 array def /dtri 6 array def
/smat 6 array def /dmat 6 array def
/tmat1 6 array def /tmat2 6 array def /dif 3 array def
/asub {/ind2 exch def /ind1 exch def dup dup
  ind1 get exch ind2 get sub exch } bdef
/tri_to_matrix {
  2 0 asub 3 1 asub 4 0 asub 5 1 asub
  dup 0 get exch 1 get 7 -1 roll astore } bdef
/compute_transform {
  dmat dtri tri_to_matrix tmat1 invertmatrix 
  smat stri tri_to_matrix tmat2 concatmatrix } bdef
/ds {stri astore pop} bdef
/dt {dtri astore pop} bdef
/db {2 copy /cols xdef /rows xdef mul dup 3 mul string
  currentfile 
  3 index 0 eq {/ASCIIHexDecode filter}
  {/ASCII85Decode filter 3 index 2 eq {/RunLengthDecode filter} if }
  ifelse exch readstring pop
  dup 0 3 index getinterval /rbmap xdef
  dup 2 index dup getinterval /gbmap xdef
  1 index dup 2 mul exch getinterval /bbmap xdef pop pop}bdef
/it {gs np dtri aload pop moveto lineto lineto cp c
  cols rows 8 compute_transform 
  rbmap gbmap bbmap true 3 colorimage gr}bdef
/il {newpath moveto lineto stroke}bdef
currentdict end def
%%EndProlog

%%BeginSetup
MathWorks begin

0 cap

end
%%EndSetup

%%Page: 1 1
%%BeginPageSetup
%%PageBoundingBox:   -50   200   661   589
MathWorks begin
bpage
%%EndPageSetup

%%BeginObject: obj1
bplot

/dpi2point 1.01389 def
portraitMode -0121 0617 csm

   70    20   722   394 rc
86 dict begin %Colortable dictionary
/c0 { 0.000000 0.000000 0.000000 sr} bdef
/c1 { 1.000000 1.000000 1.000000 sr} bdef
/c2 { 0.900000 0.000000 0.000000 sr} bdef
/c3 { 0.000000 0.820000 0.000000 sr} bdef
/c4 { 0.000000 0.000000 0.800000 sr} bdef
/c5 { 0.910000 0.820000 0.320000 sr} bdef
/c6 { 1.000000 0.260000 0.820000 sr} bdef
/c7 { 0.000000 0.820000 0.820000 sr} bdef
c0
1 j
1 sg
   0    0  864  432 rf
0.506944 w
0 147 669 0 0 -147 112 179 4 MP
PP
-669 0 0 147 669 0 0 -147 112 179 5 MP stroke
0.337963 w
DO
0 sg
 112  179 mt  112   32 L
 112   32 mt  112   32 L
 195  179 mt  195   32 L
 195   32 mt  195   32 L
 279  179 mt  279   32 L
 279   32 mt  279   32 L
 362  179 mt  362   32 L
 362   32 mt  362   32 L
 446  179 mt  446   32 L
 446   32 mt  446   32 L
 530  179 mt  530   32 L
 530   32 mt  530   32 L
 613  179 mt  613   32 L
 613   32 mt  613   32 L
 697  179 mt  697   32 L
 697   32 mt  697   32 L
 781  179 mt  781   32 L
 781   32 mt  781   32 L
 112  179 mt  781  179 L
 781  179 mt  781  179 L
 112  154 mt  781  154 L
 781  154 mt  781  154 L
 112  130 mt  781  130 L
 781  130 mt  781  130 L
 112  105 mt  781  105 L
 781  105 mt  781  105 L
 112   81 mt  781   81 L
 781   81 mt  781   81 L
 112   56 mt  781   56 L
 781   56 mt  781   56 L
 112   32 mt  781   32 L
 781   32 mt  781   32 L
SO
0.506944 w
 112  179 mt  781  179 L
 112   32 mt  781   32 L
 112  179 mt  112   32 L
 781  179 mt  781   32 L
 112  179 mt  781  179 L
 112  179 mt  112   32 L
 112  179 mt  112  172 L
 112   32 mt  112   38 L
%%IncludeResource: font Helvetica
/Helvetica /ISOLatin1Encoding 10.1389 FMSR

 110  190 mt 
(0) s
 195  179 mt  195  172 L
 195   32 mt  195   38 L
 193  190 mt 
(2) s
 279  179 mt  279  172 L
 279   32 mt  279   38 L
 277  190 mt 
(4) s
 362  179 mt  362  172 L
 362   32 mt  362   38 L
 360  190 mt 
(6) s
 446  179 mt  446  172 L
 446   32 mt  446   38 L
 444  190 mt 
(8) s
 530  179 mt  530  172 L
 530   32 mt  530   38 L
 525  190 mt 
(10) s
 613  179 mt  613  172 L
 613   32 mt  613   38 L
 608  190 mt 
(12) s
 697  179 mt  697  172 L
 697   32 mt  697   38 L
 692  190 mt 
(14) s
 781  179 mt  781  172 L
 781   32 mt  781   38 L
 776  190 mt 
(16) s
 112  179 mt  118  179 L
 781  179 mt  774  179 L
  92  182 mt 
(-30) s
 112  154 mt  118  154 L
 781  154 mt  774  154 L
  92  157 mt 
(-20) s
 112  130 mt  118  130 L
 781  130 mt  774  130 L
  92  133 mt 
(-10) s
 112  105 mt  118  105 L
 781  105 mt  774  105 L
 104  108 mt 
(0) s
 112   81 mt  118   81 L
 781   81 mt  774   81 L
  98   84 mt 
(10) s
 112   56 mt  118   56 L
 781   56 mt  774   56 L
  98   59 mt 
(20) s
 112   32 mt  118   32 L
 781   32 mt  774   32 L
  98   35 mt 
(30) s
 112  179 mt  781  179 L
 112   32 mt  781   32 L
 112  179 mt  112   32 L
 781  179 mt  781   32 L
gs 112 32 670 148 rc
/c8 { 1.000000 0.000000 0.000000 sr} bdef
c8
1 -1 0 -1 1 -2 1 -2 1 -2 1 -1 1 1 0 3 
1 4 1 4 0 6 1 6 1 7 1 6 0 5 1 3 
1 1 0 -1 1 -2 1 -4 0 -4 1 -6 1 -7 1 -7 
0 -7 1 -6 1 -4 0 -2 1 1 1 3 0 5 1 5 
1 4 0 3 1 2 1 1 1 -1 0 -2 1 -3 1 -4 
0 -5 1 -6 1 -5 0 -5 1 -5 1 -4 1 -5 0 -3 
1 -2 1 -1 1 2 1 5 0 6 1 8 1 11 1 12 
0 13 1 13 1 12 0 11 1 8 1 6 0 3 1 2 
1 1 1 0 1 0 1 0 1 -1 1 -1 0 -1 1 -1 
1 -1 0 -1 1 -1 1 -1 1 -1 0 -1 1 -1 1 0 
1 -1 1 -1 0 -3 1 -4 1 -5 1 -7 0 -6 1 -8 
1 -7 0 -6 1 -5 1 -1 0 3 1 7 1 8 0 8 
1 7 1 3 1 0 0 -2 1 -1 1 -1 1 1 1 1 
1 1 1 -1 1 -2 0 -4 1 -4 1 -4 0 -4 1 -4 
1 -4 0 -5 1 -5 1 -6 1 -7 0 -5 1 -4 1 -2 
1 -1 1 0 -1 0 2 2 1 1 1 1 1 1 1 0 
1 1 1 1 1 1 1 0 1 1 1 0 1 0 1 1 
1 0 1 0 1 1 1 0 1 0 1 0 1 0 1 0 
1 -1 1 0 1 0 1 0 1 -1 1 0 1 -1 1 -1 
1 0 1 -1 1 -1 1 -1 1 -1 1 -1 1 -1 1 -1 
0 -1 1 -1 1 -1 1 -1 1 -1 0 -1 1 -1 1 0 
1 -1 0 -1 1 -1 1 -2 0 -1 1 -1 1 -1 0 -1 
1 -2 1 -1 1 1 0 2 1 4 1 6 0 8 1 10 
1 10 0 10 1 9 1 8 1 6 0 5 1 3 1 3 
0 3 1 3 1 3 0 2 1 1 1 0 -1 0 2 -2 
1 -2 1 -3 0 -2 1 -1 1 -2 0 -1 1 -1 1 -2 
0 -1 1 -2 1 -2 1 -1 0 -2 1 -1 1 -1 1 2 
1 2 0 2 1 2 1 2 1 1 1 1 1 -1 0 -2 
1 -3 1 -3 0 -2 1 -2 1 0 0 2 1 2 1 2 
1 0 1 -2 1 -3 0 -3 1 -3 1 -3 0 -1 1 -2 
1 -2 1 -2 1 -1 1 2 0 1 1 1 1 0 1 -2 
1 -1 1 -1 0 -1 1 -1 1 0 1 -1 1 0 -1 0 
2 -2 1 -2 1 0 1 1 1 1 0 1 1 2 1 1 
0 1 1 2 1 1 1 1 1 0 1 -1 0 -1 1 -1 
1 -2 0 -1 1 -1 1 -1 1 -1 1 0 1 -1 0 -1 
1 -1 1 -1 0 -1 1 -1 1 0 1 1 1 1 0 1 
1 1 1 1 1 1 1 1 1 0 1 -1 1 -2 0 -2 
1 -2 1 -2 1 -1 506 116 300 MP stroke
0 -1 1 1 1 2 0 2 1 3 1 2 0 2 1 0 
1 0 1 0 1 1 1 0 1 0 1 -1 0 -1 1 -2 
1 -1 1 0 1 2 1 3 0 2 1 2 1 0 1 0 
1 -1 1 0 1 0 1 0 -1 0 2 2 1 1 0 1 
1 1 1 1 0 1 1 1 1 0 1 0 1 1 1 0 
-1 0 2 -2 1 -2 0 -3 1 -2 1 -2 0 -2 1 -1 
1 -2 1 -2 0 -1 1 -1 1 -1 0 -1 1 -1 1 -1 
0 -1 1 -1 1 -2 1 -3 0 -2 1 -3 1 -2 0 -1 
1 -2 1 -1 0 -1 1 -2 1 -1 1 -2 0 -1 1 -1 
1 0 -1 0 2 4 1 4 0 4 1 4 1 4 0 4 
1 4 1 4 1 4 0 4 1 3 1 3 0 1 1 1 
1 -1 1 -1 1 -1 1 -1 0 -1 1 -2 1 -2 0 -2 
1 -1 1 -2 0 -1 1 -1 1 0 1 1 0 1 1 2 
1 2 0 2 1 3 1 3 0 2 1 2 1 1 0 2 
1 1 1 2 1 1 1 0 1 0 0 -2 1 -1 1 -2 
0 -2 1 -2 1 -2 1 -2 0 -2 1 -2 1 -3 0 -2 
1 -2 1 -1 1 0 1 2 1 1 0 2 1 1 1 1 
1 -1 1 0 -1 0 2 -2 1 0 1 0 1 -1 1 0 
-1 0 2 -2 1 -1 1 1 1 1 0 1 1 2 1 3 
1 2 0 2 1 2 1 1 0 1 1 1 1 1 0 2 
1 3 1 3 0 2 1 2 1 -1 1 -1 0 -1 1 -2 
1 -1 1 -1 1 -1 0 -1 1 -1 1 -2 1 -1 0 -1 
1 -2 1 -1 0 -2 1 -1 1 -2 0 -2 1 -3 1 -3 
1 -3 0 -4 1 -5 1 -4 0 -5 1 -4 1 -3 0 -2 
1 -1 1 1 0 3 1 3 1 5 1 4 0 5 1 3 
1 3 0 2 1 1 1 1 1 -1 1 -2 1 -2 0 -1 
1 -1 1 0 -1 0 2 4 1 2 0 3 1 2 1 3 
1 2 0 1 1 1 1 -1 0 -1 1 -3 1 -2 0 -2 
1 -2 1 -2 0 -1 1 -1 1 -1 1 -1 0 -2 1 -2 
1 -2 0 -2 1 -2 1 -2 1 -1 1 1 1 2 0 2 
1 1 1 0 1 0 1 1 0 2 1 4 1 5 1 6 
0 7 1 7 1 6 0 5 1 4 1 2 0 1 1 -1 
1 -1 0 -1 1 -1 1 0 1 0 0 2 1 2 1 3 
0 3 1 2 1 1 1 0 1 -1 1 -1 1 0 1 1 
0 1 1 1 1 0 -1 0 2 -3 1 -2 1 -3 0 -3 
1 -3 1 -3 0 -2 1 -3 1 -3 0 -3 1 -3 1 -4 
0 -3 1 -4 1 -2 1 -2 1 0 1 1 0 2 1 2 
1 3 0 2 1 0 285 99 300 MP stroke
1 -1 1 -3 0 -4 1 -6 1 -5 0 -5 1 -3 1 0 
0 3 1 3 1 4 1 3 1 -1 1 -2 0 -1 1 -2 
1 0 -1 0 2 -4 1 -5 0 -5 1 -6 1 -4 1 -1 
1 0 1 1 1 0 1 -2 0 -2 1 -2 1 -3 1 -3 
0 -3 1 -3 1 -1 1 -1 1 1 0 2 1 4 1 5 
1 7 0 8 1 8 1 9 0 8 1 7 1 6 0 4 
1 2 1 1 1 0 1 -2 1 -2 0 -4 1 -5 1 -5 
0 -4 1 -4 1 -3 0 -1 1 -1 1 0 1 -1 0 -1 
1 -2 1 -2 0 -1 1 1 1 3 0 6 1 6 1 6 
1 5 0 4 1 3 1 2 0 1 1 1 1 0 1 -1 
1 -3 0 -3 1 -3 1 -3 1 -1 0 1 1 2 1 3 
0 5 1 6 1 5 0 6 1 3 1 3 1 0 1 -1 
1 -1 0 -1 1 -2 1 -3 0 -2 1 -3 1 -2 1 -3 
0 -2 1 -1 1 0 -1 0 2 2 1 1 0 1 1 1 
1 0 1 0 1 -1 1 -1 0 -2 1 -1 1 -2 0 -1 
1 -1 1 -1 1 -1 1 0 1 -2 0 -1 1 -2 1 -2 
0 -3 1 -3 1 -2 0 -1 1 -1 1 1 1 0 1 0 
1 0 1 0 1 0 1 -1 1 -1 0 1 1 2 1 3 
1 3 0 4 1 4 1 2 0 1 1 1 1 -1 1 -1 
1 -1 1 0 1 -1 1 0 1 0 1 0 1 1 1 0 
1 0 1 0 1 0 1 -1 1 -1 1 0 1 1 0 2 
1 3 1 3 1 3 0 3 1 3 1 2 0 3 1 1 
1 2 0 1 1 3 1 2 1 3 0 2 1 1 1 0 
1 -2 1 -3 0 -4 1 -5 1 -6 0 -6 1 -7 1 -7 
1 -7 0 -7 1 -6 1 -5 0 -3 1 0 1 2 0 4 
1 5 1 4 1 4 0 1 1 -1 1 -4 0 -3 1 -4 
1 -3 0 -2 1 -1 1 0 1 -1 0 -1 1 -1 1 0 
-1 0 2 3 1 3 0 3 1 5 1 6 0 8 1 7 
1 6 0 2 1 -5 1 -11 0 -15 112 119 230 MP stroke
/c9 { 0.000000 0.000000 1.000000 sr} bdef
c9
1 -5 0 -6 1 -7 1 -7 1 -5 0 -1 1 3 1 10 
0 14 1 17 1 16 0 12 1 9 1 3 1 0 0 -4 
1 -5 1 -5 0 -5 1 -4 1 -3 0 -1 1 -1 1 -1 
1 0 -1 0 2 2 1 2 0 3 1 4 1 3 0 3 
1 3 1 1 0 2 1 0 1 0 1 -3 0 -4 1 -6 
1 -6 0 -5 1 -3 1 -2 0 -3 1 -5 1 -8 1 -10 
0 -11 1 -10 1 -7 0 -3 1 -1 1 4 0 8 1 12 
1 17 1 17 0 14 1 12 1 7 0 5 1 2 1 2 
0 1 1 1 1 3 0 3 1 2 1 2 1 -1 0 -3 
1 -3 1 -3 0 -3 1 0 1 -1 1 0 1 1 1 1 
0 1 1 2 1 1 1 -2 1 -1 0 -2 1 -2 1 -2 
1 -1 0 -2 1 -1 1 1 0 2 1 4 1 6 0 8 
1 8 1 6 0 3 1 1 1 -1 1 -1 1 -1 1 0 
0 2 1 1 1 0 0 -2 1 -3 1 -6 1 -6 0 -6 
1 -5 1 -3 0 -3 1 -3 1 -3 0 -6 1 -6 1 -9 
1 -11 0 -10 1 -8 1 -5 0 -3 1 0 1 0 -1 0 
2 3 1 1 1 1 1 1 1 0 1 1 1 1 1 0 
1 1 1 1 1 0 1 0 1 1 1 0 1 0 1 1 
1 0 1 0 1 0 1 0 1 0 1 -1 1 0 1 0 
1 0 1 -1 1 0 1 -1 1 0 1 -1 1 -1 1 0 
-1 0 2 -2 1 0 1 -1 1 -1 1 -1 1 0 1 0 
1 0 1 -1 0 -2 1 -2 1 -2 1 -1 0 -2 1 -1 
1 -1 0 -2 1 -2 1 -2 0 -2 1 -1 1 1 1 5 
0 9 1 14 1 17 0 18 1 16 1 12 0 8 1 5 
1 1 1 1 1 -1 1 0 -1 0 2 2 1 0 -1 0 
2 2 1 0 1 -1 1 0 1 0 -1 0 2 2 1 3 
0 3 1 2 1 1 0 -1 1 -3 1 -6 1 -8 0 -9 
1 -8 1 -7 0 -3 1 -2 1 -1 0 1 1 1 1 0 
1 0 -1 0 2 -2 1 -2 0 -2 1 -2 1 -2 0 -1 
1 -1 1 -2 0 -1 1 -1 1 -1 1 -1 0 -2 1 -1 
1 0 1 0 1 0 1 1 1 0 1 -1 1 -1 1 -1 
1 -1 1 -1 1 1 1 1 1 1 0 1 1 1 1 0 
1 1 1 -1 1 0 1 1 1 0 1 0 1 0 1 1 
1 0 -1 0 2 2 1 1 0 1 1 1 1 0 1 1 
0 -1 1 -2 1 -3 0 -3 1 -4 1 -4 0 -3 1 -2 
1 -1 1 0 1 0 1 1 0 1 1 1 1 1 1 1 
1 0 1 0 1 1 1 1 0 1 1 3 1 3 0 5 
1 4 1 5 0 5 509 90 300 MP stroke
1 4 1 2 1 2 0 1 1 1 1 0 1 -1 1 0 
-1 0 2 -2 1 -2 1 -3 0 -3 1 -4 1 -4 0 -4 
1 -3 1 -3 0 -1 1 -1 1 1 0 1 1 2 1 1 
1 1 1 1 1 1 0 1 1 2 1 2 0 2 1 0 
1 -1 1 -3 0 -4 1 -3 1 -3 0 -2 1 -1 1 -1 
1 0 1 0 1 0 1 1 1 0 1 1 1 0 1 1 
1 0 -1 0 2 2 1 1 1 1 0 2 1 1 1 2 
0 1 1 1 1 1 0 1 1 1 1 0 1 0 -1 0 
2 -4 1 -3 0 -4 1 -4 1 -5 0 -5 1 -4 1 -2 
1 -1 1 0 1 1 0 1 1 1 1 1 0 1 1 1 
1 2 0 3 1 5 1 5 1 5 0 6 1 6 1 5 
0 3 1 -1 1 -3 0 -6 1 -7 1 -7 1 -6 0 -5 
1 -2 1 -2 1 1 1 0 0 2 1 1 1 2 1 3 
0 3 1 3 1 2 0 2 1 1 1 2 0 1 1 1 
1 0 1 -2 1 -1 1 0 1 -1 1 0 1 -1 1 -1 
1 -1 1 -1 1 0 -1 0 2 -2 1 -1 1 1 1 0 
-1 0 2 2 1 1 1 2 0 1 1 2 1 1 0 2 
1 1 1 1 1 1 1 0 1 -1 1 -2 1 -1 0 -2 
1 -1 1 -1 1 -1 1 0 1 0 1 0 1 0 1 -1 
1 -1 0 -1 1 -2 1 -2 0 -1 1 -1 1 -1 1 1 
1 1 1 1 0 2 1 2 1 2 0 2 1 2 1 2 
0 1 1 1 1 1 1 0 -1 0 2 -2 1 -2 0 -3 
1 -3 1 -3 0 -3 1 -2 1 -1 1 -2 0 -1 1 -1 
1 0 0 2 1 2 1 2 0 3 1 2 1 2 1 1 
1 -1 1 -2 0 -2 1 -2 1 -2 1 0 1 2 0 4 
1 4 1 6 1 5 0 4 1 2 1 1 1 -1 1 -2 
0 -1 1 -1 1 0 1 0 -1 0 2 3 1 1 1 -1 
1 -2 0 -5 1 -6 1 -6 0 -6 1 -5 1 -4 1 -2 
1 0 1 1 0 1 1 1 1 1 1 1 1 1 1 2 
0 1 1 1 1 1 0 1 1 2 1 1 0 3 1 3 
1 3 1 3 0 2 1 1 1 0 1 0 1 -1 1 -1 
1 0 -1 0 2 0 1 1 1 1 0 2 1 2 1 2 
0 2 1 1 1 1 0 1 1 -1 1 0 1 -1 1 -1 
1 -1 1 -1 1 -1 0 -2 1 -1 1 -3 1 -2 0 -2 
1 -1 1 -1 1 -1 1 -1 0 -1 1 -2 1 -3 0 -3 
1 -3 1 -3 1 -2 1 -1 1 1 0 2 1 3 1 3 
0 2 1 1 1 1 1 -1 0 -1 1 -2 1 -1 0 -2 
1 -1 1 -1 0 -1 279 117 300 MP stroke
1 -2 1 -1 1 -2 0 -1 1 -2 1 -2 0 -1 1 -1 
1 0 -1 0 2 3 1 3 0 2 1 3 1 2 1 0 
1 -2 1 -3 0 -3 1 -4 1 -3 0 -4 1 -5 1 -6 
1 -7 0 -8 1 -7 1 -5 0 -2 1 0 1 3 0 5 
1 9 1 11 1 12 0 13 1 11 1 8 0 6 1 5 
1 4 0 5 1 4 1 4 0 3 1 2 1 2 1 -1 
0 -2 1 -5 1 -5 0 -7 1 -6 1 -6 0 -5 1 -4 
1 -4 1 -2 1 -1 1 3 0 3 1 3 1 3 0 4 
1 2 1 2 1 2 1 1 1 -1 1 -1 1 -1 0 -1 
1 -1 1 -1 1 -1 1 0 1 0 1 1 1 2 0 1 
1 2 1 3 0 2 1 2 1 3 1 2 0 2 1 1 
1 0 1 0 1 -1 1 -1 1 -2 1 -1 0 -1 1 -1 
1 0 -1 0 2 -3 1 -1 0 -1 1 -1 1 -1 0 -1 
1 -2 1 -1 1 -2 0 -2 1 -1 1 0 1 -1 1 0 
1 0 1 0 1 -1 1 -1 1 -1 1 1 1 1 0 3 
1 2 1 3 1 3 0 3 1 2 1 0 1 -1 1 -3 
0 -3 1 -3 1 -3 0 -2 1 -1 1 -1 1 0 1 0 
1 -1 0 -1 1 -1 1 0 1 0 1 1 1 1 0 1 
1 1 1 1 0 1 1 1 1 1 0 -1 1 -1 1 -3 
0 -1 1 -2 1 -1 1 0 1 -1 1 0 1 0 1 1 
1 2 1 1 1 1 0 1 1 2 1 2 0 1 1 1 
1 1 1 0 1 -1 1 -1 0 -1 1 -1 1 -2 0 -2 
1 -2 1 -2 0 -3 1 -2 1 -3 0 -3 1 -3 1 -4 
1 -3 0 -2 1 -2 1 0 0 2 1 3 1 2 0 3 
1 2 1 2 1 2 0 2 1 2 1 2 0 1 1 -1 
1 -2 0 -5 1 -6 1 -7 1 -9 0 -7 1 -7 1 -4 
0 -1 1 2 1 5 0 7 1 8 1 10 0 9 1 7 
1 5 0 4 1 2 1 1 0 1 112 99 222 MP stroke
gr

c9
0 sg
%%IncludeResource: font Helvetica
/Helvetica /ISOLatin1Encoding 12.1667 FMSR

 416  204 mt 
(Time \(min\)) s
  84  164 mt  -90 rotate
(Speed Change \(mph\)) s
90 rotate
%%IncludeResource: font Helvetica
/Helvetica /ISOLatin1Encoding 10.1389 FMSR

 111  184 mt 
( ) s
 781   36 mt 
( ) s
1 sg
0 30 187 0 0 -30 590 68 4 MP
PP
-187 0 0 30 187 0 0 -30 590 68 5 MP stroke
0.337963 w
DO
SO
0.506944 w
0 sg
 590   68 mt  777   68 L
 590   38 mt  777   38 L
 590   68 mt  590   38 L
 777   68 mt  777   38 L
 590   68 mt  777   68 L
 590   68 mt  590   38 L
 590   68 mt  777   68 L
 590   38 mt  777   38 L
 590   68 mt  590   38 L
 777   68 mt  777   38 L
 628   51 mt 
(Speed from GPS) s
gs 590 38 188 31 rc
c8
30 0 595 46 2 MP stroke
gr

c8
0 sg
 628   64 mt 
(Estimated Speed from Variance) s
gs 590 38 188 31 rc
c9
30 0 595 59 2 MP stroke
gr

c9
1 sg
0 147 669 0 0 -147 112 384 4 MP
PP
-669 0 0 147 669 0 0 -147 112 384 5 MP stroke
0.337963 w
DO
0 sg
 112  384 mt  112  237 L
 112  237 mt  112  237 L
 195  384 mt  195  237 L
 195  237 mt  195  237 L
 279  384 mt  279  237 L
 279  237 mt  279  237 L
 362  384 mt  362  237 L
 362  237 mt  362  237 L
 446  384 mt  446  237 L
 446  237 mt  446  237 L
 530  384 mt  530  237 L
 530  237 mt  530  237 L
 613  384 mt  613  237 L
 613  237 mt  613  237 L
 697  384 mt  697  237 L
 697  237 mt  697  237 L
 781  384 mt  781  237 L
 781  237 mt  781  237 L
 112  384 mt  781  384 L
 781  384 mt  781  384 L
 112  347 mt  781  347 L
 781  347 mt  781  347 L
 112  310 mt  781  310 L
 781  310 mt  781  310 L
 112  273 mt  781  273 L
 781  273 mt  781  273 L
 112  237 mt  781  237 L
 781  237 mt  781  237 L
SO
0.506944 w
 112  384 mt  781  384 L
 112  237 mt  781  237 L
 112  384 mt  112  237 L
 781  384 mt  781  237 L
 112  384 mt  781  384 L
 112  384 mt  112  237 L
 112  384 mt  112  377 L
 112  237 mt  112  243 L
 110  395 mt 
(0) s
 195  384 mt  195  377 L
 195  237 mt  195  243 L
 193  395 mt 
(2) s
 279  384 mt  279  377 L
 279  237 mt  279  243 L
 277  395 mt 
(4) s
 362  384 mt  362  377 L
 362  237 mt  362  243 L
 360  395 mt 
(6) s
 446  384 mt  446  377 L
 446  237 mt  446  243 L
 444  395 mt 
(8) s
 530  384 mt  530  377 L
 530  237 mt  530  243 L
 525  395 mt 
(10) s
 613  384 mt  613  377 L
 613  237 mt  613  243 L
 608  395 mt 
(12) s
 697  384 mt  697  377 L
 697  237 mt  697  243 L
 692  395 mt 
(14) s
 781  384 mt  781  377 L
 781  237 mt  781  243 L
 776  395 mt 
(16) s
 112  384 mt  118  384 L
 781  384 mt  774  384 L
  92  387 mt 
(-20) s
 112  347 mt  118  347 L
 781  347 mt  774  347 L
  92  350 mt 
(-10) s
 112  310 mt  118  310 L
 781  310 mt  774  310 L
 104  313 mt 
(0) s
 112  273 mt  118  273 L
 781  273 mt  774  273 L
  98  276 mt 
(10) s
 112  237 mt  118  237 L
 781  237 mt  774  237 L
  98  240 mt 
(20) s
 112  384 mt  781  384 L
 112  237 mt  781  237 L
 112  384 mt  112  237 L
 781  384 mt  781  237 L
gs 112 237 670 148 rc
/c10 { 1.000000 0.000000 1.000000 sr} bdef
c10
1 6 0 7 1 9 1 7 1 5 0 -1 1 -5 1 -12 
0 -17 1 -20 1 -17 0 -10 1 -3 1 5 1 9 0 13 
1 12 1 10 0 6 1 3 1 -2 0 -5 1 -7 1 -9 
1 -11 0 -11 1 -11 1 -10 0 -7 1 -4 1 0 0 3 
1 3 1 4 0 3 1 2 1 2 1 2 0 4 1 5 
1 2 0 -1 1 -3 1 -5 0 -3 1 0 1 5 1 9 
0 11 1 11 1 9 0 7 1 4 1 1 0 -3 1 -6 
1 -9 1 -7 0 -3 1 3 1 7 0 9 1 9 1 6 
0 3 1 1 1 -2 0 -4 1 -4 1 -2 1 1 0 3 
1 4 1 3 0 2 1 0 1 -1 0 -1 1 -2 1 -3 
1 -3 0 -3 1 -3 1 -2 0 -1 1 1 1 1 0 -1 
1 -4 1 -5 1 -7 0 -8 1 -9 1 -12 0 -13 1 -13 
1 -11 0 -7 1 -2 1 4 0 7 1 8 1 6 1 2 
1 -2 1 -2 0 -2 1 0 1 1 0 4 1 6 1 6 
1 5 0 3 1 1 1 -1 0 -1 1 -1 1 -1 0 1 
1 2 1 4 1 6 0 7 1 7 1 4 0 2 1 1 
1 0 1 -1 1 0 1 0 1 0 1 0 1 0 1 0 
1 0 1 0 1 0 1 0 1 0 1 0 1 0 1 0 
1 0 1 -1 1 0 1 0 1 0 1 0 1 0 1 0 
1 0 1 0 1 0 1 0 1 0 1 0 1 0 1 0 
1 0 1 0 1 0 1 0 1 -1 1 0 0 -2 1 -1 
1 -1 0 -1 1 -1 1 1 0 1 1 1 1 2 1 1 
1 1 1 0 -1 0 2 2 1 1 0 1 1 -1 1 -3 
1 -6 0 -10 1 -15 1 -17 0 -14 1 -10 1 -3 0 3 
1 7 1 9 1 9 0 8 1 5 1 5 0 3 1 3 
1 3 0 2 1 1 1 0 -1 0 2 -3 1 -2 1 -4 
0 -4 1 -5 1 -7 0 -6 1 -5 1 -4 1 2 1 7 
1 9 0 11 1 10 1 8 0 7 1 5 1 4 0 3 
1 1 1 2 1 2 0 3 1 2 1 1 1 -2 1 -1 
0 -2 1 0 1 2 0 4 1 5 1 4 1 3 0 1 
1 -1 1 -3 0 -5 1 -5 1 -4 0 -3 1 -3 1 -3 
1 -2 0 -1 1 1 1 4 0 4 1 2 1 0 -1 0 
2 -4 1 -4 1 -3 0 -2 1 -2 1 -1 0 -1 1 -1 
1 -1 0 -1 1 -2 1 -2 1 -1 1 1 1 2 0 1 
1 2 1 1 1 1 1 0 1 -1 1 -1 1 -1 1 1 
1 2 0 3 1 5 1 4 0 4 1 2 1 0 1 -1 
0 -1 1 -2 1 -3 0 -3 1 -2 1 -2 0 -1 1 1 
1 1 0 2 1 1 515 297 300 MP stroke
1 1 1 -1 0 -1 1 -3 1 -5 0 -7 1 -9 1 -9 
0 -10 1 -9 1 -7 1 -5 0 -2 1 1 1 2 0 4 
1 5 1 4 0 3 1 3 1 3 1 4 0 5 1 6 
1 6 0 6 1 5 1 2 0 1 1 -2 1 -2 0 -3 
1 -1 1 1 1 1 0 3 1 2 1 0 0 -2 1 -3 
1 -4 0 -3 1 -1 1 3 1 5 0 6 1 6 1 5 
0 5 1 3 1 3 0 2 1 1 1 1 1 -1 1 0 
1 -1 0 -1 1 -2 1 -4 0 -4 1 -3 1 -4 0 -4 
1 -4 1 -4 1 -5 0 -4 1 -4 1 -3 0 -3 1 -3 
1 -3 0 -3 1 -4 1 -3 1 -3 0 -2 1 -1 1 2 
0 3 1 6 1 5 0 5 1 3 1 1 1 0 0 -2 
1 -2 1 -1 0 1 1 2 1 5 0 4 1 4 1 3 
0 1 1 -1 1 -1 1 -2 0 -3 1 -4 1 -3 0 -2 
1 1 1 5 0 8 1 9 1 10 1 7 0 5 1 1 
1 -1 0 -2 1 -4 1 -3 0 -3 1 -4 1 -3 1 -4 
0 -2 1 -2 1 0 -1 0 2 3 1 2 0 1 1 1 
1 2 0 3 1 4 1 4 1 3 1 1 1 0 0 -2 
1 -1 1 -2 0 -2 1 -2 1 -2 1 -1 0 -2 1 -2 
1 -3 0 -3 1 -3 1 -3 0 -2 1 -1 1 0 1 1 
1 0 1 -2 0 -2 1 -3 1 -3 0 -2 1 -1 1 0 
-1 0 2 2 1 1 1 2 0 1 1 1 1 0 1 1 
1 2 0 2 1 3 1 4 1 3 0 4 1 4 1 4 
0 3 1 3 1 5 0 5 1 6 1 5 0 4 1 1 
1 -2 1 -3 0 -5 1 -5 1 -5 0 -4 1 -4 1 -4 
0 -4 1 -4 1 -3 1 -2 1 -1 1 1 0 2 1 3 
1 1 0 1 1 -1 1 -2 1 -3 0 -4 1 -6 1 -7 
0 -9 1 -9 1 -8 0 -7 1 -4 1 -2 0 2 1 5 
1 9 1 9 0 10 1 8 1 7 0 4 1 1 1 -2 
0 -5 1 -9 1 -11 1 -10 0 -9 1 -4 1 -1 0 3 
1 4 1 6 0 6 1 6 1 4 1 2 0 1 1 -2 
1 -3 0 -3 1 -1 1 0 0 4 1 6 1 7 0 8 
1 5 1 4 1 1 0 -2 1 -3 1 -5 0 -5 1 -4 
1 -4 0 -3 1 -1 1 0 1 1 1 1 1 -2 0 -2 
1 -2 1 -1 1 1 1 3 1 5 0 7 1 9 1 8 
0 9 1 6 1 4 0 2 1 0 1 -1 0 -2 1 -2 
1 -2 1 -1 1 1 1 1 1 1 1 0 1 0 1 0 
1 0 -1 0 2 2 1 2 0 3 1 2 1 2 1 1 
1 -1 1 -1 0 -1 299 274 300 MP stroke
1 -2 1 -3 0 -3 1 -3 1 -4 0 -3 1 -2 1 -2 
1 0 1 0 1 1 0 1 1 2 1 0 -1 0 2 -2 
1 -1 0 -1 1 -1 1 -1 1 -4 0 -5 1 -6 1 -6 
0 -5 1 -2 1 2 0 5 1 8 1 7 1 6 0 4 
1 1 1 0 1 -1 1 -2 0 -2 1 -7 1 -11 0 -13 
1 -12 1 -9 1 -3 0 1 1 4 1 6 0 5 1 4 
1 2 0 3 1 4 1 6 1 6 0 7 1 6 1 4 
0 3 1 0 1 -3 0 -5 1 -7 1 -8 1 -9 0 -6 
1 -4 1 -1 0 3 1 4 1 2 0 -1 1 -2 1 -4 
0 -5 1 -4 1 -4 1 -4 0 -2 1 -1 1 2 0 3 
1 4 1 5 0 5 1 5 1 5 1 2 1 -4 1 -6 
0 -6 1 -3 1 0 0 3 1 5 1 6 1 6 0 5 
1 4 1 4 0 2 1 2 1 2 0 1 1 -1 1 -2 
0 -4 1 -3 1 -4 1 -1 0 -1 1 2 1 3 0 4 
1 6 1 5 0 5 1 2 1 0 1 -3 0 -3 1 -3 
1 -2 0 -2 1 -3 1 -3 0 -3 1 -2 1 -1 1 -2 
0 -1 1 -1 1 0 0 3 1 4 1 4 0 4 1 2 
1 1 0 2 1 1 1 2 1 1 1 -1 1 -2 0 -1 
1 -1 1 -1 1 -1 1 -1 1 -1 0 -1 1 -2 1 -3 
0 -4 1 -4 1 -6 0 -5 1 -5 1 -4 1 -4 0 -3 
1 -3 1 -1 1 2 1 3 0 4 1 4 1 4 0 4 
1 5 1 5 1 6 0 6 1 5 1 5 0 3 1 1 
1 1 0 -1 1 -2 1 -2 1 -2 0 -2 1 -2 1 -2 
0 -2 1 -1 1 -1 0 2 1 3 1 3 0 3 1 2 
1 1 1 0 1 -1 1 0 -1 0 2 0 1 1 0 2 
1 2 1 2 1 3 0 3 1 2 1 1 0 1 1 1 
1 1 0 3 1 3 1 5 1 5 0 5 1 4 1 3 
0 2 1 0 1 -1 0 -2 1 -4 1 -4 0 -5 1 -5 
1 -6 1 -6 0 -6 1 -8 1 -7 0 -7 1 -4 1 -1 
0 2 1 4 1 4 1 2 0 -1 1 -5 1 -8 0 -7 
1 -4 1 -1 0 4 1 8 1 10 1 11 0 10 1 9 
1 6 0 3 1 0 1 -3 0 -5 1 -6 1 -5 0 -2 
1 1 1 1 0 -3 1 -11 1 -18 0 -24 112 340 263 MP stroke
gr

c10
0 sg
%%IncludeResource: font Helvetica
/Helvetica /ISOLatin1Encoding 12.1667 FMSR

 416  409 mt 
(Time \(min\)) s
  84  371 mt  -90 rotate
(Prediction Error \(mph\)) s
90 rotate

end %%Color Dict

eplot
%%EndObject

epage
end

showpage

%%Trailer
%%EOF
