%!PS-Adobe-3.0 EPSF-3.0
%%Creator: MATLAB, The MathWorks, Inc. Version 8.0.0.783 (R2012b). Operating System: Darwin 12.5.0 Darwin Kernel Version 12.5.0: Sun Sep 29 13:33:47 PDT 2013; root:xnu-2050.48.12~1/RELEASE_X86_64 x86_64.
%%Title: figs/variance_to_speed.eps
%%CreationDate: 10/29/2013  21:20:04
%%DocumentNeededFonts: Helvetica
%%DocumentProcessColors: Cyan Magenta Yellow Black
%%LanguageLevel: 2
%%Pages: 1
%%BoundingBox:   -45   256   661   528
%%EndComments

%%BeginProlog
% MathWorks dictionary
/MathWorks 160 dict begin
% definition operators
/bdef {bind def} bind def
/ldef {load def} bind def
/xdef {exch def} bdef
/xstore {exch store} bdef
% operator abbreviations
/c  /clip ldef
/cc /concat ldef
/cp /closepath ldef
/gr /grestore ldef
/gs /gsave ldef
/mt /moveto ldef
/np /newpath ldef
/cm /currentmatrix ldef
/sm /setmatrix ldef
/rm /rmoveto ldef
/rl /rlineto ldef
/s {show newpath} bdef
/sc {setcmykcolor} bdef
/sr /setrgbcolor ldef
/sg /setgray ldef
/w /setlinewidth ldef
/j /setlinejoin ldef
/cap /setlinecap ldef
/rc {rectclip} bdef
/rf {rectfill} bdef
% page state control
/pgsv () def
/bpage {/pgsv save def} bdef
/epage {pgsv restore} bdef
/bplot /gsave ldef
/eplot {stroke grestore} bdef
% orientation switch
/portraitMode 0 def /landscapeMode 1 def /rotateMode 2 def
% coordinate system mappings
/dpi2point 0 def
% font control
/FontSize 0 def
/FMS {/FontSize xstore findfont [FontSize 0 0 FontSize neg 0 0]
  makefont setfont} bdef
/reencode {exch dup where {pop load} {pop StandardEncoding} ifelse
  exch dup 3 1 roll findfont dup length dict begin
  { 1 index /FID ne {def}{pop pop} ifelse } forall
  /Encoding exch def currentdict end definefont pop} bdef
/isroman {findfont /CharStrings get /Agrave known} bdef
/FMSR {3 1 roll 1 index dup isroman {reencode} {pop pop} ifelse
  exch FMS} bdef
/csm {1 dpi2point div -1 dpi2point div scale neg translate
 dup landscapeMode eq {pop -90 rotate}
  {rotateMode eq {90 rotate} if} ifelse} bdef
% line types: solid, dotted, dashed, dotdash
/SO { [] 0 setdash } bdef
/DO { [.5 dpi2point mul 4 dpi2point mul] 0 setdash } bdef
/DA { [6 dpi2point mul] 0 setdash } bdef
/DD { [.5 dpi2point mul 4 dpi2point mul 6 dpi2point mul 4
  dpi2point mul] 0 setdash } bdef
% macros for lines and objects
/L {lineto stroke} bdef
/MP {3 1 roll moveto 1 sub {rlineto} repeat} bdef
/AP {{rlineto} repeat} bdef
/PDlw -1 def
/W {/PDlw currentlinewidth def setlinewidth} def
/PP {closepath eofill} bdef
/DP {closepath stroke} bdef
/MR {4 -2 roll moveto dup  0 exch rlineto exch 0 rlineto
  neg 0 exch rlineto closepath} bdef
/FR {MR stroke} bdef
/PR {MR fill} bdef
/L1i {{currentfile picstr readhexstring pop} image} bdef
/tMatrix matrix def
/MakeOval {newpath tMatrix currentmatrix pop translate scale
0 0 1 0 360 arc tMatrix setmatrix} bdef
/FO {MakeOval stroke} bdef
/PO {MakeOval fill} bdef
/PD {currentlinewidth 2 div 0 360 arc fill
   PDlw -1 eq not {PDlw w /PDlw -1 def} if} def
/FA {newpath tMatrix currentmatrix pop translate scale
  0 0 1 5 -2 roll arc tMatrix setmatrix stroke} bdef
/PA {newpath tMatrix currentmatrix pop	translate 0 0 moveto scale
  0 0 1 5 -2 roll arc closepath tMatrix setmatrix fill} bdef
/FAn {newpath tMatrix currentmatrix pop translate scale
  0 0 1 5 -2 roll arcn tMatrix setmatrix stroke} bdef
/PAn {newpath tMatrix currentmatrix pop translate 0 0 moveto scale
  0 0 1 5 -2 roll arcn closepath tMatrix setmatrix fill} bdef
/vradius 0 def /hradius 0 def /lry 0 def
/lrx 0 def /uly 0 def /ulx 0 def /rad 0 def
/MRR {/vradius xdef /hradius xdef /lry xdef /lrx xdef /uly xdef
  /ulx xdef newpath tMatrix currentmatrix pop ulx hradius add uly
  vradius add translate hradius vradius scale 0 0 1 180 270 arc 
  tMatrix setmatrix lrx hradius sub uly vradius add translate
  hradius vradius scale 0 0 1 270 360 arc tMatrix setmatrix
  lrx hradius sub lry vradius sub translate hradius vradius scale
  0 0 1 0 90 arc tMatrix setmatrix ulx hradius add lry vradius sub
  translate hradius vradius scale 0 0 1 90 180 arc tMatrix setmatrix
  closepath} bdef
/FRR {MRR stroke } bdef
/PRR {MRR fill } bdef
/MlrRR {/lry xdef /lrx xdef /uly xdef /ulx xdef /rad lry uly sub 2 div def
  newpath tMatrix currentmatrix pop ulx rad add uly rad add translate
  rad rad scale 0 0 1 90 270 arc tMatrix setmatrix lrx rad sub lry rad
  sub translate rad rad scale 0 0 1 270 90 arc tMatrix setmatrix
  closepath} bdef
/FlrRR {MlrRR stroke } bdef
/PlrRR {MlrRR fill } bdef
/MtbRR {/lry xdef /lrx xdef /uly xdef /ulx xdef /rad lrx ulx sub 2 div def
  newpath tMatrix currentmatrix pop ulx rad add uly rad add translate
  rad rad scale 0 0 1 180 360 arc tMatrix setmatrix lrx rad sub lry rad
  sub translate rad rad scale 0 0 1 0 180 arc tMatrix setmatrix
  closepath} bdef
/FtbRR {MtbRR stroke } bdef
/PtbRR {MtbRR fill } bdef
/stri 6 array def /dtri 6 array def
/smat 6 array def /dmat 6 array def
/tmat1 6 array def /tmat2 6 array def /dif 3 array def
/asub {/ind2 exch def /ind1 exch def dup dup
  ind1 get exch ind2 get sub exch } bdef
/tri_to_matrix {
  2 0 asub 3 1 asub 4 0 asub 5 1 asub
  dup 0 get exch 1 get 7 -1 roll astore } bdef
/compute_transform {
  dmat dtri tri_to_matrix tmat1 invertmatrix 
  smat stri tri_to_matrix tmat2 concatmatrix } bdef
/ds {stri astore pop} bdef
/dt {dtri astore pop} bdef
/db {2 copy /cols xdef /rows xdef mul dup 3 mul string
  currentfile 
  3 index 0 eq {/ASCIIHexDecode filter}
  {/ASCII85Decode filter 3 index 2 eq {/RunLengthDecode filter} if }
  ifelse exch readstring pop
  dup 0 3 index getinterval /rbmap xdef
  dup 2 index dup getinterval /gbmap xdef
  1 index dup 2 mul exch getinterval /bbmap xdef pop pop}bdef
/it {gs np dtri aload pop moveto lineto lineto cp c
  cols rows 8 compute_transform 
  rbmap gbmap bbmap true 3 colorimage gr}bdef
/il {newpath moveto lineto stroke}bdef
currentdict end def
%%EndProlog

%%BeginSetup
MathWorks begin

0 cap

end
%%EndSetup

%%Page: 1 1
%%BeginPageSetup
%%PageBoundingBox:   -45   256   661   528
MathWorks begin
bpage
%%EndPageSetup

%%BeginObject: obj1
bplot

/dpi2point 1.01389 def
portraitMode -0121 0545 csm

   76    10   716   275 rc
85 dict begin %Colortable dictionary
/c0 { 0.000000 0.000000 0.000000 sr} bdef
/c1 { 1.000000 1.000000 1.000000 sr} bdef
/c2 { 0.900000 0.000000 0.000000 sr} bdef
/c3 { 0.000000 0.820000 0.000000 sr} bdef
/c4 { 0.000000 0.000000 0.800000 sr} bdef
/c5 { 0.910000 0.820000 0.320000 sr} bdef
/c6 { 1.000000 0.260000 0.820000 sr} bdef
/c7 { 0.000000 0.820000 0.820000 sr} bdef
c0
1 j
1 sg
   0    0  864  288 rf
0.506944 w
0 233 669 0 0 -233 112 255 4 MP
PP
-669 0 0 233 669 0 0 -233 112 255 5 MP stroke
0.337963 w
DO
0 sg
 112  255 mt  112   22 L
 112   22 mt  112   22 L
 195  255 mt  195   22 L
 195   22 mt  195   22 L
 279  255 mt  279   22 L
 279   22 mt  279   22 L
 362  255 mt  362   22 L
 362   22 mt  362   22 L
 446  255 mt  446   22 L
 446   22 mt  446   22 L
 530  255 mt  530   22 L
 530   22 mt  530   22 L
 613  255 mt  613   22 L
 613   22 mt  613   22 L
 697  255 mt  697   22 L
 697   22 mt  697   22 L
 781  255 mt  781   22 L
 781   22 mt  781   22 L
 112  255 mt  781  255 L
 781  255 mt  781  255 L
 112  225 mt  781  225 L
 781  225 mt  781  225 L
 112  196 mt  781  196 L
 781  196 mt  781  196 L
 112  167 mt  781  167 L
 781  167 mt  781  167 L
 112  138 mt  781  138 L
 781  138 mt  781  138 L
 112  109 mt  781  109 L
 781  109 mt  781  109 L
 112   80 mt  781   80 L
 781   80 mt  781   80 L
 112   51 mt  781   51 L
 781   51 mt  781   51 L
 112   22 mt  781   22 L
 781   22 mt  781   22 L
SO
0.506944 w
 112  255 mt  781  255 L
 112   22 mt  781   22 L
 112  255 mt  112   22 L
 781  255 mt  781   22 L
 112  255 mt  781  255 L
 112  255 mt  112   22 L
 112  255 mt  112  248 L
 112   22 mt  112   28 L
%%IncludeResource: font Helvetica
/Helvetica /ISOLatin1Encoding 10.1389 FMSR

 110  266 mt 
(0) s
 195  255 mt  195  248 L
 195   22 mt  195   28 L
 193  266 mt 
(2) s
 279  255 mt  279  248 L
 279   22 mt  279   28 L
 277  266 mt 
(4) s
 362  255 mt  362  248 L
 362   22 mt  362   28 L
 360  266 mt 
(6) s
 446  255 mt  446  248 L
 446   22 mt  446   28 L
 444  266 mt 
(8) s
 530  255 mt  530  248 L
 530   22 mt  530   28 L
 525  266 mt 
(10) s
 613  255 mt  613  248 L
 613   22 mt  613   28 L
 608  266 mt 
(12) s
 697  255 mt  697  248 L
 697   22 mt  697   28 L
 692  266 mt 
(14) s
 781  255 mt  781  248 L
 781   22 mt  781   28 L
 776  266 mt 
(16) s
 112  255 mt  118  255 L
 781  255 mt  774  255 L
 104  258 mt 
(0) s
 112  225 mt  118  225 L
 781  225 mt  774  225 L
 104  228 mt 
(5) s
 112  196 mt  118  196 L
 781  196 mt  774  196 L
  98  199 mt 
(10) s
 112  167 mt  118  167 L
 781  167 mt  774  167 L
  98  170 mt 
(15) s
 112  138 mt  118  138 L
 781  138 mt  774  138 L
  98  141 mt 
(20) s
 112  109 mt  118  109 L
 781  109 mt  774  109 L
  98  112 mt 
(25) s
 112   80 mt  118   80 L
 781   80 mt  774   80 L
  98   83 mt 
(30) s
 112   51 mt  118   51 L
 781   51 mt  774   51 L
  98   54 mt 
(35) s
 112   22 mt  118   22 L
 781   22 mt  774   22 L
  98   25 mt 
(40) s
 112  255 mt  781  255 L
 112   22 mt  781   22 L
 112  255 mt  112   22 L
 781  255 mt  781   22 L
gs 112 22 670 234 rc
/c8 { 1.000000 0.000000 0.000000 sr} bdef
c8
1 -1 0 2 1 -1 1 3 1 -9 0 -5 1 3 1 8 
0 -3 1 14 1 3 0 -5 1 15 1 9 1 12 0 4 
1 1 1 0 0 3 1 -4 1 -2 0 -4 1 -6 1 -7 
1 -4 0 -8 1 -8 1 -6 0 -2 1 -6 1 20 0 3 
1 7 1 4 0 1 1 4 1 1 1 -1 0 -2 1 -1 
1 4 0 -21 1 -2 1 0 1 -12 1 -1 1 -6 0 -5 
1 0 1 1 1 2 1 5 0 5 1 10 1 13 1 15 
0 12 1 13 1 16 0 16 1 8 1 5 0 2 1 -1 
1 2 0 1 1 2 1 -1 1 0 -1 0 2 0 1 -2 
0 -3 1 -1 1 2 0 1 1 -4 1 -5 1 4 0 -5 
1 2 1 -4 1 -1 1 2 0 2 1 -10 1 -10 1 -9 
0 -3 1 3 1 -27 0 14 1 -36 1 11 0 -7 1 21 
1 8 0 8 1 16 1 10 1 -27 0 2 1 -7 1 5 
0 11 1 -15 1 7 0 -8 1 9 1 6 1 -5 0 -24 
1 4 1 -8 0 3 1 -11 1 -1 0 -2 1 -12 1 -5 
1 -9 0 -10 1 -6 1 0 1 0 1 0 -1 0 2 0 
1 0 1 0 1 0 1 0 1 0 1 0 1 0 1 0 
1 0 1 0 1 0 1 0 1 0 1 0 1 0 1 0 
1 0 1 0 1 0 1 0 1 0 1 0 1 0 1 0 
1 0 1 0 1 0 1 0 1 0 1 0 1 0 1 0 
1 0 1 0 1 0 1 0 1 0 1 0 1 0 1 0 
1 2 1 -2 1 1 1 0 1 -1 0 1 1 1 1 0 
1 1 1 -3 1 2 0 4 1 4 1 7 0 15 1 8 
1 17 0 13 1 6 1 17 1 4 0 8 1 2 1 6 
0 -9 1 23 1 -1 0 5 1 2 1 4 0 -2 1 -3 
1 6 1 -11 0 7 1 -8 1 10 0 -6 1 3 1 -2 
0 -1 1 1 1 1 1 -4 0 1 1 8 1 -4 0 -30 
1 43 1 -2 0 -1 1 -4 1 10 1 -5 0 11 1 6 
1 -9 0 -3 1 0 1 3 0 -3 1 -16 1 10 0 9 
1 -1 1 8 1 -5 0 5 1 2 1 -9 0 -2 1 -9 
1 0 0 8 1 -1 1 -7 1 3 0 2 1 -31 1 34 
0 5 1 0 1 -17 0 19 1 -12 1 -6 1 8 0 -1 
1 -5 1 3 0 2 1 -1 1 -2 0 3 1 -3 1 -1 
0 -9 1 8 1 2 1 3 0 -5 1 9 1 -4 0 3 
1 2 1 2 0 1 1 -3 1 4 1 -2 0 -1 1 1 
1 -4 0 -4 1 1 1 -2 0 3 1 -1 1 -4 1 1 
0 -1 1 -3 1 0 0 2 1 -6 1 0 -1 0 2 1 
1 5 1 -2 1 2 514 114 300 MP stroke
1 -1 0 1 1 2 1 1 0 -1 1 -1 1 -4 0 -1 
1 -2 1 -3 1 -2 0 -6 1 4 1 3 0 2 1 4 
1 5 1 -1 1 -3 1 1 0 -2 1 2 1 -1 0 2 
1 3 1 -7 1 -1 1 -1 0 -5 1 -5 1 10 1 5 
0 -2 1 4 1 4 0 -5 1 -8 1 8 0 -5 1 2 
1 -2 1 1 0 3 1 -2 1 -2 0 8 1 -6 1 2 
0 4 1 -2 1 2 1 -2 0 -2 1 0 1 2 0 7 
1 -12 1 0 0 -5 1 -2 1 1 0 -4 1 -1 1 -4 
1 -2 0 -1 1 -1 1 -3 0 3 1 -9 1 4 0 1 
1 -1 1 -6 1 -4 0 1 1 -8 1 -1 0 -2 1 2 
1 -5 0 3 1 -4 1 -3 1 -5 0 9 1 -6 1 -5 
0 -3 1 12 1 5 0 6 1 -1 1 9 1 -3 1 15 
1 2 0 5 1 2 1 4 0 3 1 0 1 -6 0 4 
1 -2 1 0 1 1 0 -4 1 -3 1 1 0 -4 1 0 
1 -3 0 -3 1 3 1 0 1 -2 0 3 1 2 1 0 
0 4 1 4 1 4 0 4 1 1 1 -2 0 1 1 4 
1 2 1 2 1 0 1 0 0 -2 1 -3 1 -1 0 -2 
1 -4 1 0 1 -2 0 -1 1 -4 1 -2 0 -2 1 -3 
1 -2 1 0 1 2 1 2 0 4 1 2 1 -1 1 -1 
1 -1 0 -1 1 -3 1 1 1 2 1 0 1 -2 0 -2 
1 -2 1 0 -1 0 2 -1 1 0 0 5 1 4 1 -3 
1 4 0 3 1 7 1 -3 0 2 1 -4 1 1 0 2 
1 4 1 7 0 1 1 4 1 -3 1 -4 0 -1 1 -3 
1 -2 0 -1 1 4 1 -2 0 -3 1 -2 1 -1 1 -3 
0 -1 1 -2 1 -2 0 -2 1 -2 1 0 0 -3 1 -4 
1 -5 1 -1 0 -6 1 -5 1 -4 0 -7 1 -2 1 -5 
0 -5 1 -1 1 2 0 3 1 3 1 5 1 8 0 4 
1 2 1 -1 0 3 1 2 1 5 0 -3 1 -1 1 -3 
1 -3 0 -1 1 -5 1 1 0 3 1 6 1 -2 0 3 
1 4 1 3 1 1 0 1 1 1 1 1 0 -3 1 -3 
1 -5 0 -2 1 -3 1 0 -1 0 2 -2 1 0 1 -2 
0 -3 1 -3 1 -2 0 -1 1 -2 1 -3 0 -5 1 -1 
1 3 1 5 0 3 1 2 1 -1 0 -3 1 -2 1 -1 
0 4 1 7 1 5 1 3 0 7 1 10 1 7 0 7 
1 2 1 3 0 -3 1 0 1 -2 0 -1 1 -2 1 -1 
1 -1 0 2 1 2 1 8 0 -2 1 3 1 3 0 -1 
1 -3 1 -2 1 -1 0 -1 1 -1 1 0 0 2 1 4 
1 -2 0 -2 1 -4 301 125 300 MP stroke
1 -1 1 -2 0 -12 1 1 1 -3 1 -12 1 7 0 -14 
1 6 1 -14 0 5 1 -13 1 0 1 -4 0 -1 1 4 
1 -2 0 1 1 1 1 -1 0 5 1 4 1 4 1 -18 
0 8 1 -21 1 3 0 -11 1 -8 1 2 1 9 1 18 
1 -10 0 4 1 -9 1 0 0 -4 1 -7 1 -3 0 6 
1 35 1 -56 0 8 1 -14 1 1 1 -4 0 5 1 1 
1 2 0 1 1 -3 1 -2 0 -6 1 0 1 0 1 -2 
0 -5 1 -9 1 1 0 1 1 3 1 0 -1 0 2 10 
1 -11 1 28 0 2 1 7 1 8 0 14 1 5 1 13 
1 0 1 -1 0 5 1 5 1 -14 1 22 0 -32 1 19 
1 -29 0 19 1 -17 1 -1 0 -1 1 1 1 3 1 6 
0 -11 1 17 1 -26 0 8 1 4 1 -14 0 34 1 -4 
1 15 1 0 0 5 1 7 1 0 1 1 1 -1 0 6 
1 10 1 -14 0 -5 1 0 1 -5 1 4 0 -2 1 3 
1 6 0 5 1 6 1 7 0 13 1 -2 1 14 1 -12 
0 1 1 -2 1 7 0 2 1 -11 1 -1 0 1 1 -1 
1 -3 1 -4 1 -4 1 1 0 1 1 4 1 3 0 2 
1 1 1 -5 0 1 1 1 1 3 1 0 0 -4 1 -5 
1 1 0 -1 1 -2 1 1 1 0 1 -3 1 3 0 -5 
1 -5 1 1 0 4 1 -15 1 3 0 -4 1 -3 1 7 
1 2 0 -3 1 0 1 -2 0 -4 1 3 1 6 0 -2 
1 -9 1 2 0 -1 1 5 1 -3 1 6 0 9 1 4 
1 2 0 -4 1 2 1 -2 0 -4 1 1 1 1 1 -2 
0 -4 1 3 1 -5 0 4 1 -4 1 0 0 2 1 -1 
1 -1 0 -2 1 2 1 -4 1 1 0 -3 1 -1 1 2 
0 -5 1 -4 1 -4 0 19 1 -10 1 6 1 -3 0 7 
1 2 1 0 0 7 1 -6 1 0 0 2 1 -1 1 2 
1 9 0 -5 1 1 1 0 0 3 1 -16 1 10 0 -19 
1 9 1 -26 0 5 1 -8 1 -17 1 7 0 -27 1 -1 
1 -4 0 -11 1 0 1 1 0 3 1 7 1 4 1 7 
0 -7 1 9 1 -17 0 -10 1 2 1 -9 0 -2 1 3 
1 2 1 -9 0 -1 1 -6 1 1 1 8 1 -3 0 -1 
1 4 1 4 0 3 1 3 1 22 0 17 1 -15 1 -14 
0 -29 112 255 266 MP stroke
/c9 { 0.000000 0.000000 1.000000 sr} bdef
c9
1 0 0 9 1 0 1 11 1 0 0 4 1 0 1 9 
1 0 1 0 1 0 1 0 1 0 1 0 1 4 1 -5 
1 0 1 0 1 0 1 0 1 0 1 -5 1 5 1 0 
0 5 1 0 1 0 0 2 1 0 1 0 1 0 1 0 
1 0 1 -7 1 0 0 -12 1 0 1 -7 1 0 0 3 
1 0 1 0 1 0 1 0 1 0 1 8 1 0 0 19 
1 0 1 4 1 10 1 0 1 0 1 0 1 -10 1 0 
1 7 1 0 1 0 1 0 1 0 1 -11 1 0 1 -1 
1 -2 1 0 0 2 1 0 1 1 1 11 1 0 1 0 
1 13 1 0 1 0 1 2 1 0 1 0 0 12 1 0 
1 1 1 0 1 0 1 -7 1 -11 1 0 1 0 1 -15 
1 0 0 -3 1 0 1 -15 1 -8 1 0 0 -8 1 0 
1 -6 1 0 0 -6 1 0 1 -5 1 0 1 0 1 -1 
1 0 1 0 1 0 1 0 1 0 1 0 1 0 1 0 
1 0 1 0 1 0 1 0 1 0 1 0 1 0 1 0 
1 0 1 0 1 0 1 0 1 0 1 0 1 0 1 0 
1 0 1 0 1 0 1 0 1 0 1 0 1 0 1 0 
1 0 1 1 1 0 1 0 1 0 1 0 1 0 1 0 
1 0 1 0 1 0 1 0 1 0 1 0 1 0 1 1 
1 4 1 0 0 17 1 0 1 22 1 25 1 0 0 19 
1 0 1 2 1 0 0 3 1 0 1 8 1 5 1 0 
0 7 1 0 1 12 1 24 1 0 1 0 1 13 1 0 
0 -16 1 0 1 -21 1 20 1 0 1 -7 1 1 1 0 
0 -21 1 0 1 -24 1 -15 1 0 1 0 1 -10 1 0 
1 0 1 10 1 -8 1 0 0 -4 1 0 1 0 1 0 
0 11 1 0 1 10 1 -9 1 0 0 -12 1 0 1 11 
1 0 0 9 1 0 1 0 1 4 1 0 1 0 1 -2 
1 0 0 -2 1 0 1 0 1 2 1 0 0 4 1 0 
1 2 1 1 1 0 1 0 1 0 1 0 1 0 1 0 
1 0 1 0 1 0 1 -4 1 0 0 -7 1 0 1 -9 
1 -8 1 0 1 0 1 0 1 0 1 -1 1 0 1 1 
1 4 1 8 1 0 1 5 1 3 1 0 0 23 1 0 
1 41 1 11 1 0 1 0 1 8 1 0 1 0 1 0 
1 -8 1 0 1 -12 1 -29 1 0 0 -26 1 0 1 -6 
1 0 1 0 0 -6 1 0 1 0 1 0 0 6 1 0 
1 0 1 -6 1 0 0 -9 1 0 1 -9 1 0 0 9 
1 0 1 -12 1 -3 1 0 1 0 1 -2 1 0 1 0 
1 1 1 4 1 0 472 158 300 MP stroke
1 0 1 3 1 -5 1 0 1 5 1 7 1 0 1 0 
1 0 1 -7 1 0 1 -5 1 -7 1 0 0 -8 1 0 
1 -6 1 0 1 0 1 -4 1 0 1 0 1 0 1 0 
1 1 1 0 0 18 1 0 1 4 1 0 1 0 1 0 
1 -16 1 0 1 0 1 3 1 0 1 0 1 0 1 0 
1 0 1 0 1 6 1 0 0 7 1 0 1 0 1 0 
1 0 1 1 1 1 1 0 1 -1 1 0 1 0 1 -4 
1 0 1 0 1 1 1 -4 1 0 0 3 1 0 1 5 
1 0 1 0 0 3 1 0 1 3 1 0 0 2 1 0 
1 0 1 0 1 0 1 0 1 0 1 3 1 0 1 -1 
1 -5 1 0 0 3 1 0 1 -5 1 0 1 0 1 0 
1 -2 1 0 1 0 1 0 1 0 1 0 1 0 1 5 
1 0 0 -5 1 0 1 3 1 0 1 0 1 0 1 0 
1 0 1 0 1 0 1 -6 1 0 0 -11 1 0 1 0 
1 0 0 -6 1 0 1 0 1 0 1 0 1 0 1 4 
1 0 1 0 1 0 1 4 1 0 1 0 1 0 1 0 
1 0 1 0 1 18 1 0 0 16 1 0 1 0 1 0 
1 0 1 -2 1 -13 1 0 0 -16 1 0 1 -5 1 -9 
1 0 0 -6 1 0 1 0 1 0 1 -1 1 -1 1 0 
1 0 1 0 1 1 1 0 1 1 1 2 1 7 1 0 
1 0 1 0 1 7 1 0 1 0 0 2 1 0 1 2 
1 2 1 0 1 0 1 0 1 0 0 -2 1 0 1 -1 
1 0 1 0 1 -1 1 0 1 0 0 -5 1 0 1 -5 
1 -1 1 0 1 0 1 -1 1 0 0 -2 1 0 1 -6 
1 -4 1 0 0 -2 1 0 1 0 1 0 1 0 1 0 
1 -3 1 0 0 -3 1 0 1 -1 1 1 1 0 1 2 
1 1 1 0 1 -1 1 0 1 0 1 0 1 1 1 3 
1 0 1 0 1 2 1 0 1 0 1 0 1 -1 1 0 
1 0 1 0 1 -2 1 0 0 -7 1 0 1 -6 1 0 
1 0 1 0 1 0 1 0 0 8 1 0 1 1 1 0 
0 10 1 0 1 8 1 5 1 0 0 16 1 0 1 12 
1 0 1 0 1 -14 1 14 1 0 1 0 1 0 1 0 
1 0 1 0 1 2 1 0 1 0 1 0 1 0 1 0 
1 3 1 0 1 0 0 3 1 0 1 0 0 -3 1 0 
1 5 1 3 1 0 1 0 1 -4 1 0 0 4 1 0 
1 7 1 13 1 0 1 12 1 15 1 0 0 6 1 0 
1 11 1 0 1 0 1 0 1 0 1 0 0 -11 1 0 
1 -14 1 0 1 0 201 98 300 MP stroke
0 -9 1 0 1 -5 1 0 0 -12 1 0 1 0 1 -13 
1 0 0 -3 1 0 1 0 1 0 0 3 1 0 1 0 
1 7 1 0 1 -1 1 0 1 0 0 11 1 0 1 -11 
1 0 1 0 1 1 1 -6 1 -6 1 0 1 -10 1 -6 
1 0 1 0 1 4 1 -6 1 0 1 0 1 0 1 0 
0 -5 1 0 1 0 1 2 1 0 1 -1 1 -5 1 0 
1 0 1 0 1 0 1 0 1 0 1 2 1 0 0 2 
1 0 1 3 1 -3 1 0 1 0 1 0 1 0 0 -2 
1 0 1 -6 1 -1 1 0 0 -4 1 0 1 -3 1 -4 
1 0 1 0 1 -5 1 0 1 0 1 0 1 5 1 0 
1 0 1 0 1 -5 1 -3 1 0 0 -3 1 0 1 -6 
1 0 1 0 1 15 1 -2 1 0 1 0 1 0 1 0 
1 0 1 0 1 0 112 189 100 MP stroke
gr

c9
0 sg
%%IncludeResource: font Helvetica
/Helvetica /ISOLatin1Encoding 12.1667 FMSR

 416  280 mt 
(Time \(min\)) s
  90  157 mt  -90 rotate
(Speed) s
90 rotate
%%IncludeResource: font Helvetica
/Helvetica /ISOLatin1Encoding 10.1389 FMSR

 111  260 mt 
( ) s
 781   26 mt 
( ) s
1 sg
0 30 187 0 0 -30 590 58 4 MP
PP
-187 0 0 30 187 0 0 -30 590 58 5 MP stroke
0.337963 w
DO
SO
0.506944 w
0 sg
 590   58 mt  777   58 L
 590   28 mt  777   28 L
 590   58 mt  590   28 L
 777   58 mt  777   28 L
 590   58 mt  777   58 L
 590   58 mt  590   28 L
 590   58 mt  777   58 L
 590   28 mt  777   28 L
 590   58 mt  590   28 L
 777   58 mt  777   28 L
 628   41 mt 
(Speed from GPS) s
gs 590 28 188 31 rc
c8
30 0 595 36 2 MP stroke
gr

c8
0 sg
 628   54 mt 
(Estimated Speed from Variance) s
gs 590 28 188 31 rc
c9
30 0 595 49 2 MP stroke
gr

c9

end %%Color Dict

eplot
%%EndObject

epage
end

showpage

%%Trailer
%%EOF
