%!PS-Adobe-3.0 EPSF-3.0
%%Creator: MATLAB, The MathWorks, Inc. Version 8.0.0.783 (R2012b). Operating System: Darwin 13.0.0 Darwin Kernel Version 13.0.0: Thu Sep 19 22:22:27 PDT 2013; root:xnu-2422.1.72~6/RELEASE_X86_64 x86_64.
%%Title: figs/variance_to_speed_nlin_cali_roll.eps
%%CreationDate: 10/31/2013  13:55:13
%%DocumentNeededFonts: Helvetica
%%DocumentProcessColors: Cyan Magenta Yellow Black
%%LanguageLevel: 2
%%Pages: 1
%%BoundingBox:   -61   255   659   528
%%EndComments

%%BeginProlog
% MathWorks dictionary
/MathWorks 160 dict begin
% definition operators
/bdef {bind def} bind def
/ldef {load def} bind def
/xdef {exch def} bdef
/xstore {exch store} bdef
% operator abbreviations
/c  /clip ldef
/cc /concat ldef
/cp /closepath ldef
/gr /grestore ldef
/gs /gsave ldef
/mt /moveto ldef
/np /newpath ldef
/cm /currentmatrix ldef
/sm /setmatrix ldef
/rm /rmoveto ldef
/rl /rlineto ldef
/s {show newpath} bdef
/sc {setcmykcolor} bdef
/sr /setrgbcolor ldef
/sg /setgray ldef
/w /setlinewidth ldef
/j /setlinejoin ldef
/cap /setlinecap ldef
/rc {rectclip} bdef
/rf {rectfill} bdef
% page state control
/pgsv () def
/bpage {/pgsv save def} bdef
/epage {pgsv restore} bdef
/bplot /gsave ldef
/eplot {stroke grestore} bdef
% orientation switch
/portraitMode 0 def /landscapeMode 1 def /rotateMode 2 def
% coordinate system mappings
/dpi2point 0 def
% font control
/FontSize 0 def
/FMS {/FontSize xstore findfont [FontSize 0 0 FontSize neg 0 0]
  makefont setfont} bdef
/reencode {exch dup where {pop load} {pop StandardEncoding} ifelse
  exch dup 3 1 roll findfont dup length dict begin
  { 1 index /FID ne {def}{pop pop} ifelse } forall
  /Encoding exch def currentdict end definefont pop} bdef
/isroman {findfont /CharStrings get /Agrave known} bdef
/FMSR {3 1 roll 1 index dup isroman {reencode} {pop pop} ifelse
  exch FMS} bdef
/csm {1 dpi2point div -1 dpi2point div scale neg translate
 dup landscapeMode eq {pop -90 rotate}
  {rotateMode eq {90 rotate} if} ifelse} bdef
% line types: solid, dotted, dashed, dotdash
/SO { [] 0 setdash } bdef
/DO { [.5 dpi2point mul 4 dpi2point mul] 0 setdash } bdef
/DA { [6 dpi2point mul] 0 setdash } bdef
/DD { [.5 dpi2point mul 4 dpi2point mul 6 dpi2point mul 4
  dpi2point mul] 0 setdash } bdef
% macros for lines and objects
/L {lineto stroke} bdef
/MP {3 1 roll moveto 1 sub {rlineto} repeat} bdef
/AP {{rlineto} repeat} bdef
/PDlw -1 def
/W {/PDlw currentlinewidth def setlinewidth} def
/PP {closepath eofill} bdef
/DP {closepath stroke} bdef
/MR {4 -2 roll moveto dup  0 exch rlineto exch 0 rlineto
  neg 0 exch rlineto closepath} bdef
/FR {MR stroke} bdef
/PR {MR fill} bdef
/L1i {{currentfile picstr readhexstring pop} image} bdef
/tMatrix matrix def
/MakeOval {newpath tMatrix currentmatrix pop translate scale
0 0 1 0 360 arc tMatrix setmatrix} bdef
/FO {MakeOval stroke} bdef
/PO {MakeOval fill} bdef
/PD {currentlinewidth 2 div 0 360 arc fill
   PDlw -1 eq not {PDlw w /PDlw -1 def} if} def
/FA {newpath tMatrix currentmatrix pop translate scale
  0 0 1 5 -2 roll arc tMatrix setmatrix stroke} bdef
/PA {newpath tMatrix currentmatrix pop	translate 0 0 moveto scale
  0 0 1 5 -2 roll arc closepath tMatrix setmatrix fill} bdef
/FAn {newpath tMatrix currentmatrix pop translate scale
  0 0 1 5 -2 roll arcn tMatrix setmatrix stroke} bdef
/PAn {newpath tMatrix currentmatrix pop translate 0 0 moveto scale
  0 0 1 5 -2 roll arcn closepath tMatrix setmatrix fill} bdef
/vradius 0 def /hradius 0 def /lry 0 def
/lrx 0 def /uly 0 def /ulx 0 def /rad 0 def
/MRR {/vradius xdef /hradius xdef /lry xdef /lrx xdef /uly xdef
  /ulx xdef newpath tMatrix currentmatrix pop ulx hradius add uly
  vradius add translate hradius vradius scale 0 0 1 180 270 arc 
  tMatrix setmatrix lrx hradius sub uly vradius add translate
  hradius vradius scale 0 0 1 270 360 arc tMatrix setmatrix
  lrx hradius sub lry vradius sub translate hradius vradius scale
  0 0 1 0 90 arc tMatrix setmatrix ulx hradius add lry vradius sub
  translate hradius vradius scale 0 0 1 90 180 arc tMatrix setmatrix
  closepath} bdef
/FRR {MRR stroke } bdef
/PRR {MRR fill } bdef
/MlrRR {/lry xdef /lrx xdef /uly xdef /ulx xdef /rad lry uly sub 2 div def
  newpath tMatrix currentmatrix pop ulx rad add uly rad add translate
  rad rad scale 0 0 1 90 270 arc tMatrix setmatrix lrx rad sub lry rad
  sub translate rad rad scale 0 0 1 270 90 arc tMatrix setmatrix
  closepath} bdef
/FlrRR {MlrRR stroke } bdef
/PlrRR {MlrRR fill } bdef
/MtbRR {/lry xdef /lrx xdef /uly xdef /ulx xdef /rad lrx ulx sub 2 div def
  newpath tMatrix currentmatrix pop ulx rad add uly rad add translate
  rad rad scale 0 0 1 180 360 arc tMatrix setmatrix lrx rad sub lry rad
  sub translate rad rad scale 0 0 1 0 180 arc tMatrix setmatrix
  closepath} bdef
/FtbRR {MtbRR stroke } bdef
/PtbRR {MtbRR fill } bdef
/stri 6 array def /dtri 6 array def
/smat 6 array def /dmat 6 array def
/tmat1 6 array def /tmat2 6 array def /dif 3 array def
/asub {/ind2 exch def /ind1 exch def dup dup
  ind1 get exch ind2 get sub exch } bdef
/tri_to_matrix {
  2 0 asub 3 1 asub 4 0 asub 5 1 asub
  dup 0 get exch 1 get 7 -1 roll astore } bdef
/compute_transform {
  dmat dtri tri_to_matrix tmat1 invertmatrix 
  smat stri tri_to_matrix tmat2 concatmatrix } bdef
/ds {stri astore pop} bdef
/dt {dtri astore pop} bdef
/db {2 copy /cols xdef /rows xdef mul dup 3 mul string
  currentfile 
  3 index 0 eq {/ASCIIHexDecode filter}
  {/ASCII85Decode filter 3 index 2 eq {/RunLengthDecode filter} if }
  ifelse exch readstring pop
  dup 0 3 index getinterval /rbmap xdef
  dup 2 index dup getinterval /gbmap xdef
  1 index dup 2 mul exch getinterval /bbmap xdef pop pop}bdef
/it {gs np dtri aload pop moveto lineto lineto cp c
  cols rows 8 compute_transform 
  rbmap gbmap bbmap true 3 colorimage gr}bdef
/il {newpath moveto lineto stroke}bdef
currentdict end def
%%EndProlog

%%BeginSetup
MathWorks begin

0 cap

end
%%EndSetup

%%Page: 1 1
%%BeginPageSetup
%%PageBoundingBox:   -61   255   659   528
MathWorks begin
bpage
%%EndPageSetup

%%BeginObject: obj1
bplot

/dpi2point 1.01389 def
portraitMode -0121 0545 csm

   59    10   731   276 rc
85 dict begin %Colortable dictionary
/c0 { 0.000000 0.000000 0.000000 sr} bdef
/c1 { 1.000000 1.000000 1.000000 sr} bdef
/c2 { 0.900000 0.000000 0.000000 sr} bdef
/c3 { 0.000000 0.820000 0.000000 sr} bdef
/c4 { 0.000000 0.000000 0.800000 sr} bdef
/c5 { 0.910000 0.820000 0.320000 sr} bdef
/c6 { 1.000000 0.260000 0.820000 sr} bdef
/c7 { 0.000000 0.820000 0.820000 sr} bdef
c0
1 j
1 sg
   0    0  864  289 rf
0.506944 w
0 235 669 0 0 -235 112 256 4 MP
PP
-669 0 0 235 669 0 0 -235 112 256 5 MP stroke
0.337963 w
DO
0 sg
 112  256 mt  112   22 L
 112   22 mt  112   22 L
 178  256 mt  178   22 L
 178   22 mt  178   22 L
 245  256 mt  245   22 L
 245   22 mt  245   22 L
 312  256 mt  312   22 L
 312   22 mt  312   22 L
 379  256 mt  379   22 L
 379   22 mt  379   22 L
 446  256 mt  446   22 L
 446   22 mt  446   22 L
 513  256 mt  513   22 L
 513   22 mt  513   22 L
 580  256 mt  580   22 L
 580   22 mt  580   22 L
 647  256 mt  647   22 L
 647   22 mt  647   22 L
 714  256 mt  714   22 L
 714   22 mt  714   22 L
 781  256 mt  781   22 L
 781   22 mt  781   22 L
 112  256 mt  781  256 L
 781  256 mt  781  256 L
 112  222 mt  781  222 L
 781  222 mt  781  222 L
 112  189 mt  781  189 L
 781  189 mt  781  189 L
 112  155 mt  781  155 L
 781  155 mt  781  155 L
 112  122 mt  781  122 L
 781  122 mt  781  122 L
 112   88 mt  781   88 L
 781   88 mt  781   88 L
 112   55 mt  781   55 L
 781   55 mt  781   55 L
 112   22 mt  781   22 L
 781   22 mt  781   22 L
SO
0.506944 w
 112  256 mt  781  256 L
 112   21 mt  781   21 L
 112  256 mt  112   21 L
 781  256 mt  781   21 L
 112  256 mt  781  256 L
 112  256 mt  112   21 L
 112  256 mt  112  249 L
 112   22 mt  112   28 L
%%IncludeResource: font Helvetica
/Helvetica /ISOLatin1Encoding 10.1389 FMSR

 110  267 mt 
(0) s
 178  256 mt  178  249 L
 178   22 mt  178   28 L
 171  267 mt 
(0.2) s
 245  256 mt  245  249 L
 245   22 mt  245   28 L
 238  267 mt 
(0.4) s
 312  256 mt  312  249 L
 312   22 mt  312   28 L
 305  267 mt 
(0.6) s
 379  256 mt  379  249 L
 379   22 mt  379   28 L
 372  267 mt 
(0.8) s
 446  256 mt  446  249 L
 446   22 mt  446   28 L
 444  267 mt 
(1) s
 513  256 mt  513  249 L
 513   22 mt  513   28 L
 506  267 mt 
(1.2) s
 580  256 mt  580  249 L
 580   22 mt  580   28 L
 573  267 mt 
(1.4) s
 647  256 mt  647  249 L
 647   22 mt  647   28 L
 640  267 mt 
(1.6) s
 714  256 mt  714  249 L
 714   22 mt  714   28 L
 707  267 mt 
(1.8) s
 781  256 mt  781  249 L
 781   22 mt  781   28 L
 779  267 mt 
(2) s
 112  256 mt  118  256 L
 781  256 mt  774  256 L
  81  259 mt 
(-6000) s
 112  222 mt  118  222 L
 781  222 mt  774  222 L
  81  225 mt 
(-5000) s
 112  189 mt  118  189 L
 781  189 mt  774  189 L
  81  192 mt 
(-4000) s
 112  155 mt  118  155 L
 781  155 mt  774  155 L
  81  158 mt 
(-3000) s
 112  122 mt  118  122 L
 781  122 mt  774  122 L
  81  125 mt 
(-2000) s
 112   88 mt  118   88 L
 781   88 mt  774   88 L
  81   91 mt 
(-1000) s
 112   55 mt  118   55 L
 781   55 mt  774   55 L
 104   58 mt 
(0) s
 112   22 mt  118   22 L
 781   22 mt  774   22 L
  87   25 mt 
(1000) s
 112  256 mt  781  256 L
 112   21 mt  781   21 L
 112  256 mt  112   21 L
 781  256 mt  781   21 L
gs 112 22 670 235 rc
/c8 { 1.000000 0.000000 0.000000 sr} bdef
c8
6 -7 5 0 6 0 5 0 6 0 5 0 6 0 6 0 
5 0 6 0 5 1 6 -1 5 1 6 -1 6 0 5 0 
6 0 5 2 11 -2 112 55 20 MP stroke
5 0 6 0 5 0 6 0 6 0 5 1 6 -1 5 0 
6 1 5 -1 6 -193 -1 214 7 -21 5 0 6 0 5 0 
6 0 5 0 6 1 6 0 5 0 6 0 5 -1 6 0 
5 0 6 0 6 0 5 0 6 0 5 0 6 1 5 -152 
0 167 6 -15 6 0 5 -1 6 0 5 0 6 0 6 0 
5 0 6 0 5 0 6 0 5 0 6 0 6 0 5 1 
6 -1 5 0 6 0 5 0 6 -173 0 185 6 -12 5 0 
6 0 5 0 6 0 5 0 6 0 6 0 5 0 6 0 
5 1 6 0 5 0 6 0 6 0 5 0 6 0 5 0 
6 0 5 -139 0 148 6 -9 6 0 5 -1 6 0 5 0 
6 0 6 0 5 0 6 0 5 0 6 0 5 0 6 0 
6 0 5 0 6 0 5 1 6 0 5 0 229 54 95 MP stroke
gr

c8
0 sg
%%IncludeResource: font Helvetica
/Helvetica /ISOLatin1Encoding 12.1667 FMSR

 416  281 mt 
(Time \(min\)) s
  73  158 mt  -90 rotate
(Speed) s
90 rotate
%%IncludeResource: font Helvetica
/Helvetica /ISOLatin1Encoding 10.1389 FMSR

 111  261 mt 
( ) s
 781   26 mt 
( ) s
1 sg
0 30 187 0 0 -30 590 58 4 MP
PP
-187 0 0 30 187 0 0 -30 590 58 5 MP stroke
0.337963 w
DO
SO
0.506944 w
0 sg
 590   58 mt  777   58 L
 590   28 mt  777   28 L
 590   58 mt  590   28 L
 777   58 mt  777   28 L
 590   58 mt  777   58 L
 590   58 mt  590   28 L
 590   58 mt  777   58 L
 590   28 mt  777   28 L
 590   58 mt  590   28 L
 777   58 mt  777   28 L
 628   41 mt 
(Speed from GPS) s
gs 590 28 188 31 rc
c8
30 0 595 36 2 MP stroke
gr

c8
0 sg
 628   54 mt 
(Estimated Speed from Variance) s
gs 590 28 188 31 rc
/c9 { 0.000000 0.000000 1.000000 sr} bdef
c9
30 0 595 49 2 MP stroke
gr

c9

end %%Color Dict

eplot
%%EndObject

epage
end

showpage

%%Trailer
%%EOF
