%!PS-Adobe-3.0 EPSF-3.0
%%Creator: MATLAB, The MathWorks, Inc. Version 8.0.0.783 (R2012b). Operating System: Darwin 12.5.0 Darwin Kernel Version 12.5.0: Sun Sep 29 13:33:47 PDT 2013; root:xnu-2050.48.12~1/RELEASE_X86_64 x86_64.
%%Title: figs/variance_to_speed_relation.eps
%%CreationDate: 12/17/2013  15:07:20
%%DocumentNeededFonts: Helvetica
%%DocumentProcessColors: Cyan Magenta Yellow Black
%%LanguageLevel: 2
%%Pages: 1
%%BoundingBox:    60   282   546   504
%%EndComments

%%BeginProlog
% MathWorks dictionary
/MathWorks 160 dict begin
% definition operators
/bdef {bind def} bind def
/ldef {load def} bind def
/xdef {exch def} bdef
/xstore {exch store} bdef
% operator abbreviations
/c  /clip ldef
/cc /concat ldef
/cp /closepath ldef
/gr /grestore ldef
/gs /gsave ldef
/mt /moveto ldef
/np /newpath ldef
/cm /currentmatrix ldef
/sm /setmatrix ldef
/rm /rmoveto ldef
/rl /rlineto ldef
/s {show newpath} bdef
/sc {setcmykcolor} bdef
/sr /setrgbcolor ldef
/sg /setgray ldef
/w /setlinewidth ldef
/j /setlinejoin ldef
/cap /setlinecap ldef
/rc {rectclip} bdef
/rf {rectfill} bdef
% page state control
/pgsv () def
/bpage {/pgsv save def} bdef
/epage {pgsv restore} bdef
/bplot /gsave ldef
/eplot {stroke grestore} bdef
% orientation switch
/portraitMode 0 def /landscapeMode 1 def /rotateMode 2 def
% coordinate system mappings
/dpi2point 0 def
% font control
/FontSize 0 def
/FMS {/FontSize xstore findfont [FontSize 0 0 FontSize neg 0 0]
  makefont setfont} bdef
/reencode {exch dup where {pop load} {pop StandardEncoding} ifelse
  exch dup 3 1 roll findfont dup length dict begin
  { 1 index /FID ne {def}{pop pop} ifelse } forall
  /Encoding exch def currentdict end definefont pop} bdef
/isroman {findfont /CharStrings get /Agrave known} bdef
/FMSR {3 1 roll 1 index dup isroman {reencode} {pop pop} ifelse
  exch FMS} bdef
/csm {1 dpi2point div -1 dpi2point div scale neg translate
 dup landscapeMode eq {pop -90 rotate}
  {rotateMode eq {90 rotate} if} ifelse} bdef
% line types: solid, dotted, dashed, dotdash
/SO { [] 0 setdash } bdef
/DO { [.5 dpi2point mul 4 dpi2point mul] 0 setdash } bdef
/DA { [6 dpi2point mul] 0 setdash } bdef
/DD { [.5 dpi2point mul 4 dpi2point mul 6 dpi2point mul 4
  dpi2point mul] 0 setdash } bdef
% macros for lines and objects
/L {lineto stroke} bdef
/MP {3 1 roll moveto 1 sub {rlineto} repeat} bdef
/AP {{rlineto} repeat} bdef
/PDlw -1 def
/W {/PDlw currentlinewidth def setlinewidth} def
/PP {closepath eofill} bdef
/DP {closepath stroke} bdef
/MR {4 -2 roll moveto dup  0 exch rlineto exch 0 rlineto
  neg 0 exch rlineto closepath} bdef
/FR {MR stroke} bdef
/PR {MR fill} bdef
/L1i {{currentfile picstr readhexstring pop} image} bdef
/tMatrix matrix def
/MakeOval {newpath tMatrix currentmatrix pop translate scale
0 0 1 0 360 arc tMatrix setmatrix} bdef
/FO {MakeOval stroke} bdef
/PO {MakeOval fill} bdef
/PD {currentlinewidth 2 div 0 360 arc fill
   PDlw -1 eq not {PDlw w /PDlw -1 def} if} def
/FA {newpath tMatrix currentmatrix pop translate scale
  0 0 1 5 -2 roll arc tMatrix setmatrix stroke} bdef
/PA {newpath tMatrix currentmatrix pop	translate 0 0 moveto scale
  0 0 1 5 -2 roll arc closepath tMatrix setmatrix fill} bdef
/FAn {newpath tMatrix currentmatrix pop translate scale
  0 0 1 5 -2 roll arcn tMatrix setmatrix stroke} bdef
/PAn {newpath tMatrix currentmatrix pop translate 0 0 moveto scale
  0 0 1 5 -2 roll arcn closepath tMatrix setmatrix fill} bdef
/vradius 0 def /hradius 0 def /lry 0 def
/lrx 0 def /uly 0 def /ulx 0 def /rad 0 def
/MRR {/vradius xdef /hradius xdef /lry xdef /lrx xdef /uly xdef
  /ulx xdef newpath tMatrix currentmatrix pop ulx hradius add uly
  vradius add translate hradius vradius scale 0 0 1 180 270 arc 
  tMatrix setmatrix lrx hradius sub uly vradius add translate
  hradius vradius scale 0 0 1 270 360 arc tMatrix setmatrix
  lrx hradius sub lry vradius sub translate hradius vradius scale
  0 0 1 0 90 arc tMatrix setmatrix ulx hradius add lry vradius sub
  translate hradius vradius scale 0 0 1 90 180 arc tMatrix setmatrix
  closepath} bdef
/FRR {MRR stroke } bdef
/PRR {MRR fill } bdef
/MlrRR {/lry xdef /lrx xdef /uly xdef /ulx xdef /rad lry uly sub 2 div def
  newpath tMatrix currentmatrix pop ulx rad add uly rad add translate
  rad rad scale 0 0 1 90 270 arc tMatrix setmatrix lrx rad sub lry rad
  sub translate rad rad scale 0 0 1 270 90 arc tMatrix setmatrix
  closepath} bdef
/FlrRR {MlrRR stroke } bdef
/PlrRR {MlrRR fill } bdef
/MtbRR {/lry xdef /lrx xdef /uly xdef /ulx xdef /rad lrx ulx sub 2 div def
  newpath tMatrix currentmatrix pop ulx rad add uly rad add translate
  rad rad scale 0 0 1 180 360 arc tMatrix setmatrix lrx rad sub lry rad
  sub translate rad rad scale 0 0 1 0 180 arc tMatrix setmatrix
  closepath} bdef
/FtbRR {MtbRR stroke } bdef
/PtbRR {MtbRR fill } bdef
/stri 6 array def /dtri 6 array def
/smat 6 array def /dmat 6 array def
/tmat1 6 array def /tmat2 6 array def /dif 3 array def
/asub {/ind2 exch def /ind1 exch def dup dup
  ind1 get exch ind2 get sub exch } bdef
/tri_to_matrix {
  2 0 asub 3 1 asub 4 0 asub 5 1 asub
  dup 0 get exch 1 get 7 -1 roll astore } bdef
/compute_transform {
  dmat dtri tri_to_matrix tmat1 invertmatrix 
  smat stri tri_to_matrix tmat2 concatmatrix } bdef
/ds {stri astore pop} bdef
/dt {dtri astore pop} bdef
/db {2 copy /cols xdef /rows xdef mul dup 3 mul string
  currentfile 
  3 index 0 eq {/ASCIIHexDecode filter}
  {/ASCII85Decode filter 3 index 2 eq {/RunLengthDecode filter} if }
  ifelse exch readstring pop
  dup 0 3 index getinterval /rbmap xdef
  dup 2 index dup getinterval /gbmap xdef
  1 index dup 2 mul exch getinterval /bbmap xdef pop pop}bdef
/it {gs np dtri aload pop moveto lineto lineto cp c
  cols rows 8 compute_transform 
  rbmap gbmap bbmap true 3 colorimage gr}bdef
/il {newpath moveto lineto stroke}bdef
currentdict end def
%%EndProlog

%%BeginSetup
MathWorks begin

0 cap

end
%%EndSetup

%%Page: 1 1
%%BeginPageSetup
%%PageBoundingBox:    60   282   546   504
MathWorks begin
bpage
%%EndPageSetup

%%BeginObject: obj1
bplot

/dpi2point 1.01389 def
portraitMode 0022 0516 csm

   39     5   493   225 rc
86 dict begin %Colortable dictionary
/c0 { 0.000000 0.000000 0.000000 sr} bdef
/c1 { 1.000000 1.000000 1.000000 sr} bdef
/c2 { 0.900000 0.000000 0.000000 sr} bdef
/c3 { 0.000000 0.820000 0.000000 sr} bdef
/c4 { 0.000000 0.000000 0.800000 sr} bdef
/c5 { 0.910000 0.820000 0.320000 sr} bdef
/c6 { 1.000000 0.260000 0.820000 sr} bdef
/c7 { 0.000000 0.820000 0.820000 sr} bdef
c0
1 j
1 sg
   0    0  577  231 rf
0.506944 w
0 184 446 0 0 -184 75 201 4 MP
PP
-446 0 0 184 446 0 0 -184 75 201 5 MP stroke
0.337963 w
DO
0 sg
  75  201 mt   75   17 L
  75   17 mt   75   17 L
 130  201 mt  130   17 L
 130   17 mt  130   17 L
 186  201 mt  186   17 L
 186   17 mt  186   17 L
 242  201 mt  242   17 L
 242   17 mt  242   17 L
 298  201 mt  298   17 L
 298   17 mt  298   17 L
 353  201 mt  353   17 L
 353   17 mt  353   17 L
 409  201 mt  409   17 L
 409   17 mt  409   17 L
 465  201 mt  465   17 L
 465   17 mt  465   17 L
 521  201 mt  521   17 L
 521   17 mt  521   17 L
  75  201 mt  521  201 L
 521  201 mt  521  201 L
  75  174 mt  521  174 L
 521  174 mt  521  174 L
  75  148 mt  521  148 L
 521  148 mt  521  148 L
  75  122 mt  521  122 L
 521  122 mt  521  122 L
  75   95 mt  521   95 L
 521   95 mt  521   95 L
  75   69 mt  521   69 L
 521   69 mt  521   69 L
  75   43 mt  521   43 L
 521   43 mt  521   43 L
  75   17 mt  521   17 L
 521   17 mt  521   17 L
SO
0.506944 w
  75  201 mt  521  201 L
  75  201 mt   75   17 L
  75  201 mt   75  196 L
%%IncludeResource: font Helvetica
/Helvetica /ISOLatin1Encoding 10.1389 FMSR

  73  212 mt 
(0) s
 130  201 mt  130  196 L
 125  212 mt 
(10) s
 186  201 mt  186  196 L
 181  212 mt 
(20) s
 242  201 mt  242  196 L
 237  212 mt 
(30) s
 298  201 mt  298  196 L
 293  212 mt 
(40) s
 353  201 mt  353  196 L
 348  212 mt 
(50) s
 409  201 mt  409  196 L
 404  212 mt 
(60) s
 465  201 mt  465  196 L
 460  212 mt 
(70) s
 521  201 mt  521  196 L
 516  212 mt 
(80) s
  75  201 mt   79  201 L
  67  204 mt 
(0) s
  75  174 mt   79  174 L
  67  177 mt 
(5) s
  75  148 mt   79  148 L
  61  151 mt 
(10) s
  75  122 mt   79  122 L
  61  125 mt 
(15) s
  75   95 mt   79   95 L
  61   98 mt 
(20) s
  75   69 mt   79   69 L
  61   72 mt 
(25) s
  75   43 mt   79   43 L
  61   46 mt 
(30) s
  75   17 mt   79   17 L
  61   20 mt 
(35) s
gs 75 17 447 185 rc
0 j
2.02778 w
gr

2.02778 w
gs 64 65 459 147 rc
/c8 { 0.000000 0.000000 1.000000 sr} bdef
c8
   3    3  101  200 FO
gr

c8
gs 75 17 447 185 rc
gr

gs 64 65 459 147 rc
   3    3  101  170 FO
gr

gs 75 17 447 185 rc
gr

gs 64 65 459 147 rc
   3    3  101  173 FO
gr

gs 75 17 447 185 rc
gr

gs 64 65 459 147 rc
   3    3  106  171 FO
gr

gs 75 17 447 185 rc
gr

gs 64 65 459 147 rc
   3    3  106  165 FO
gr

gs 75 17 447 185 rc
gr

gs 64 65 459 147 rc
   3    3  106  162 FO
gr

gs 75 17 447 185 rc
gr

gs 64 65 459 147 rc
   3    3   93  164 FO
gr

gs 75 17 447 185 rc
gr

gs 64 65 459 147 rc
   3    3   93  166 FO
gr

gs 75 17 447 185 rc
gr

gs 64 65 459 147 rc
   3    3   93  163 FO
gr

gs 75 17 447 185 rc
gr

gs 64 65 459 147 rc
   3    3  118  167 FO
gr

gs 75 17 447 185 rc
gr

gs 64 65 459 147 rc
   3    3  118  173 FO
gr

gs 75 17 447 185 rc
gr

gs 64 65 459 147 rc
   3    3  118  171 FO
gr

gs 75 17 447 185 rc
gr

gs 64 65 459 147 rc
   3    3   95  174 FO
gr

gs 75 17 447 185 rc
gr

gs 64 65 459 147 rc
   3    3   95  169 FO
gr

gs 75 17 447 185 rc
gr

gs 64 65 459 147 rc
   3    3   95  172 FO
gr

gs 75 17 447 185 rc
gr

gs 64 65 459 147 rc
   3    3  137  170 FO
gr

gs 75 17 447 185 rc
gr

gs 64 65 459 147 rc
   3    3  137  165 FO
gr

gs 75 17 447 185 rc
gr

gs 64 65 459 147 rc
   3    3  137  162 FO
gr

gs 75 17 447 185 rc
gr

gs 64 65 459 147 rc
   3    3  109  154 FO
gr

gs 75 17 447 185 rc
gr

gs 64 65 459 147 rc
   3    3  109  145 FO
gr

gs 75 17 447 185 rc
gr

gs 64 65 459 147 rc
   3    3  109  143 FO
gr

gs 75 17 447 185 rc
gr

gs 64 65 459 147 rc
   3    3   98  130 FO
gr

gs 75 17 447 185 rc
gr

gs 64 65 459 147 rc
   3    3   98  144 FO
gr

gs 75 17 447 185 rc
gr

gs 64 65 459 147 rc
   3    3   98  146 FO
gr

gs 75 17 447 185 rc
gr

gs 64 65 459 147 rc
   3    3   88  148 FO
gr

gs 75 17 447 185 rc
gr

gs 64 65 459 147 rc
   3    3   88  158 FO
gr

gs 75 17 447 185 rc
gr

gs 64 65 459 147 rc
   3    3   88  159 FO
gr

gs 75 17 447 185 rc
gr

gs 64 65 459 147 rc
   3    3  127  178 FO
gr

gs 75 17 447 185 rc
gr

gs 64 65 459 147 rc
   3    3  127  170 FO
gr

gs 75 17 447 185 rc
gr

gs 64 65 459 147 rc
   3    3  127  176 FO
gr

gs 75 17 447 185 rc
gr

gs 64 65 459 147 rc
   3    3  145  180 FO
gr

gs 75 17 447 185 rc
gr

gs 64 65 459 147 rc
   3    3  145  175 FO
gr

gs 75 17 447 185 rc
gr

gs 64 65 459 147 rc
   3    3  145  152 FO
gr

gs 75 17 447 185 rc
gr

gs 64 65 459 147 rc
   3    3  230  141 FO
gr

gs 75 17 447 185 rc
gr

gs 64 65 459 147 rc
   3    3  230  142 FO
gr

gs 75 17 447 185 rc
gr

gs 64 65 459 147 rc
   3    3  230  146 FO
gr

gs 75 17 447 185 rc
gr

gs 64 65 459 147 rc
   3    3  271  137 FO
gr

gs 75 17 447 185 rc
gr

gs 64 65 459 147 rc
   3    3  271  135 FO
gr

gs 75 17 447 185 rc
gr

gs 64 65 459 147 rc
   3    3  271  133 FO
gr

gs 75 17 447 185 rc
gr

gs 64 65 459 147 rc
   3    3  294  134 FO
gr

gs 75 17 447 185 rc
gr

gs 64 65 459 147 rc
   3    3  294  128 FO
gr

gs 75 17 447 185 rc
gr

gs 64 65 459 147 rc
   3    3  294  132 FO
gr

gs 75 17 447 185 rc
gr

gs 64 65 459 147 rc
   3    3  220  134 FO
gr

gs 75 17 447 185 rc
gr

gs 64 65 459 147 rc
   3    3  220  140 FO
gr

gs 75 17 447 185 rc
gr

gs 64 65 459 147 rc
   3    3  220  142 FO
gr

gs 75 17 447 185 rc
gr

gs 64 65 459 147 rc
   3    3  209  139 FO
gr

gs 75 17 447 185 rc
gr

gs 64 65 459 147 rc
   3    3  209  140 FO
gr

gs 75 17 447 185 rc
gr

gs 64 65 459 147 rc
   3    3  209  138 FO
gr

gs 75 17 447 185 rc
gr

gs 64 65 459 147 rc
   3    3  305  136 FO
gr

gs 75 17 447 185 rc
gr

gs 64 65 459 147 rc
   3    3  305  131 FO
gr

gs 75 17 447 185 rc
gr

gs 64 65 459 147 rc
   3    3  305  133 FO
gr

gs 75 17 447 185 rc
gr

gs 64 65 459 147 rc
   3    3  183  137 FO
gr

gs 75 17 447 185 rc
gr

gs 64 65 459 147 rc
   3    3  183  140 FO
gr

gs 75 17 447 185 rc
gr

gs 64 65 459 147 rc
   3    3  183  142 FO
gr

gs 75 17 447 185 rc
gr

gs 64 65 459 147 rc
   3    3  285  143 FO
gr

gs 75 17 447 185 rc
gr

gs 64 65 459 147 rc
   3    3  285  148 FO
gr

gs 75 17 447 185 rc
gr

gs 64 65 459 147 rc
   3    3  285  145 FO
gr

gs 75 17 447 185 rc
gr

gs 64 65 459 147 rc
   3    3  199  141 FO
gr

gs 75 17 447 185 rc
gr

gs 64 65 459 147 rc
   3    3  199  137 FO
gr

gs 75 17 447 185 rc
gr

gs 64 65 459 147 rc
   3    3  199  142 FO
gr

gs 75 17 447 185 rc
gr

gs 64 65 459 147 rc
   3    3  264  146 FO
gr

gs 75 17 447 185 rc
gr

gs 64 65 459 147 rc
   3    3  264  156 FO
gr

gs 75 17 447 185 rc
gr

gs 64 65 459 147 rc
   3    3  264  153 FO
gr

gs 75 17 447 185 rc
gr

gs 64 65 459 147 rc
   3    3   96  152 FO
gr

gs 75 17 447 185 rc
gr

gs 64 65 459 147 rc
   3    3   96  165 FO
gr

gs 75 17 447 185 rc
gr

gs 64 65 459 147 rc
   3    3   96  175 FO
gr

gs 75 17 447 185 rc
gr

gs 64 65 459 147 rc
   3    3   93  179 FO
gr

gs 75 17 447 185 rc
gr

gs 64 65 459 147 rc
   3    3   93  177 FO
gr

gs 75 17 447 185 rc
gr

gs 64 65 459 147 rc
   3    3   93  178 FO
gr

gs 75 17 447 185 rc
gr

gs 64 65 459 147 rc
   3    3   75  192 FO
gr

gs 75 17 447 185 rc
gr

gs 64 65 459 147 rc
   3    3   75  198 FO
gr

gs 75 17 447 185 rc
gr

gs 64 65 459 147 rc
   3    3   75  197 FO
gr

gs 75 17 447 185 rc
gr

gs 64 65 459 147 rc
   3    3   90  196 FO
gr

gs 75 17 447 185 rc
gr

gs 64 65 459 147 rc
   3    3   90  186 FO
gr

gs 75 17 447 185 rc
gr

gs 64 65 459 147 rc
   3    3   90  178 FO
gr

gs 75 17 447 185 rc
gr

gs 64 65 459 147 rc
   3    3  160  155 FO
gr

gs 75 17 447 185 rc
gr

gs 64 65 459 147 rc
   3    3  160  149 FO
gr

gs 75 17 447 185 rc
gr

gs 64 65 459 147 rc
   3    3  160  146 FO
gr

gs 75 17 447 185 rc
gr

gs 64 65 459 147 rc
   3    3  173  137 FO
gr

gs 75 17 447 185 rc
gr

gs 64 65 459 147 rc
   3    3  173  137 FO
gr

gs 75 17 447 185 rc
gr

gs 64 65 459 147 rc
   3    3  173  128 FO
gr

gs 75 17 447 185 rc
gr

gs 64 65 459 147 rc
   3    3  111  135 FO
gr

gs 75 17 447 185 rc
gr

gs 64 65 459 147 rc
   3    3  111  136 FO
gr

gs 75 17 447 185 rc
gr

gs 64 65 459 147 rc
   3    3  111  136 FO
gr

gs 75 17 447 185 rc
gr

gs 64 65 459 147 rc
   3    3  162  145 FO
gr

gs 75 17 447 185 rc
gr

gs 64 65 459 147 rc
   3    3  162  148 FO
gr

gs 75 17 447 185 rc
gr

gs 64 65 459 147 rc
   3    3  162  140 FO
gr

gs 75 17 447 185 rc
gr

gs 64 65 459 147 rc
   3    3  132  136 FO
gr

gs 75 17 447 185 rc
gr

gs 64 65 459 147 rc
   3    3  132  135 FO
gr

gs 75 17 447 185 rc
gr

gs 64 65 459 147 rc
   3    3  132  136 FO
gr

gs 75 17 447 185 rc
gr

gs 64 65 459 147 rc
   3    3  119  146 FO
gr

gs 75 17 447 185 rc
gr

gs 64 65 459 147 rc
   3    3  119  139 FO
gr

gs 75 17 447 185 rc
gr

gs 64 65 459 147 rc
   3    3  119  143 FO
gr

gs 75 17 447 185 rc
gr

gs 64 65 459 147 rc
   3    3  270  135 FO
gr

gs 75 17 447 185 rc
gr

gs 64 65 459 147 rc
   3    3  270  146 FO
gr

gs 75 17 447 185 rc
gr

gs 64 65 459 147 rc
   3    3  270  135 FO
gr

gs 75 17 447 185 rc
gr

gs 64 65 459 147 rc
   3    3  270  134 FO
gr

gs 75 17 447 185 rc
gr

gs 64 65 459 147 rc
   3    3  406  132 FO
gr

gs 75 17 447 185 rc
gr

gs 64 65 459 147 rc
   3    3  406  138 FO
gr

gs 75 17 447 185 rc
gr

gs 64 65 459 147 rc
   3    3  406  140 FO
gr

gs 75 17 447 185 rc
gr

gs 64 65 459 147 rc
   3    3  124  145 FO
gr

gs 75 17 447 185 rc
gr

gs 64 65 459 147 rc
   3    3  124  153 FO
gr

gs 75 17 447 185 rc
gr

gs 64 65 459 147 rc
   3    3  124  158 FO
gr

gs 75 17 447 185 rc
gr

gs 64 65 459 147 rc
   3    3   90  165 FO
gr

gs 75 17 447 185 rc
gr

gs 64 65 459 147 rc
   3    3   90  173 FO
gr

gs 75 17 447 185 rc
gr

gs 64 65 459 147 rc
   3    3   90  183 FO
gr

gs 75 17 447 185 rc
gr

gs 64 65 459 147 rc
   3    3   86  194 FO
gr

gs 75 17 447 185 rc
gr

gs 64 65 459 147 rc
   3    3   86  200 FO
gr

gs 75 17 447 185 rc
gr

gs 64 65 459 147 rc
   3    3   86  200 FO
gr

gs 75 17 447 185 rc
gr

gs 64 65 459 147 rc
   3    3   77  201 FO
gr

gs 75 17 447 185 rc
gr

gs 64 65 459 147 rc
   3    3   77  200 FO
gr

gs 75 17 447 185 rc
gr

gs 64 65 459 147 rc
   3    3   77  200 FO
gr

gs 75 17 447 185 rc
gr

gs 64 65 459 147 rc
   3    3   77  200 FO
gr

gs 75 17 447 185 rc
gr

gs 64 65 459 147 rc
   3    3   77  200 FO
gr

gs 75 17 447 185 rc
gr

gs 64 65 459 147 rc
   3    3   77  200 FO
gr

gs 75 17 447 185 rc
gr

gs 64 65 459 147 rc
   3    3   77  200 FO
gr

gs 75 17 447 185 rc
gr

gs 64 65 459 147 rc
   3    3   77  200 FO
gr

gs 75 17 447 185 rc
gr

gs 64 65 459 147 rc
   3    3   77  200 FO
gr

gs 75 17 447 185 rc
gr

gs 64 65 459 147 rc
   3    3   80  200 FO
gr

gs 75 17 447 185 rc
gr

gs 64 65 459 147 rc
   3    3   80  200 FO
gr

gs 75 17 447 185 rc
gr

gs 64 65 459 147 rc
   3    3   80  200 FO
gr

gs 75 17 447 185 rc
gr

gs 64 65 459 147 rc
   3    3   80  200 FO
gr

gs 75 17 447 185 rc
gr

gs 64 65 459 147 rc
   3    3   80  200 FO
gr

gs 75 17 447 185 rc
gr

gs 64 65 459 147 rc
   3    3   80  200 FO
gr

gs 75 17 447 185 rc
gr

gs 64 65 459 147 rc
   3    3   80  200 FO
gr

gs 75 17 447 185 rc
gr

gs 64 65 459 147 rc
   3    3   80  200 FO
gr

gs 75 17 447 185 rc
gr

gs 64 65 459 147 rc
   3    3   80  200 FO
gr

gs 75 17 447 185 rc
gr

gs 64 65 459 147 rc
   3    3   80  200 FO
gr

gs 75 17 447 185 rc
gr

gs 64 65 459 147 rc
   3    3   80  200 FO
gr

gs 75 17 447 185 rc
gr

gs 64 65 459 147 rc
   3    3   80  200 FO
gr

gs 75 17 447 185 rc
gr

gs 64 65 459 147 rc
   3    3   79  201 FO
gr

gs 75 17 447 185 rc
gr

gs 64 65 459 147 rc
   3    3   79  201 FO
gr

gs 75 17 447 185 rc
gr

gs 64 65 459 147 rc
   3    3   79  200 FO
gr

gs 75 17 447 185 rc
gr

gs 64 65 459 147 rc
   3    3   78  200 FO
gr

gs 75 17 447 185 rc
gr

gs 64 65 459 147 rc
   3    3   78  200 FO
gr

gs 75 17 447 185 rc
gr

gs 64 65 459 147 rc
   3    3   78  200 FO
gr

gs 75 17 447 185 rc
gr

gs 64 65 459 147 rc
   3    3   78  200 FO
gr

gs 75 17 447 185 rc
gr

gs 64 65 459 147 rc
   3    3   78  199 FO
gr

gs 75 17 447 185 rc
gr

gs 64 65 459 147 rc
   3    3   78  198 FO
gr

gs 75 17 447 185 rc
gr

gs 64 65 459 147 rc
   3    3   78  198 FO
gr

gs 75 17 447 185 rc
gr

gs 64 65 459 147 rc
   3    3   78  199 FO
gr

gs 75 17 447 185 rc
gr

gs 64 65 459 147 rc
   3    3   78  199 FO
gr

gs 75 17 447 185 rc
gr

gs 64 65 459 147 rc
   3    3   78  199 FO
gr

gs 75 17 447 185 rc
gr

gs 64 65 459 147 rc
   3    3   78  199 FO
gr

gs 75 17 447 185 rc
gr

gs 64 65 459 147 rc
   3    3   78  200 FO
gr

gs 75 17 447 185 rc
gr

gs 64 65 459 147 rc
   3    3   78  201 FO
gr

gs 75 17 447 185 rc
gr

gs 64 65 459 147 rc
   3    3   78  198 FO
gr

gs 75 17 447 185 rc
gr

gs 64 65 459 147 rc
   3    3   78  201 FO
gr

gs 75 17 447 185 rc
gr

gs 64 65 459 147 rc
   3    3   84  196 FO
gr

gs 75 17 447 185 rc
gr

gs 64 65 459 147 rc
   3    3   84  184 FO
gr

gs 75 17 447 185 rc
gr

gs 64 65 459 147 rc
   3    3   84  178 FO
gr

gs 75 17 447 185 rc
gr

gs 64 65 459 147 rc
   3    3  128  176 FO
gr

gs 75 17 447 185 rc
gr

gs 64 65 459 147 rc
   3    3  128  170 FO
gr

gs 75 17 447 185 rc
gr

gs 64 65 459 147 rc
   3    3  128  162 FO
gr

gs 75 17 447 185 rc
gr

gs 64 65 459 147 rc
   3    3  110  158 FO
gr

gs 75 17 447 185 rc
gr

gs 64 65 459 147 rc
   3    3  110  155 FO
gr

gs 75 17 447 185 rc
gr

gs 64 65 459 147 rc
   3    3  110  156 FO
gr

gs 75 17 447 185 rc
gr

gs 64 65 459 147 rc
   3    3  209  156 FO
gr

gs 75 17 447 185 rc
gr

gs 64 65 459 147 rc
   3    3  209  145 FO
gr

gs 75 17 447 185 rc
gr

gs 64 65 459 147 rc
   3    3  209  146 FO
gr

gs 75 17 447 185 rc
gr

gs 64 65 459 147 rc
   3    3  156  149 FO
gr

gs 75 17 447 185 rc
gr

gs 64 65 459 147 rc
   3    3  156  156 FO
gr

gs 75 17 447 185 rc
gr

gs 64 65 459 147 rc
   3    3  156  155 FO
gr

gs 75 17 447 185 rc
gr

gs 64 65 459 147 rc
   3    3   84  168 FO
gr

gs 75 17 447 185 rc
gr

gs 64 65 459 147 rc
   3    3   84  169 FO
gr

gs 75 17 447 185 rc
gr

gs 64 65 459 147 rc
   3    3   84  182 FO
gr

gs 75 17 447 185 rc
gr

gs 64 65 459 147 rc
   3    3   83  186 FO
gr

gs 75 17 447 185 rc
gr

gs 64 65 459 147 rc
   3    3   83  194 FO
gr

gs 75 17 447 185 rc
gr

gs 64 65 459 147 rc
   3    3   83  199 FO
gr

gs 75 17 447 185 rc
gr

gs 64 65 459 147 rc
   3    3   77  201 FO
gr

gs 75 17 447 185 rc
gr

gs 64 65 459 147 rc
   3    3   77  200 FO
gr

gs 75 17 447 185 rc
gr

gs 64 65 459 147 rc
   3    3   77  200 FO
gr

gs 75 17 447 185 rc
gr

gs 64 65 459 147 rc
   3    3   77  200 FO
gr

gs 75 17 447 185 rc
gr

gs 64 65 459 147 rc
   3    3   77  201 FO
gr

gs 75 17 447 185 rc
gr

gs 64 65 459 147 rc
   3    3   77  200 FO
gr

gs 75 17 447 185 rc
gr

gs 64 65 459 147 rc
   3    3   77  200 FO
gr

gs 75 17 447 185 rc
gr

gs 64 65 459 147 rc
   3    3   77  200 FO
gr

gs 75 17 447 185 rc
gr

gs 64 65 459 147 rc
   3    3   77  200 FO
gr

gs 75 17 447 185 rc
gr

gs 64 65 459 147 rc
   3    3   77  200 FO
gr

gs 75 17 447 185 rc
gr

gs 64 65 459 147 rc
   3    3   77  200 FO
gr

gs 75 17 447 185 rc
gr

gs 64 65 459 147 rc
   3    3   77  201 FO
gr

gs 75 17 447 185 rc
gr

gs 64 65 459 147 rc
   3    3   77  200 FO
gr

gs 75 17 447 185 rc
gr

gs 64 65 459 147 rc
   3    3   77  200 FO
gr

gs 75 17 447 185 rc
gr

gs 64 65 459 147 rc
   3    3   77  200 FO
gr

gs 75 17 447 185 rc
gr

gs 64 65 459 147 rc
   3    3   77  200 FO
gr

gs 75 17 447 185 rc
gr

gs 64 65 459 147 rc
   3    3   77  200 FO
gr

gs 75 17 447 185 rc
gr

gs 64 65 459 147 rc
   3    3   77  200 FO
gr

gs 75 17 447 185 rc
gr

gs 64 65 459 147 rc
   3    3   77  200 FO
gr

gs 75 17 447 185 rc
gr

gs 64 65 459 147 rc
   3    3   77  199 FO
gr

gs 75 17 447 185 rc
gr

gs 64 65 459 147 rc
   3    3   77  199 FO
gr

gs 75 17 447 185 rc
gr

gs 64 65 459 147 rc
   3    3   77  200 FO
gr

gs 75 17 447 185 rc
gr

gs 64 65 459 147 rc
   3    3   77  199 FO
gr

gs 75 17 447 185 rc
gr

gs 64 65 459 147 rc
   3    3   77  199 FO
gr

gs 75 17 447 185 rc
gr

gs 64 65 459 147 rc
   3    3   77  200 FO
gr

gs 75 17 447 185 rc
gr

gs 64 65 459 147 rc
   3    3   77  200 FO
gr

gs 75 17 447 185 rc
gr

gs 64 65 459 147 rc
   3    3   77  200 FO
gr

gs 75 17 447 185 rc
gr

gs 64 65 459 147 rc
   3    3   77  201 FO
gr

gs 75 17 447 185 rc
gr

gs 64 65 459 147 rc
   3    3   77  197 FO
gr

gs 75 17 447 185 rc
gr

gs 64 65 459 147 rc
   3    3   77  186 FO
gr

gs 75 17 447 185 rc
gr

gs 64 65 459 147 rc
   3    3   96  176 FO
gr

gs 75 17 447 185 rc
gr

gs 64 65 459 147 rc
   3    3   96  170 FO
gr

gs 75 17 447 185 rc
gr

gs 64 65 459 147 rc
   3    3   96  162 FO
gr

gs 75 17 447 185 rc
gr

gs 64 65 459 147 rc
   3    3  129  158 FO
gr

gs 75 17 447 185 rc
gr

gs 64 65 459 147 rc
   3    3  129  148 FO
gr

gs 75 17 447 185 rc
gr

gs 64 65 459 147 rc
   3    3  129  146 FO
gr

gs 75 17 447 185 rc
gr

gs 64 65 459 147 rc
   3    3  176  140 FO
gr

gs 75 17 447 185 rc
gr

gs 64 65 459 147 rc
   3    3  176  140 FO
gr

gs 75 17 447 185 rc
gr

gs 64 65 459 147 rc
   3    3  176  139 FO
gr

gs 75 17 447 185 rc
gr

gs 64 65 459 147 rc
   3    3  267  135 FO
gr

gs 75 17 447 185 rc
gr

gs 64 65 459 147 rc
   3    3  267  137 FO
gr

gs 75 17 447 185 rc
gr

gs 64 65 459 147 rc
   3    3  267  141 FO
gr

gs 75 17 447 185 rc
gr

gs 64 65 459 147 rc
   3    3  185  143 FO
gr

gs 75 17 447 185 rc
gr

gs 64 65 459 147 rc
   3    3  185  147 FO
gr

gs 75 17 447 185 rc
gr

gs 64 65 459 147 rc
   3    3  185  136 FO
gr

gs 75 17 447 185 rc
gr

gs 64 65 459 147 rc
   3    3  122  166 FO
gr

gs 75 17 447 185 rc
gr

gs 64 65 459 147 rc
   3    3  122  172 FO
gr

gs 75 17 447 185 rc
gr

gs 64 65 459 147 rc
   3    3  122  170 FO
gr

gs 75 17 447 185 rc
gr

gs 64 65 459 147 rc
   3    3   84  182 FO
gr

gs 75 17 447 185 rc
gr

gs 64 65 459 147 rc
   3    3   84  191 FO
gr

gs 75 17 447 185 rc
gr

gs 64 65 459 147 rc
   3    3   84  197 FO
gr

gs 75 17 447 185 rc
gr

gs 64 65 459 147 rc
   3    3   78  197 FO
gr

gs 75 17 447 185 rc
gr

gs 64 65 459 147 rc
   3    3   78  192 FO
gr

gs 75 17 447 185 rc
gr

gs 64 65 459 147 rc
   3    3   78  189 FO
gr

gs 75 17 447 185 rc
gr

gs 64 65 459 147 rc
   3    3  112  182 FO
gr

gs 75 17 447 185 rc
gr

gs 64 65 459 147 rc
   3    3  112  180 FO
gr

gs 75 17 447 185 rc
gr

gs 64 65 459 147 rc
   3    3  112  169 FO
gr

gs 75 17 447 185 rc
gr

gs 64 65 459 147 rc
   3    3  114  159 FO
gr

gs 75 17 447 185 rc
gr

gs 64 65 459 147 rc
   3    3  114  154 FO
gr

gs 75 17 447 185 rc
gr

gs 64 65 459 147 rc
   3    3  114  157 FO
gr

gs 75 17 447 185 rc
gr

gs 64 65 459 147 rc
   3    3  122  152 FO
gr

gs 75 17 447 185 rc
gr

gs 64 65 459 147 rc
   3    3  122  151 FO
gr

gs 75 17 447 185 rc
gr

gs 64 65 459 147 rc
   3    3  122  149 FO
gr

gs 75 17 447 185 rc
gr

gs 64 65 459 147 rc
   3    3  109  147 FO
gr

gs 75 17 447 185 rc
gr

gs 64 65 459 147 rc
   3    3  109  138 FO
gr

gs 75 17 447 185 rc
gr

gs 64 65 459 147 rc
   3    3  109  148 FO
gr

gs 75 17 447 185 rc
gr

gs 64 65 459 147 rc
   3    3  113  167 FO
gr

gs 75 17 447 185 rc
gr

gs 64 65 459 147 rc
   3    3  113  178 FO
gr

gs 75 17 447 185 rc
gr

gs 64 65 459 147 rc
   3    3  113  183 FO
gr

gs 75 17 447 185 rc
gr

gs 64 65 459 147 rc
   3    3  113  190 FO
gr

gs 75 17 447 185 rc
gr

gs 64 65 459 147 rc
   3    3  117  193 FO
gr

gs 75 17 447 185 rc
gr

gs 64 65 459 147 rc
   3    3  117  194 FO
gr

gs 75 17 447 185 rc
gr

gs 64 65 459 147 rc
   3    3  117  195 FO
gr

gs 75 17 447 185 rc
gr

gs 64 65 459 147 rc
   3    3   77  195 FO
gr

gs 75 17 447 185 rc
gr

gs 64 65 459 147 rc
   3    3   77  196 FO
gr

gs 75 17 447 185 rc
gr

gs 64 65 459 147 rc
   3    3   77  194 FO
gr

gs 75 17 447 185 rc
gr

gs 64 65 459 147 rc
   3    3  107  189 FO
gr

gs 75 17 447 185 rc
gr

gs 64 65 459 147 rc
   3    3  107  191 FO
gr

gs 75 17 447 185 rc
gr

gs 64 65 459 147 rc
   3    3  107  199 FO
gr

gs 75 17 447 185 rc
gr

gs 64 65 459 147 rc
   3    3   80  201 FO
gr

gs 75 17 447 185 rc
gr

gs 64 65 459 147 rc
   3    3   80  200 FO
gr

gs 75 17 447 185 rc
gr

gs 64 65 459 147 rc
   3    3   80  200 FO
gr

gs 75 17 447 185 rc
gr

gs 64 65 459 147 rc
   3    3   79  200 FO
gr

gs 75 17 447 185 rc
gr

gs 64 65 459 147 rc
   3    3   79  200 FO
gr

gs 75 17 447 185 rc
gr

gs 64 65 459 147 rc
   3    3   79  200 FO
gr

gs 75 17 447 185 rc
gr

gs 64 65 459 147 rc
   3    3   78  200 FO
gr

gs 75 17 447 185 rc
gr

gs 64 65 459 147 rc
   3    3   78  200 FO
gr

gs 75 17 447 185 rc
gr

gs 64 65 459 147 rc
   3    3   78  200 FO
gr

gs 75 17 447 185 rc
gr

gs 64 65 459 147 rc
   3    3   79  200 FO
gr

gs 75 17 447 185 rc
gr

gs 64 65 459 147 rc
   3    3   79  200 FO
gr

gs 75 17 447 185 rc
gr

gs 64 65 459 147 rc
   3    3   79  200 FO
gr

gs 75 17 447 185 rc
gr

gs 64 65 459 147 rc
   3    3   78  201 FO
gr

gs 75 17 447 185 rc
gr

gs 64 65 459 147 rc
   3    3   78  200 FO
gr

gs 75 17 447 185 rc
gr

gs 64 65 459 147 rc
   3    3   78  200 FO
gr

gs 75 17 447 185 rc
gr

gs 64 65 459 147 rc
   3    3   79  200 FO
gr

gs 75 17 447 185 rc
gr

gs 64 65 459 147 rc
   3    3   79  200 FO
gr

gs 75 17 447 185 rc
gr

gs 64 65 459 147 rc
   3    3   79  200 FO
gr

gs 75 17 447 185 rc
gr

gs 64 65 459 147 rc
   3    3   78  201 FO
gr

gs 75 17 447 185 rc
gr

gs 64 65 459 147 rc
   3    3   78  200 FO
gr

gs 75 17 447 185 rc
gr

gs 64 65 459 147 rc
   3    3   78  200 FO
gr

gs 75 17 447 185 rc
gr

gs 64 65 459 147 rc
   3    3   79  200 FO
gr

gs 75 17 447 185 rc
gr

gs 64 65 459 147 rc
   3    3   79  200 FO
gr

gs 75 17 447 185 rc
gr

gs 64 65 459 147 rc
   3    3   79  200 FO
gr

gs 75 17 447 185 rc
gr

gs 64 65 459 147 rc
   3    3   79  200 FO
gr

gs 75 17 447 185 rc
gr

gs 64 65 459 147 rc
   3    3   79  200 FO
gr

gs 75 17 447 185 rc
gr

gs 64 65 459 147 rc
   3    3   79  200 FO
gr

gs 75 17 447 185 rc
gr

gs 64 65 459 147 rc
   3    3   78  200 FO
gr

gs 75 17 447 185 rc
gr

gs 64 65 459 147 rc
   3    3   78  200 FO
gr

gs 75 17 447 185 rc
gr

gs 64 65 459 147 rc
   3    3   78  200 FO
gr

gs 75 17 447 185 rc
gr

gs 64 65 459 147 rc
   3    3   78  200 FO
gr

gs 75 17 447 185 rc
gr

gs 64 65 459 147 rc
   3    3   78  200 FO
gr

gs 75 17 447 185 rc
gr

gs 64 65 459 147 rc
   3    3   78  200 FO
gr

gs 75 17 447 185 rc
gr

gs 64 65 459 147 rc
   3    3   78  200 FO
gr

gs 75 17 447 185 rc
gr

gs 64 65 459 147 rc
   3    3   78  200 FO
gr

gs 75 17 447 185 rc
gr

gs 64 65 459 147 rc
   3    3   78  200 FO
gr

gs 75 17 447 185 rc
gr

gs 64 65 459 147 rc
   3    3   78  200 FO
gr

gs 75 17 447 185 rc
gr

gs 64 65 459 147 rc
   3    3   78  200 FO
gr

gs 75 17 447 185 rc
gr

gs 64 65 459 147 rc
   3    3   78  200 FO
gr

gs 75 17 447 185 rc
gr

gs 64 65 459 147 rc
   3    3   79  201 FO
gr

gs 75 17 447 185 rc
gr

gs 64 65 459 147 rc
   3    3   79  200 FO
gr

gs 75 17 447 185 rc
gr

gs 64 65 459 147 rc
   3    3   79  200 FO
gr

gs 75 17 447 185 rc
gr

gs 64 65 459 147 rc
   3    3   78  200 FO
gr

gs 75 17 447 185 rc
gr

gs 64 65 459 147 rc
   3    3   78  200 FO
gr

gs 75 17 447 185 rc
gr

gs 64 65 459 147 rc
   3    3   78  200 FO
gr

gs 75 17 447 185 rc
gr

gs 64 65 459 147 rc
   3    3   76  201 FO
gr

gs 75 17 447 185 rc
gr

gs 64 65 459 147 rc
   3    3   76  197 FO
gr

gs 75 17 447 185 rc
gr

gs 64 65 459 147 rc
   3    3   76  195 FO
gr

gs 75 17 447 185 rc
gr

gs 64 65 459 147 rc
   3    3   86  187 FO
gr

gs 75 17 447 185 rc
gr

gs 64 65 459 147 rc
   3    3   86  186 FO
gr

gs 75 17 447 185 rc
gr

gs 64 65 459 147 rc
   3    3   86  177 FO
gr

gs 75 17 447 185 rc
gr

gs 64 65 459 147 rc
   3    3  134  179 FO
gr

gs 75 17 447 185 rc
gr

gs 64 65 459 147 rc
   3    3  134  164 FO
gr

gs 75 17 447 185 rc
gr

gs 64 65 459 147 rc
   3    3  134  157 FO
gr

gs 75 17 447 185 rc
gr

gs 64 65 459 147 rc
   3    3  143  158 FO
gr

gs 75 17 447 185 rc
gr

gs 64 65 459 147 rc
   3    3  143  157 FO
gr

gs 75 17 447 185 rc
gr

gs 64 65 459 147 rc
   3    3  143  152 FO
gr

gs 75 17 447 185 rc
gr

gs 64 65 459 147 rc
   3    3  129  152 FO
gr

gs 75 17 447 185 rc
gr

gs 64 65 459 147 rc
   3    3  129  148 FO
gr

gs 75 17 447 185 rc
gr

gs 64 65 459 147 rc
   3    3  129  148 FO
gr

gs 75 17 447 185 rc
gr

gs 64 65 459 147 rc
   3    3  149  153 FO
gr

gs 75 17 447 185 rc
gr

gs 64 65 459 147 rc
   3    3  149  155 FO
gr

gs 75 17 447 185 rc
gr

gs 64 65 459 147 rc
   3    3  149  153 FO
gr

gs 75 17 447 185 rc
gr

gs 64 65 459 147 rc
   3    3  111  151 FO
gr

gs 75 17 447 185 rc
gr

gs 64 65 459 147 rc
   3    3  111  153 FO
gr

gs 75 17 447 185 rc
gr

gs 64 65 459 147 rc
   3    3  111  155 FO
gr

gs 75 17 447 185 rc
gr

gs 64 65 459 147 rc
   3    3   98  155 FO
gr

gs 75 17 447 185 rc
gr

gs 64 65 459 147 rc
   3    3   98  160 FO
gr

gs 75 17 447 185 rc
gr

gs 64 65 459 147 rc
   3    3   98  162 FO
gr

gs 75 17 447 185 rc
gr

gs 64 65 459 147 rc
   3    3  133  147 FO
gr

gs 75 17 447 185 rc
gr

gs 64 65 459 147 rc
   3    3  133  176 FO
gr

gs 75 17 447 185 rc
gr

gs 64 65 459 147 rc
   3    3  133  178 FO
gr

gs 75 17 447 185 rc
gr

gs 64 65 459 147 rc
   3    3   92  178 FO
gr

gs 75 17 447 185 rc
gr

gs 64 65 459 147 rc
   3    3   92  191 FO
gr

gs 75 17 447 185 rc
gr

gs 64 65 459 147 rc
   3    3   92  186 FO
gr

gs 75 17 447 185 rc
gr

gs 64 65 459 147 rc
   3    3  104  180 FO
gr

gs 75 17 447 185 rc
gr

gs 64 65 459 147 rc
   3    3  104  190 FO
gr

gs 75 17 447 185 rc
gr

gs 64 65 459 147 rc
   3    3  104  196 FO
gr

gs 75 17 447 185 rc
gr

gs 64 65 459 147 rc
   3    3   76  200 FO
gr

gs 75 17 447 185 rc
gr

gs 64 65 459 147 rc
   3    3   76  200 FO
gr

gs 75 17 447 185 rc
gr

gs 64 65 459 147 rc
   3    3   76  200 FO
gr

gs 75 17 447 185 rc
gr

gs 64 65 459 147 rc
   3    3  113  201 FO
gr

gs 75 17 447 185 rc
gr

gs 64 65 459 147 rc
   3    3  113  192 FO
gr

gs 75 17 447 185 rc
gr

gs 64 65 459 147 rc
   3    3  113  172 FO
gr

gs 75 17 447 185 rc
gr

gs 64 65 459 147 rc
   3    3  512  174 FO
gr

gs 75 17 447 185 rc
gr

gs 64 65 459 147 rc
   3    3  512  166 FO
gr

gs 75 17 447 185 rc
gr

gs 64 65 459 147 rc
   3    3  512  161 FO
gr

gs 75 17 447 185 rc
gr

gs 64 65 459 147 rc
   3    3  232  156 FO
gr

gs 75 17 447 185 rc
gr

gs 64 65 459 147 rc
   3    3  232  157 FO
gr

gs 75 17 447 185 rc
gr

gs 64 65 459 147 rc
   3    3  232  157 FO
gr

gs 75 17 447 185 rc
gr

gs 64 65 459 147 rc
   3    3  173  161 FO
gr

gs 75 17 447 185 rc
gr

gs 64 65 459 147 rc
   3    3  173  163 FO
gr

gs 75 17 447 185 rc
gr

gs 64 65 459 147 rc
   3    3  173  162 FO
gr

gs 75 17 447 185 rc
gr

gs 64 65 459 147 rc
   3    3  109  146 FO
gr

gs 75 17 447 185 rc
gr

gs 64 65 459 147 rc
   3    3  109  165 FO
gr

gs 75 17 447 185 rc
gr

gs 64 65 459 147 rc
   3    3  109  174 FO
gr

gs 75 17 447 185 rc
gr

gs 64 65 459 147 rc
   3    3   86  193 FO
gr

gs 75 17 447 185 rc
gr

gs 64 65 459 147 rc
   3    3   86  197 FO
gr

gs 75 17 447 185 rc
gr

gs 64 65 459 147 rc
   3    3   86  201 FO
gr

gs 75 17 447 185 rc
gr

gs 64 65 459 147 rc
   3    3   76  200 FO
gr

gs 75 17 447 185 rc
gr

gs 64 65 459 147 rc
   3    3   76  200 FO
gr

gs 75 17 447 185 rc
gr

gs 64 65 459 147 rc
   3    3   76  199 FO
gr

gs 75 17 447 185 rc
gr

gs 64 65 459 147 rc
   3    3   76  200 FO
gr

gs 75 17 447 185 rc
gr

gs 64 65 459 147 rc
   3    3   76  200 FO
gr

gs 75 17 447 185 rc
gr

gs 64 65 459 147 rc
   3    3   76  200 FO
gr

gs 75 17 447 185 rc
gr

gs 64 65 459 147 rc
   3    3   77  200 FO
gr

gs 75 17 447 185 rc
gr

gs 64 65 459 147 rc
   3    3   77  200 FO
gr

gs 75 17 447 185 rc
gr

gs 64 65 459 147 rc
   3    3   77  200 FO
gr

gs 75 17 447 185 rc
gr

gs 64 65 459 147 rc
   3    3   75  199 FO
gr

gs 75 17 447 185 rc
gr

gs 64 65 459 147 rc
   3    3   75  198 FO
gr

gs 75 17 447 185 rc
gr

gs 64 65 459 147 rc
   3    3   75  195 FO
gr

gs 75 17 447 185 rc
gr

gs 64 65 459 147 rc
   3    3   77  199 FO
gr

gs 75 17 447 185 rc
gr

gs 64 65 459 147 rc
   3    3   77  199 FO
gr

gs 75 17 447 185 rc
gr

gs 64 65 459 147 rc
   3    3   77  197 FO
gr

gs 75 17 447 185 rc
gr

gs 64 65 459 147 rc
   3    3   98  195 FO
gr

gs 75 17 447 185 rc
gr

gs 64 65 459 147 rc
   3    3   98  185 FO
gr

gs 75 17 447 185 rc
gr

gs 64 65 459 147 rc
   3    3   98  183 FO
gr

gs 75 17 447 185 rc
gr

gs 64 65 459 147 rc
   3    3  118  180 FO
gr

gs 75 17 447 185 rc
gr

gs 64 65 459 147 rc
   3    3  118  179 FO
gr

gs 75 17 447 185 rc
gr

gs 64 65 459 147 rc
   3    3  118  179 FO
gr

gs 75 17 447 185 rc
gr

gs 64 65 459 147 rc
   3    3   86  178 FO
gr

gs 75 17 447 185 rc
gr

gs 64 65 459 147 rc
   3    3   86  185 FO
gr

gs 75 17 447 185 rc
gr

gs 64 65 459 147 rc
   3    3   86  189 FO
gr

gs 75 17 447 185 rc
gr

gs 64 65 459 147 rc
   3    3   77  196 FO
gr

gs 75 17 447 185 rc
gr

gs 64 65 459 147 rc
   3    3   77  199 FO
gr

gs 75 17 447 185 rc
gr

gs 64 65 459 147 rc
   3    3   77  200 FO
gr

gs 75 17 447 185 rc
gr

gs 64 65 459 147 rc
   3    3   78  200 FO
gr

gs 75 17 447 185 rc
gr

gs 64 65 459 147 rc
   3    3   78  201 FO
gr

gs 75 17 447 185 rc
gr

gs 64 65 459 147 rc
   3    3   78  200 FO
gr

gs 75 17 447 185 rc
gr

gs 64 65 459 147 rc
   3    3   78  200 FO
gr

gs 75 17 447 185 rc
gr

gs 64 65 459 147 rc
   3    3   79  200 FO
gr

gs 75 17 447 185 rc
gr

gs 64 65 459 147 rc
   3    3   79  200 FO
gr

gs 75 17 447 185 rc
gr

gs 64 65 459 147 rc
   3    3   79  200 FO
gr

gs 75 17 447 185 rc
gr

gs 64 65 459 147 rc
   3    3   78  200 FO
gr

gs 75 17 447 185 rc
gr

gs 64 65 459 147 rc
   3    3   78  201 FO
gr

gs 75 17 447 185 rc
gr

gs 64 65 459 147 rc
   3    3   78  200 FO
gr

gs 75 17 447 185 rc
gr

gs 64 65 459 147 rc
   3    3   78  200 FO
gr

gs 75 17 447 185 rc
gr

gs 64 65 459 147 rc
   3    3   78  200 FO
gr

gs 75 17 447 185 rc
gr

gs 64 65 459 147 rc
   3    3   78  200 FO
gr

gs 75 17 447 185 rc
gr

gs 64 65 459 147 rc
   3    3   77  199 FO
gr

gs 75 17 447 185 rc
gr

gs 64 65 459 147 rc
   3    3   77  199 FO
gr

gs 75 17 447 185 rc
gr

gs 64 65 459 147 rc
   3    3   77  200 FO
gr

gs 75 17 447 185 rc
gr

gs 64 65 459 147 rc
   3    3   80  200 FO
gr

gs 75 17 447 185 rc
gr

gs 64 65 459 147 rc
   3    3   80  192 FO
gr

gs 75 17 447 185 rc
gr

gs 64 65 459 147 rc
   3    3   80  188 FO
gr

gs 75 17 447 185 rc
gr

gs 64 65 459 147 rc
   3    3   82  184 FO
gr

gs 75 17 447 185 rc
gr

gs 64 65 459 147 rc
   3    3   82  178 FO
gr

gs 75 17 447 185 rc
gr

gs 64 65 459 147 rc
   3    3   82  171 FO
gr

gs 75 17 447 185 rc
gr

gs 64 65 459 147 rc
   3    3  127  168 FO
gr

gs 75 17 447 185 rc
gr

gs 64 65 459 147 rc
   3    3  127  163 FO
gr

gs 75 17 447 185 rc
gr

gs 64 65 459 147 rc
   3    3  127  162 FO
gr

gs 75 17 447 185 rc
gr

gs 64 65 459 147 rc
   3    3  133  159 FO
gr

gs 75 17 447 185 rc
gr

gs 64 65 459 147 rc
   3    3  133  157 FO
gr

gs 75 17 447 185 rc
gr

gs 64 65 459 147 rc
   3    3  133  153 FO
gr

gs 75 17 447 185 rc
gr

gs 64 65 459 147 rc
   3    3  128  153 FO
gr

gs 75 17 447 185 rc
gr

gs 64 65 459 147 rc
   3    3  128  153 FO
gr

gs 75 17 447 185 rc
gr

gs 64 65 459 147 rc
   3    3  128  150 FO
gr

gs 75 17 447 185 rc
gr

gs 64 65 459 147 rc
   3    3  113  142 FO
gr

gs 75 17 447 185 rc
gr

gs 64 65 459 147 rc
   3    3  113  142 FO
gr

gs 75 17 447 185 rc
gr

gs 64 65 459 147 rc
   3    3  113  144 FO
gr

gs 75 17 447 185 rc
gr

gs 64 65 459 147 rc
   3    3  193  147 FO
gr

gs 75 17 447 185 rc
gr

gs 64 65 459 147 rc
   3    3  193  142 FO
gr

gs 75 17 447 185 rc
gr

gs 64 65 459 147 rc
   3    3  193  149 FO
gr

gs 75 17 447 185 rc
gr

gs 64 65 459 147 rc
   3    3  135  157 FO
gr

gs 75 17 447 185 rc
gr

gs 64 65 459 147 rc
   3    3  135  165 FO
gr

gs 75 17 447 185 rc
gr

gs 64 65 459 147 rc
   3    3  135  171 FO
gr

gs 75 17 447 185 rc
gr

gs 64 65 459 147 rc
   3    3  100  177 FO
gr

gs 75 17 447 185 rc
gr

gs 64 65 459 147 rc
   3    3  100  188 FO
gr

gs 75 17 447 185 rc
gr

gs 64 65 459 147 rc
   3    3  100  199 FO
gr

gs 75 17 447 185 rc
gr

gs 64 65 459 147 rc
   3    3   79  201 FO
gr

gs 75 17 447 185 rc
gr

gs 64 65 459 147 rc
   3    3   79  200 FO
gr

gs 75 17 447 185 rc
gr

gs 64 65 459 147 rc
   3    3   79  200 FO
gr

gs 75 17 447 185 rc
gr

gs 64 65 459 147 rc
   3    3   79  200 FO
gr

gs 75 17 447 185 rc
gr

gs 64 65 459 147 rc
   3    3   79  200 FO
gr

gs 75 17 447 185 rc
gr

gs 64 65 459 147 rc
   3    3   79  201 FO
gr

gs 75 17 447 185 rc
gr

gs 64 65 459 147 rc
   3    3   79  200 FO
gr

gs 75 17 447 185 rc
gr

gs 64 65 459 147 rc
   3    3   79  200 FO
gr

gs 75 17 447 185 rc
gr

gs 64 65 459 147 rc
   3    3   79  200 FO
gr

gs 75 17 447 185 rc
gr

gs 64 65 459 147 rc
   3    3   78  200 FO
gr

gs 75 17 447 185 rc
gr

gs 64 65 459 147 rc
   3    3   78  200 FO
gr

gs 75 17 447 185 rc
gr

gs 64 65 459 147 rc
   3    3   78  199 FO
gr

gs 75 17 447 185 rc
gr

gs 64 65 459 147 rc
   3    3   79  199 FO
gr

gs 75 17 447 185 rc
gr

gs 64 65 459 147 rc
   3    3   79  199 FO
gr

gs 75 17 447 185 rc
gr

gs 64 65 459 147 rc
   3    3   79  198 FO
gr

gs 75 17 447 185 rc
gr

gs 64 65 459 147 rc
   3    3   79  197 FO
gr

gs 75 17 447 185 rc
gr

gs 64 65 459 147 rc
   3    3   79  199 FO
gr

gs 75 17 447 185 rc
gr

gs 64 65 459 147 rc
   3    3   79  200 FO
gr

gs 75 17 447 185 rc
gr

gs 64 65 459 147 rc
   3    3   78  199 FO
gr

gs 75 17 447 185 rc
gr

gs 64 65 459 147 rc
   3    3   78  200 FO
gr

gs 75 17 447 185 rc
gr

gs 64 65 459 147 rc
   3    3   78  198 FO
gr

gs 75 17 447 185 rc
gr

gs 64 65 459 147 rc
   3    3   76  200 FO
gr

gs 75 17 447 185 rc
gr

gs 64 65 459 147 rc
   3    3   76  195 FO
gr

gs 75 17 447 185 rc
gr

gs 64 65 459 147 rc
   3    3   76  197 FO
gr

gs 75 17 447 185 rc
gr

gs 64 65 459 147 rc
   3    3   80  194 FO
gr

gs 75 17 447 185 rc
gr

gs 64 65 459 147 rc
   3    3   80  191 FO
gr

gs 75 17 447 185 rc
gr

gs 64 65 459 147 rc
   3    3   80  183 FO
gr

gs 75 17 447 185 rc
gr

gs 64 65 459 147 rc
   3    3  131  184 FO
gr

gs 75 17 447 185 rc
gr

gs 64 65 459 147 rc
   3    3  131  159 FO
gr

gs 75 17 447 185 rc
gr

gs 64 65 459 147 rc
   3    3  131  162 FO
gr

gs 75 17 447 185 rc
gr

gs 64 65 459 147 rc
   3    3  121  148 FO
gr

gs 75 17 447 185 rc
gr

gs 64 65 459 147 rc
   3    3  121  146 FO
gr

gs 75 17 447 185 rc
gr

gs 64 65 459 147 rc
   3    3  121  147 FO
gr

gs 75 17 447 185 rc
gr

gs 64 65 459 147 rc
   3    3  105  148 FO
gr

gs 75 17 447 185 rc
gr

gs 64 65 459 147 rc
   3    3  105  151 FO
gr

gs 75 17 447 185 rc
gr

gs 64 65 459 147 rc
   3    3  105  154 FO
gr

gs 75 17 447 185 rc
gr

gs 64 65 459 147 rc
   3    3  186  152 FO
gr

gs 75 17 447 185 rc
gr

gs 64 65 459 147 rc
   3    3  186  153 FO
gr

gs 75 17 447 185 rc
gr

gs 64 65 459 147 rc
   3    3  186  162 FO
gr

gs 75 17 447 185 rc
gr

gs 64 65 459 147 rc
   3    3   97  165 FO
gr

gs 75 17 447 185 rc
gr

gs 64 65 459 147 rc
   3    3   97  165 FO
gr

gs 75 17 447 185 rc
gr

gs 64 65 459 147 rc
   3    3   97  166 FO
gr

gs 75 17 447 185 rc
gr

gs 64 65 459 147 rc
   3    3   89  172 FO
gr

gs 75 17 447 185 rc
gr

gs 64 65 459 147 rc
   3    3   89  171 FO
gr

gs 75 17 447 185 rc
gr

gs 64 65 459 147 rc
   3    3   89  189 FO
gr

gs 75 17 447 185 rc
gr

gs 64 65 459 147 rc
   3    3   79  197 FO
gr

gs 75 17 447 185 rc
gr

gs 64 65 459 147 rc
   3    3   79  200 FO
gr

gs 75 17 447 185 rc
gr

gs 64 65 459 147 rc
   3    3   79  201 FO
gr

gs 75 17 447 185 rc
gr

gs 64 65 459 147 rc
   3    3   79  201 FO
gr

gs 75 17 447 185 rc
gr

gs 64 65 459 147 rc
   3    3   79  200 FO
gr

gs 75 17 447 185 rc
gr

gs 64 65 459 147 rc
   3    3   79  200 FO
gr

gs 75 17 447 185 rc
gr

gs 64 65 459 147 rc
   3    3   79  200 FO
gr

gs 75 17 447 185 rc
gr

gs 64 65 459 147 rc
   3    3   79  200 FO
gr

gs 75 17 447 185 rc
gr

gs 64 65 459 147 rc
   3    3   79  200 FO
gr

gs 75 17 447 185 rc
gr

gs 64 65 459 147 rc
   3    3   78  201 FO
gr

gs 75 17 447 185 rc
gr

gs 64 65 459 147 rc
   3    3   78  200 FO
gr

gs 75 17 447 185 rc
gr

gs 64 65 459 147 rc
   3    3   78  200 FO
gr

gs 75 17 447 185 rc
gr

gs 64 65 459 147 rc
   3    3   79  200 FO
gr

gs 75 17 447 185 rc
gr

gs 64 65 459 147 rc
   3    3   79  200 FO
gr

gs 75 17 447 185 rc
gr

gs 64 65 459 147 rc
   3    3   79  200 FO
gr

gs 75 17 447 185 rc
gr

gs 64 65 459 147 rc
   3    3   79  201 FO
gr

gs 75 17 447 185 rc
gr

gs 64 65 459 147 rc
   3    3   79  200 FO
gr

gs 75 17 447 185 rc
gr

gs 64 65 459 147 rc
   3    3   79  200 FO
gr

gs 75 17 447 185 rc
gr

gs 64 65 459 147 rc
   3    3   79  200 FO
gr

gs 75 17 447 185 rc
gr

gs 64 65 459 147 rc
   3    3   79  200 FO
gr

gs 75 17 447 185 rc
gr

gs 64 65 459 147 rc
   3    3   79  200 FO
gr

gs 75 17 447 185 rc
gr

gs 64 65 459 147 rc
   3    3   79  201 FO
gr

gs 75 17 447 185 rc
gr

gs 64 65 459 147 rc
   3    3   79  199 FO
gr

gs 75 17 447 185 rc
gr

gs 64 65 459 147 rc
   3    3   79  199 FO
gr

gs 75 17 447 185 rc
gr

gs 64 65 459 147 rc
   3    3   78  199 FO
gr

gs 75 17 447 185 rc
gr

gs 64 65 459 147 rc
   3    3   78  200 FO
gr

gs 75 17 447 185 rc
gr

gs 64 65 459 147 rc
   3    3   78  200 FO
gr

gs 75 17 447 185 rc
gr

gs 64 65 459 147 rc
   3    3   78  201 FO
gr

gs 75 17 447 185 rc
gr

gs 64 65 459 147 rc
   3    3   78  199 FO
gr

gs 75 17 447 185 rc
gr

gs 64 65 459 147 rc
   3    3   78  199 FO
gr

gs 75 17 447 185 rc
gr

gs 64 65 459 147 rc
   3    3   85  197 FO
gr

gs 75 17 447 185 rc
gr

gs 64 65 459 147 rc
   3    3   85  192 FO
gr

gs 75 17 447 185 rc
gr

gs 64 65 459 147 rc
   3    3   85  180 FO
gr

gs 75 17 447 185 rc
gr

gs 64 65 459 147 rc
   3    3  119  176 FO
gr

gs 75 17 447 185 rc
gr

gs 64 65 459 147 rc
   3    3  119  166 FO
gr

gs 75 17 447 185 rc
gr

gs 64 65 459 147 rc
   3    3  119  160 FO
gr

gs 75 17 447 185 rc
gr

gs 64 65 459 147 rc
   3    3  299  156 FO
gr

gs 75 17 447 185 rc
gr

gs 64 65 459 147 rc
   3    3  299  145 FO
gr

gs 75 17 447 185 rc
gr

gs 64 65 459 147 rc
   3    3  299  143 FO
gr

gs 75 17 447 185 rc
gr

gs 64 65 459 147 rc
   3    3  290  138 FO
gr

gs 75 17 447 185 rc
gr

gs 64 65 459 147 rc
   3    3  290  133 FO
gr

gs 75 17 447 185 rc
gr

gs 64 65 459 147 rc
   3    3  290  132 FO
gr

gs 75 17 447 185 rc
gr

gs 64 65 459 147 rc
   3    3  346  135 FO
gr

gs 75 17 447 185 rc
gr

gs 64 65 459 147 rc
   3    3  346  132 FO
gr

gs 75 17 447 185 rc
gr

gs 64 65 459 147 rc
   3    3  346  132 FO
gr

gs 75 17 447 185 rc
gr

gs 64 65 459 147 rc
   3    3  341  126 FO
gr

gs 75 17 447 185 rc
gr

gs 64 65 459 147 rc
   3    3  341  127 FO
gr

gs 75 17 447 185 rc
gr

gs 64 65 459 147 rc
   3    3  341  121 FO
gr

gs 75 17 447 185 rc
gr

gs 64 65 459 147 rc
   3    3  216  127 FO
gr

gs 75 17 447 185 rc
gr

gs 64 65 459 147 rc
   3    3  216  124 FO
gr

gs 75 17 447 185 rc
gr

gs 64 65 459 147 rc
   3    3  216  124 FO
gr

gs 75 17 447 185 rc
gr

gs 64 65 459 147 rc
   3    3  174  123 FO
gr

gs 75 17 447 185 rc
gr

gs 64 65 459 147 rc
   3    3  174  129 FO
gr

gs 75 17 447 185 rc
gr

gs 64 65 459 147 rc
   3    3  174  130 FO
gr

gs 75 17 447 185 rc
gr

gs 64 65 459 147 rc
   3    3  145  140 FO
gr

gs 75 17 447 185 rc
gr

gs 64 65 459 147 rc
   3    3  145  145 FO
gr

gs 75 17 447 185 rc
gr

gs 64 65 459 147 rc
   3    3  145  143 FO
gr

gs 75 17 447 185 rc
gr

gs 64 65 459 147 rc
   3    3  145  128 FO
gr

gs 75 17 447 185 rc
gr

gs 64 65 459 147 rc
   3    3  183   75 FO
gr

gs 75 17 447 185 rc
gr

gs 64 65 459 147 rc
   3    3  183  151 FO
gr

gs 75 17 447 185 rc
gr

gs 64 65 459 147 rc
   3    3  183  163 FO
gr

gs 75 17 447 185 rc
gr

gs 64 65 459 147 rc
   3    3  105  187 FO
gr

gs 75 17 447 185 rc
gr

gs 64 65 459 147 rc
   3    3  105  187 FO
gr

gs 75 17 447 185 rc
gr

gs 64 65 459 147 rc
   3    3  105  192 FO
gr

gs 75 17 447 185 rc
gr

gs 64 65 459 147 rc
   3    3   85  199 FO
gr

gs 75 17 447 185 rc
gr

gs 64 65 459 147 rc
   3    3   85  200 FO
gr

gs 75 17 447 185 rc
gr

gs 64 65 459 147 rc
   3    3   85  200 FO
gr

gs 75 17 447 185 rc
gr

gs 64 65 459 147 rc
   3    3   78  200 FO
gr

gs 75 17 447 185 rc
gr

gs 64 65 459 147 rc
   3    3   78  200 FO
gr

gs 75 17 447 185 rc
gr

gs 64 65 459 147 rc
   3    3   78  200 FO
gr

gs 75 17 447 185 rc
gr

gs 64 65 459 147 rc
   3    3   78  200 FO
gr

gs 75 17 447 185 rc
gr

gs 64 65 459 147 rc
   3    3   78  200 FO
gr

gs 75 17 447 185 rc
gr

gs 64 65 459 147 rc
   3    3   78  200 FO
gr

gs 75 17 447 185 rc
gr

gs 64 65 459 147 rc
   3    3   78  200 FO
gr

gs 75 17 447 185 rc
gr

gs 64 65 459 147 rc
   3    3   78  200 FO
gr

gs 75 17 447 185 rc
gr

gs 64 65 459 147 rc
   3    3   78  200 FO
gr

gs 75 17 447 185 rc
gr

gs 64 65 459 147 rc
   3    3   78  198 FO
gr

gs 75 17 447 185 rc
gr

gs 64 65 459 147 rc
   3    3   78  199 FO
gr

gs 75 17 447 185 rc
gr

gs 64 65 459 147 rc
   3    3   78  199 FO
gr

gs 75 17 447 185 rc
gr

gs 64 65 459 147 rc
   3    3   77  198 FO
gr

gs 75 17 447 185 rc
gr

gs 64 65 459 147 rc
   3    3   77  198 FO
gr

gs 75 17 447 185 rc
gr

gs 64 65 459 147 rc
   3    3   77  195 FO
gr

gs 75 17 447 185 rc
gr

gs 64 65 459 147 rc
   3    3   77  189 FO
gr

gs 75 17 447 185 rc
gr

gs 64 65 459 147 rc
   3    3   77  190 FO
gr

gs 75 17 447 185 rc
gr

gs 64 65 459 147 rc
   3    3   77  200 FO
gr

gs 75 17 447 185 rc
gr

gs 64 65 459 147 rc
   3    3   80  187 FO
gr

gs 75 17 447 185 rc
gr

gs 64 65 459 147 rc
   3    3   80  181 FO
gr

gs 75 17 447 185 rc
gr

gs 64 65 459 147 rc
   3    3   80  179 FO
gr

gs 75 17 447 185 rc
gr

gs 64 65 459 147 rc
   3    3  142  170 FO
gr

gs 75 17 447 185 rc
gr

gs 64 65 459 147 rc
   3    3  142  160 FO
gr

gs 75 17 447 185 rc
gr

gs 64 65 459 147 rc
   3    3  142  158 FO
gr

gs 75 17 447 185 rc
gr

gs 64 65 459 147 rc
   3    3  205  155 FO
gr

gs 75 17 447 185 rc
gr

gs 64 65 459 147 rc
   3    3  205  149 FO
gr

gs 75 17 447 185 rc
gr

gs 64 65 459 147 rc
   3    3  205  151 FO
gr

gs 75 17 447 185 rc
gr

gs 64 65 459 147 rc
   3    3  132  157 FO
gr

gs 75 17 447 185 rc
gr

gs 64 65 459 147 rc
   3    3  132  160 FO
gr

gs 75 17 447 185 rc
gr

gs 64 65 459 147 rc
   3    3  132  166 FO
gr

gs 75 17 447 185 rc
gr

gs 64 65 459 147 rc
   3    3   92  178 FO
gr

gs 75 17 447 185 rc
gr

gs 64 65 459 147 rc
   3    3   92  183 FO
gr

gs 75 17 447 185 rc
gr

gs 64 65 459 147 rc
   3    3   92  194 FO
gr

gs 75 17 447 185 rc
gr

gs 64 65 459 147 rc
   3    3   78  200 FO
gr

gs 75 17 447 185 rc
gr

gs 64 65 459 147 rc
   3    3   78  201 FO
gr

gs 75 17 447 185 rc
gr

gs 64 65 459 147 rc
   3    3   78  200 FO
gr

gs 75 17 447 185 rc
gr

gs 64 65 459 147 rc
   3    3   78  200 FO
gr

gs 75 17 447 185 rc
gr

gs 64 65 459 147 rc
   3    3   78  200 FO
gr

gs 75 17 447 185 rc
gr

gs 64 65 459 147 rc
   3    3   78  200 FO
gr

gs 75 17 447 185 rc
gr

gs 64 65 459 147 rc
   3    3   78  200 FO
gr

gs 75 17 447 185 rc
gr

gs 64 65 459 147 rc
   3    3   78  199 FO
gr

gs 75 17 447 185 rc
gr

gs 64 65 459 147 rc
   3    3   78  198 FO
gr

gs 75 17 447 185 rc
gr

gs 64 65 459 147 rc
   3    3   78  198 FO
gr

gs 75 17 447 185 rc
gr

gs 64 65 459 147 rc
   3    3   78  198 FO
gr

gs 75 17 447 185 rc
gr

gs 64 65 459 147 rc
   3    3   78  198 FO
gr

gs 75 17 447 185 rc
gr

gs 64 65 459 147 rc
   3    3   78  197 FO
gr

gs 75 17 447 185 rc
gr

gs 64 65 459 147 rc
   3    3   78  197 FO
gr

gs 75 17 447 185 rc
gr

gs 64 65 459 147 rc
   3    3   78  198 FO
gr

gs 75 17 447 185 rc
gr

gs 64 65 459 147 rc
   3    3   80  198 FO
gr

gs 75 17 447 185 rc
gr

gs 64 65 459 147 rc
   3    3   80  199 FO
gr

gs 75 17 447 185 rc
gr

gs 64 65 459 147 rc
   3    3   80  198 FO
gr

gs 75 17 447 185 rc
gr

gs 64 65 459 147 rc
   3    3   81  200 FO
gr

gs 75 17 447 185 rc
gr

gs 64 65 459 147 rc
   3    3   81  198 FO
gr

gs 75 17 447 185 rc
gr

gs 64 65 459 147 rc
   3    3   81  198 FO
gr

gs 75 17 447 185 rc
gr

gs 64 65 459 147 rc
   3    3  126  182 FO
gr

gs 75 17 447 185 rc
gr

gs 64 65 459 147 rc
   3    3  126  167 FO
gr

gs 75 17 447 185 rc
gr

gs 64 65 459 147 rc
   3    3  126  160 FO
gr

gs 75 17 447 185 rc
gr

gs 64 65 459 147 rc
   3    3  160  156 FO
gr

gs 75 17 447 185 rc
gr

gs 64 65 459 147 rc
   3    3  160  151 FO
gr

gs 75 17 447 185 rc
gr

gs 64 65 459 147 rc
   3    3  160  153 FO
gr

gs 75 17 447 185 rc
gr

gs 64 65 459 147 rc
   3    3  131  150 FO
gr

gs 75 17 447 185 rc
gr

gs 64 65 459 147 rc
   3    3  131  155 FO
gr

gs 75 17 447 185 rc
gr

gs 64 65 459 147 rc
   3    3  131  145 FO
gr

gs 75 17 447 185 rc
gr

gs 64 65 459 147 rc
   3    3  114  160 FO
gr

gs 75 17 447 185 rc
gr

gs 64 65 459 147 rc
   3    3  114  171 FO
gr

gs 75 17 447 185 rc
gr

gs 64 65 459 147 rc
   3    3  114  167 FO
gr

gs 75 17 447 185 rc
gr

gs 64 65 459 147 rc
   3    3  107  115 FO
gr

gs 75 17 447 185 rc
gr

gs 64 65 459 147 rc
   3    3  107  160 FO
gr

gs 75 17 447 185 rc
gr

gs 64 65 459 147 rc
   3    3  107  173 FO
gr

gs 75 17 447 185 rc
gr

gs 64 65 459 147 rc
   3    3  102  174 FO
gr

gs 75 17 447 185 rc
gr

gs 64 65 459 147 rc
   3    3  102  176 FO
gr

gs 75 17 447 185 rc
gr

gs 64 65 459 147 rc
   3    3  102  173 FO
gr

gs 75 17 447 185 rc
gr

gs 64 65 459 147 rc
   3    3  137  173 FO
gr

gs 75 17 447 185 rc
gr

gs 64 65 459 147 rc
   3    3  137  173 FO
gr

gs 75 17 447 185 rc
gr

gs 64 65 459 147 rc
   3    3  137  173 FO
gr

gs 75 17 447 185 rc
gr

gs 64 65 459 147 rc
   3    3   94  179 FO
gr

gs 75 17 447 185 rc
gr

gs 64 65 459 147 rc
   3    3   94  183 FO
gr

gs 75 17 447 185 rc
gr

gs 64 65 459 147 rc
   3    3   94  182 FO
gr

gs 75 17 447 185 rc
gr

gs 64 65 459 147 rc
   3    3   84  187 FO
gr

gs 75 17 447 185 rc
gr

gs 64 65 459 147 rc
   3    3   84  191 FO
gr

gs 75 17 447 185 rc
gr

gs 64 65 459 147 rc
   3    3   84  196 FO
gr

gs 75 17 447 185 rc
gr

gs 64 65 459 147 rc
   3    3   76  194 FO
gr

gs 75 17 447 185 rc
gr

gs 64 65 459 147 rc
   3    3   76  184 FO
gr

gs 75 17 447 185 rc
gr

gs 64 65 459 147 rc
   3    3   76  180 FO
gr

gs 75 17 447 185 rc
gr

gs 64 65 459 147 rc
   3    3  109  189 FO
gr

gs 75 17 447 185 rc
gr

gs 64 65 459 147 rc
   3    3  109  177 FO
gr

gs 75 17 447 185 rc
gr

gs 64 65 459 147 rc
   3    3  109  178 FO
gr

gs 75 17 447 185 rc
gr

gs 64 65 459 147 rc
   3    3  139  189 FO
gr

gs 75 17 447 185 rc
gr

gs 64 65 459 147 rc
   3    3  139  123 FO
gr

gs 75 17 447 185 rc
gr

gs 64 65 459 147 rc
   3    3  139  153 FO
gr

gs 75 17 447 185 rc
gr

gs 64 65 459 147 rc
   3    3  125   78 FO
gr

gs 75 17 447 185 rc
gr

gs 64 65 459 147 rc
   3    3  125  189 FO
gr

gs 75 17 447 185 rc
gr

gs 64 65 459 147 rc
   3    3  125  175 FO
gr

gs 75 17 447 185 rc
gr

gs 64 65 459 147 rc
   3    3   95  169 FO
gr

gs 75 17 447 185 rc
gr

gs 64 65 459 147 rc
   3    3   95  200 FO
gr

gs 75 17 447 185 rc
gr

gs 64 65 459 147 rc
   3    3   95  167 FO
gr

gs 75 17 447 185 rc
gr

gs 64 65 459 147 rc
   3    3  107  154 FO
gr

gs 75 17 447 185 rc
gr

gs 64 65 459 147 rc
   3    3  107  190 FO
gr

gs 75 17 447 185 rc
gr

gs 64 65 459 147 rc
   3    3  107  201 FO
gr

gs 75 17 447 185 rc
gr

gs 64 65 459 147 rc
   3    3  105  201 FO
gr

gs 75 17 447 185 rc
gr

0 sg
%%IncludeResource: font Helvetica
/Helvetica /ISOLatin1Encoding 12.1667 FMSR

 206  226 mt 
(Filtered, windowed accel variance) s
  53  156 mt  -90 rotate
(Speed from GPS) s
90 rotate
gs 75 17 447 185 rc
/c9 { 1.000000 0.000000 1.000000 sr} bdef
c9
4 0 5 0 4 0 4 0 5 0 4 0 5 -1 4 0 
4 0 5 0 4 0 4 0 5 0 4 -1 5 0 4 0 
4 0 5 0 4 0 4 -1 5 0 4 0 5 0 4 0 
4 0 5 -1 4 0 4 0 5 0 4 0 5 -1 4 0 
4 0 5 0 4 0 4 -1 5 0 4 0 5 0 4 0 
4 -1 5 0 4 0 4 0 5 -1 4 0 5 0 4 0 
4 -1 5 0 4 0 4 0 5 -1 4 0 5 0 4 -1 
4 0 5 0 4 0 4 -1 5 0 4 0 5 -1 4 0 
4 -1 5 0 4 0 4 -1 5 0 4 -1 5 0 4 -1 
4 0 5 -1 4 0 4 -1 5 0 4 -1 5 0 4 -1 
4 -1 5 0 4 -1 4 -1 5 -1 4 -1 5 -1 4 -1 
4 -1 5 -1 4 -2 4 -1 5 -2 4 -2 5 -2 4 -3 
4 -4 5 -6 4 -9 1 -8 78 202 101 MP stroke
gr

c9
0 sg
%%IncludeResource: font Helvetica
/Helvetica /ISOLatin1Encoding 10.1389 FMSR

  74  206 mt 
( ) s
 521   21 mt 
( ) s
0.506944 w
1 sg
0 30 131 0 0 -30 386 53 4 MP
PP
-131 0 0 30 131 0 0 -30 386 53 5 MP stroke
0.337963 w
DO
SO
0.506944 w
0 sg
 386   53 mt  517   53 L
 386   23 mt  517   23 L
 386   53 mt  386   23 L
 517   53 mt  517   23 L
 386   53 mt  517   53 L
 386   53 mt  386   23 L
 386   53 mt  517   53 L
 386   23 mt  517   23 L
 386   53 mt  386   23 L
 517   53 mt  517   23 L
 424   36 mt 
(Speed vs. Variance) s
gs 386 23 132 31 rc
0 j
gs 399 24 15 15 rc
c8
   3    3  406   31 FO
gr

c8
gr

c8
0 sg
 424   49 mt 
(Logarithmic Fit) s
gs 386 23 132 31 rc
2.02778 w
c9
29 0 391 44 2 MP stroke
0.506944 w
gr

c9

end %%Color Dict

eplot
%%EndObject

epage
end

showpage

%%Trailer
%%EOF
