%!PS-Adobe-3.0 EPSF-3.0
%%Creator: MATLAB, The MathWorks, Inc. Version 8.0.0.783 (R2012b). Operating System: Darwin 13.0.0 Darwin Kernel Version 13.0.0: Thu Sep 19 22:22:27 PDT 2013; root:xnu-2422.1.72~6/RELEASE_X86_64 x86_64.
%%Title: figs/variance_to_speed_nlin.eps
%%CreationDate: 10/30/2013  22:14:40
%%DocumentNeededFonts: Helvetica
%%DocumentProcessColors: Cyan Magenta Yellow Black
%%LanguageLevel: 2
%%Pages: 1
%%BoundingBox:   -45   255   661   528
%%EndComments

%%BeginProlog
% MathWorks dictionary
/MathWorks 160 dict begin
% definition operators
/bdef {bind def} bind def
/ldef {load def} bind def
/xdef {exch def} bdef
/xstore {exch store} bdef
% operator abbreviations
/c  /clip ldef
/cc /concat ldef
/cp /closepath ldef
/gr /grestore ldef
/gs /gsave ldef
/mt /moveto ldef
/np /newpath ldef
/cm /currentmatrix ldef
/sm /setmatrix ldef
/rm /rmoveto ldef
/rl /rlineto ldef
/s {show newpath} bdef
/sc {setcmykcolor} bdef
/sr /setrgbcolor ldef
/sg /setgray ldef
/w /setlinewidth ldef
/j /setlinejoin ldef
/cap /setlinecap ldef
/rc {rectclip} bdef
/rf {rectfill} bdef
% page state control
/pgsv () def
/bpage {/pgsv save def} bdef
/epage {pgsv restore} bdef
/bplot /gsave ldef
/eplot {stroke grestore} bdef
% orientation switch
/portraitMode 0 def /landscapeMode 1 def /rotateMode 2 def
% coordinate system mappings
/dpi2point 0 def
% font control
/FontSize 0 def
/FMS {/FontSize xstore findfont [FontSize 0 0 FontSize neg 0 0]
  makefont setfont} bdef
/reencode {exch dup where {pop load} {pop StandardEncoding} ifelse
  exch dup 3 1 roll findfont dup length dict begin
  { 1 index /FID ne {def}{pop pop} ifelse } forall
  /Encoding exch def currentdict end definefont pop} bdef
/isroman {findfont /CharStrings get /Agrave known} bdef
/FMSR {3 1 roll 1 index dup isroman {reencode} {pop pop} ifelse
  exch FMS} bdef
/csm {1 dpi2point div -1 dpi2point div scale neg translate
 dup landscapeMode eq {pop -90 rotate}
  {rotateMode eq {90 rotate} if} ifelse} bdef
% line types: solid, dotted, dashed, dotdash
/SO { [] 0 setdash } bdef
/DO { [.5 dpi2point mul 4 dpi2point mul] 0 setdash } bdef
/DA { [6 dpi2point mul] 0 setdash } bdef
/DD { [.5 dpi2point mul 4 dpi2point mul 6 dpi2point mul 4
  dpi2point mul] 0 setdash } bdef
% macros for lines and objects
/L {lineto stroke} bdef
/MP {3 1 roll moveto 1 sub {rlineto} repeat} bdef
/AP {{rlineto} repeat} bdef
/PDlw -1 def
/W {/PDlw currentlinewidth def setlinewidth} def
/PP {closepath eofill} bdef
/DP {closepath stroke} bdef
/MR {4 -2 roll moveto dup  0 exch rlineto exch 0 rlineto
  neg 0 exch rlineto closepath} bdef
/FR {MR stroke} bdef
/PR {MR fill} bdef
/L1i {{currentfile picstr readhexstring pop} image} bdef
/tMatrix matrix def
/MakeOval {newpath tMatrix currentmatrix pop translate scale
0 0 1 0 360 arc tMatrix setmatrix} bdef
/FO {MakeOval stroke} bdef
/PO {MakeOval fill} bdef
/PD {currentlinewidth 2 div 0 360 arc fill
   PDlw -1 eq not {PDlw w /PDlw -1 def} if} def
/FA {newpath tMatrix currentmatrix pop translate scale
  0 0 1 5 -2 roll arc tMatrix setmatrix stroke} bdef
/PA {newpath tMatrix currentmatrix pop	translate 0 0 moveto scale
  0 0 1 5 -2 roll arc closepath tMatrix setmatrix fill} bdef
/FAn {newpath tMatrix currentmatrix pop translate scale
  0 0 1 5 -2 roll arcn tMatrix setmatrix stroke} bdef
/PAn {newpath tMatrix currentmatrix pop translate 0 0 moveto scale
  0 0 1 5 -2 roll arcn closepath tMatrix setmatrix fill} bdef
/vradius 0 def /hradius 0 def /lry 0 def
/lrx 0 def /uly 0 def /ulx 0 def /rad 0 def
/MRR {/vradius xdef /hradius xdef /lry xdef /lrx xdef /uly xdef
  /ulx xdef newpath tMatrix currentmatrix pop ulx hradius add uly
  vradius add translate hradius vradius scale 0 0 1 180 270 arc 
  tMatrix setmatrix lrx hradius sub uly vradius add translate
  hradius vradius scale 0 0 1 270 360 arc tMatrix setmatrix
  lrx hradius sub lry vradius sub translate hradius vradius scale
  0 0 1 0 90 arc tMatrix setmatrix ulx hradius add lry vradius sub
  translate hradius vradius scale 0 0 1 90 180 arc tMatrix setmatrix
  closepath} bdef
/FRR {MRR stroke } bdef
/PRR {MRR fill } bdef
/MlrRR {/lry xdef /lrx xdef /uly xdef /ulx xdef /rad lry uly sub 2 div def
  newpath tMatrix currentmatrix pop ulx rad add uly rad add translate
  rad rad scale 0 0 1 90 270 arc tMatrix setmatrix lrx rad sub lry rad
  sub translate rad rad scale 0 0 1 270 90 arc tMatrix setmatrix
  closepath} bdef
/FlrRR {MlrRR stroke } bdef
/PlrRR {MlrRR fill } bdef
/MtbRR {/lry xdef /lrx xdef /uly xdef /ulx xdef /rad lrx ulx sub 2 div def
  newpath tMatrix currentmatrix pop ulx rad add uly rad add translate
  rad rad scale 0 0 1 180 360 arc tMatrix setmatrix lrx rad sub lry rad
  sub translate rad rad scale 0 0 1 0 180 arc tMatrix setmatrix
  closepath} bdef
/FtbRR {MtbRR stroke } bdef
/PtbRR {MtbRR fill } bdef
/stri 6 array def /dtri 6 array def
/smat 6 array def /dmat 6 array def
/tmat1 6 array def /tmat2 6 array def /dif 3 array def
/asub {/ind2 exch def /ind1 exch def dup dup
  ind1 get exch ind2 get sub exch } bdef
/tri_to_matrix {
  2 0 asub 3 1 asub 4 0 asub 5 1 asub
  dup 0 get exch 1 get 7 -1 roll astore } bdef
/compute_transform {
  dmat dtri tri_to_matrix tmat1 invertmatrix 
  smat stri tri_to_matrix tmat2 concatmatrix } bdef
/ds {stri astore pop} bdef
/dt {dtri astore pop} bdef
/db {2 copy /cols xdef /rows xdef mul dup 3 mul string
  currentfile 
  3 index 0 eq {/ASCIIHexDecode filter}
  {/ASCII85Decode filter 3 index 2 eq {/RunLengthDecode filter} if }
  ifelse exch readstring pop
  dup 0 3 index getinterval /rbmap xdef
  dup 2 index dup getinterval /gbmap xdef
  1 index dup 2 mul exch getinterval /bbmap xdef pop pop}bdef
/it {gs np dtri aload pop moveto lineto lineto cp c
  cols rows 8 compute_transform 
  rbmap gbmap bbmap true 3 colorimage gr}bdef
/il {newpath moveto lineto stroke}bdef
currentdict end def
%%EndProlog

%%BeginSetup
MathWorks begin

0 cap

end
%%EndSetup

%%Page: 1 1
%%BeginPageSetup
%%PageBoundingBox:   -45   255   661   528
MathWorks begin
bpage
%%EndPageSetup

%%BeginObject: obj1
bplot

/dpi2point 1.01389 def
portraitMode -0121 0545 csm

   76    10   716   276 rc
85 dict begin %Colortable dictionary
/c0 { 0.000000 0.000000 0.000000 sr} bdef
/c1 { 1.000000 1.000000 1.000000 sr} bdef
/c2 { 0.900000 0.000000 0.000000 sr} bdef
/c3 { 0.000000 0.820000 0.000000 sr} bdef
/c4 { 0.000000 0.000000 0.800000 sr} bdef
/c5 { 0.910000 0.820000 0.320000 sr} bdef
/c6 { 1.000000 0.260000 0.820000 sr} bdef
/c7 { 0.000000 0.820000 0.820000 sr} bdef
c0
1 j
1 sg
   0    0  864  289 rf
0.506944 w
0 235 669 0 0 -235 112 256 4 MP
PP
-669 0 0 235 669 0 0 -235 112 256 5 MP stroke
0.337963 w
DO
0 sg
 112  256 mt  112   22 L
 112   22 mt  112   22 L
 195  256 mt  195   22 L
 195   22 mt  195   22 L
 279  256 mt  279   22 L
 279   22 mt  279   22 L
 362  256 mt  362   22 L
 362   22 mt  362   22 L
 446  256 mt  446   22 L
 446   22 mt  446   22 L
 530  256 mt  530   22 L
 530   22 mt  530   22 L
 613  256 mt  613   22 L
 613   22 mt  613   22 L
 697  256 mt  697   22 L
 697   22 mt  697   22 L
 781  256 mt  781   22 L
 781   22 mt  781   22 L
 112  256 mt  781  256 L
 781  256 mt  781  256 L
 112  226 mt  781  226 L
 781  226 mt  781  226 L
 112  197 mt  781  197 L
 781  197 mt  781  197 L
 112  168 mt  781  168 L
 781  168 mt  781  168 L
 112  139 mt  781  139 L
 781  139 mt  781  139 L
 112  109 mt  781  109 L
 781  109 mt  781  109 L
 112   80 mt  781   80 L
 781   80 mt  781   80 L
 112   51 mt  781   51 L
 781   51 mt  781   51 L
 112   22 mt  781   22 L
 781   22 mt  781   22 L
SO
0.506944 w
 112  256 mt  781  256 L
 112   21 mt  781   21 L
 112  256 mt  112   21 L
 781  256 mt  781   21 L
 112  256 mt  781  256 L
 112  256 mt  112   21 L
 112  256 mt  112  249 L
 112   22 mt  112   28 L
%%IncludeResource: font Helvetica
/Helvetica /ISOLatin1Encoding 10.1389 FMSR

 110  267 mt 
(0) s
 195  256 mt  195  249 L
 195   22 mt  195   28 L
 193  267 mt 
(5) s
 279  256 mt  279  249 L
 279   22 mt  279   28 L
 274  267 mt 
(10) s
 362  256 mt  362  249 L
 362   22 mt  362   28 L
 357  267 mt 
(15) s
 446  256 mt  446  249 L
 446   22 mt  446   28 L
 441  267 mt 
(20) s
 530  256 mt  530  249 L
 530   22 mt  530   28 L
 525  267 mt 
(25) s
 613  256 mt  613  249 L
 613   22 mt  613   28 L
 608  267 mt 
(30) s
 697  256 mt  697  249 L
 697   22 mt  697   28 L
 692  267 mt 
(35) s
 781  256 mt  781  249 L
 781   22 mt  781   28 L
 776  267 mt 
(40) s
 112  256 mt  118  256 L
 781  256 mt  774  256 L
 104  259 mt 
(0) s
 112  226 mt  118  226 L
 781  226 mt  774  226 L
 104  229 mt 
(5) s
 112  197 mt  118  197 L
 781  197 mt  774  197 L
  98  200 mt 
(10) s
 112  168 mt  118  168 L
 781  168 mt  774  168 L
  98  171 mt 
(15) s
 112  139 mt  118  139 L
 781  139 mt  774  139 L
  98  142 mt 
(20) s
 112  109 mt  118  109 L
 781  109 mt  774  109 L
  98  112 mt 
(25) s
 112   80 mt  118   80 L
 781   80 mt  774   80 L
  98   83 mt 
(30) s
 112   51 mt  118   51 L
 781   51 mt  774   51 L
  98   54 mt 
(35) s
 112   22 mt  118   22 L
 781   22 mt  774   22 L
  98   25 mt 
(40) s
 112  256 mt  781  256 L
 112   21 mt  781   21 L
 112  256 mt  112   21 L
 781  256 mt  781   21 L
gs 112 22 670 235 rc
/c8 { 1.000000 0.000000 0.000000 sr} bdef
c8
1 1 1 0 1 -1 1 1 1 0 1 0 1 0 0 5 
1 -1 0 9 1 -7 0 7 0 -2 1 -2 0 -2 1 -1 
0 3 1 1 0 -2 1 1 1 -1 0 -1 0 2 1 -1 
0 1 1 2 0 -3 0 1 1 2 0 1 0 -4 0 0 
1 3 0 -3 0 5 1 -4 0 0 0 8 1 -9 0 4 
1 4 0 -8 1 6 0 1 0 -8 1 9 0 -9 0 5 
1 -4 0 -4 1 -2 0 6 0 -3 1 4 0 1 0 -1 
1 2 0 -3 0 3 1 -3 0 0 0 3 1 -2 0 -2 
1 1 0 -1 0 1 1 1 1 -1 0 1 0 -2 1 1 
0 -1 0 1 1 1 0 1 1 1 0 -2 2 0 1 0 
0 -1 0 1 1 1 0 3 0 -3 1 5 0 0 0 -5 
0 0 1 3 0 -3 0 10 1 -13 0 4 1 -4 0 -6 
1 -2 0 2 0 -2 1 3 0 1 0 -4 0 1 1 0 
0 -1 1 1 1 -1 0 9 0 -5 1 -4 0 3 0 -3 
1 3 0 -2 1 -1 0 3 0 -1 1 -2 0 6 1 1 
0 1 1 -1 0 10 0 -12 1 4 0 -7 1 2 0 -4 
0 2 1 14 0 -14 0 2 1 1 0 16 1 6 0 -5 
0 10 1 12 0 8 0 -11 0 5 1 22 0 -11 1 -7 
0 4 0 -32 1 12 0 -3 0 27 1 2 0 -1 0 9 
1 25 0 33 1 0 0 -15 0 9 1 1 0 5 0 -18 
0 11 1 3 0 5 0 -25 0 4 1 0 0 1 0 -13 
1 19 0 -11 0 2 1 3 0 4 0 -4 1 9 0 -21 
0 2 1 6 0 8 0 -25 1 14 0 -9 0 13 1 -9 
0 -3 0 5 1 -13 0 2 0 -5 1 7 0 -4 0 4 
1 -14 0 12 0 -10 1 -12 0 -14 0 13 1 -26 0 -17 
0 3 1 -14 0 4 0 -7 1 -4 0 2 0 -3 1 2 
0 -1 1 3 0 -4 1 4 0 -4 0 1 1 23 0 -2 
0 2 1 -4 0 51 1 66 0 -106 0 13 1 -5 0 -30 
1 -3 0 -2 1 10 0 11 1 10 0 6 0 -41 1 0 
0 1 0 -1 1 1 0 -1 0 3 1 -3 0 4 1 -2 
0 -1 1 6 0 -6 0 1 1 4 0 -4 0 32 1 -5 
0 -11 0 22 1 8 0 -10 0 44 1 -3 0 -15 0 14 
1 11 0 -5 0 2 1 1 0 3 0 -7 1 -15 0 33 
0 -17 1 -23 0 52 1 -4 0 15 0 -56 0 13 1 22 
0 -12 0 15 1 -19 1 -6 0 11 1 -4 0 -2 0 20 
1 -21 0 -3 0 8 1 -10 0 -9 0 23 1 -2 0 -20 
0 36 1 -1 0 -41 1 35 0 -18 0 12 1 22 0 -49 
1 14 0 -19 1 159 606 33 300 MP stroke
0 -214 1 -8 1 0 1 0 1 0 1 0 1 0 1 0 
1 0 1 0 1 1 0 -1 0 3 1 -2 0 1 1 9 
0 -10 0 9 1 1 0 22 0 -28 1 5 0 28 1 -5 
0 24 1 3 0 -1 0 4 1 -7 0 13 0 -6 1 27 
0 -77 1 -9 0 -4 1 3 0 4 0 -5 0 3 1 -1 
0 -1 0 32 1 -13 0 -22 1 0 1 -1 1 1 1 0 
1 0 1 0 1 1 1 -1 1 0 1 0 0 0 0 2 
1 -1 0 3 1 -3 0 2 0 -3 0 1 1 4 0 -5 
0 8 1 -4 0 10 1 -8 0 -3 0 8 1 15 0 15 
1 17 0 28 0 -68 1 -1 0 -16 1 -1 1 0 1 0 
1 0 1 0 1 0 1 0 1 0 1 0 1 0 1 0 
1 0 1 0 1 1 1 -1 -1 0 2 2 1 0 0 -2 
0 1 1 1 0 -3 0 7 1 1 0 6 0 -13 0 1 
1 2 0 4 1 -2 0 9 0 -10 0 8 1 -5 0 6 
1 8 0 22 1 1 0 15 1 -4 0 -4 0 3 1 24 
0 -51 1 -5 0 -19 1 0 0 -4 1 1 1 -1 1 1 
1 -1 1 1 1 0 1 0 1 0 1 0 1 0 1 0 
1 0 -1 0 2 0 1 1 0 -1 1 1 1 2 0 5 
0 -3 1 0 0 10 0 -12 0 5 1 5 0 -10 0 17 
1 -13 0 34 1 -13 0 24 1 -19 0 23 1 2 0 27 
0 -59 1 -3 1 -3 -1 0 2 0 0 4 0 -19 0 1 
1 -3 0 -3 1 0 0 9 1 4 0 1 1 1 0 1 
0 -8 1 -3 0 -3 1 -2 0 -1 1 1 1 0 1 1 
1 0 1 1 0 2 0 -5 0 3 1 -2 0 8 1 1 
0 -1 0 1 1 1 0 -2 0 13 1 -16 0 18 1 -4 
0 -1 0 14 1 -4 0 -27 0 53 1 -8 0 35 1 -26 
0 23 0 -15 1 3 0 -14 1 -7 0 -23 1 -1 0 4 
1 -3 0 38 0 -51 0 39 1 3 0 -9 0 6 1 -6 
0 -7 1 -11 0 17 0 -2 1 -8 0 13 0 -6 1 -9 
0 37 1 0 0 11 1 13 0 -14 1 10 0 -7 0 11 
1 -4 0 -12 1 5 0 -15 1 6 0 -24 1 -4 0 42 
1 -4 0 16 0 -17 0 4 1 5 0 -1 0 7 1 -29 
0 29 0 -1 1 -4 0 5 0 -15 1 8 0 -7 0 21 
1 -42 0 6 0 -5 1 21 0 -30 0 6 1 -51 0 -6 
1 1 0 17 1 -16 0 21 1 -12 0 -3 0 35 1 28 
0 -32 1 51 0 35 0 -57 1 -9 0 6 0 -21 1 16 
0 14 0 -33 1 -19 0 -14 1 -6 0 -2 0 1 1 -1 
0 4 0 -2 1 1 459 252 300 MP stroke
0 -2 0 2 1 -1 0 -1 0 2 1 2 0 -1 0 3 
1 6 0 -8 0 11 1 0 0 -2 0 46 1 -3 0 -24 
0 54 1 -40 0 -11 0 1 1 -9 0 93 0 -100 1 -6 
0 -9 1 -3 0 3 1 1 0 3 1 4 0 3 0 -14 
1 -1 0 41 1 -3 0 21 0 -32 1 -3 0 18 1 -10 
0 8 0 -2 1 11 0 -15 0 12 1 -5 0 11 1 -22 
0 -5 1 0 1 -1 0 2 1 -3 0 -4 0 3 1 -6 
0 -4 0 4 1 -4 0 -2 0 6 1 -6 0 26 1 2 
0 21 1 10 0 -5 0 5 1 -13 0 3 1 -5 0 3 
0 -26 1 -1 0 -8 0 7 1 -19 0 -8 1 2 0 27 
1 5 0 3 0 -30 0 19 1 14 0 -5 0 5 1 4 
0 -3 0 16 1 1 0 -4 0 30 1 -10 0 24 1 2 
0 8 0 -2 1 -3 0 1 0 -12 0 8 1 9 0 -10 
1 -2 0 6 0 -7 0 1 1 17 0 -9 0 1 1 -7 
0 11 0 -14 1 -10 0 -2 0 9 1 1 0 -28 0 17 
1 -2 0 -18 0 22 1 -44 0 5 1 -21 0 8 0 -12 
1 9 0 20 0 -15 1 -5 0 -6 0 35 1 -63 0 7 
1 29 0 -32 1 17 0 4 0 -6 0 4 1 3 0 13 
1 2 0 22 1 -4 0 6 1 -6 0 16 1 -7 0 9 
1 5 0 -3 0 4 1 -1 0 24 0 -11 1 -7 0 37 
1 -34 0 -8 0 1 1 5 0 -18 1 -1 0 1 0 -6 
1 3 0 -4 0 27 1 -58 0 -15 1 -13 0 -5 1 0 
1 0 1 0 1 0 1 0 1 0 1 0 1 0 0 2 
1 -1 0 2 0 -1 1 -2 0 4 0 -2 1 4 0 -2 
1 5 0 -4 0 14 1 7 0 -2 0 23 1 6 0 9 
1 -5 0 19 0 -36 1 -3 0 -20 1 -2 0 -2 1 0 
0 6 0 -1 1 -4 0 -5 0 4 1 -1 0 2 0 -1 
1 10 0 -20 0 23 1 14 0 -39 1 -1 1 0 1 0 
1 0 1 0 1 0 1 0 1 0 1 0 1 0 1 0 
1 0 1 0 1 0 1 0 0 1 0 -1 1 3 0 3 
0 -2 1 4 0 -5 0 1 1 5 0 5 0 -9 0 8 
1 4 0 -1 0 2 1 4 0 12 0 -8 1 23 0 2 
0 -7 1 2 0 5 0 -20 1 -2 0 -3 1 -5 0 -7 
0 1 1 -7 0 -6 0 3 1 2 0 7 1 7 0 45 
1 -25 0 -21 1 -4 0 -10 1 -2 0 -5 1 1 1 0 
1 0 1 0 1 0 1 0 1 0 -1 0 2 0 1 0 
1 1 1 -1 0 2 1 -1 0 1 0 -1 1 -1 0 4 
1 0 1 0 0 -2 326 253 300 MP stroke
0 1 1 1 0 5 0 -5 1 -2 0 13 1 -10 0 6 
1 22 0 -31 0 38 1 -9 0 8 0 -4 1 12 0 13 
0 -31 1 10 0 9 0 -4 1 -2 0 -3 0 14 1 12 
0 -45 1 -4 0 -13 1 0 0 -1 0 3 1 -1 0 4 
1 -4 0 25 1 1 0 19 0 -6 1 10 0 -19 0 5 
1 3 0 -33 1 4 0 -6 1 1 0 29 1 6 0 -10 
0 12 1 15 0 53 0 -99 1 13 0 -27 1 0 1 0 
1 0 1 0 1 0 1 0 1 0 1 0 1 0 1 0 
1 0 1 1 -1 0 2 0 1 -1 0 6 1 -4 0 -1 
0 2 1 1 0 4 1 -5 0 12 0 -2 1 -1 0 -4 
0 11 1 7 0 60 0 -50 1 0 0 -19 1 -8 0 -6 
1 -1 0 5 1 1 0 -1 1 -1 0 15 1 2 0 2 
1 1 0 9 1 1 0 2 1 -19 0 -10 1 -2 0 -3 
0 2 1 -5 0 11 1 2 0 26 1 5 0 26 1 7 
0 4 1 -7 0 -23 1 -12 0 -14 0 5 1 14 0 25 
0 -33 0 19 1 11 0 -10 0 6 1 21 0 -66 1 -9 
0 -9 1 0 1 0 1 0 1 0 1 0 1 0 1 0 
1 1 0 -1 0 1 1 -1 0 4 1 4 0 5 0 -9 
0 2 1 -2 0 1 1 -1 0 -2 0 5 1 -4 0 8 
1 -3 0 0 0 7 1 -4 0 23 1 5 0 -9 0 36 
1 4 0 33 0 -43 0 37 1 -4 0 -7 0 3 1 6 
0 3 0 -14 1 -6 0 3 0 -7 1 5 0 39 0 -9 
1 -59 0 -33 1 -3 0 6 1 6 0 -23 1 26 0 -7 
0 41 1 -59 0 42 0 -2 1 0 0 43 0 -48 1 -4 
0 -34 0 2 1 -3 0 2 0 -2 0 2 1 0 0 4 
0 -5 1 4 0 2 0 -4 1 26 0 -11 1 14 0 32 
1 15 0 4 0 -23 1 -11 0 -1 0 4 1 -18 0 1 
0 -10 1 -2 0 -9 1 2 0 6 0 -4 1 32 0 -50 
1 0 0 2 1 -1 0 1 0 -2 0 1 1 -1 0 1 
0 -1 1 1 0 2 0 -2 2 -1 0 1 0 -1 1 1 
1 -1 1 0 1 0 1 0 1 0 1 0 -1 0 2 0 
1 0 1 0 1 0 1 0 1 0 1 0 1 1 1 -1 
1 0 1 1 0 0 0 -1 0 0 1 1 0 1 0 -1 
1 -1 0 1 0 -1 0 1 1 3 0 -3 0 10 1 7 
0 4 0 -9 1 -7 0 6 0 -12 0 11 1 13 0 9 
0 -1 1 -7 0 31 1 -1 0 -7 0 33 1 -33 0 -18 
0 7 1 29 0 -51 1 1 0 -8 1 -4 0 -4 1 0 
1 1 0 -1 0 1 189 254 300 MP stroke
2 -2 0 7 0 -4 1 -1 0 1 0 -2 1 1 1 4 
0 -3 1 1 1 -1 1 -1 0 -1 0 1 1 -1 1 1 
0 -1 1 1 1 0 0 2 1 1 0 2 0 -3 1 -1 
1 -1 0 1 0 -1 1 -1 1 0 0 2 0 -1 1 -1 
1 0 0 -1 0 1 1 -1 1 1 1 0 -1 0 2 0 
1 -1 1 1 1 0 1 1 0 -1 1 1 1 1 0 -1 
0 1 1 -1 0 -1 0 1 1 1 0 2 0 -1 1 4 
0 -6 0 8 1 -3 0 -6 0 5 1 5 0 -10 2 0 
1 0 1 0 1 0 1 0 1 0 1 0 1 0 1 0 
1 0 1 0 1 0 1 0 -1 0 2 0 0 -1 0 1 
1 -1 1 1 1 0 1 0 -1 0 2 0 1 0 1 0 
1 0 1 0 1 0 -1 0 2 0 1 0 -1 0 2 0 
1 0 1 0 1 0 0 -1 0 1 1 -1 0 1 1 -1 
0 1 0 -1 1 1 0 -1 0 1 1 -1 0 1 1 -1 
0 1 1 -1 0 1 1 1 0 3 1 2 0 1 1 5 
0 -2 0 5 1 -10 0 1 0 -6 1 15 0 117 0 -59 
1 -11 0 -63 112 256 131 MP stroke
/c9 { 0.000000 0.000000 1.000000 sr} bdef
c9
1 0 1 3 1 2 1 1 1 1 1 -1 1 0 1 1 
1 1 1 0 1 0 1 0 1 1 1 0 1 0 1 1 
1 0 1 0 1 0 1 0 1 0 1 -1 1 0 1 0 
1 0 1 0 1 0 1 0 1 0 1 -1 1 0 1 -1 
1 0 1 0 1 0 1 0 1 0 1 1 1 0 1 0 
1 1 1 0 1 0 1 -1 0 -3 1 0 0 -18 1 0 
0 -7 1 0 1 0 0 2 1 4 0 -4 2 0 0 10 
1 0 0 3 1 2 0 2 1 4 1 0 1 0 1 -1 
0 -8 1 -2 1 0 1 -1 0 -4 1 0 1 2 0 1 
1 1 1 -1 1 0 1 1 0 0 2 0 1 0 1 0 
0 0 2 0 1 0 0 0 2 0 0 -1 1 1 1 0 
1 1 1 0 -1 0 2 -2 1 0 0 -4 1 0 0 -8 
1 0 0 -2 1 0 0 0 2 7 0 3 1 0 1 0 
1 0 1 1 0 0 2 -2 0 -2 1 -1 0 -2 1 -4 
1 -1 1 0 1 -1 1 0 1 1 0 2 1 6 0 5 
1 0 0 2 1 0 1 1 1 0 1 0 0 0 2 2 
1 0 1 0 1 0 1 0 1 0 1 0 1 0 0 0 
2 0 1 0 1 0 0 -4 2 -2 0 -2 1 -5 0 -2 
1 -2 0 -2 1 0 1 -1 1 0 1 1 1 0 1 0 
1 0 1 1 1 0 1 1 1 0 0 11 1 0 1 1 
1 0 1 0 0 -5 1 0 0 -3 1 -1 0 -1 2 -2 
1 0 1 -1 1 1 1 -1 1 0 1 0 1 0 1 0 
1 0 1 0 1 0 1 0 1 1 1 1 0 7 1 0 
1 1 1 0 0 -3 1 0 0 -1 0 1 1 -4 0 -2 
1 -1 1 -1 1 0 1 0 1 0 1 1 1 0 1 -1 
1 0 1 0 1 1 1 1 1 0 1 0 1 0 1 0 
1 0 1 0 1 0 1 0 1 1 1 4 0 3 1 0 
1 0 1 0 1 -2 0 -5 1 -2 1 -1 1 0 1 -1 
1 -1 1 1 1 0 1 0 1 0 1 0 1 1 1 0 
1 0 1 -1 1 0 0 1 2 2 1 0 1 1 1 1 
1 1 1 1 1 1 1 0 1 0 0 -2 2 -2 1 -2 
1 0 1 -1 1 0 1 1 1 0 1 0 1 -1 0 0 
2 0 1 0 1 0 1 1 1 1 1 1 1 6 0 5 
1 0 0 2 1 0 1 0 0 -2 1 0 0 2 1 0 
0 -2 1 -3 1 -1 0 -2 1 0 0 2 1 0 1 0 
1 2 0 2 1 0 1 0 1 0 1 0 1 0 1 1 
1 1 1 0 1 1 1 0 1 0 0 -4 1 0 1 -1 
1 -2 0 -3 1 -3 469 238 300 MP stroke
0 -2 1 0 1 0 1 0 0 2 1 5 0 2 1 0 
1 0 1 0 1 -3 0 -4 1 -2 0 -2 1 0 1 0 
1 0 1 1 1 3 0 4 1 0 0 3 1 0 1 0 
1 0 0 -5 1 0 0 -1 2 -2 0 -2 1 0 1 0 
1 0 0 2 1 1 1 1 1 1 1 1 1 0 1 -2 
0 -2 1 0 1 -1 1 0 0 1 2 5 0 2 1 2 
1 1 1 0 0 -1 2 -5 0 -2 1 -1 1 0 1 0 
1 0 0 3 1 2 0 2 1 3 0 2 1 0 0 2 
1 0 1 1 1 0 -1 0 2 0 1 -1 1 0 1 1 
1 0 1 -1 1 0 -1 0 2 -2 1 -1 0 -6 1 0 
1 -1 1 -1 1 0 1 1 0 2 1 0 0 1 2 2 
0 1 1 -1 1 -1 0 2 1 0 1 1 1 0 -1 0 
2 -3 1 0 1 -1 0 -2 1 -1 0 -1 1 -1 0 -3 
1 0 1 0 0 -2 1 -1 1 -1 1 0 1 0 1 0 
1 0 1 -1 1 0 1 0 0 3 2 2 0 2 1 2 
1 1 1 0 0 0 2 -3 1 0 0 -2 2 -2 1 -1 
1 -1 1 1 1 -1 1 0 1 0 1 0 1 1 1 -1 
1 0 1 0 1 0 1 0 1 0 1 1 1 0 1 0 
1 0 0 2 2 3 0 1 1 3 1 1 1 0 1 0 
1 -2 1 -1 1 -1 1 1 1 0 0 1 2 2 0 -2 
1 0 1 0 1 0 1 -1 0 -3 2 -2 1 0 1 0 
0 0 2 -2 0 -1 1 -1 0 -2 1 -1 1 0 1 0 
1 1 1 0 0 7 1 3 1 1 0 3 2 2 0 1 
1 1 1 0 1 0 0 -1 0 1 1 -3 1 -1 1 0 
1 0 1 -3 -1 0 2 2 1 0 1 -1 1 0 1 1 
0 3 1 0 1 -1 1 0 0 -6 1 0 1 -1 1 -2 
0 -4 1 0 1 -1 1 2 1 0 1 0 0 -2 1 1 
1 0 1 0 0 -2 1 0 1 0 1 0 1 0 0 0 
2 7 0 4 1 0 1 1 1 1 0 -1 2 -2 1 0 
1 0 1 2 1 2 1 0 1 0 0 -2 1 0 1 0 
1 0 1 1 0 2 1 0 0 1 2 2 1 -1 1 0 
0 -2 1 0 0 -2 1 -1 0 -2 1 -2 0 -1 1 -2 
1 0 0 -4 1 0 1 -1 1 0 1 0 1 0 1 0 
-1 0 2 2 0 2 1 0 0 4 2 2 0 1 1 1 
0 0 2 2 1 1 0 1 2 2 1 0 0 1 0 -1 
1 -1 1 1 0 0 2 -3 1 -1 0 -2 1 0 1 -1 
1 -1 1 -1 1 0 0 0 2 2 0 1 1 1 0 2 
1 0 1 0 1 0 229 231 300 MP stroke
1 -1 1 0 0 -2 1 -2 0 -3 1 0 0 -3 1 0 
0 -4 1 -1 1 0 1 0 0 2 1 0 1 7 1 0 
1 5 -1 0 2 -4 0 -5 1 0 1 0 0 -3 1 0 
1 -1 1 -1 1 -1 1 0 1 0 1 0 1 0 1 0 
1 1 1 0 0 2 1 0 0 21 1 2 1 1 1 0 
1 0 0 -6 1 0 0 -2 1 0 0 -2 1 -1 1 0 
1 0 1 1 1 0 1 0 0 10 1 0 0 3 1 0 
1 0 1 0 1 -1 1 0 0 -3 2 -2 1 0 0 0 
2 -2 1 0 1 0 0 2 1 1 1 1 1 0 1 0 
1 -1 0 -2 1 0 0 -4 1 0 0 -7 1 -2 0 -1 
1 -1 1 -1 0 -2 1 0 0 -2 1 -1 1 0 1 1 
1 -1 -1 0 2 2 0 2 1 2 0 2 1 10 0 4 
1 0 0 2 1 0 1 0 1 0 1 -4 0 -14 1 0 
1 0 0 -5 2 0 1 1 1 1 1 0 1 0 1 0 
1 -1 0 3 1 0 0 -2 1 1 1 0 0 1 2 2 
1 0 1 -1 1 0 0 -8 1 0 0 -3 1 0 1 0 
1 -1 1 1 0 2 2 2 1 0 1 1 1 0 1 1 
1 0 1 1 1 1 1 0 1 0 0 0 2 2 1 0 
1 1 0 7 1 0 0 3 1 1 0 5 1 3 0 2 
1 0 0 3 112 216 155 MP stroke
gr

c9
0 sg
%%IncludeResource: font Helvetica
/Helvetica /ISOLatin1Encoding 12.1667 FMSR

 416  281 mt 
(Time \(min\)) s
  90  158 mt  -90 rotate
(Speed) s
90 rotate
%%IncludeResource: font Helvetica
/Helvetica /ISOLatin1Encoding 10.1389 FMSR

 111  261 mt 
( ) s
 781   26 mt 
( ) s
1 sg
0 30 187 0 0 -30 590 58 4 MP
PP
-187 0 0 30 187 0 0 -30 590 58 5 MP stroke
0.337963 w
DO
SO
0.506944 w
0 sg
 590   58 mt  777   58 L
 590   28 mt  777   28 L
 590   58 mt  590   28 L
 777   58 mt  777   28 L
 590   58 mt  777   58 L
 590   58 mt  590   28 L
 590   58 mt  777   58 L
 590   28 mt  777   28 L
 590   58 mt  590   28 L
 777   58 mt  777   28 L
 628   41 mt 
(Speed from GPS) s
gs 590 28 188 31 rc
c8
30 0 595 36 2 MP stroke
gr

c8
0 sg
 628   54 mt 
(Estimated Speed from Variance) s
gs 590 28 188 31 rc
c9
30 0 595 49 2 MP stroke
gr

c9

end %%Color Dict

eplot
%%EndObject

epage
end

showpage

%%Trailer
%%EOF
