%!PS-Adobe-3.0 EPSF-3.0
%%Creator: MATLAB, The MathWorks, Inc. Version 8.0.0.783 (R2012b). Operating System: Darwin 13.0.0 Darwin Kernel Version 13.0.0: Thu Sep 19 22:22:27 PDT 2013; root:xnu-2422.1.72~6/RELEASE_X86_64 x86_64.
%%Title: figs/variance_to_speed_lin_ucla_palms.eps
%%CreationDate: 10/30/2013  22:59:58
%%DocumentNeededFonts: Helvetica
%%DocumentProcessColors: Cyan Magenta Yellow Black
%%LanguageLevel: 2
%%Pages: 1
%%BoundingBox:   -45   255   661   528
%%EndComments

%%BeginProlog
% MathWorks dictionary
/MathWorks 160 dict begin
% definition operators
/bdef {bind def} bind def
/ldef {load def} bind def
/xdef {exch def} bdef
/xstore {exch store} bdef
% operator abbreviations
/c  /clip ldef
/cc /concat ldef
/cp /closepath ldef
/gr /grestore ldef
/gs /gsave ldef
/mt /moveto ldef
/np /newpath ldef
/cm /currentmatrix ldef
/sm /setmatrix ldef
/rm /rmoveto ldef
/rl /rlineto ldef
/s {show newpath} bdef
/sc {setcmykcolor} bdef
/sr /setrgbcolor ldef
/sg /setgray ldef
/w /setlinewidth ldef
/j /setlinejoin ldef
/cap /setlinecap ldef
/rc {rectclip} bdef
/rf {rectfill} bdef
% page state control
/pgsv () def
/bpage {/pgsv save def} bdef
/epage {pgsv restore} bdef
/bplot /gsave ldef
/eplot {stroke grestore} bdef
% orientation switch
/portraitMode 0 def /landscapeMode 1 def /rotateMode 2 def
% coordinate system mappings
/dpi2point 0 def
% font control
/FontSize 0 def
/FMS {/FontSize xstore findfont [FontSize 0 0 FontSize neg 0 0]
  makefont setfont} bdef
/reencode {exch dup where {pop load} {pop StandardEncoding} ifelse
  exch dup 3 1 roll findfont dup length dict begin
  { 1 index /FID ne {def}{pop pop} ifelse } forall
  /Encoding exch def currentdict end definefont pop} bdef
/isroman {findfont /CharStrings get /Agrave known} bdef
/FMSR {3 1 roll 1 index dup isroman {reencode} {pop pop} ifelse
  exch FMS} bdef
/csm {1 dpi2point div -1 dpi2point div scale neg translate
 dup landscapeMode eq {pop -90 rotate}
  {rotateMode eq {90 rotate} if} ifelse} bdef
% line types: solid, dotted, dashed, dotdash
/SO { [] 0 setdash } bdef
/DO { [.5 dpi2point mul 4 dpi2point mul] 0 setdash } bdef
/DA { [6 dpi2point mul] 0 setdash } bdef
/DD { [.5 dpi2point mul 4 dpi2point mul 6 dpi2point mul 4
  dpi2point mul] 0 setdash } bdef
% macros for lines and objects
/L {lineto stroke} bdef
/MP {3 1 roll moveto 1 sub {rlineto} repeat} bdef
/AP {{rlineto} repeat} bdef
/PDlw -1 def
/W {/PDlw currentlinewidth def setlinewidth} def
/PP {closepath eofill} bdef
/DP {closepath stroke} bdef
/MR {4 -2 roll moveto dup  0 exch rlineto exch 0 rlineto
  neg 0 exch rlineto closepath} bdef
/FR {MR stroke} bdef
/PR {MR fill} bdef
/L1i {{currentfile picstr readhexstring pop} image} bdef
/tMatrix matrix def
/MakeOval {newpath tMatrix currentmatrix pop translate scale
0 0 1 0 360 arc tMatrix setmatrix} bdef
/FO {MakeOval stroke} bdef
/PO {MakeOval fill} bdef
/PD {currentlinewidth 2 div 0 360 arc fill
   PDlw -1 eq not {PDlw w /PDlw -1 def} if} def
/FA {newpath tMatrix currentmatrix pop translate scale
  0 0 1 5 -2 roll arc tMatrix setmatrix stroke} bdef
/PA {newpath tMatrix currentmatrix pop	translate 0 0 moveto scale
  0 0 1 5 -2 roll arc closepath tMatrix setmatrix fill} bdef
/FAn {newpath tMatrix currentmatrix pop translate scale
  0 0 1 5 -2 roll arcn tMatrix setmatrix stroke} bdef
/PAn {newpath tMatrix currentmatrix pop translate 0 0 moveto scale
  0 0 1 5 -2 roll arcn closepath tMatrix setmatrix fill} bdef
/vradius 0 def /hradius 0 def /lry 0 def
/lrx 0 def /uly 0 def /ulx 0 def /rad 0 def
/MRR {/vradius xdef /hradius xdef /lry xdef /lrx xdef /uly xdef
  /ulx xdef newpath tMatrix currentmatrix pop ulx hradius add uly
  vradius add translate hradius vradius scale 0 0 1 180 270 arc 
  tMatrix setmatrix lrx hradius sub uly vradius add translate
  hradius vradius scale 0 0 1 270 360 arc tMatrix setmatrix
  lrx hradius sub lry vradius sub translate hradius vradius scale
  0 0 1 0 90 arc tMatrix setmatrix ulx hradius add lry vradius sub
  translate hradius vradius scale 0 0 1 90 180 arc tMatrix setmatrix
  closepath} bdef
/FRR {MRR stroke } bdef
/PRR {MRR fill } bdef
/MlrRR {/lry xdef /lrx xdef /uly xdef /ulx xdef /rad lry uly sub 2 div def
  newpath tMatrix currentmatrix pop ulx rad add uly rad add translate
  rad rad scale 0 0 1 90 270 arc tMatrix setmatrix lrx rad sub lry rad
  sub translate rad rad scale 0 0 1 270 90 arc tMatrix setmatrix
  closepath} bdef
/FlrRR {MlrRR stroke } bdef
/PlrRR {MlrRR fill } bdef
/MtbRR {/lry xdef /lrx xdef /uly xdef /ulx xdef /rad lrx ulx sub 2 div def
  newpath tMatrix currentmatrix pop ulx rad add uly rad add translate
  rad rad scale 0 0 1 180 360 arc tMatrix setmatrix lrx rad sub lry rad
  sub translate rad rad scale 0 0 1 0 180 arc tMatrix setmatrix
  closepath} bdef
/FtbRR {MtbRR stroke } bdef
/PtbRR {MtbRR fill } bdef
/stri 6 array def /dtri 6 array def
/smat 6 array def /dmat 6 array def
/tmat1 6 array def /tmat2 6 array def /dif 3 array def
/asub {/ind2 exch def /ind1 exch def dup dup
  ind1 get exch ind2 get sub exch } bdef
/tri_to_matrix {
  2 0 asub 3 1 asub 4 0 asub 5 1 asub
  dup 0 get exch 1 get 7 -1 roll astore } bdef
/compute_transform {
  dmat dtri tri_to_matrix tmat1 invertmatrix 
  smat stri tri_to_matrix tmat2 concatmatrix } bdef
/ds {stri astore pop} bdef
/dt {dtri astore pop} bdef
/db {2 copy /cols xdef /rows xdef mul dup 3 mul string
  currentfile 
  3 index 0 eq {/ASCIIHexDecode filter}
  {/ASCII85Decode filter 3 index 2 eq {/RunLengthDecode filter} if }
  ifelse exch readstring pop
  dup 0 3 index getinterval /rbmap xdef
  dup 2 index dup getinterval /gbmap xdef
  1 index dup 2 mul exch getinterval /bbmap xdef pop pop}bdef
/it {gs np dtri aload pop moveto lineto lineto cp c
  cols rows 8 compute_transform 
  rbmap gbmap bbmap true 3 colorimage gr}bdef
/il {newpath moveto lineto stroke}bdef
currentdict end def
%%EndProlog

%%BeginSetup
MathWorks begin

0 cap

end
%%EndSetup

%%Page: 1 1
%%BeginPageSetup
%%PageBoundingBox:   -45   255   661   528
MathWorks begin
bpage
%%EndPageSetup

%%BeginObject: obj1
bplot

/dpi2point 1.01389 def
portraitMode -0121 0545 csm

   76    10   716   276 rc
85 dict begin %Colortable dictionary
/c0 { 0.000000 0.000000 0.000000 sr} bdef
/c1 { 1.000000 1.000000 1.000000 sr} bdef
/c2 { 0.900000 0.000000 0.000000 sr} bdef
/c3 { 0.000000 0.820000 0.000000 sr} bdef
/c4 { 0.000000 0.000000 0.800000 sr} bdef
/c5 { 0.910000 0.820000 0.320000 sr} bdef
/c6 { 1.000000 0.260000 0.820000 sr} bdef
/c7 { 0.000000 0.820000 0.820000 sr} bdef
c0
1 j
1 sg
   0    0  864  289 rf
0.506944 w
0 234 669 0 0 -234 112 256 4 MP
PP
-669 0 0 234 669 0 0 -234 112 256 5 MP stroke
0.337963 w
DO
0 sg
 112  256 mt  112   22 L
 112   22 mt  112   22 L
 195  256 mt  195   22 L
 195   22 mt  195   22 L
 279  256 mt  279   22 L
 279   22 mt  279   22 L
 362  256 mt  362   22 L
 362   22 mt  362   22 L
 446  256 mt  446   22 L
 446   22 mt  446   22 L
 530  256 mt  530   22 L
 530   22 mt  530   22 L
 613  256 mt  613   22 L
 613   22 mt  613   22 L
 697  256 mt  697   22 L
 697   22 mt  697   22 L
 781  256 mt  781   22 L
 781   22 mt  781   22 L
 112  256 mt  781  256 L
 781  256 mt  781  256 L
 112  230 mt  781  230 L
 781  230 mt  781  230 L
 112  204 mt  781  204 L
 781  204 mt  781  204 L
 112  178 mt  781  178 L
 781  178 mt  781  178 L
 112  152 mt  781  152 L
 781  152 mt  781  152 L
 112  126 mt  781  126 L
 781  126 mt  781  126 L
 112  100 mt  781  100 L
 781  100 mt  781  100 L
 112   74 mt  781   74 L
 781   74 mt  781   74 L
 112   48 mt  781   48 L
 781   48 mt  781   48 L
 112   22 mt  781   22 L
 781   22 mt  781   22 L
SO
0.506944 w
 112  256 mt  781  256 L
 112   22 mt  781   22 L
 112  256 mt  112   22 L
 781  256 mt  781   22 L
 112  256 mt  781  256 L
 112  256 mt  112   22 L
 112  256 mt  112  249 L
 112   22 mt  112   28 L
%%IncludeResource: font Helvetica
/Helvetica /ISOLatin1Encoding 10.1389 FMSR

 110  267 mt 
(0) s
 195  256 mt  195  249 L
 195   22 mt  195   28 L
 193  267 mt 
(5) s
 279  256 mt  279  249 L
 279   22 mt  279   28 L
 274  267 mt 
(10) s
 362  256 mt  362  249 L
 362   22 mt  362   28 L
 357  267 mt 
(15) s
 446  256 mt  446  249 L
 446   22 mt  446   28 L
 441  267 mt 
(20) s
 530  256 mt  530  249 L
 530   22 mt  530   28 L
 525  267 mt 
(25) s
 613  256 mt  613  249 L
 613   22 mt  613   28 L
 608  267 mt 
(30) s
 697  256 mt  697  249 L
 697   22 mt  697   28 L
 692  267 mt 
(35) s
 781  256 mt  781  249 L
 781   22 mt  781   28 L
 776  267 mt 
(40) s
 112  256 mt  118  256 L
 781  256 mt  774  256 L
  98  259 mt 
(-5) s
 112  230 mt  118  230 L
 781  230 mt  774  230 L
 104  233 mt 
(0) s
 112  204 mt  118  204 L
 781  204 mt  774  204 L
 104  207 mt 
(5) s
 112  178 mt  118  178 L
 781  178 mt  774  178 L
  98  181 mt 
(10) s
 112  152 mt  118  152 L
 781  152 mt  774  152 L
  98  155 mt 
(15) s
 112  126 mt  118  126 L
 781  126 mt  774  126 L
  98  129 mt 
(20) s
 112  100 mt  118  100 L
 781  100 mt  774  100 L
  98  103 mt 
(25) s
 112   74 mt  118   74 L
 781   74 mt  774   74 L
  98   77 mt 
(30) s
 112   48 mt  118   48 L
 781   48 mt  774   48 L
  98   51 mt 
(35) s
 112   22 mt  118   22 L
 781   22 mt  774   22 L
  98   25 mt 
(40) s
 112  256 mt  781  256 L
 112   22 mt  781   22 L
 112  256 mt  112   22 L
 781  256 mt  781   22 L
gs 112 22 670 235 rc
/c8 { 1.000000 0.000000 0.000000 sr} bdef
c8
1 1 1 0 1 -1 1 1 1 0 1 0 1 0 0 4 
1 -1 0 9 1 -7 0 6 0 -1 1 -2 0 -2 1 -1 
0 3 1 1 0 -2 1 1 1 -1 -1 0 2 0 0 1 
1 2 0 -3 0 1 1 2 0 0 0 -3 0 0 1 3 
0 -3 0 4 1 -3 0 0 0 7 1 -8 0 4 1 3 
0 -7 1 6 0 1 0 -8 1 8 0 -8 0 5 1 -4 
0 -3 1 -2 0 5 0 -3 1 4 0 1 0 -1 1 2 
0 -3 0 3 1 -3 0 0 0 3 1 -2 0 -2 1 1 
0 -1 0 1 1 1 1 -1 0 1 0 -2 1 1 0 -1 
0 1 1 1 1 1 0 1 0 -2 2 0 1 0 0 -1 
0 1 1 1 0 3 0 -3 1 4 0 0 0 -4 0 0 
1 2 0 -2 0 9 1 -12 0 4 0 -1 1 -2 0 -6 
1 -2 0 2 0 -2 1 2 0 2 0 -4 0 1 1 0 
0 -1 1 1 1 -1 0 8 0 -5 1 -3 0 3 0 -3 
1 3 0 -2 1 -1 0 2 0 0 1 -2 0 5 1 1 
1 1 0 8 0 -10 1 3 0 -6 1 2 0 -4 0 2 
1 13 0 -13 0 1 1 1 0 14 1 6 0 -4 0 8 
1 11 0 7 0 -9 0 4 1 19 0 -10 1 -5 0 3 
0 -28 1 11 0 -4 0 24 1 2 0 7 1 23 0 29 
1 0 0 -13 0 8 1 1 0 4 0 -16 0 10 1 2 
0 5 0 -22 0 3 1 1 0 -12 1 18 0 -11 0 3 
1 2 0 3 0 -3 1 8 0 -19 0 3 1 4 0 8 
0 -22 1 12 0 -8 0 11 1 -7 0 -3 0 4 1 -11 
0 1 0 -4 1 7 0 -4 0 4 1 -13 0 10 0 -8 
1 -11 0 -13 0 12 1 -23 0 -15 0 2 1 -12 0 4 
0 -6 1 -4 0 2 0 -3 1 2 0 -1 1 2 0 -3 
1 3 0 -3 1 21 0 -1 0 1 1 -3 0 45 1 59 
0 -94 0 11 1 -4 0 -27 1 -2 0 -2 1 9 0 9 
1 9 0 5 1 -36 -1 0 2 0 0 2 1 -2 0 3 
1 -2 0 -1 0 1 1 5 0 -5 0 1 1 3 0 -3 
0 28 1 -5 0 -9 0 19 1 8 0 -10 0 40 1 -3 
0 -13 0 12 1 10 0 -5 0 3 1 1 0 2 0 -6 
1 -14 0 30 0 -16 1 -20 0 46 1 -3 0 13 0 -50 
0 12 1 19 0 -10 0 14 1 -17 1 -6 0 10 1 -4 
0 -2 0 18 1 -18 0 -3 0 7 1 -9 0 -8 0 20 
1 -1 0 -18 0 32 1 -1 0 -36 1 31 0 -17 0 11 
1 20 0 -44 1 13 0 -17 1 141 0 -190 1 -7 1 0 
1 0 1 0 1 0 601 229 300 MP stroke
1 0 1 0 1 0 1 0 1 0 0 2 1 -1 0 -1 
0 2 1 8 0 -9 0 7 1 1 0 21 0 -25 1 4 
0 25 1 -5 0 21 1 3 0 -1 0 4 1 -6 0 11 
0 -5 1 24 0 -69 1 -7 0 -4 1 3 0 3 0 -4 
0 2 1 0 0 -1 0 28 1 -11 0 -20 1 0 1 -1 
1 1 1 0 1 0 1 0 1 0 1 0 1 0 1 0 
0 0 0 2 1 -1 0 2 1 -2 0 2 0 -3 0 1 
1 4 0 -5 0 7 1 -4 0 9 1 -7 0 -2 0 6 
1 14 0 13 1 15 0 25 0 -60 1 -1 0 -14 1 -1 
1 0 1 0 1 0 1 0 1 0 1 0 1 0 1 0 
1 0 1 0 1 0 1 0 1 0 1 0 1 1 1 1 
0 -2 0 1 1 1 0 -3 0 6 1 1 0 6 0 -12 
0 1 1 2 0 3 1 -2 0 8 0 -9 0 7 1 -4 
0 6 1 7 0 20 1 0 0 14 1 -4 0 -4 0 3 
1 21 0 -45 1 -4 0 -17 1 0 0 -4 1 1 1 -1 
1 1 1 -1 1 1 1 0 1 0 1 0 1 0 1 0 
1 0 1 0 -1 0 2 0 1 1 0 -1 1 1 0 -1 
0 1 1 1 0 5 0 -3 1 0 0 9 0 -10 0 4 
1 5 0 -9 0 14 1 -11 0 30 1 -11 0 21 1 -17 
0 21 1 1 0 24 0 -52 1 -2 1 -3 -1 0 2 0 
0 3 0 -17 0 1 1 -2 0 -3 1 0 0 8 1 3 
0 1 1 1 0 1 0 -7 1 -2 0 -4 1 -1 0 -1 
1 1 1 0 1 1 1 0 0 -1 0 1 1 1 0 1 
0 -4 0 3 1 -2 0 7 1 1 0 -1 1 1 0 -1 
0 11 1 -14 0 17 1 -4 0 -1 0 12 1 -3 0 -24 
0 47 1 -8 0 32 1 -23 0 20 0 -13 1 3 0 -13 
1 -6 0 -21 1 -1 0 4 1 -2 0 33 0 -45 0 35 
1 2 0 -8 0 6 1 -6 0 -6 1 -10 0 15 0 -2 
1 -7 0 12 0 -5 1 -8 0 32 1 0 0 11 1 11 
0 -13 1 10 0 -7 0 10 1 -4 0 -10 1 4 0 -13 
1 5 0 -22 1 -3 0 38 1 -4 0 14 0 -12 1 5 
0 5 1 -25 0 26 0 -2 1 -3 0 5 0 -14 1 8 
0 -7 0 19 1 -37 0 4 0 -4 1 19 0 -27 0 6 
1 -46 0 -5 1 1 0 15 1 -14 0 19 0 -1 1 -10 
0 -3 0 31 1 25 0 -28 1 45 0 31 0 -50 1 -9 
0 6 0 -19 1 14 0 12 0 -28 1 -18 0 -12 1 -5 
0 -2 0 1 1 -1 0 3 0 -1 1 1 0 -2 0 2 
1 -2 0 2 1 2 457 224 300 MP stroke
0 -2 0 3 1 5 0 -7 0 10 1 0 0 -2 0 42 
1 -4 0 -20 0 47 1 -35 0 -10 0 1 1 -8 0 82 
0 -88 1 -5 0 -9 1 -3 0 3 1 1 0 3 1 4 
0 2 0 -12 1 -1 0 36 1 -2 0 18 0 -29 1 -2 
0 16 1 -9 0 7 0 -2 1 11 0 -14 0 11 1 -5 
0 10 1 -20 0 -1 0 1 1 -4 1 -1 0 2 1 -3 
0 -4 0 3 1 -5 0 -3 0 3 1 -4 0 -2 0 6 
1 -5 0 23 1 2 0 19 1 8 0 -5 0 5 1 -11 
0 2 1 -4 0 3 0 -24 1 0 0 -7 0 6 1 -18 
0 -6 1 1 0 24 1 4 0 3 0 -26 0 16 1 13 
0 -4 0 4 1 3 0 -2 0 14 1 1 0 -3 0 26 
1 -8 0 21 1 2 0 7 0 -8 0 6 1 -3 0 1 
0 -11 0 8 1 7 0 -9 1 -1 0 5 0 -6 0 1 
1 15 0 -8 1 -5 0 10 0 -13 1 -9 0 -2 0 8 
1 1 0 -25 0 15 1 -2 0 -15 0 19 1 -39 0 4 
1 -18 0 7 0 -10 1 7 0 18 0 -13 1 -5 0 -5 
0 31 1 -56 0 6 1 26 0 -29 1 16 0 3 0 -5 
0 3 1 3 0 12 1 2 0 19 1 -4 0 6 1 -5 
0 14 1 -6 0 7 1 5 0 -3 0 3 1 0 0 21 
0 -10 1 -6 0 33 1 -30 0 -7 0 1 1 4 0 -16 
1 -1 0 1 0 -5 1 2 0 -3 0 24 1 -52 0 -13 
1 -12 0 -4 1 0 1 0 1 0 1 0 1 0 1 0 
1 0 1 0 0 2 1 -2 0 3 0 -2 1 -1 0 3 
0 -1 1 3 0 -2 1 5 0 -4 0 13 1 6 0 -2 
0 21 1 5 0 8 1 -4 0 16 0 -32 1 -2 0 -18 
1 -2 0 -2 1 0 0 6 0 -1 1 -4 0 -4 0 3 
2 10 0 -18 0 20 1 13 0 -35 1 -1 1 0 1 0 
1 0 1 0 1 0 1 0 1 0 1 0 1 0 1 0 
1 0 1 0 1 0 1 0 0 1 0 -1 1 3 0 2 
0 -2 1 4 0 -4 1 5 0 5 0 -9 0 8 1 3 
0 -1 0 2 1 3 0 11 0 -7 1 20 0 2 0 -6 
1 2 0 5 0 -18 1 -2 0 -3 1 -5 0 -6 0 1 
1 -6 0 -6 0 3 1 2 0 6 1 7 0 39 1 -22 
0 -18 1 -4 0 -9 1 -2 0 -4 1 1 1 0 1 0 
1 0 1 0 1 0 1 0 -1 0 2 0 1 0 -1 0 
2 0 0 1 1 -1 0 2 1 -1 0 1 0 -1 1 -1 
0 1 0 -1 1 3 0 1 0 -1 1 1 0 -3 0 1 
1 2 0 4 0 -4 325 225 300 MP stroke
1 -2 0 11 1 -9 0 5 1 20 0 -27 0 33 1 -7 
0 7 0 -4 1 10 0 12 0 -27 1 9 0 7 0 -3 
1 -2 0 -2 0 12 1 11 0 -41 1 -3 0 -11 1 -1 
0 0 0 1 1 1 0 3 1 -3 0 22 1 1 0 17 
0 -6 1 9 0 -17 0 5 1 2 0 -29 1 4 0 -5 
1 0 0 26 1 5 0 -8 0 10 1 13 0 47 0 -87 
1 11 0 -24 1 0 1 0 1 0 1 0 1 0 1 0 
1 0 1 0 1 0 1 0 1 0 1 1 1 -1 1 0 
0 5 1 -3 0 -1 0 1 1 1 0 4 1 -5 0 11 
0 -2 1 0 0 -4 0 10 1 6 0 53 0 -44 1 0 
0 -17 1 -7 0 -6 1 -1 0 5 1 1 0 -1 1 -1 
0 13 1 2 0 2 1 1 0 8 1 1 0 2 1 -17 
0 -9 1 -2 0 -3 0 3 1 -5 0 9 1 3 0 23 
1 4 0 23 1 7 0 3 1 -7 0 -20 1 -11 0 -12 
0 5 1 12 0 22 0 -29 0 16 1 11 0 -9 0 5 
1 18 0 -58 1 -8 0 -8 1 0 1 0 1 0 1 0 
1 0 1 0 1 0 1 1 0 -1 0 1 1 -1 0 4 
1 3 0 4 0 -7 0 1 1 -1 1 -1 0 -2 0 5 
1 -3 0 7 1 -3 0 0 0 6 1 -3 0 20 1 4 
0 -7 0 32 1 3 0 29 0 -38 0 34 1 -4 0 -7 
0 3 1 5 0 3 0 -12 1 -5 0 2 0 -6 1 4 
0 35 0 -8 1 -53 0 -29 1 -3 0 5 1 6 0 -21 
1 24 0 -7 0 37 1 -53 0 38 0 -2 1 0 0 38 
0 -42 1 -4 0 -30 0 2 1 -3 0 2 0 -2 0 2 
1 0 0 4 0 -5 1 3 0 3 0 -5 1 23 0 -9 
1 12 0 29 1 13 0 3 0 -20 1 -9 0 -2 0 5 
1 -17 0 1 0 -9 1 -2 0 -8 1 2 0 5 0 -3 
1 28 0 -44 1 0 0 2 1 -1 0 1 0 -2 0 1 
1 -1 0 1 1 -1 0 2 0 -1 2 -1 1 1 1 -1 
1 0 1 0 1 0 1 0 1 0 -1 0 2 0 1 0 
1 0 1 0 1 0 1 0 1 0 1 0 1 0 1 0 
1 1 0 0 0 -1 0 0 1 1 0 1 0 -1 1 -1 
0 1 0 -1 0 1 1 2 0 -2 0 9 1 6 0 3 
0 -8 1 -6 0 6 0 -11 0 9 1 12 0 8 0 -1 
1 -6 0 28 1 -1 0 -6 0 29 1 -29 0 -16 0 6 
1 26 0 -46 1 1 0 -7 1 -4 0 -1 0 1 1 -3 
1 0 1 1 0 1 1 -3 0 6 0 -3 1 -1 0 1 
0 -2 1 1 1 4 184 224 300 MP stroke
0 -3 1 1 1 -1 0 -2 1 1 0 -1 0 1 1 -1 
1 1 0 -1 1 1 1 0 0 2 1 0 0 2 0 -1 
1 -2 1 -1 1 -1 1 0 0 2 0 -1 1 -1 1 0 
0 -1 0 1 1 -1 1 1 1 0 -1 0 2 0 1 -1 
1 1 1 0 1 1 0 -1 1 1 0 1 0 -1 1 1 
0 -1 2 0 0 3 0 -2 1 4 0 -5 0 7 1 -2 
0 -6 0 4 1 5 0 -9 2 0 1 0 1 0 1 0 
1 0 1 0 1 0 1 0 1 0 1 0 1 0 1 0 
1 0 -1 0 2 0 0 -1 0 1 1 -1 1 1 1 0 
1 0 -1 0 2 0 1 0 1 0 1 0 1 0 1 0 
-1 0 2 0 1 0 -1 0 2 0 1 0 1 0 1 0 
0 -1 0 1 1 -1 0 1 1 -1 0 1 0 -1 1 1 
0 -1 0 1 1 -1 0 1 1 -1 0 1 1 -1 0 1 
0 -1 1 1 0 3 1 3 0 4 1 1 0 -2 0 4 
1 -9 0 1 0 -5 1 13 0 105 0 -53 1 -10 0 -56 
112 230 121 MP stroke
/c9 { 0.000000 0.000000 1.000000 sr} bdef
c9
1 0 1 0 1 0 1 0 1 -1 1 1 1 0 1 -1 
1 0 1 0 1 0 1 0 1 0 1 0 1 0 1 0 
1 0 1 0 1 0 1 0 1 0 1 0 1 0 1 0 
1 0 1 0 1 0 1 0 1 0 1 0 1 0 1 0 
1 0 1 0 1 0 1 0 1 0 1 0 1 0 1 0 
1 0 1 0 1 0 1 0 1 1 1 0 1 0 1 0 
1 0 1 0 1 0 1 0 1 0 1 0 1 0 1 0 
1 0 1 0 1 0 1 0 1 0 1 0 1 0 1 0 
1 0 1 0 1 0 1 0 1 0 1 0 1 0 1 0 
1 0 1 0 1 0 1 0 1 0 1 0 1 0 1 0 
1 0 1 0 1 0 1 0 1 0 1 0 1 0 1 0 
1 0 1 0 1 0 1 0 1 0 1 0 1 0 1 0 
1 0 1 0 1 0 1 0 1 0 1 0 1 0 1 0 
1 0 1 0 1 0 1 0 1 0 1 0 1 0 1 0 
1 0 1 0 1 0 1 0 1 0 1 0 1 0 1 0 
1 0 1 0 1 0 1 0 1 0 1 0 1 0 1 0 
1 0 1 0 1 0 1 0 1 0 1 0 1 0 1 0 
1 0 1 0 1 0 1 0 1 0 1 0 1 0 1 0 
1 0 1 0 1 0 1 0 1 0 1 0 1 0 1 0 
1 0 1 0 1 0 1 0 1 0 1 0 1 0 1 0 
1 0 1 0 1 0 1 0 1 0 1 0 1 0 1 0 
1 0 1 0 1 0 1 0 1 0 1 0 1 0 1 0 
1 0 1 0 1 0 1 0 1 0 1 0 1 0 1 0 
1 0 1 0 1 0 1 0 1 0 1 0 1 0 1 0 
1 0 1 0 1 0 1 0 1 0 1 0 1 0 1 0 
1 0 1 0 1 0 1 0 1 0 1 0 1 0 1 0 
1 0 1 0 1 0 1 0 1 0 1 0 1 0 1 0 
1 0 1 0 1 0 1 0 1 0 1 0 1 0 1 0 
1 0 1 0 1 0 1 0 1 0 1 0 1 0 1 0 
1 0 1 0 1 0 1 0 1 0 1 0 1 0 1 0 
1 0 1 0 1 0 1 0 1 0 1 0 1 0 1 0 
1 0 1 0 1 0 1 0 1 0 1 0 1 0 1 0 
1 0 1 0 1 0 1 0 1 0 1 0 1 0 1 0 
1 0 1 0 1 0 1 0 1 0 1 0 1 0 1 0 
1 0 1 0 1 0 1 0 1 0 1 0 1 0 1 0 
1 0 1 0 1 0 1 0 1 0 1 0 1 0 1 0 
1 0 1 0 1 0 1 0 1 0 1 0 1 0 1 0 
1 0 1 0 1 0 425 229 300 MP stroke
1 0 1 0 1 0 1 0 1 0 1 0 1 0 1 0 
1 0 1 0 1 0 1 0 1 0 1 0 1 0 1 0 
1 0 1 0 1 0 1 0 1 0 1 0 1 0 1 0 
1 0 1 0 1 0 1 0 1 0 1 0 1 0 1 0 
1 0 1 0 1 0 1 0 1 0 1 0 1 0 1 0 
1 0 1 0 1 0 1 0 1 0 1 0 1 0 1 0 
1 0 1 0 1 0 1 0 1 0 1 0 1 0 1 0 
1 0 1 0 1 0 1 0 1 0 1 0 1 0 1 0 
1 0 1 0 1 0 1 0 1 0 1 0 1 0 1 0 
1 0 1 0 1 0 1 0 1 0 1 0 1 0 1 0 
1 0 1 0 1 0 1 0 1 0 1 0 1 0 1 0 
1 0 1 0 1 0 1 0 1 0 1 0 1 0 1 0 
1 0 1 0 1 0 1 0 1 0 1 0 1 0 1 0 
1 0 1 0 1 0 1 0 1 0 1 0 1 0 1 0 
1 0 1 0 1 0 1 0 1 0 1 0 1 0 1 0 
1 0 1 0 1 0 1 0 1 0 1 0 1 0 1 0 
1 0 1 0 1 0 1 0 1 0 1 0 1 0 1 0 
1 0 1 0 1 0 1 0 1 0 1 0 1 0 1 0 
1 0 1 0 1 0 1 0 1 0 1 0 1 0 1 0 
1 0 1 0 1 0 1 0 1 0 1 0 1 0 1 0 
1 0 1 0 1 0 1 0 1 0 1 0 1 0 1 0 
1 0 1 0 1 0 1 0 1 0 1 0 1 0 1 0 
1 0 1 0 1 0 1 0 1 0 1 0 1 0 1 0 
1 0 1 0 1 0 1 0 1 0 1 0 1 0 1 0 
1 0 1 0 1 0 1 0 1 0 1 0 1 0 1 0 
1 0 1 0 1 0 1 0 1 0 1 0 1 0 1 0 
1 0 1 0 1 0 1 0 1 0 1 0 1 0 1 0 
1 0 1 0 1 0 1 0 1 0 1 0 1 0 1 0 
1 0 1 0 1 0 1 0 1 0 1 0 1 0 1 0 
1 0 1 0 1 0 1 0 1 0 1 0 1 0 1 0 
1 0 1 0 1 0 1 0 1 0 1 0 1 0 1 0 
1 0 1 0 1 0 1 0 1 0 1 0 1 0 1 0 
1 0 1 0 1 0 1 0 1 0 1 0 1 0 1 0 
1 0 1 0 1 0 1 0 1 0 1 0 1 0 1 0 
1 0 1 0 1 0 1 0 1 0 1 0 1 0 1 0 
1 0 1 0 1 0 1 0 1 0 1 0 1 0 1 0 
1 0 1 0 1 0 1 0 1 0 1 0 1 0 1 0 
1 0 1 0 1 0 126 229 300 MP stroke
1 0 1 0 1 0 1 0 1 0 1 0 1 0 1 0 
1 0 1 0 1 0 1 0 1 0 1 0 112 229 15 MP stroke
gr

c9
0 sg
%%IncludeResource: font Helvetica
/Helvetica /ISOLatin1Encoding 12.1667 FMSR

 416  281 mt 
(Time \(min\)) s
  90  158 mt  -90 rotate
(Speed) s
90 rotate
%%IncludeResource: font Helvetica
/Helvetica /ISOLatin1Encoding 10.1389 FMSR

 111  261 mt 
( ) s
 781   26 mt 
( ) s
1 sg
0 30 221 0 0 -30 556 58 4 MP
PP
-221 0 0 30 221 0 0 -30 556 58 5 MP stroke
0.337963 w
DO
SO
0.506944 w
0 sg
 556   58 mt  777   58 L
 556   28 mt  777   28 L
 556   58 mt  556   28 L
 777   58 mt  777   28 L
 556   58 mt  777   58 L
 556   58 mt  556   28 L
 556   58 mt  777   58 L
 556   28 mt  777   28 L
 556   58 mt  556   28 L
 777   58 mt  777   28 L
 594   41 mt 
(Speed from GPS) s
gs 556 28 222 31 rc
c8
30 0 561 36 2 MP stroke
gr

c8
0 sg
 594   54 mt 
(Estimated Speed from Variance \(linear\)) s
gs 556 28 222 31 rc
c9
30 0 561 49 2 MP stroke
gr

c9

end %%Color Dict

eplot
%%EndObject

epage
end

showpage

%%Trailer
%%EOF
