-27.071,532.42,331.45
-36.138,200.86,223.16
40.307,77.741,77.572
99.416,94.073,152.72
-54.859,412.03,242.18
-28.331,47.544,24.138
-43.67,126.81,116.09
-42.017,260.76,217.99
27.09,567.03,361.18
-73.293,143.33,161.47
75.477,124.78,122.46
-89.365,203.02,295.99
31.178,317.47,335.47
116.21,270.66,268.27
-101,180.8,161.46
-31.228,856.94,380.13
88.926,216.87,141.9
-94.688,217.28,181.51
115.37,457.7,608.75
-48.472,231.34,243.06
64.763,131.52,152.66
-39.203,275.98,318.84
41.793,191.14,278.53
