-118.439005,34.0698239
-118.439005,34.0698269
-118.439001,34.069829
-118.439,34.0698293
-118.438997,34.0698296
-118.439,34.0698293
-118.438998,34.0698285
-118.438998,34.0698269
-118.438998,34.0698228
-118.439,34.0698214
-118.439004,34.0698121
-118.439028,34.0697695
-118.439041,34.0697178
-118.439054,34.069655
-118.439068,34.0695848
-118.439079,34.0695059
-118.439092,34.0694266
-118.439107,34.0693339
-118.43912,34.0692413
-118.43913,34.0691453
-118.439153,34.0690418
-118.439212,34.0689408
-118.439226,34.0688323
-118.43923,34.068704
-118.439232,34.0685875
-118.439232,34.0684547
-118.439231,34.0683285
-118.439227,34.0682095
-118.439227,34.0680872
-118.439221,34.0679692
-118.439221,34.0678506
-118.439249,34.0677234
-118.43925,34.0676
-118.439268,34.0674677
-118.439271,34.0673359
-118.439307,34.0672196
-118.439379,34.0670831
-118.439435,34.0669569
-118.439489,34.0668466
-118.439567,34.0667367
-118.439638,34.0666239
-118.439697,34.0665226
-118.439777,34.0664171
-118.439866,34.0663169
-118.439948,34.0662159
-118.440015,34.0661119
-118.440036,34.0660029
-118.440097,34.0658836
-118.44016,34.0657638
-118.440209,34.0656532
-118.440253,34.0655413
-118.44033,34.0654378
-118.440401,34.0653378
-118.440472,34.0652545
-118.440552,34.0651907
-118.440637,34.0651369
-118.440729,34.0650811
-118.440803,34.0650179
-118.440845,34.0649396
-118.440885,34.0648577
-118.440928,34.0647665
-118.440934,34.0646974
-118.440971,34.0646504
-118.440979,34.06463
-118.440974,34.06463
-118.440974,34.0646413
-118.440974,34.064649
-118.440972,34.064649
-118.440972,34.0646425
-118.440973,34.064639
-118.44098,34.0646356
-118.440985,34.064634
-118.440989,34.064632
-118.440993,34.0646314
-118.440997,34.0646314
-118.441022,34.0646233
-118.44109,34.0645788
-118.44109,34.0645664
-118.44108,34.06453
-118.441077,34.064476
-118.441077,34.064407
-118.441078,34.064336
-118.441078,34.064265
-118.441096,34.0641971
-118.441105,34.0641534
-118.441105,34.0641263
-118.441108,34.0641045
-118.441105,34.0640952
-118.441108,34.0640823
-118.441114,34.0640689
-118.441114,34.0640527
-118.441091,34.0640174
-118.441027,34.0639874
-118.440953,34.063969
-118.440868,34.063969
-118.440776,34.0639721
-118.440684,34.0639842
-118.440598,34.0639847
-118.440498,34.0639862
-118.440391,34.0639869
-118.440283,34.0639907
-118.440185,34.0639907
-118.440106,34.0639808
-118.440031,34.0639721
-118.439971,34.0639672
-118.439947,34.0639468
-118.439937,34.06394
-118.439921,34.0639283
-118.439889,34.0639025
-118.439834,34.0638872
-118.439794,34.0638655
-118.439753,34.0638419
-118.439675,34.0637984
-118.43961,34.0637659
-118.439483,34.0637094
-118.439399,34.0636683
-118.439269,34.0636437
-118.439174,34.0636156
-118.439152,34.0635835
-118.439099,34.0635516
-118.439062,34.063548
-118.439021,34.0635349
-118.439021,34.0634932
-118.43903,34.0634406
-118.43903,34.0633826
-118.439022,34.0633332
-118.438991,34.0632222
-118.43895,34.0631401
-118.43895,34.0630585
-118.438973,34.0629688
-118.439017,34.0628823
-118.439043,34.0627791
-118.439088,34.0626727
-118.439114,34.0625773
-118.439194,34.062456
-118.439234,34.0623528
-118.439258,34.0622635
-118.439301,34.0621655
-118.43938,34.0620932
-118.439438,34.0620086
-118.439529,34.0619806
-118.439613,34.0619338
-118.43971,34.0618868
-118.439828,34.061849
-118.43995,34.0618043
-118.440067,34.0617554
-118.440184,34.0617119
-118.440316,34.0616774
-118.440446,34.0616398
-118.440578,34.0616015
-118.44071,34.0615646
-118.440835,34.0615298
-118.440959,34.0614976
-118.441091,34.0614854
-118.441171,34.0614795
-118.441272,34.0614795
-118.44135,34.0615
-118.44143,34.0615245
-118.441459,34.0615338
-118.441518,34.0615339
-118.441565,34.0615418
-118.441565,34.061545
-118.441559,34.0615548
-118.441559,34.0615553
-118.441563,34.0615553
-118.441567,34.0615553
-118.441574,34.0615546
-118.441581,34.0615546
-118.441582,34.061555
-118.441584,34.061555
-118.441586,34.0615549
-118.441588,34.0615543
-118.441589,34.0615543
-118.441592,34.0615552
-118.441593,34.0615565
-118.441598,34.061559
-118.441608,34.0615809
-118.441657,34.0616085
-118.441705,34.061637
-118.441767,34.0616598
-118.441841,34.0616873
-118.441905,34.0617184
-118.441987,34.0617523
-118.442086,34.0617889
-118.442181,34.0618367
-118.442286,34.0618807
-118.442394,34.0619258
-118.442485,34.0619726
-118.442575,34.0620069
-118.442626,34.0620337
-118.442667,34.0620496
-118.442688,34.0620598
-118.442704,34.0620601
-118.442711,34.0620638
-118.442725,34.0620684
-118.442755,34.0620761
-118.442795,34.0620961
-118.442848,34.0621097
-118.442914,34.0621344
-118.442992,34.0621586
-118.44307,34.0621876
-118.443147,34.0622193
-118.443236,34.0622455
-118.443321,34.0622788
-118.443396,34.0623076
-118.443452,34.0623307
-118.443489,34.0623456
-118.443528,34.0623597
-118.443569,34.0623708
-118.443593,34.062379
-118.443609,34.0623852
-118.443619,34.0623896
-118.443628,34.0623943
-118.443633,34.062397
-118.443649,34.06241
-118.44366,34.0624165
-118.443691,34.0624277
-118.443733,34.0624408
-118.443786,34.062459
-118.443911,34.0624958
-118.443978,34.0625244
-118.444051,34.0625484
-118.444117,34.0625697
-118.444199,34.0625869
-118.444286,34.0625884
-118.444384,34.0625905
-118.44447,34.0625905
-118.444555,34.0625883
-118.444628,34.0625872
-118.444681,34.0625861
-118.444723,34.0625838
-118.444743,34.0625814
-118.444752,34.0625798
-118.444752,34.0625798
-118.444748,34.0625823
-118.444745,34.0625826
-118.44474,34.0625826
-118.444738,34.062582
-118.444734,34.0625815
-118.444731,34.0625815
-118.44473,34.0625812
-118.444729,34.0625812
-118.444728,34.0625811
-118.444727,34.0625806
-118.444727,34.0625801
-118.444728,34.0625801
-118.444735,34.0625865
-118.444748,34.0625916
-118.444768,34.0625931
-118.444799,34.0625932
-118.44484,34.0625936
-118.444883,34.0625948
-118.444935,34.0625967
-118.444982,34.0625971
-118.445037,34.0626029
-118.445057,34.0626049
-118.445062,34.06261
-118.445057,34.06261
-118.445059,34.062609
-118.445059,34.0626082
-118.44506,34.0626082
-118.445061,34.0626089
-118.445065,34.0626092
-118.44507,34.0626109
-118.445074,34.0626109
-118.445079,34.0626109
-118.445084,34.0626106
-118.445087,34.0626106
-118.445098,34.0626085
-118.445109,34.0626078
-118.445121,34.0626078
-118.445132,34.0626083
-118.445171,34.0626112
-118.4452,34.0626136
-118.445255,34.0626343
-118.445294,34.0626453
-118.445332,34.0626811
-118.445346,34.0627019
-118.445356,34.0628602
-118.445356,34.0629369
-118.445364,34.0630179
-118.445364,34.0631044
-118.445361,34.0631838
-118.445361,34.0632543
-118.445377,34.0633058
-118.445377,34.0633589
-118.445388,34.0633685
-118.445389,34.0633963
-118.445391,34.0633982
-118.445395,34.063399
-118.445398,34.0633991
-118.445398,34.063399
-118.445403,34.0633986
-118.445404,34.0633981
-118.445405,34.0633976
-118.445405,34.0633976
-118.445406,34.0633976
-118.445408,34.0633968
-118.445408,34.0633967
-118.445406,34.0633967
-118.445406,34.0633967
-118.445406,34.0633966
-118.445406,34.0633966
-118.445406,34.0633966
-118.445406,34.0633966
-118.445406,34.0633966
-118.445406,34.0633965
-118.445406,34.0633965
-118.445406,34.0633965
-118.445406,34.0633965
-118.445406,34.0633965
-118.445406,34.0633965
-118.445406,34.0633965
-118.445406,34.0633965
-118.445406,34.0633965
-118.445406,34.0633965
-118.445406,34.0633965
-118.445406,34.0633965
-118.445406,34.0633965
-118.445406,34.0633965
-118.445406,34.063404
-118.445407,34.063422
-118.445409,34.0634364
-118.445409,34.0634492
-118.445409,34.0634554
-118.445409,34.0634629
-118.445409,34.0634674
-118.445409,34.0634684
-118.445409,34.063469
-118.445409,34.063471
-118.44541,34.0634715
-118.445411,34.063472
-118.445411,34.0634724
-118.44541,34.0634731
-118.44541,34.0634761
-118.44541,34.0634835
-118.445411,34.0634942
-118.445414,34.0635099
-118.445417,34.0635226
-118.44542,34.0635338
-118.445426,34.063544
-118.44544,34.0635602
-118.445467,34.0635787
-118.445573,34.0636253
-118.445653,34.0636415
-118.445749,34.0636426
-118.445855,34.0636426
-118.445972,34.0636426
-118.446089,34.0636452
-118.446222,34.0636467
-118.446358,34.0636467
-118.44649,34.0636467
-118.446623,34.0636467
-118.446758,34.0636529
-118.446893,34.0636587
-118.447034,34.0636668
-118.447173,34.0636668
-118.447304,34.0636655
-118.447432,34.0636655
-118.447558,34.0636656
-118.447672,34.0636674
-118.447768,34.0636721
-118.44786,34.063675
-118.447933,34.0636788
-118.447981,34.0636858
-118.448016,34.0636877
-118.448037,34.0636858
-118.448059,34.0636877
-118.448068,34.063689
-118.448072,34.063689
-118.448075,34.0636851
-118.448075,34.0636843
-118.448075,34.0636829
-118.448075,34.0636807
-118.448077,34.0636787
-118.448078,34.0636737
-118.44808,34.0636708
-118.448082,34.063665
-118.448085,34.0636602
-118.448086,34.0636555
-118.448086,34.0636555
-118.448086,34.0636511
-118.448086,34.0636511
-118.448085,34.0636516
-118.448085,34.0636518
-118.448085,34.0636519
-118.448085,34.0636519
-118.448085,34.0636519
-118.4481,34.063658
-118.448117,34.0636841
-118.448135,34.063708
-118.448136,34.0638363
-118.448137,34.0639199
-118.448137,34.0640049
-118.448127,34.0640887
-118.448113,34.0641787
-118.448076,34.0642425
-118.448053,34.0643005
-118.448049,34.0643405
-118.448048,34.0643696
-118.448024,34.0643814
-118.448021,34.0643868
-118.448021,34.0643925
-118.448025,34.064457
-118.448025,34.0645139
-118.44802,34.0645738
-118.447997,34.0646469
-118.447975,34.0647266
-118.44795,34.0648109
-118.447933,34.0649019
-118.447909,34.0649999
-118.447856,34.0651196
-118.447814,34.0652317
-118.447781,34.0653374
-118.447747,34.0654397
-118.447698,34.0655422
-118.447665,34.0656378
-118.44763,34.0657348
-118.447599,34.0658297
-118.447577,34.0659157
-118.44756,34.0660116
-118.447531,34.0660881
-118.447505,34.0661602
-118.447486,34.0662307
-118.447481,34.066286
-118.447463,34.0663259
-118.447455,34.0663417
-118.44745,34.0663417
-118.447447,34.0663426
-118.447445,34.0663426
-118.447445,34.0663446
-118.447447,34.0663486
-118.44745,34.0663494
-118.447453,34.0663544
-118.447458,34.0663597
-118.44746,34.0663639
-118.447461,34.0663663
-118.447463,34.0663707
-118.447463,34.0663722
-118.447463,34.0663729
-118.447463,34.0663731
-118.447463,34.0663731
-118.447463,34.0663731
-118.447463,34.0663731
-118.447463,34.0663731
-118.447463,34.0663731
-118.447463,34.066373
-118.447463,34.066373
-118.447463,34.066373
-118.447463,34.0663729
-118.447462,34.0663729
-118.447462,34.0663729
-118.447462,34.0663729
-118.447462,34.0663729
-118.447462,34.0663729
-118.447462,34.0663736
-118.447461,34.0663853
-118.447455,34.0664088
-118.447455,34.0664412
-118.447469,34.0664875
-118.447482,34.066546
-118.447507,34.0666108
-118.447533,34.0666781
-118.447595,34.0667554
-118.447662,34.0668289
-118.44774,34.0669052
-118.447827,34.0669746
-118.447917,34.0670484
-118.448006,34.0671287
-118.448098,34.067212
-118.44817,34.0673082
-118.448237,34.067396
-118.448305,34.0674781
-118.448364,34.0675795
-118.448414,34.0676832
-118.448478,34.0677823
-118.448545,34.0678814
-118.448618,34.0679781
-118.448695,34.0680637
-118.448747,34.0681617
-118.448795,34.0682409
-118.44884,34.0682951
-118.448873,34.0683391
-118.448903,34.0683648
-118.448918,34.0683849
-118.448928,34.0684067
-118.448944,34.0684325
-118.448982,34.0684571
-118.449022,34.0684747
-118.449082,34.0684747
-118.449132,34.0684497
-118.449182,34.0684192
-118.449225,34.068364
-118.449267,34.0682989
-118.449312,34.0682226
-118.449349,34.0681465
-118.449382,34.0680671
-118.449419,34.0679882
-118.449452,34.067896
-118.449496,34.0678054
-118.449538,34.0677195
-118.449583,34.0676378
-118.449628,34.0675559
-118.449676,34.0675022
-118.44971,34.0674465
-118.449711,34.0674273
-118.449732,34.0673979
-118.449739,34.0673771
-118.449739,34.0673771
-118.449739,34.0673771
-118.449739,34.0673786
-118.449739,34.0673804
-118.44974,34.0673814
-118.44974,34.0673814
-118.44974,34.0673812
-118.449742,34.0673805
-118.449745,34.0673793
-118.449755,34.067373
-118.449767,34.0673714
-118.449797,34.0673695
-118.449826,34.0673695
-118.449887,34.0674029
-118.449936,34.0674327
-118.450011,34.0674877
-118.450073,34.0675535
-118.450129,34.0676162
-118.450187,34.067675
-118.450245,34.0677379
-118.450299,34.0677984
-118.450364,34.0678529
-118.450416,34.0679039
-118.450467,34.0679486
-118.450512,34.0679986
-118.450559,34.0680496
-118.450613,34.0680977
-118.450667,34.0681539
-118.450723,34.0682063
-118.450783,34.068266
-118.450835,34.068327
-118.450886,34.0683839
-118.450935,34.0684442
-118.450993,34.0685075
-118.451058,34.0685763
-118.451123,34.0686495
-118.451223,34.0687091
-118.451307,34.0687797
-118.451384,34.0688478
-118.451449,34.0689255
-118.451517,34.0690039
-118.451616,34.0690565
-118.451687,34.0691363
-118.451787,34.0691985
-118.451881,34.0692632
-118.451957,34.0693284
-118.452048,34.0693865
-118.45213,34.0694389
-118.452221,34.0694862
-118.45232,34.0695174
-118.452396,34.0695621
-118.452484,34.0695856
-118.452565,34.0696263
-118.452632,34.069696
-118.452697,34.069759
-118.452759,34.0698205
-118.452816,34.0698806
-118.452866,34.0699475
-118.452914,34.0700253
-118.452968,34.0700869
-118.453027,34.0701463
-118.453082,34.0701983
-118.453123,34.070246
-118.453147,34.0702935
-118.453161,34.0703348
-118.453191,34.0703593
-118.453205,34.0703815
-118.453205,34.0703985
-118.453202,34.0704058
-118.453187,34.07041
-118.453186,34.07041
-118.453186,34.070406
-118.453186,34.070406
-118.453186,34.070406
-118.453192,34.070406
-118.453193,34.0704092
-118.453199,34.0704297
-118.453234,34.0704592
-118.453291,34.0704656
-118.453329,34.070472
-118.453406,34.070472
-118.453487,34.0704461
-118.453593,34.0704164
-118.453709,34.0703869
-118.453822,34.0703617
-118.45392,34.0703599
-118.454044,34.0703599
-118.454126,34.0703726
-118.454207,34.0703726
-118.454274,34.0703625
-118.454358,34.0703618
-118.45443,34.0703546
-118.454534,34.0703546
-118.454647,34.0703572
-118.454754,34.0703606
-118.454838,34.0703606
-118.454909,34.0703606
-118.454955,34.0703873
-118.454992,34.0704235
-118.45501,34.0704831
-118.455018,34.0705549
-118.455035,34.0706324
-118.455035,34.0707337
-118.455049,34.0708343
-118.455056,34.0709507
-118.45507,34.071074
-118.455084,34.0711965
-118.455098,34.0713266
-118.455115,34.0714581
-118.455132,34.0715992
-118.455151,34.0717427
-118.455158,34.0718943
-118.455177,34.072034
-118.455199,34.0721828
-118.455222,34.0723339
-118.455244,34.0724908
-118.455264,34.0726507
-118.455283,34.0728093
-118.455309,34.0729688
-118.455321,34.0731446
-118.455334,34.073311
-118.455342,34.0734854
-118.455356,34.0736495
-118.45536,34.0738175
-118.455372,34.0739804
-118.455385,34.0741379
-118.455407,34.0742947
-118.45542,34.0744463
-118.455428,34.0745853
-118.455436,34.0747275
-118.455453,34.0748581
-118.455462,34.0749833
-118.45547,34.0750753
-118.455474,34.0751557
-118.455476,34.0752255
-118.455485,34.0752499
-118.455488,34.0752671
-118.455489,34.075279
-118.455489,34.0752795
-118.455492,34.0752816
-118.455494,34.0752837
-118.455496,34.0752869
-118.455497,34.0752889
-118.455498,34.0752918
-118.455501,34.0752944
-118.455502,34.0752968
-118.455502,34.0752968
-118.455503,34.0753015
-118.455503,34.0753015
-118.455504,34.0753021
-118.455504,34.0753021
-118.455504,34.0753021
-118.455504,34.0753021
-118.455504,34.0753021
-118.455504,34.0753021
-118.455504,34.075302
-118.455504,34.075302
-118.455504,34.075302
-118.455504,34.075302
-118.455504,34.0753019
-118.455504,34.0753019
-118.455504,34.0753019
-118.455504,34.0753019
-118.455504,34.0753019
-118.455504,34.0753019
-118.455504,34.0753018
-118.455504,34.0753018
-118.455504,34.0753018
-118.455504,34.0753018
-118.455504,34.0753018
-118.455504,34.0753018
-118.455504,34.0753018
-118.455504,34.0753018
-118.455504,34.0753018
-118.455504,34.0753018
-118.455504,34.0753018
-118.455504,34.0753018
-118.455504,34.0753018
-118.455504,34.0753018
-118.455504,34.0753018
-118.455504,34.0753018
-118.455504,34.0753019
-118.455504,34.0753019
-118.455504,34.0753019
-118.455504,34.0753018
-118.455504,34.0753018
-118.455504,34.0753018
-118.455504,34.0753018
-118.455504,34.0753018
-118.455504,34.0753018
-118.455504,34.0753018
-118.455504,34.0753018
-118.455504,34.0753018
-118.455504,34.0753018
-118.455504,34.0753018
-118.455504,34.0753018
-118.455504,34.0753018
-118.455504,34.0753018
-118.455504,34.0753018
-118.455504,34.0753018
-118.455504,34.0753018
-118.455504,34.0753018
-118.455504,34.0753018
-118.455504,34.0753018
-118.455504,34.0753018
-118.455504,34.0753018
-118.455504,34.0753018
-118.455504,34.0753018
-118.455504,34.0753018
-118.455504,34.0753018
-118.455504,34.0753018
-118.455504,34.0753018
-118.455504,34.0753018
-118.455504,34.0753018
-118.455504,34.0753018
-118.455504,34.0753018
-118.455504,34.0753018
-118.455503,34.0753018
-118.455503,34.0753018
-118.455503,34.0753018
-118.455503,34.0753018
-118.455503,34.0753018
-118.455503,34.0753018
-118.455503,34.0753018
-118.455503,34.0753018
-118.455503,34.0753018
-118.455503,34.0753039
-118.455502,34.0753142
-118.455502,34.0753251
-118.455502,34.0753635
-118.455502,34.0754035
-118.455502,34.0754438
-118.455505,34.0754863
-118.455519,34.0755403
-118.455525,34.0755965
-118.455546,34.0756433
-118.455567,34.075694
-118.455637,34.0757131
-118.455687,34.0757131
-118.455745,34.0757029
-118.455807,34.0756605
-118.455878,34.0756073
-118.455953,34.075541
-118.45604,34.0754713
-118.456133,34.0753929
-118.456231,34.0753086
-118.456338,34.075218
-118.456453,34.0751184
-118.456572,34.0750139
-118.456698,34.0749095
-118.456825,34.0748085
-118.456951,34.0747081
-118.457079,34.0745963
-118.457215,34.0744914
-118.457353,34.0744098
-118.457497,34.0743516
-118.457642,34.0742937
-118.45781,34.0742937
-118.457974,34.0742949
-118.458147,34.0743202
-118.458314,34.0743643
-118.458475,34.0744198
-118.458643,34.0744645
-118.458813,34.0744813
-118.458985,34.0744813
-118.459159,34.0744377
-118.45933,34.0743971
-118.459471,34.0742981
-118.459594,34.0741976
-118.459707,34.074097
-118.459827,34.0740019
-118.459912,34.0739103
-118.460019,34.0738271
-118.460132,34.0737402
-118.460245,34.0736536
-118.460377,34.0735422
-118.460516,34.0734353
-118.460653,34.0733288
-118.460793,34.0732297
-118.460943,34.0731381
-118.461149,34.0730834
-118.461347,34.0730441
-118.461568,34.0730408
-118.461755,34.0730441
-118.461962,34.0730551
-118.462162,34.0730939
-118.462348,34.0731684
-118.462541,34.0732501
-118.462703,34.0733641
-118.46287,34.0734561
-118.46303,34.0735448
-118.463137,34.0736619
-118.463223,34.0737943
-118.463339,34.0738922
-118.463484,34.0739537
-118.463604,34.0740061
-118.463723,34.074038
-118.463821,34.0740555
-118.463895,34.0740575
-118.463946,34.074061
-118.463964,34.074061
-118.463969,34.0740615
-118.463969,34.0740609
